v -475 113.569 1188
v -475 109.709 1186
v -475 106.679 1184
v -475 101.183 1182
v -475 97.3548 1180
v -475 94.3052 1178
v -475 93.1158 1176
v -475 92.4719 1174
v -475 91.5772 1172
v -475 91.1349 1170
v -475 92.2804 1168
v -475 95.1437 1166
v -475 98.6192 1164
v -475 102.606 1162
v -475 107.206 1160
v -475 108.845 1158
v -475 110.63 1156
v -475 112.025 1154
v -475 112.722 1152
v -475 111.717 1150
v -475 108.872 1148
v -475 106.676 1146
v -475 105.918 1144
v -475 105.308 1142
v -475 103.905 1140
v -475 101.988 1138
v -475 96.9468 1136
v -475 91.7016 1134
v -475 85.2701 1132
v -475 82.8496 1130
v -475 78.8695 1128
v -475 75.5153 1126
v -473 114.543 1188
v -473 111.494 1186
v -473 108.858 1184
v -473 105.237 1182
v -473 100.415 1180
v -473 96.7693 1178
v -473 93.9069 1176
v -473 92.581 1174
v -473 91.8778 1172
v -473 90.9915 1170
v -473 90.1481 1168
v -473 90.5539 1166
v -473 92.5535 1164
v -473 95.8578 1162
v -473 98.7098 1160
v -473 102.5 1158
v -473 105.257 1156
v -473 106.361 1154
v -473 106.61 1152
v -473 106.255 1150
v -473 105.112 1148
v -473 103.911 1146
v -473 102.63 1144
v -473 100.606 1142
v -473 95.9546 1140
v -473 92.7598 1138
v -473 87.0678 1136
v -473 84.0165 1134
v -473 81.1687 1132
v -473 77.8023 1130
v -473 75.0791 1128
v -473 72.4854 1126
v -471 115.897 1188
v -471 112.131 1186
v -471 110.581 1184
v -471 108.729 1182
v -471 104.951 1180
v -471 100.428 1178
v -471 96.9688 1176
v -471 93.8793 1174
v -471 92.0074 1172
v -471 91.2025 1170
v -471 90.3674 1168
v -471 89.3509 1166
v -471 88.8747 1164
v -471 89.6716 1162
v -471 91.8905 1160
v -471 94.5948 1158
v -471 96.7216 1156
v -471 97.6267 1154
v -471 98.1475 1152
v -471 98.011 1150
v -471 96.8241 1148
v -471 95.3887 1146
v -471 93.4621 1144
v -471 89.8625 1142
v -471 86.3703 1140
v -471 84.2072 1138
v -471 81.91 1136
v -471 79.1557 1134
v -471 76.6415 1132
v -471 74.6722 1130
v -471 73.0461 1128
v -471 72.247 1126
v -469 120.251 1188
v -469 113.029 1186
v -469 111.971 1184
v -469 111.315 1182
v -469 109.185 1180
v -469 105.93 1178
v -469 101.295 1176
v -469 97.9209 1174
v -469 94.3694 1172
v -469 91.8675 1170
v -469 90.4107 1168
v -469 89.646 1166
v -469 88.7474 1164
v -469 87.7197 1162
v -469 87.5172 1160
v -469 88.203 1158
v -469 89.1695 1156
v -469 89.997 1154
v -469 90.2447 1152
v -469 89.6827 1150
v -469 88.5261 1148
v -469 87.0292 1146
v -469 85.6012 1144
v -469 83.9117 1142
v -469 81.6486 1140
v -469 79.5388 1138
v -469 77.6449 1136
v -469 76.1358 1134
v -469 75.0328 1132
v -469 74.3042 1130
v -469 73.585 1128
v -469 72.8802 1126
v -467 125.406 1188
v -467 120.007 1186
v -467 114.81 1184
v -467 113.662 1182
v -467 113.264 1180
v -467 110.019 1178
v -467 107.458 1176
v -467 103.856 1174
v -467 99.3371 1172
v -467 96.2005 1170
v -467 92.7466 1168
v -467 90.1625 1166
v -467 88.7407 1164
v -467 88.0699 1162
v -467 87.2032 1160
v -467 86.2762 1158
v -467 85.6528 1156
v -467 85.3458 1154
v -467 84.9549 1152
v -467 84.2808 1150
v -467 83.424 1148
v -467 82.4043 1146
v -467 81.207 1144
v -467 79.9198 1142
v -467 78.7144 1140
v -467 77.7879 1138
v -467 77.0816 1136
v -467 76.3581 1134
v -467 75.6201 1132
v -467 74.8898 1130
v -467 74.1785 1128
v -467 73.6644 1126
v -465 128.857 1188
v -465 126.398 1186
v -465 122.744 1184
v -465 118.947 1182
v -465 115.337 1180
v -465 113.649 1178
v -465 110.439 1176
v -465 107.803 1174
v -465 106.447 1172
v -465 103.382 1170
v -465 98.6772 1168
v -465 94.9389 1166
v -465 90.6982 1164
v -465 88.4465 1162
v -465 87.2671 1160
v -465 86.5918 1158
v -465 85.7763 1156
v -465 84.9233 1154
v -465 84.0704 1152
v -465 83.2174 1150
v -465 82.3844 1148
v -465 81.5741 1146
v -465 80.7748 1144
v -465 79.9843 1142
v -465 79.2028 1140
v -465 78.4222 1138
v -465 77.6377 1136
v -465 76.8662 1134
v -465 76.3194 1132
v -465 76.1977 1130
v -465 76.429 1128
v -465 76.9341 1126
v -463 129.003 1188
v -463 128.859 1186
v -463 128.042 1184
v -463 125.868 1182
v -463 122.853 1180
v -463 118.868 1178
v -463 113.506 1176
v -463 110.08 1174
v -463 109.223 1172
v -463 107.876 1170
v -463 105.954 1168
v -463 103.401 1166
v -463 98.378 1164
v -463 93.8728 1162
v -463 89.5146 1160
v -463 87.655 1158
v -463 86.4399 1156
v -463 85.3648 1154
v -463 84.422 1152
v -463 83.5875 1150
v -463 82.7863 1148
v -463 82.0021 1146
v -463 81.2246 1144
v -463 80.5105 1142
v -463 79.9301 1140
v -463 79.568 1138
v -463 79.5301 1136
v -463 79.8736 1134
v -463 80.5276 1132
v -463 81.2776 1130
v -463 81.8987 1128
v -463 82.5294 1126
v -461 128.822 1188
v -461 128.668 1186
v -461 128.495 1184
v -461 128.305 1182
v -461 127.947 1180
v -461 126.562 1178
v -461 124.029 1176
v -461 120.185 1174
v -461 115.591 1172
v -461 110.647 1170
v -461 109.014 1168
v -461 107 1166
v -461 104.761 1164
v -461 103.251 1162
v -461 98.4754 1160
v -461 94.4683 1158
v -461 91.4184 1156
v -461 89.4089 1154
v -461 87.7141 1152
v -461 86.4258 1150
v -461 85.6153 1148
v -461 85.181 1146
v -461 84.9785 1144
v -461 84.9149 1142
v -461 84.9116 1140
v -461 85.0053 1138
v -461 85.4728 1136
v -461 86.4664 1134
v -461 87.8534 1132
v -461 88.8197 1130
v -461 89.4643 1128
v -461 90.5953 1126
v -459 128.627 1188
v -459 128.463 1186
v -459 128.281 1184
v -459 128.082 1182
v -459 127.87 1180
v -459 127.646 1178
v -459 127.414 1176
v -459 127.153 1174
v -459 125.986 1172
v -459 123.476 1170
v -459 119.648 1168
v -459 113.919 1166
v -459 107.072 1164
v -459 105.977 1162
v -459 104.846 1160
v -459 103.962 1158
v -459 101.337 1156
v -459 98.1429 1154
v -459 95.9598 1152
v -459 94.5307 1150
v -459 93.4955 1148
v -459 92.9413 1146
v -459 92.9898 1144
v -459 93.3212 1142
v -459 93.6944 1140
v -459 93.9636 1138
v -459 94.6756 1136
v -459 95.7427 1134
v -459 97.5209 1132
v -459 99.2447 1130
v -459 100.68 1128
v -459 101.729 1126
v -457 128.418 1188
v -457 128.244 1186
v -457 128.053 1184
v -457 127.846 1182
v -457 127.626 1180
v -457 127.397 1178
v -457 127.162 1176
v -457 126.926 1174
v -457 126.69 1172
v -457 126.456 1170
v -457 126.227 1168
v -457 125.379 1166
v -457 122.051 1164
v -457 116.076 1162
v -457 108.687 1160
v -457 108.205 1158
v -457 108.199 1156
v -457 106.589 1154
v -457 104.639 1152
v -457 103.726 1150
v -457 103.268 1148
v -457 103.032 1146
v -457 103.092 1144
v -457 103.416 1142
v -457 103.443 1140
v -457 103.526 1138
v -457 104.058 1136
v -457 105.196 1134
v -457 106.828 1132
v -457 108.15 1130
v -457 108.96 1128
v -457 109.205 1126
v -455 128.198 1188
v -455 128.014 1186
v -455 127.813 1184
v -455 127.598 1182
v -455 127.371 1180
v -455 127.139 1178
v -455 126.904 1176
v -455 126.668 1174
v -455 126.434 1172
v -455 126.203 1170
v -455 125.979 1168
v -455 125.762 1166
v -455 125.553 1164
v -455 125.35 1162
v -455 122.864 1160
v -455 118.288 1158
v -455 113.949 1156
v -455 110.213 1154
v -455 108.178 1152
v -455 107.799 1150
v -455 107.76 1148
v -455 107.772 1146
v -455 108.032 1144
v -455 108.579 1142
v -455 109.225 1140
v -455 110.42 1138
v -455 112.259 1136
v -455 113.867 1134
v -455 114.529 1132
v -455 115.28 1130
v -455 115.854 1128
v -455 116.25 1126
v -453 127.968 1188
v -453 127.773 1186
v -453 127.562 1184
v -453 127.34 1182
v -453 127.11 1180
v -453 126.875 1178
v -453 126.64 1176
v -453 126.405 1174
v -453 126.173 1172
v -453 125.946 1170
v -453 125.726 1168
v -453 125.514 1166
v -453 125.313 1164
v -453 125.123 1162
v -453 124.945 1160
v -453 124.781 1158
v -453 124.119 1156
v -453 122.206 1154
v -453 120.17 1152
v -453 118.785 1150
v -453 117.92 1148
v -453 117.255 1146
v -453 116.935 1144
v -453 117.252 1142
v -453 118.328 1140
v -453 119.604 1138
v -453 120.638 1136
v -453 121.351 1134
v -453 121.841 1132
v -453 122.189 1130
v -453 122.492 1128
v -453 122.783 1126
v -451 127.728 1188
v -451 127.523 1186
v -451 127.304 1184
v -451 127.077 1182
v -451 126.844 1180
v -451 126.608 1178
v -451 126.372 1176
v -451 126.138 1174
v -451 125.909 1172
v -451 125.685 1170
v -451 125.47 1168
v -451 125.264 1166
v -451 125.07 1164
v -451 124.887 1162
v -451 124.719 1160
v -451 124.564 1158
v -451 124.425 1156
v -451 124.302 1154
v -451 124.196 1152
v -451 124.107 1150
v -451 124.035 1148
v -451 123.972 1146
v -451 123.914 1144
v -451 123.896 1142
v -451 123.917 1140
v -451 123.952 1138
v -451 123.993 1136
v -451 124.052 1134
v -451 124.13 1132
v -451 124.227 1130
v -451 124.342 1128
v -451 124.475 1126
v -449 127.482 1188
v -449 127.268 1186
v -449 127.043 1184
v -449 126.812 1182
v -449 126.576 1180
v -449 126.339 1178
v -449 126.103 1176
v -449 125.87 1174
v -449 125.643 1172
v -449 125.423 1170
v -449 125.213 1168
v -449 125.013 1166
v -449 124.826 1164
v -449 124.651 1162
v -449 124.491 1160
v -449 124.347 1158
v -449 124.218 1156
v -449 124.106 1154
v -449 124.011 1152
v -449 123.935 1150
v -449 123.876 1148
v -449 123.836 1146
v -449 123.815 1144
v -449 123.813 1142
v -449 123.83 1140
v -449 123.867 1138
v -449 123.923 1136
v -449 123.997 1134
v -449 124.091 1132
v -449 124.204 1130
v -449 124.335 1128
v -449 124.485 1126
v -447 127.233 1188
v -447 127.011 1186
v -447 126.782 1184
v -447 126.546 1182
v -447 126.307 1180
v -447 126.069 1178
v -447 125.833 1176
v -447 125.602 1174
v -447 125.377 1172
v -447 125.162 1170
v -447 124.956 1168
v -447 124.762 1166
v -447 124.582 1164
v -447 124.415 1162
v -447 124.264 1160
v -447 124.129 1158
v -447 124.01 1156
v -447 123.91 1154
v -447 123.827 1152
v -447 123.762 1150
v -447 123.717 1148
v -447 123.69 1146
v -447 123.683 1144
v -447 123.696 1142
v -447 123.728 1140
v -447 123.779 1138
v -447 123.85 1136
v -447 123.941 1134
v -447 124.051 1132
v -447 124.18 1130
v -447 124.328 1128
v -447 124.494 1126
v -445 126.984 1188
v -445 126.756 1186
v -445 126.521 1184
v -445 126.281 1182
v -445 126.04 1180
v -445 125.801 1178
v -445 125.565 1176
v -445 125.335 1174
v -445 125.114 1172
v -445 124.902 1170
v -445 124.701 1168
v -445 124.513 1166
v -445 124.339 1164
v -445 124.181 1162
v -445 124.038 1160
v -445 123.912 1158
v -445 123.804 1156
v -445 123.714 1154
v -445 123.643 1152
v -445 123.59 1150
v -445 123.557 1148
v -445 123.544 1146
v -445 123.551 1144
v -445 123.577 1142
v -445 123.624 1140
v -445 123.69 1138
v -445 123.777 1136
v -445 123.883 1134
v -445 124.009 1132
v -445 124.154 1130
v -445 124.318 1128
v -445 124.5 1126
v -443 126.738 1188
v -443 126.503 1186
v -443 126.263 1184
v -443 126.02 1182
v -443 125.777 1180
v -443 125.536 1178
v -443 125.301 1176
v -443 125.072 1174
v -443 124.853 1172
v -443 124.645 1170
v -443 124.449 1168
v -443 124.267 1166
v -443 124.1 1164
v -443 123.948 1162
v -443 123.814 1160
v -443 123.698 1158
v -443 123.599 1156
v -443 123.52 1154
v -443 123.459 1152
v -443 123.419 1150
v -443 123.398 1148
v -443 123.398 1146
v -443 123.418 1144
v -443 123.458 1142
v -443 123.519 1140
v -443 123.6 1138
v -443 123.702 1136
v -443 123.823 1134
v -443 123.965 1132
v -443 124.126 1130
v -443 124.306 1128
v -443 124.504 1126
v -441 126.495 1188
v -441 126.255 1186
v -441 126.01 1184
v -441 125.763 1182
v -441 125.517 1180
v -441 125.276 1178
v -441 125.041 1176
v -441 124.814 1174
v -441 124.597 1172
v -441 124.392 1170
v -441 124.201 1168
v -441 124.025 1166
v -441 123.864 1164
v -441 123.72 1162
v -441 123.594 1160
v -441 123.486 1158
v -441 123.397 1156
v -441 123.328 1154
v -441 123.278 1152
v -441 123.249 1150
v -441 123.24 1148
v -441 123.252 1146
v -441 123.285 1144
v -441 123.339 1142
v -441 123.413 1140
v -441 123.509 1138
v -441 123.625 1136
v -441 123.762 1134
v -441 123.919 1132
v -441 124.095 1130
v -441 124.291 1128
v -441 124.505 1126
v -439 126.248 1188
v -439 125.939 1186
v -439 125.536 1184
v -439 124.96 1182
v -439 124.24 1180
v -439 123.592 1178
v -439 123.184 1176
v -439 122.957 1174
v -439 122.902 1172
v -439 123.086 1170
v -439 123.44 1168
v -439 123.71 1166
v -439 123.633 1164
v -439 123.496 1162
v -439 123.378 1160
v -439 123.278 1158
v -439 123.198 1156
v -439 123.139 1154
v -439 123.099 1152
v -439 123.081 1150
v -439 123.084 1148
v -439 123.107 1146
v -439 123.153 1144
v -439 123.219 1142
v -439 123.307 1140
v -439 123.417 1138
v -439 123.547 1136
v -439 123.698 1134
v -439 123.87 1132
v -439 124.061 1130
v -439 124.272 1128
v -439 124.502 1126
v -437 125.511 1188
v -437 124.829 1186
v -437 123.816 1184
v -437 122.289 1182
v -437 120.496 1180
v -437 119.219 1178
v -437 118.726 1176
v -437 118.503 1174
v -437 118.256 1172
v -437 118.293 1170
v -437 118.648 1168
v -437 119.752 1166
v -437 121.223 1164
v -437 122.619 1162
v -437 123.167 1160
v -437 123.075 1158
v -437 123.004 1156
v -437 122.953 1154
v -437 122.924 1152
v -437 122.916 1150
v -437 122.929 1148
v -437 122.964 1146
v -437 123.021 1144
v -437 123.1 1142
v -437 123.201 1140
v -437 123.323 1138
v -437 123.467 1136
v -437 123.632 1134
v -437 123.818 1132
v -437 124.024 1130
v -437 124.25 1128
v -437 124.495 1126
v -435 124.26 1188
v -435 123.317 1186
v -435 121.886 1184
v -435 119.754 1182
v -435 116.498 1180
v -435 114.278 1178
v -435 113.616 1176
v -435 113.115 1174
v -435 113.722 1172
v -435 113.91 1170
v -435 113.82 1168
v -435 114.555 1166
v -435 115.814 1164
v -435 117.804 1162
v -435 120.346 1160
v -435 121.993 1158
v -435 122.66 1156
v -435 122.772 1154
v -435 122.752 1152
v -435 122.753 1150
v -435 122.777 1148
v -435 122.823 1146
v -435 122.891 1144
v -435 122.981 1142
v -435 123.094 1140
v -435 123.229 1138
v -435 123.386 1136
v -435 123.564 1134
v -435 123.763 1132
v -435 123.983 1130
v -435 124.223 1128
v -435 124.482 1126
v -433 123.189 1188
v -433 122.501 1186
v -433 120.137 1184
v -433 116.42 1182
v -433 111.406 1180
v -433 107.383 1178
v -433 108.323 1176
v -433 109.088 1174
v -433 110.525 1172
v -433 110.726 1170
v -433 109.218 1168
v -433 109.285 1166
v -433 109.841 1164
v -433 112.507 1162
v -433 116.568 1160
v -433 118.44 1158
v -433 119.45 1156
v -433 120.387 1154
v -433 121.283 1152
v -433 121.975 1150
v -433 122.405 1148
v -433 122.649 1146
v -433 122.762 1144
v -433 122.863 1142
v -433 122.987 1140
v -433 123.133 1138
v -433 123.302 1136
v -433 123.493 1134
v -433 123.705 1132
v -433 123.938 1130
v -433 124.192 1128
v -433 124.464 1126
v -431 122.784 1188
v -431 120.772 1186
v -431 118.345 1184
v -431 112.691 1182
v -431 106.019 1180
v -431 105.128 1178
v -431 105.264 1176
v -431 105.466 1174
v -431 107.399 1172
v -431 109.045 1170
v -431 109.295 1168
v -431 107.647 1166
v -431 106.369 1164
v -431 108.302 1162
v -431 112.425 1160
v -431 115.245 1158
v -431 115.757 1156
v -431 116.363 1154
v -431 116.399 1152
v -431 117.231 1150
v -431 118.268 1148
v -431 119.189 1146
v -431 120.192 1144
v -431 121.202 1142
v -431 122.006 1140
v -431 122.591 1138
v -431 123.054 1136
v -431 123.403 1134
v -431 123.644 1132
v -431 123.889 1130
v -431 124.155 1128
v -431 124.44 1126
v -429 121.474 1188
v -429 119.369 1186
v -429 117.139 1184
v -429 110.448 1182
v -429 106.285 1180
v -429 105.155 1178
v -429 103.613 1176
v -429 103.216 1174
v -429 104.613 1172
v -429 106.607 1170
v -429 106.991 1168
v -429 106.345 1166
v -429 107.421 1164
v -429 108.563 1162
v -429 109.682 1160
v -429 111.456 1158
v -429 111.275 1156
v -429 111.307 1154
v -429 110.806 1152
v -429 111.307 1150
v -429 111.549 1148
v -429 113.07 1146
v -429 115.07 1144
v -429 117.08 1142
v -429 118.493 1140
v -429 119.71 1138
v -429 120.733 1136
v -429 121.749 1134
v -429 122.728 1132
v -429 123.465 1130
v -429 124.03 1128
v -429 124.408 1126
v -427 123.207 1188
v -427 120.466 1186
v -427 117.44 1184
v -427 111.456 1182
v -427 109.205 1180
v -427 107.335 1178
v -427 104.972 1176
v -427 103.547 1174
v -427 103.926 1172
v -427 104.745 1170
v -427 105.507 1168
v -427 104.958 1166
v -427 106.023 1164
v -427 108.222 1162
v -427 109.749 1160
v -427 108.152 1158
v -427 106.405 1156
v -427 105.836 1154
v -427 106.854 1152
v -427 105.043 1150
v -427 103.352 1148
v -427 103.409 1146
v -427 105.855 1144
v -427 109.396 1142
v -427 112.014 1140
v -427 114.455 1138
v -427 116.132 1136
v -427 118.063 1134
v -427 119.7 1132
v -427 120.957 1130
v -427 122.338 1128
v -427 123.657 1126
v -425 124.124 1188
v -425 121.584 1186
v -425 118.934 1184
v -425 113.98 1182
v -425 112.165 1180
v -425 110.472 1178
v -425 107.808 1176
v -425 105.099 1174
v -425 105.504 1172
v -425 105.219 1170
v -425 105.325 1168
v -425 104.275 1166
v -425 105.289 1164
v -425 107.6 1162
v -425 108.624 1160
v -425 107.716 1158
v -425 106.336 1156
v -425 106.637 1154
v -425 106.846 1152
v -425 105.146 1150
v -425 101.822 1148
v -425 100.482 1146
v -425 101.653 1144
v -425 104.234 1142
v -425 106.223 1140
v -425 108 1138
v -425 108.434 1136
v -425 110.691 1134
v -425 113.61 1132
v -425 116.638 1130
v -425 119.475 1128
v -425 121.778 1126
v -423 124.792 1188
v -423 123.794 1186
v -423 119.599 1184
v -423 117.262 1182
v -423 113.502 1180
v -423 112.824 1178
v -423 110.064 1176
v -423 108.355 1174
v -423 107.513 1172
v -423 106.473 1170
v -423 106.079 1168
v -423 104.167 1166
v -423 106.012 1164
v -423 107.608 1162
v -423 108.81 1160
v -423 108.325 1158
v -423 107.295 1156
v -423 107.156 1154
v -423 106.14 1152
v -423 103.608 1150
v -423 100.433 1148
v -423 98.8237 1146
v -423 98.956 1144
v -423 99.8434 1142
v -423 101.327 1140
v -423 103.424 1138
v -423 105.869 1136
v -423 106.631 1134
v -423 106.859 1132
v -423 111.732 1130
v -423 116.781 1128
v -423 120.074 1126
v -421 124.685 1188
v -421 124.046 1186
v -421 120.115 1184
v -421 118.024 1182
v -421 114.62 1180
v -421 113.274 1178
v -421 112.18 1176
v -421 110.067 1174
v -421 109.617 1172
v -421 109.034 1170
v -421 106.842 1168
v -421 106.597 1166
v -421 106.32 1164
v -421 106.8 1162
v -421 108.72 1160
v -421 108.892 1158
v -421 107.99 1156
v -421 106.884 1154
v -421 104.024 1152
v -421 101.933 1150
v -421 99.3021 1148
v -421 98.0079 1146
v -421 97.904 1144
v -421 98.2681 1142
v -421 98.9233 1140
v -421 100.227 1138
v -421 102.75 1136
v -421 105.393 1134
v -421 108.219 1132
v -421 110.372 1130
v -421 114.794 1128
v -421 117.862 1126
v -419 124.601 1188
v -419 124.296 1186
v -419 122.061 1184
v -419 120.668 1182
v -419 116.165 1180
v -419 113.465 1178
v -419 112.871 1176
v -419 112.629 1174
v -419 111.145 1172
v -419 110.215 1170
v -419 109.16 1168
v -419 107.761 1166
v -419 107.375 1164
v -419 109.026 1162
v -419 109.49 1160
v -419 110.086 1158
v -419 109.151 1156
v -419 107.998 1154
v -419 104.328 1152
v -419 100.956 1150
v -419 98.8865 1148
v -419 98.2067 1146
v -419 98.3493 1144
v -419 98.6093 1142
v -419 98.7231 1140
v -419 99.5496 1138
v -419 101.517 1136
v -419 104.384 1134
v -419 108.002 1132
v -419 111.741 1130
v -419 112.875 1128
v -419 115.244 1126
v -417 124.272 1188
v -417 124.229 1186
v -417 122.861 1184
v -417 119.208 1182
v -417 115.316 1180
v -417 112.022 1178
v -417 111.261 1176
v -417 111.469 1174
v -417 111.979 1172
v -417 111.831 1170
v -417 110.815 1168
v -417 108.363 1166
v -417 107.238 1164
v -417 107.028 1162
v -417 107.776 1160
v -417 107.867 1158
v -417 108.207 1156
v -417 107.992 1154
v -417 105.138 1152
v -417 101.943 1150
v -417 100.146 1148
v -417 99.3835 1146
v -417 99.4986 1144
v -417 99.7996 1142
v -417 99.6706 1140
v -417 99.9841 1138
v -417 100.829 1136
v -417 104.01 1134
v -417 107.576 1132
v -417 111.407 1130
v -417 111.876 1128
v -417 112.788 1126
v -415 124.508 1188
v -415 124.189 1186
v -415 123.539 1184
v -415 118.529 1182
v -415 113.936 1180
v -415 109.933 1178
v -415 108.359 1176
v -415 109.001 1174
v -415 111.053 1172
v -415 111.784 1170
v -415 111.453 1168
v -415 109.956 1166
v -415 107.397 1164
v -415 105.313 1162
v -415 104.962 1160
v -415 103.985 1158
v -415 105.482 1156
v -415 107.741 1154
v -415 107.097 1152
v -415 104.569 1150
v -415 101.866 1148
v -415 100.974 1146
v -415 100.788 1144
v -415 101.368 1142
v -415 101.421 1140
v -415 101.279 1138
v -415 102.268 1136
v -415 103.427 1134
v -415 106.493 1132
v -415 109.938 1130
v -415 110.582 1128
v -415 111.605 1126
v -413 124.502 1188
v -413 124.176 1186
v -413 120.352 1184
v -413 117.512 1182
v -413 111.112 1180
v -413 107.893 1178
v -413 105.69 1176
v -413 106.809 1174
v -413 110.285 1172
v -413 111.775 1170
v -413 111.678 1168
v -413 110.424 1166
v -413 107.312 1164
v -413 104.788 1162
v -413 104.011 1160
v -413 102.42 1158
v -413 102.852 1156
v -413 106.747 1154
v -413 109.297 1152
v -413 107.787 1150
v -413 104.706 1148
v -413 102.453 1146
v -413 102.487 1144
v -413 102.76 1142
v -413 103.692 1140
v -413 103.803 1138
v -413 105.211 1136
v -413 104.873 1134
v -413 107.549 1132
v -413 108.938 1130
v -413 109.418 1128
v -413 110.497 1126
f 34 2 1
f 1 33 34
f 66 34 33
f 33 65 66
f 98 66 65
f 65 97 98
f 130 98 97
f 97 129 130
f 162 130 129
f 129 161 162
f 194 162 161
f 161 193 194
f 226 194 193
f 193 225 226
f 258 226 225
f 225 257 258
f 290 258 257
f 257 289 290
f 322 290 289
f 289 321 322
f 354 322 321
f 321 353 354
f 386 354 353
f 353 385 386
f 418 386 385
f 385 417 418
f 450 418 417
f 417 449 450
f 482 450 449
f 449 481 482
f 514 482 481
f 481 513 514
f 546 514 513
f 513 545 546
f 578 546 545
f 545 577 578
f 610 578 577
f 577 609 610
f 642 610 609
f 609 641 642
f 674 642 641
f 641 673 674
f 706 674 673
f 673 705 706
f 738 706 705
f 705 737 738
f 770 738 737
f 737 769 770
f 802 770 769
f 769 801 802
f 834 802 801
f 801 833 834
f 866 834 833
f 833 865 866
f 898 866 865
f 865 897 898
f 930 898 897
f 897 929 930
f 962 930 929
f 929 961 962
f 994 962 961
f 961 993 994
f 35 3 2
f 2 34 35
f 67 35 34
f 34 66 67
f 99 67 66
f 66 98 99
f 131 99 98
f 98 130 131
f 163 131 130
f 130 162 163
f 195 163 162
f 162 194 195
f 227 195 194
f 194 226 227
f 259 227 226
f 226 258 259
f 291 259 258
f 258 290 291
f 323 291 290
f 290 322 323
f 355 323 322
f 322 354 355
f 387 355 354
f 354 386 387
f 419 387 386
f 386 418 419
f 451 419 418
f 418 450 451
f 483 451 450
f 450 482 483
f 515 483 482
f 482 514 515
f 547 515 514
f 514 546 547
f 579 547 546
f 546 578 579
f 611 579 578
f 578 610 611
f 643 611 610
f 610 642 643
f 675 643 642
f 642 674 675
f 707 675 674
f 674 706 707
f 739 707 706
f 706 738 739
f 771 739 738
f 738 770 771
f 803 771 770
f 770 802 803
f 835 803 802
f 802 834 835
f 867 835 834
f 834 866 867
f 899 867 866
f 866 898 899
f 931 899 898
f 898 930 931
f 963 931 930
f 930 962 963
f 995 963 962
f 962 994 995
f 36 4 3
f 3 35 36
f 68 36 35
f 35 67 68
f 100 68 67
f 67 99 100
f 132 100 99
f 99 131 132
f 164 132 131
f 131 163 164
f 196 164 163
f 163 195 196
f 228 196 195
f 195 227 228
f 260 228 227
f 227 259 260
f 292 260 259
f 259 291 292
f 324 292 291
f 291 323 324
f 356 324 323
f 323 355 356
f 388 356 355
f 355 387 388
f 420 388 387
f 387 419 420
f 452 420 419
f 419 451 452
f 484 452 451
f 451 483 484
f 516 484 483
f 483 515 516
f 548 516 515
f 515 547 548
f 580 548 547
f 547 579 580
f 612 580 579
f 579 611 612
f 644 612 611
f 611 643 644
f 676 644 643
f 643 675 676
f 708 676 675
f 675 707 708
f 740 708 707
f 707 739 740
f 772 740 739
f 739 771 772
f 804 772 771
f 771 803 804
f 836 804 803
f 803 835 836
f 868 836 835
f 835 867 868
f 900 868 867
f 867 899 900
f 932 900 899
f 899 931 932
f 964 932 931
f 931 963 964
f 996 964 963
f 963 995 996
f 37 5 4
f 4 36 37
f 69 37 36
f 36 68 69
f 101 69 68
f 68 100 101
f 133 101 100
f 100 132 133
f 165 133 132
f 132 164 165
f 197 165 164
f 164 196 197
f 229 197 196
f 196 228 229
f 261 229 228
f 228 260 261
f 293 261 260
f 260 292 293
f 325 293 292
f 292 324 325
f 357 325 324
f 324 356 357
f 389 357 356
f 356 388 389
f 421 389 388
f 388 420 421
f 453 421 420
f 420 452 453
f 485 453 452
f 452 484 485
f 517 485 484
f 484 516 517
f 549 517 516
f 516 548 549
f 581 549 548
f 548 580 581
f 613 581 580
f 580 612 613
f 645 613 612
f 612 644 645
f 677 645 644
f 644 676 677
f 709 677 676
f 676 708 709
f 741 709 708
f 708 740 741
f 773 741 740
f 740 772 773
f 805 773 772
f 772 804 805
f 837 805 804
f 804 836 837
f 869 837 836
f 836 868 869
f 901 869 868
f 868 900 901
f 933 901 900
f 900 932 933
f 965 933 932
f 932 964 965
f 997 965 964
f 964 996 997
f 38 6 5
f 5 37 38
f 70 38 37
f 37 69 70
f 102 70 69
f 69 101 102
f 134 102 101
f 101 133 134
f 166 134 133
f 133 165 166
f 198 166 165
f 165 197 198
f 230 198 197
f 197 229 230
f 262 230 229
f 229 261 262
f 294 262 261
f 261 293 294
f 326 294 293
f 293 325 326
f 358 326 325
f 325 357 358
f 390 358 357
f 357 389 390
f 422 390 389
f 389 421 422
f 454 422 421
f 421 453 454
f 486 454 453
f 453 485 486
f 518 486 485
f 485 517 518
f 550 518 517
f 517 549 550
f 582 550 549
f 549 581 582
f 614 582 581
f 581 613 614
f 646 614 613
f 613 645 646
f 678 646 645
f 645 677 678
f 710 678 677
f 677 709 710
f 742 710 709
f 709 741 742
f 774 742 741
f 741 773 774
f 806 774 773
f 773 805 806
f 838 806 805
f 805 837 838
f 870 838 837
f 837 869 870
f 902 870 869
f 869 901 902
f 934 902 901
f 901 933 934
f 966 934 933
f 933 965 966
f 998 966 965
f 965 997 998
f 39 7 6
f 6 38 39
f 71 39 38
f 38 70 71
f 103 71 70
f 70 102 103
f 135 103 102
f 102 134 135
f 167 135 134
f 134 166 167
f 199 167 166
f 166 198 199
f 231 199 198
f 198 230 231
f 263 231 230
f 230 262 263
f 295 263 262
f 262 294 295
f 327 295 294
f 294 326 327
f 359 327 326
f 326 358 359
f 391 359 358
f 358 390 391
f 423 391 390
f 390 422 423
f 455 423 422
f 422 454 455
f 487 455 454
f 454 486 487
f 519 487 486
f 486 518 519
f 551 519 518
f 518 550 551
f 583 551 550
f 550 582 583
f 615 583 582
f 582 614 615
f 647 615 614
f 614 646 647
f 679 647 646
f 646 678 679
f 711 679 678
f 678 710 711
f 743 711 710
f 710 742 743
f 775 743 742
f 742 774 775
f 807 775 774
f 774 806 807
f 839 807 806
f 806 838 839
f 871 839 838
f 838 870 871
f 903 871 870
f 870 902 903
f 935 903 902
f 902 934 935
f 967 935 934
f 934 966 967
f 999 967 966
f 966 998 999
f 40 8 7
f 7 39 40
f 72 40 39
f 39 71 72
f 104 72 71
f 71 103 104
f 136 104 103
f 103 135 136
f 168 136 135
f 135 167 168
f 200 168 167
f 167 199 200
f 232 200 199
f 199 231 232
f 264 232 231
f 231 263 264
f 296 264 263
f 263 295 296
f 328 296 295
f 295 327 328
f 360 328 327
f 327 359 360
f 392 360 359
f 359 391 392
f 424 392 391
f 391 423 424
f 456 424 423
f 423 455 456
f 488 456 455
f 455 487 488
f 520 488 487
f 487 519 520
f 552 520 519
f 519 551 552
f 584 552 551
f 551 583 584
f 616 584 583
f 583 615 616
f 648 616 615
f 615 647 648
f 680 648 647
f 647 679 680
f 712 680 679
f 679 711 712
f 744 712 711
f 711 743 744
f 776 744 743
f 743 775 776
f 808 776 775
f 775 807 808
f 840 808 807
f 807 839 840
f 872 840 839
f 839 871 872
f 904 872 871
f 871 903 904
f 936 904 903
f 903 935 936
f 968 936 935
f 935 967 968
f 1000 968 967
f 967 999 1000
f 41 9 8
f 8 40 41
f 73 41 40
f 40 72 73
f 105 73 72
f 72 104 105
f 137 105 104
f 104 136 137
f 169 137 136
f 136 168 169
f 201 169 168
f 168 200 201
f 233 201 200
f 200 232 233
f 265 233 232
f 232 264 265
f 297 265 264
f 264 296 297
f 329 297 296
f 296 328 329
f 361 329 328
f 328 360 361
f 393 361 360
f 360 392 393
f 425 393 392
f 392 424 425
f 457 425 424
f 424 456 457
f 489 457 456
f 456 488 489
f 521 489 488
f 488 520 521
f 553 521 520
f 520 552 553
f 585 553 552
f 552 584 585
f 617 585 584
f 584 616 617
f 649 617 616
f 616 648 649
f 681 649 648
f 648 680 681
f 713 681 680
f 680 712 713
f 745 713 712
f 712 744 745
f 777 745 744
f 744 776 777
f 809 777 776
f 776 808 809
f 841 809 808
f 808 840 841
f 873 841 840
f 840 872 873
f 905 873 872
f 872 904 905
f 937 905 904
f 904 936 937
f 969 937 936
f 936 968 969
f 1001 969 968
f 968 1000 1001
f 42 10 9
f 9 41 42
f 74 42 41
f 41 73 74
f 106 74 73
f 73 105 106
f 138 106 105
f 105 137 138
f 170 138 137
f 137 169 170
f 202 170 169
f 169 201 202
f 234 202 201
f 201 233 234
f 266 234 233
f 233 265 266
f 298 266 265
f 265 297 298
f 330 298 297
f 297 329 330
f 362 330 329
f 329 361 362
f 394 362 361
f 361 393 394
f 426 394 393
f 393 425 426
f 458 426 425
f 425 457 458
f 490 458 457
f 457 489 490
f 522 490 489
f 489 521 522
f 554 522 521
f 521 553 554
f 586 554 553
f 553 585 586
f 618 586 585
f 585 617 618
f 650 618 617
f 617 649 650
f 682 650 649
f 649 681 682
f 714 682 681
f 681 713 714
f 746 714 713
f 713 745 746
f 778 746 745
f 745 777 778
f 810 778 777
f 777 809 810
f 842 810 809
f 809 841 842
f 874 842 841
f 841 873 874
f 906 874 873
f 873 905 906
f 938 906 905
f 905 937 938
f 970 938 937
f 937 969 970
f 1002 970 969
f 969 1001 1002
f 43 11 10
f 10 42 43
f 75 43 42
f 42 74 75
f 107 75 74
f 74 106 107
f 139 107 106
f 106 138 139
f 171 139 138
f 138 170 171
f 203 171 170
f 170 202 203
f 235 203 202
f 202 234 235
f 267 235 234
f 234 266 267
f 299 267 266
f 266 298 299
f 331 299 298
f 298 330 331
f 363 331 330
f 330 362 363
f 395 363 362
f 362 394 395
f 427 395 394
f 394 426 427
f 459 427 426
f 426 458 459
f 491 459 458
f 458 490 491
f 523 491 490
f 490 522 523
f 555 523 522
f 522 554 555
f 587 555 554
f 554 586 587
f 619 587 586
f 586 618 619
f 651 619 618
f 618 650 651
f 683 651 650
f 650 682 683
f 715 683 682
f 682 714 715
f 747 715 714
f 714 746 747
f 779 747 746
f 746 778 779
f 811 779 778
f 778 810 811
f 843 811 810
f 810 842 843
f 875 843 842
f 842 874 875
f 907 875 874
f 874 906 907
f 939 907 906
f 906 938 939
f 971 939 938
f 938 970 971
f 1003 971 970
f 970 1002 1003
f 44 12 11
f 11 43 44
f 76 44 43
f 43 75 76
f 108 76 75
f 75 107 108
f 140 108 107
f 107 139 140
f 172 140 139
f 139 171 172
f 204 172 171
f 171 203 204
f 236 204 203
f 203 235 236
f 268 236 235
f 235 267 268
f 300 268 267
f 267 299 300
f 332 300 299
f 299 331 332
f 364 332 331
f 331 363 364
f 396 364 363
f 363 395 396
f 428 396 395
f 395 427 428
f 460 428 427
f 427 459 460
f 492 460 459
f 459 491 492
f 524 492 491
f 491 523 524
f 556 524 523
f 523 555 556
f 588 556 555
f 555 587 588
f 620 588 587
f 587 619 620
f 652 620 619
f 619 651 652
f 684 652 651
f 651 683 684
f 716 684 683
f 683 715 716
f 748 716 715
f 715 747 748
f 780 748 747
f 747 779 780
f 812 780 779
f 779 811 812
f 844 812 811
f 811 843 844
f 876 844 843
f 843 875 876
f 908 876 875
f 875 907 908
f 940 908 907
f 907 939 940
f 972 940 939
f 939 971 972
f 1004 972 971
f 971 1003 1004
f 45 13 12
f 12 44 45
f 77 45 44
f 44 76 77
f 109 77 76
f 76 108 109
f 141 109 108
f 108 140 141
f 173 141 140
f 140 172 173
f 205 173 172
f 172 204 205
f 237 205 204
f 204 236 237
f 269 237 236
f 236 268 269
f 301 269 268
f 268 300 301
f 333 301 300
f 300 332 333
f 365 333 332
f 332 364 365
f 397 365 364
f 364 396 397
f 429 397 396
f 396 428 429
f 461 429 428
f 428 460 461
f 493 461 460
f 460 492 493
f 525 493 492
f 492 524 525
f 557 525 524
f 524 556 557
f 589 557 556
f 556 588 589
f 621 589 588
f 588 620 621
f 653 621 620
f 620 652 653
f 685 653 652
f 652 684 685
f 717 685 684
f 684 716 717
f 749 717 716
f 716 748 749
f 781 749 748
f 748 780 781
f 813 781 780
f 780 812 813
f 845 813 812
f 812 844 845
f 877 845 844
f 844 876 877
f 909 877 876
f 876 908 909
f 941 909 908
f 908 940 941
f 973 941 940
f 940 972 973
f 1005 973 972
f 972 1004 1005
f 46 14 13
f 13 45 46
f 78 46 45
f 45 77 78
f 110 78 77
f 77 109 110
f 142 110 109
f 109 141 142
f 174 142 141
f 141 173 174
f 206 174 173
f 173 205 206
f 238 206 205
f 205 237 238
f 270 238 237
f 237 269 270
f 302 270 269
f 269 301 302
f 334 302 301
f 301 333 334
f 366 334 333
f 333 365 366
f 398 366 365
f 365 397 398
f 430 398 397
f 397 429 430
f 462 430 429
f 429 461 462
f 494 462 461
f 461 493 494
f 526 494 493
f 493 525 526
f 558 526 525
f 525 557 558
f 590 558 557
f 557 589 590
f 622 590 589
f 589 621 622
f 654 622 621
f 621 653 654
f 686 654 653
f 653 685 686
f 718 686 685
f 685 717 718
f 750 718 717
f 717 749 750
f 782 750 749
f 749 781 782
f 814 782 781
f 781 813 814
f 846 814 813
f 813 845 846
f 878 846 845
f 845 877 878
f 910 878 877
f 877 909 910
f 942 910 909
f 909 941 942
f 974 942 941
f 941 973 974
f 1006 974 973
f 973 1005 1006
f 47 15 14
f 14 46 47
f 79 47 46
f 46 78 79
f 111 79 78
f 78 110 111
f 143 111 110
f 110 142 143
f 175 143 142
f 142 174 175
f 207 175 174
f 174 206 207
f 239 207 206
f 206 238 239
f 271 239 238
f 238 270 271
f 303 271 270
f 270 302 303
f 335 303 302
f 302 334 335
f 367 335 334
f 334 366 367
f 399 367 366
f 366 398 399
f 431 399 398
f 398 430 431
f 463 431 430
f 430 462 463
f 495 463 462
f 462 494 495
f 527 495 494
f 494 526 527
f 559 527 526
f 526 558 559
f 591 559 558
f 558 590 591
f 623 591 590
f 590 622 623
f 655 623 622
f 622 654 655
f 687 655 654
f 654 686 687
f 719 687 686
f 686 718 719
f 751 719 718
f 718 750 751
f 783 751 750
f 750 782 783
f 815 783 782
f 782 814 815
f 847 815 814
f 814 846 847
f 879 847 846
f 846 878 879
f 911 879 878
f 878 910 911
f 943 911 910
f 910 942 943
f 975 943 942
f 942 974 975
f 1007 975 974
f 974 1006 1007
f 48 16 15
f 15 47 48
f 80 48 47
f 47 79 80
f 112 80 79
f 79 111 112
f 144 112 111
f 111 143 144
f 176 144 143
f 143 175 176
f 208 176 175
f 175 207 208
f 240 208 207
f 207 239 240
f 272 240 239
f 239 271 272
f 304 272 271
f 271 303 304
f 336 304 303
f 303 335 336
f 368 336 335
f 335 367 368
f 400 368 367
f 367 399 400
f 432 400 399
f 399 431 432
f 464 432 431
f 431 463 464
f 496 464 463
f 463 495 496
f 528 496 495
f 495 527 528
f 560 528 527
f 527 559 560
f 592 560 559
f 559 591 592
f 624 592 591
f 591 623 624
f 656 624 623
f 623 655 656
f 688 656 655
f 655 687 688
f 720 688 687
f 687 719 720
f 752 720 719
f 719 751 752
f 784 752 751
f 751 783 784
f 816 784 783
f 783 815 816
f 848 816 815
f 815 847 848
f 880 848 847
f 847 879 880
f 912 880 879
f 879 911 912
f 944 912 911
f 911 943 944
f 976 944 943
f 943 975 976
f 1008 976 975
f 975 1007 1008
f 49 17 16
f 16 48 49
f 81 49 48
f 48 80 81
f 113 81 80
f 80 112 113
f 145 113 112
f 112 144 145
f 177 145 144
f 144 176 177
f 209 177 176
f 176 208 209
f 241 209 208
f 208 240 241
f 273 241 240
f 240 272 273
f 305 273 272
f 272 304 305
f 337 305 304
f 304 336 337
f 369 337 336
f 336 368 369
f 401 369 368
f 368 400 401
f 433 401 400
f 400 432 433
f 465 433 432
f 432 464 465
f 497 465 464
f 464 496 497
f 529 497 496
f 496 528 529
f 561 529 528
f 528 560 561
f 593 561 560
f 560 592 593
f 625 593 592
f 592 624 625
f 657 625 624
f 624 656 657
f 689 657 656
f 656 688 689
f 721 689 688
f 688 720 721
f 753 721 720
f 720 752 753
f 785 753 752
f 752 784 785
f 817 785 784
f 784 816 817
f 849 817 816
f 816 848 849
f 881 849 848
f 848 880 881
f 913 881 880
f 880 912 913
f 945 913 912
f 912 944 945
f 977 945 944
f 944 976 977
f 1009 977 976
f 976 1008 1009
f 50 18 17
f 17 49 50
f 82 50 49
f 49 81 82
f 114 82 81
f 81 113 114
f 146 114 113
f 113 145 146
f 178 146 145
f 145 177 178
f 210 178 177
f 177 209 210
f 242 210 209
f 209 241 242
f 274 242 241
f 241 273 274
f 306 274 273
f 273 305 306
f 338 306 305
f 305 337 338
f 370 338 337
f 337 369 370
f 402 370 369
f 369 401 402
f 434 402 401
f 401 433 434
f 466 434 433
f 433 465 466
f 498 466 465
f 465 497 498
f 530 498 497
f 497 529 530
f 562 530 529
f 529 561 562
f 594 562 561
f 561 593 594
f 626 594 593
f 593 625 626
f 658 626 625
f 625 657 658
f 690 658 657
f 657 689 690
f 722 690 689
f 689 721 722
f 754 722 721
f 721 753 754
f 786 754 753
f 753 785 786
f 818 786 785
f 785 817 818
f 850 818 817
f 817 849 850
f 882 850 849
f 849 881 882
f 914 882 881
f 881 913 914
f 946 914 913
f 913 945 946
f 978 946 945
f 945 977 978
f 1010 978 977
f 977 1009 1010
f 51 19 18
f 18 50 51
f 83 51 50
f 50 82 83
f 115 83 82
f 82 114 115
f 147 115 114
f 114 146 147
f 179 147 146
f 146 178 179
f 211 179 178
f 178 210 211
f 243 211 210
f 210 242 243
f 275 243 242
f 242 274 275
f 307 275 274
f 274 306 307
f 339 307 306
f 306 338 339
f 371 339 338
f 338 370 371
f 403 371 370
f 370 402 403
f 435 403 402
f 402 434 435
f 467 435 434
f 434 466 467
f 499 467 466
f 466 498 499
f 531 499 498
f 498 530 531
f 563 531 530
f 530 562 563
f 595 563 562
f 562 594 595
f 627 595 594
f 594 626 627
f 659 627 626
f 626 658 659
f 691 659 658
f 658 690 691
f 723 691 690
f 690 722 723
f 755 723 722
f 722 754 755
f 787 755 754
f 754 786 787
f 819 787 786
f 786 818 819
f 851 819 818
f 818 850 851
f 883 851 850
f 850 882 883
f 915 883 882
f 882 914 915
f 947 915 914
f 914 946 947
f 979 947 946
f 946 978 979
f 1011 979 978
f 978 1010 1011
f 52 20 19
f 19 51 52
f 84 52 51
f 51 83 84
f 116 84 83
f 83 115 116
f 148 116 115
f 115 147 148
f 180 148 147
f 147 179 180
f 212 180 179
f 179 211 212
f 244 212 211
f 211 243 244
f 276 244 243
f 243 275 276
f 308 276 275
f 275 307 308
f 340 308 307
f 307 339 340
f 372 340 339
f 339 371 372
f 404 372 371
f 371 403 404
f 436 404 403
f 403 435 436
f 468 436 435
f 435 467 468
f 500 468 467
f 467 499 500
f 532 500 499
f 499 531 532
f 564 532 531
f 531 563 564
f 596 564 563
f 563 595 596
f 628 596 595
f 595 627 628
f 660 628 627
f 627 659 660
f 692 660 659
f 659 691 692
f 724 692 691
f 691 723 724
f 756 724 723
f 723 755 756
f 788 756 755
f 755 787 788
f 820 788 787
f 787 819 820
f 852 820 819
f 819 851 852
f 884 852 851
f 851 883 884
f 916 884 883
f 883 915 916
f 948 916 915
f 915 947 948
f 980 948 947
f 947 979 980
f 1012 980 979
f 979 1011 1012
f 53 21 20
f 20 52 53
f 85 53 52
f 52 84 85
f 117 85 84
f 84 116 117
f 149 117 116
f 116 148 149
f 181 149 148
f 148 180 181
f 213 181 180
f 180 212 213
f 245 213 212
f 212 244 245
f 277 245 244
f 244 276 277
f 309 277 276
f 276 308 309
f 341 309 308
f 308 340 341
f 373 341 340
f 340 372 373
f 405 373 372
f 372 404 405
f 437 405 404
f 404 436 437
f 469 437 436
f 436 468 469
f 501 469 468
f 468 500 501
f 533 501 500
f 500 532 533
f 565 533 532
f 532 564 565
f 597 565 564
f 564 596 597
f 629 597 596
f 596 628 629
f 661 629 628
f 628 660 661
f 693 661 660
f 660 692 693
f 725 693 692
f 692 724 725
f 757 725 724
f 724 756 757
f 789 757 756
f 756 788 789
f 821 789 788
f 788 820 821
f 853 821 820
f 820 852 853
f 885 853 852
f 852 884 885
f 917 885 884
f 884 916 917
f 949 917 916
f 916 948 949
f 981 949 948
f 948 980 981
f 1013 981 980
f 980 1012 1013
f 54 22 21
f 21 53 54
f 86 54 53
f 53 85 86
f 118 86 85
f 85 117 118
f 150 118 117
f 117 149 150
f 182 150 149
f 149 181 182
f 214 182 181
f 181 213 214
f 246 214 213
f 213 245 246
f 278 246 245
f 245 277 278
f 310 278 277
f 277 309 310
f 342 310 309
f 309 341 342
f 374 342 341
f 341 373 374
f 406 374 373
f 373 405 406
f 438 406 405
f 405 437 438
f 470 438 437
f 437 469 470
f 502 470 469
f 469 501 502
f 534 502 501
f 501 533 534
f 566 534 533
f 533 565 566
f 598 566 565
f 565 597 598
f 630 598 597
f 597 629 630
f 662 630 629
f 629 661 662
f 694 662 661
f 661 693 694
f 726 694 693
f 693 725 726
f 758 726 725
f 725 757 758
f 790 758 757
f 757 789 790
f 822 790 789
f 789 821 822
f 854 822 821
f 821 853 854
f 886 854 853
f 853 885 886
f 918 886 885
f 885 917 918
f 950 918 917
f 917 949 950
f 982 950 949
f 949 981 982
f 1014 982 981
f 981 1013 1014
f 55 23 22
f 22 54 55
f 87 55 54
f 54 86 87
f 119 87 86
f 86 118 119
f 151 119 118
f 118 150 151
f 183 151 150
f 150 182 183
f 215 183 182
f 182 214 215
f 247 215 214
f 214 246 247
f 279 247 246
f 246 278 279
f 311 279 278
f 278 310 311
f 343 311 310
f 310 342 343
f 375 343 342
f 342 374 375
f 407 375 374
f 374 406 407
f 439 407 406
f 406 438 439
f 471 439 438
f 438 470 471
f 503 471 470
f 470 502 503
f 535 503 502
f 502 534 535
f 567 535 534
f 534 566 567
f 599 567 566
f 566 598 599
f 631 599 598
f 598 630 631
f 663 631 630
f 630 662 663
f 695 663 662
f 662 694 695
f 727 695 694
f 694 726 727
f 759 727 726
f 726 758 759
f 791 759 758
f 758 790 791
f 823 791 790
f 790 822 823
f 855 823 822
f 822 854 855
f 887 855 854
f 854 886 887
f 919 887 886
f 886 918 919
f 951 919 918
f 918 950 951
f 983 951 950
f 950 982 983
f 1015 983 982
f 982 1014 1015
f 56 24 23
f 23 55 56
f 88 56 55
f 55 87 88
f 120 88 87
f 87 119 120
f 152 120 119
f 119 151 152
f 184 152 151
f 151 183 184
f 216 184 183
f 183 215 216
f 248 216 215
f 215 247 248
f 280 248 247
f 247 279 280
f 312 280 279
f 279 311 312
f 344 312 311
f 311 343 344
f 376 344 343
f 343 375 376
f 408 376 375
f 375 407 408
f 440 408 407
f 407 439 440
f 472 440 439
f 439 471 472
f 504 472 471
f 471 503 504
f 536 504 503
f 503 535 536
f 568 536 535
f 535 567 568
f 600 568 567
f 567 599 600
f 632 600 599
f 599 631 632
f 664 632 631
f 631 663 664
f 696 664 663
f 663 695 696
f 728 696 695
f 695 727 728
f 760 728 727
f 727 759 760
f 792 760 759
f 759 791 792
f 824 792 791
f 791 823 824
f 856 824 823
f 823 855 856
f 888 856 855
f 855 887 888
f 920 888 887
f 887 919 920
f 952 920 919
f 919 951 952
f 984 952 951
f 951 983 984
f 1016 984 983
f 983 1015 1016
f 57 25 24
f 24 56 57
f 89 57 56
f 56 88 89
f 121 89 88
f 88 120 121
f 153 121 120
f 120 152 153
f 185 153 152
f 152 184 185
f 217 185 184
f 184 216 217
f 249 217 216
f 216 248 249
f 281 249 248
f 248 280 281
f 313 281 280
f 280 312 313
f 345 313 312
f 312 344 345
f 377 345 344
f 344 376 377
f 409 377 376
f 376 408 409
f 441 409 408
f 408 440 441
f 473 441 440
f 440 472 473
f 505 473 472
f 472 504 505
f 537 505 504
f 504 536 537
f 569 537 536
f 536 568 569
f 601 569 568
f 568 600 601
f 633 601 600
f 600 632 633
f 665 633 632
f 632 664 665
f 697 665 664
f 664 696 697
f 729 697 696
f 696 728 729
f 761 729 728
f 728 760 761
f 793 761 760
f 760 792 793
f 825 793 792
f 792 824 825
f 857 825 824
f 824 856 857
f 889 857 856
f 856 888 889
f 921 889 888
f 888 920 921
f 953 921 920
f 920 952 953
f 985 953 952
f 952 984 985
f 1017 985 984
f 984 1016 1017
f 58 26 25
f 25 57 58
f 90 58 57
f 57 89 90
f 122 90 89
f 89 121 122
f 154 122 121
f 121 153 154
f 186 154 153
f 153 185 186
f 218 186 185
f 185 217 218
f 250 218 217
f 217 249 250
f 282 250 249
f 249 281 282
f 314 282 281
f 281 313 314
f 346 314 313
f 313 345 346
f 378 346 345
f 345 377 378
f 410 378 377
f 377 409 410
f 442 410 409
f 409 441 442
f 474 442 441
f 441 473 474
f 506 474 473
f 473 505 506
f 538 506 505
f 505 537 538
f 570 538 537
f 537 569 570
f 602 570 569
f 569 601 602
f 634 602 601
f 601 633 634
f 666 634 633
f 633 665 666
f 698 666 665
f 665 697 698
f 730 698 697
f 697 729 730
f 762 730 729
f 729 761 762
f 794 762 761
f 761 793 794
f 826 794 793
f 793 825 826
f 858 826 825
f 825 857 858
f 890 858 857
f 857 889 890
f 922 890 889
f 889 921 922
f 954 922 921
f 921 953 954
f 986 954 953
f 953 985 986
f 1018 986 985
f 985 1017 1018
f 59 27 26
f 26 58 59
f 91 59 58
f 58 90 91
f 123 91 90
f 90 122 123
f 155 123 122
f 122 154 155
f 187 155 154
f 154 186 187
f 219 187 186
f 186 218 219
f 251 219 218
f 218 250 251
f 283 251 250
f 250 282 283
f 315 283 282
f 282 314 315
f 347 315 314
f 314 346 347
f 379 347 346
f 346 378 379
f 411 379 378
f 378 410 411
f 443 411 410
f 410 442 443
f 475 443 442
f 442 474 475
f 507 475 474
f 474 506 507
f 539 507 506
f 506 538 539
f 571 539 538
f 538 570 571
f 603 571 570
f 570 602 603
f 635 603 602
f 602 634 635
f 667 635 634
f 634 666 667
f 699 667 666
f 666 698 699
f 731 699 698
f 698 730 731
f 763 731 730
f 730 762 763
f 795 763 762
f 762 794 795
f 827 795 794
f 794 826 827
f 859 827 826
f 826 858 859
f 891 859 858
f 858 890 891
f 923 891 890
f 890 922 923
f 955 923 922
f 922 954 955
f 987 955 954
f 954 986 987
f 1019 987 986
f 986 1018 1019
f 60 28 27
f 27 59 60
f 92 60 59
f 59 91 92
f 124 92 91
f 91 123 124
f 156 124 123
f 123 155 156
f 188 156 155
f 155 187 188
f 220 188 187
f 187 219 220
f 252 220 219
f 219 251 252
f 284 252 251
f 251 283 284
f 316 284 283
f 283 315 316
f 348 316 315
f 315 347 348
f 380 348 347
f 347 379 380
f 412 380 379
f 379 411 412
f 444 412 411
f 411 443 444
f 476 444 443
f 443 475 476
f 508 476 475
f 475 507 508
f 540 508 507
f 507 539 540
f 572 540 539
f 539 571 572
f 604 572 571
f 571 603 604
f 636 604 603
f 603 635 636
f 668 636 635
f 635 667 668
f 700 668 667
f 667 699 700
f 732 700 699
f 699 731 732
f 764 732 731
f 731 763 764
f 796 764 763
f 763 795 796
f 828 796 795
f 795 827 828
f 860 828 827
f 827 859 860
f 892 860 859
f 859 891 892
f 924 892 891
f 891 923 924
f 956 924 923
f 923 955 956
f 988 956 955
f 955 987 988
f 1020 988 987
f 987 1019 1020
f 61 29 28
f 28 60 61
f 93 61 60
f 60 92 93
f 125 93 92
f 92 124 125
f 157 125 124
f 124 156 157
f 189 157 156
f 156 188 189
f 221 189 188
f 188 220 221
f 253 221 220
f 220 252 253
f 285 253 252
f 252 284 285
f 317 285 284
f 284 316 317
f 349 317 316
f 316 348 349
f 381 349 348
f 348 380 381
f 413 381 380
f 380 412 413
f 445 413 412
f 412 444 445
f 477 445 444
f 444 476 477
f 509 477 476
f 476 508 509
f 541 509 508
f 508 540 541
f 573 541 540
f 540 572 573
f 605 573 572
f 572 604 605
f 637 605 604
f 604 636 637
f 669 637 636
f 636 668 669
f 701 669 668
f 668 700 701
f 733 701 700
f 700 732 733
f 765 733 732
f 732 764 765
f 797 765 764
f 764 796 797
f 829 797 796
f 796 828 829
f 861 829 828
f 828 860 861
f 893 861 860
f 860 892 893
f 925 893 892
f 892 924 925
f 957 925 924
f 924 956 957
f 989 957 956
f 956 988 989
f 1021 989 988
f 988 1020 1021
f 62 30 29
f 29 61 62
f 94 62 61
f 61 93 94
f 126 94 93
f 93 125 126
f 158 126 125
f 125 157 158
f 190 158 157
f 157 189 190
f 222 190 189
f 189 221 222
f 254 222 221
f 221 253 254
f 286 254 253
f 253 285 286
f 318 286 285
f 285 317 318
f 350 318 317
f 317 349 350
f 382 350 349
f 349 381 382
f 414 382 381
f 381 413 414
f 446 414 413
f 413 445 446
f 478 446 445
f 445 477 478
f 510 478 477
f 477 509 510
f 542 510 509
f 509 541 542
f 574 542 541
f 541 573 574
f 606 574 573
f 573 605 606
f 638 606 605
f 605 637 638
f 670 638 637
f 637 669 670
f 702 670 669
f 669 701 702
f 734 702 701
f 701 733 734
f 766 734 733
f 733 765 766
f 798 766 765
f 765 797 798
f 830 798 797
f 797 829 830
f 862 830 829
f 829 861 862
f 894 862 861
f 861 893 894
f 926 894 893
f 893 925 926
f 958 926 925
f 925 957 958
f 990 958 957
f 957 989 990
f 1022 990 989
f 989 1021 1022
f 63 31 30
f 30 62 63
f 95 63 62
f 62 94 95
f 127 95 94
f 94 126 127
f 159 127 126
f 126 158 159
f 191 159 158
f 158 190 191
f 223 191 190
f 190 222 223
f 255 223 222
f 222 254 255
f 287 255 254
f 254 286 287
f 319 287 286
f 286 318 319
f 351 319 318
f 318 350 351
f 383 351 350
f 350 382 383
f 415 383 382
f 382 414 415
f 447 415 414
f 414 446 447
f 479 447 446
f 446 478 479
f 511 479 478
f 478 510 511
f 543 511 510
f 510 542 543
f 575 543 542
f 542 574 575
f 607 575 574
f 574 606 607
f 639 607 606
f 606 638 639
f 671 639 638
f 638 670 671
f 703 671 670
f 670 702 703
f 735 703 702
f 702 734 735
f 767 735 734
f 734 766 767
f 799 767 766
f 766 798 799
f 831 799 798
f 798 830 831
f 863 831 830
f 830 862 863
f 895 863 862
f 862 894 895
f 927 895 894
f 894 926 927
f 959 927 926
f 926 958 959
f 991 959 958
f 958 990 991
f 1023 991 990
f 990 1022 1023
f 64 32 31
f 31 63 64
f 96 64 63
f 63 95 96
f 128 96 95
f 95 127 128
f 160 128 127
f 127 159 160
f 192 160 159
f 159 191 192
f 224 192 191
f 191 223 224
f 256 224 223
f 223 255 256
f 288 256 255
f 255 287 288
f 320 288 287
f 287 319 320
f 352 320 319
f 319 351 352
f 384 352 351
f 351 383 384
f 416 384 383
f 383 415 416
f 448 416 415
f 415 447 448
f 480 448 447
f 447 479 480
f 512 480 479
f 479 511 512
f 544 512 511
f 511 543 544
f 576 544 543
f 543 575 576
f 608 576 575
f 575 607 608
f 640 608 607
f 607 639 640
f 672 640 639
f 639 671 672
f 704 672 671
f 671 703 704
f 736 704 703
f 703 735 736
f 768 736 735
f 735 767 768
f 800 768 767
f 767 799 800
f 832 800 799
f 799 831 832
f 864 832 831
f 831 863 864
f 896 864 863
f 863 895 896
f 928 896 895
f 895 927 928
f 960 928 927
f 927 959 960
f 992 960 959
f 959 991 992
f 1024 992 991
f 991 1023 1024
