v -7591 276.802 -4425
v -7591 276.631 -4427
v -7591 276.853 -4429
v -7591 277.085 -4431
v -7591 277.324 -4433
v -7591 277.438 -4435
v -7591 277.487 -4437
v -7591 277.642 -4439
v -7591 277.649 -4441
v -7591 277.622 -4443
v -7591 277.707 -4445
v -7591 277.773 -4447
v -7591 278.423 -4449
v -7591 279.382 -4451
v -7591 280.455 -4453
v -7591 281.579 -4455
v -7591 282.606 -4457
v -7591 283.696 -4459
v -7591 284.716 -4461
v -7591 285.571 -4463
v -7591 286.176 -4465
v -7591 286.708 -4467
v -7591 286.902 -4469
v -7591 286.788 -4471
v -7591 286.379 -4473
v -7591 285.644 -4475
v -7591 285.35 -4477
v -7591 284.761 -4479
v -7591 284.213 -4481
v -7591 283.448 -4483
v -7591 282.65 -4485
v -7591 281.784 -4487
v -7589 275.579 -4425
v -7589 275.794 -4427
v -7589 276.239 -4429
v -7589 276.599 -4431
v -7589 276.598 -4433
v -7589 276.639 -4435
v -7589 276.706 -4437
v -7589 276.828 -4439
v -7589 276.84 -4441
v -7589 276.916 -4443
v -7589 276.878 -4445
v -7589 277.029 -4447
v -7589 277.731 -4449
v -7589 278.46 -4451
v -7589 279.382 -4453
v -7589 280.442 -4455
v -7589 281.549 -4457
v -7589 282.51 -4459
v -7589 283.581 -4461
v -7589 284.425 -4463
v -7589 285.141 -4465
v -7589 285.65 -4467
v -7589 285.681 -4469
v -7589 285.569 -4471
v -7589 285.359 -4473
v -7589 285.201 -4475
v -7589 284.8 -4477
v -7589 284.294 -4479
v -7589 283.683 -4481
v -7589 282.918 -4483
v -7589 282.088 -4485
v -7589 281.297 -4487
v -7587 274.713 -4425
v -7587 275.131 -4427
v -7587 275.705 -4429
v -7587 276.016 -4431
v -7587 275.979 -4433
v -7587 275.833 -4435
v -7587 275.904 -4437
v -7587 275.978 -4439
v -7587 276.01 -4441
v -7587 276.12 -4443
v -7587 276.122 -4445
v -7587 276.601 -4447
v -7587 277.174 -4449
v -7587 277.835 -4451
v -7587 278.364 -4453
v -7587 279.279 -4455
v -7587 280.415 -4457
v -7587 281.483 -4459
v -7587 279.242 -4461
v -7587 281.846 -4463
v -7587 284.063 -4465
v -7587 284.651 -4467
v -7587 285.101 -4469
v -7587 285.217 -4471
v -7587 284.984 -4473
v -7587 284.716 -4475
v -7587 284.239 -4477
v -7587 283.774 -4479
v -7587 283.223 -4481
v -7587 282.496 -4483
v -7587 281.781 -4485
v -7587 277.392 -4487
v -7585 274.222 -4425
v -7585 274.783 -4427
v -7585 275.105 -4429
v -7585 275.298 -4431
v -7585 275.149 -4433
v -7585 275.144 -4435
v -7585 275.263 -4437
v -7585 275.286 -4439
v -7585 275.347 -4441
v -7585 275.369 -4443
v -7585 275.351 -4445
v -7585 275.982 -4447
v -7585 276.65 -4449
v -7585 277.343 -4451
v -7585 277.851 -4453
v -7585 278.329 -4455
v -7585 279.291 -4457
v -7585 280.354 -4459
v -7585 281.081 -4461
v -7585 282.128 -4463
v -7585 282.972 -4465
v -7585 283.195 -4467
v -7585 283.973 -4469
v -7585 284.204 -4471
v -7585 284.3 -4473
v -7585 284.145 -4475
v -7585 283.799 -4477
v -7585 283.309 -4479
v -7585 281.633 -4481
v -7585 279.436 -4483
v -7585 277.046 -4485
v -7585 276.317 -4487
v -7583 273.782 -4425
v -7583 274.221 -4427
v -7583 274.422 -4429
v -7583 274.431 -4431
v -7583 274.353 -4433
v -7583 274.435 -4435
v -7583 274.636 -4437
v -7583 274.631 -4439
v -7583 274.646 -4441
v -7583 274.651 -4443
v -7583 274.803 -4445
v -7583 275.492 -4447
v -7583 276.216 -4449
v -7583 276.821 -4451
v -7583 277.355 -4453
v -7583 277.758 -4455
v -7583 278.297 -4457
v -7583 279.309 -4459
v -7583 280.317 -4461
v -7583 281.132 -4463
v -7583 281.87 -4465
v -7583 281.257 -4467
v -7583 279.074 -4469
v -7583 283.018 -4471
v -7583 283.237 -4473
v -7583 282.294 -4475
v -7583 280.271 -4477
v -7583 279.208 -4479
v -7583 276.543 -4481
v -7583 277.108 -4483
v -7583 278.316 -4485
v -7583 277.77 -4487
v -7581 273.113 -4425
v -7581 273.43 -4427
v -7581 273.584 -4429
v -7581 273.585 -4431
v -7581 273.654 -4433
v -7581 273.859 -4435
v -7581 273.955 -4437
v -7581 273.934 -4439
v -7581 274.032 -4441
v -7581 274.066 -4443
v -7581 274.477 -4445
v -7581 275.138 -4447
v -7581 275.752 -4449
v -7581 276.36 -4451
v -7581 276.874 -4453
v -7581 277.322 -4455
v -7581 277.816 -4457
v -7581 278.372 -4459
v -7581 279.315 -4461
v -7581 280.156 -4463
v -7581 280.904 -4465
v -7581 280.915 -4467
v -7581 277.429 -4469
v -7581 278.698 -4471
v -7581 280.35 -4473
v -7581 278.314 -4475
v -7581 276.196 -4477
v -7581 276.018 -4479
v -7581 276.461 -4481
v -7581 278.271 -4483
v -7581 278.375 -4485
v -7581 277.26 -4487
v -7579 272.303 -4425
v -7579 272.565 -4427
v -7579 272.793 -4429
v -7579 272.921 -4431
v -7579 273.055 -4433
v -7579 273.218 -4435
v -7579 273.356 -4437
v -7579 273.396 -4439
v -7579 273.365 -4441
v -7579 273.475 -4443
v -7579 274.099 -4445
v -7579 274.821 -4447
v -7579 275.385 -4449
v -7579 276.037 -4451
v -7579 276.473 -4453
v -7579 276.896 -4455
v -7579 277.398 -4457
v -7579 277.695 -4459
v -7579 278.394 -4461
v -7579 279.245 -4463
v -7579 279.991 -4465
v -7579 280.01 -4467
v -7579 277.292 -4469
v -7579 277.967 -4471
v -7579 278.912 -4473
v -7579 277.057 -4475
v -7579 276.178 -4477
v -7579 276.312 -4479
v -7579 276.587 -4481
v -7579 278.332 -4483
v -7579 277.392 -4485
v -7579 276.268 -4487
v -7577 271.548 -4425
v -7577 271.869 -4427
v -7577 272.151 -4429
v -7577 272.384 -4431
v -7577 272.585 -4433
v -7577 272.661 -4435
v -7577 272.794 -4437
v -7577 272.831 -4439
v -7577 272.806 -4441
v -7577 273.17 -4443
v -7577 273.862 -4445
v -7577 274.552 -4447
v -7577 275.093 -4449
v -7577 275.747 -4451
v -7577 276.161 -4453
v -7577 276.631 -4455
v -7577 277.005 -4457
v -7577 277.383 -4459
v -7577 277.611 -4461
v -7577 278.409 -4463
v -7577 279.114 -4465
v -7577 278.046 -4467
v -7577 276.919 -4469
v -7577 277.546 -4471
v -7577 277.957 -4473
v -7577 276.357 -4475
v -7577 276.64 -4477
v -7577 276.93 -4479
v -7577 276.121 -4481
v -7577 277.384 -4483
v -7577 276.436 -4485
v -7577 275.374 -4487
v -7575 271.165 -4425
v -7575 271.527 -4427
v -7575 271.708 -4429
v -7575 271.929 -4431
v -7575 272.093 -4433
v -7575 272.257 -4435
v -7575 272.255 -4437
v -7575 272.29 -4439
v -7575 272.35 -4441
v -7575 272.964 -4443
v -7575 273.667 -4445
v -7575 274.265 -4447
v -7575 274.822 -4449
v -7575 275.388 -4451
v -7575 275.947 -4453
v -7575 276.323 -4455
v -7575 276.679 -4457
v -7575 277.061 -4459
v -7575 277.259 -4461
v -7575 277.077 -4463
v -7575 277.328 -4465
v -7575 276.942 -4467
v -7575 276.754 -4469
v -7575 276.753 -4471
v -7575 276.815 -4473
v -7575 276.039 -4475
v -7575 277.128 -4477
v -7575 277.363 -4479
v -7575 276.714 -4481
v -7575 275.667 -4483
v -7575 275.462 -4485
v -7575 274.354 -4487
v -7573 270.722 -4425
v -7573 271.037 -4427
v -7573 271.268 -4429
v -7573 271.477 -4431
v -7573 271.571 -4433
v -7573 271.667 -4435
v -7573 271.755 -4437
v -7573 271.905 -4439
v -7573 272.167 -4441
v -7573 272.777 -4443
v -7573 273.493 -4445
v -7573 274.051 -4447
v -7573 274.701 -4449
v -7573 275.141 -4451
v -7573 275.649 -4453
v -7573 276.123 -4455
v -7573 276.468 -4457
v -7573 276.738 -4459
v -7573 277.056 -4461
v -7573 276.821 -4463
v -7573 276.616 -4465
v -7573 276.565 -4467
v -7573 276.691 -4469
v -7573 276.475 -4471
v -7573 276.087 -4473
v -7573 275.813 -4475
v -7573 277.131 -4477
v -7573 277.286 -4479
v -7573 276.659 -4481
v -7573 275.682 -4483
v -7573 274.736 -4485
v -7573 273.488 -4487
v -7571 270.298 -4425
v -7571 270.632 -4427
v -7571 270.829 -4429
v -7571 271.039 -4431
v -7571 271.169 -4433
v -7571 271.241 -4435
v -7571 271.338 -4437
v -7571 271.425 -4439
v -7571 271.99 -4441
v -7571 272.611 -4443
v -7571 273.344 -4445
v -7571 273.855 -4447
v -7571 274.421 -4449
v -7571 274.901 -4451
v -7571 275.408 -4453
v -7571 275.856 -4455
v -7571 275.978 -4457
v -7571 276.263 -4459
v -7571 276.692 -4461
v -7571 276.585 -4463
v -7571 276.59 -4465
v -7571 276.54 -4467
v -7571 276.493 -4469
v -7571 276.191 -4471
v -7571 275.666 -4473
v -7571 275.643 -4475
v -7571 276.919 -4477
v -7571 276.604 -4479
v -7571 275.939 -4481
v -7571 275.015 -4483
v -7571 274.013 -4485
v -7571 272.756 -4487
v -7569 269.905 -4425
v -7569 270.17 -4427
v -7569 270.526 -4429
v -7569 270.662 -4431
v -7569 270.775 -4433
v -7569 270.881 -4435
v -7569 271.009 -4437
v -7569 271.112 -4439
v -7569 271.713 -4441
v -7569 272.399 -4443
v -7569 273.112 -4445
v -7569 273.588 -4447
v -7569 274.121 -4449
v -7569 274.633 -4451
v -7569 275.016 -4453
v -7569 275.509 -4455
v -7569 275.709 -4457
v -7569 275.509 -4459
v -7569 276.041 -4461
v -7569 276.15 -4463
v -7569 276.287 -4465
v -7569 276.424 -4467
v -7569 276.309 -4469
v -7569 276.042 -4471
v -7569 275.392 -4473
v -7569 275.21 -4475
v -7569 275.991 -4477
v -7569 276.031 -4479
v -7569 275.264 -4481
v -7569 274.317 -4483
v -7569 273.393 -4485
v -7569 272.293 -4487
v -7567 269.538 -4425
v -7567 269.841 -4427
v -7567 270.052 -4429
v -7567 270.216 -4431
v -7567 270.385 -4433
v -7567 270.527 -4435
v -7567 270.66 -4437
v -7567 270.96 -4439
v -7567 271.655 -4441
v -7567 272.22 -4443
v -7567 272.854 -4445
v -7567 273.372 -4447
v -7567 273.785 -4449
v -7567 274.356 -4451
v -7567 274.829 -4453
v -7567 275.139 -4455
v -7567 275.304 -4457
v -7567 275.138 -4459
v -7567 275.169 -4461
v -7567 275.518 -4463
v -7567 275.906 -4465
v -7567 276.129 -4467
v -7567 275.987 -4469
v -7567 275.615 -4471
v -7567 274.974 -4473
v -7567 274.686 -4475
v -7567 274.812 -4477
v -7567 275.6 -4479
v -7567 274.885 -4481
v -7567 273.94 -4483
v -7567 272.891 -4485
v -7567 271.815 -4487
v -7565 269.216 -4425
v -7565 269.425 -4427
v -7565 269.699 -4429
v -7565 269.923 -4431
v -7565 270.056 -4433
v -7565 270.175 -4435
v -7565 270.256 -4437
v -7565 270.814 -4439
v -7565 271.442 -4441
v -7565 271.979 -4443
v -7565 272.617 -4445
v -7565 273.054 -4447
v -7565 273.419 -4449
v -7565 273.862 -4451
v -7565 274.191 -4453
v -7565 274.507 -4455
v -7565 274.826 -4457
v -7565 274.714 -4459
v -7565 274.405 -4461
v -7565 274.713 -4463
v -7565 275.307 -4465
v -7565 275.614 -4467
v -7565 275.476 -4469
v -7565 275.254 -4471
v -7565 274.645 -4473
v -7565 274.137 -4475
v -7565 274.154 -4477
v -7565 273.899 -4479
v -7565 273.507 -4481
v -7565 272.795 -4483
v -7565 272.067 -4485
v -7565 271.327 -4487
v -7563 268.855 -4425
v -7563 269.162 -4427
v -7563 269.345 -4429
v -7563 269.59 -4431
v -7563 269.765 -4433
v -7563 269.749 -4435
v -7563 270.091 -4437
v -7563 270.659 -4439
v -7563 271.221 -4441
v -7563 271.761 -4443
v -7563 272.237 -4445
v -7563 272.376 -4447
v -7563 272.477 -4449
v -7563 272.87 -4451
v -7563 273.329 -4453
v -7563 273.843 -4455
v -7563 274.184 -4457
v -7563 274.154 -4459
v -7563 273.989 -4461
v -7563 273.959 -4463
v -7563 274.615 -4465
v -7563 274.902 -4467
v -7563 274.978 -4469
v -7563 274.808 -4471
v -7563 274.215 -4473
v -7563 273.463 -4475
v -7563 273.444 -4477
v -7563 273.263 -4479
v -7563 272.699 -4481
v -7563 272.043 -4483
v -7563 271.241 -4485
v -7563 270.561 -4487
v -7561 268.148 -4425
v -7561 268.686 -4427
v -7561 268.948 -4429
v -7561 269.153 -4431
v -7561 269.347 -4433
v -7561 269.488 -4435
v -7561 269.674 -4437
v -7561 270.361 -4439
v -7561 270.813 -4441
v -7561 271.147 -4443
v -7561 271.38 -4445
v -7561 271.764 -4447
v -7561 272.154 -4449
v -7561 272.383 -4451
v -7561 272.108 -4453
v -7561 272.864 -4455
v -7561 273.34 -4457
v -7561 273.565 -4459
v -7561 273.47 -4461
v -7561 273.639 -4463
v -7561 273.85 -4465
v -7561 274.3 -4467
v -7561 274.4 -4469
v -7561 274.151 -4471
v -7561 273.663 -4473
v -7561 273.194 -4475
v -7561 272.854 -4477
v -7561 272.547 -4479
v -7561 271.91 -4481
v -7561 271.442 -4483
v -7561 270.938 -4485
v -7561 270.199 -4487
v -7559 267.813 -4425
v -7559 268.316 -4427
v -7559 268.604 -4429
v -7559 268.781 -4431
v -7559 268.971 -4433
v -7559 269.144 -4435
v -7559 269.164 -4437
v -7559 269.564 -4439
v -7559 270.048 -4441
v -7559 270.313 -4443
v -7559 270.99 -4445
v -7559 271.491 -4447
v -7559 271.893 -4449
v -7559 272.092 -4451
v -7559 272.043 -4453
v -7559 272.103 -4455
v -7559 272.721 -4457
v -7559 272.958 -4459
v -7559 273.184 -4461
v -7559 273.278 -4463
v -7559 273.374 -4465
v -7559 273.641 -4467
v -7559 273.655 -4469
v -7559 273.54 -4471
v -7559 273.198 -4473
v -7559 272.874 -4475
v -7559 272.507 -4477
v -7559 272.083 -4479
v -7559 271.667 -4481
v -7559 271.183 -4483
v -7559 270.596 -4485
v -7559 269.804 -4487
v -7557 267.261 -4425
v -7557 267.937 -4427
v -7557 268.167 -4429
v -7557 268.333 -4431
v -7557 268.584 -4433
v -7557 268.668 -4435
v -7557 268.749 -4437
v -7557 268.699 -4439
v -7557 269.451 -4441
v -7557 270.086 -4443
v -7557 270.602 -4445
v -7557 271.03 -4447
v -7557 271.423 -4449
v -7557 271.71 -4451
v -7557 271.699 -4453
v -7557 271.872 -4455
v -7557 272.339 -4457
v -7557 272.59 -4459
v -7557 272.863 -4461
v -7557 272.968 -4463
v -7557 273.029 -4465
v -7557 273.141 -4467
v -7557 273.082 -4469
v -7557 272.973 -4471
v -7557 272.774 -4473
v -7557 272.472 -4475
v -7557 272.219 -4477
v -7557 271.717 -4479
v -7557 271.351 -4481
v -7557 270.913 -4483
v -7557 270.115 -4485
v -7557 269.224 -4487
v -7555 266.171 -4425
v -7555 267.064 -4427
v -7555 267.69 -4429
v -7555 267.888 -4431
v -7555 267.938 -4433
v -7555 267.989 -4435
v -7555 268.012 -4437
v -7555 267.966 -4439
v -7555 269.165 -4441
v -7555 269.736 -4443
v -7555 270.154 -4445
v -7555 270.606 -4447
v -7555 270.826 -4449
v -7555 271.027 -4451
v -7555 271.125 -4453
v -7555 271.555 -4455
v -7555 271.974 -4457
v -7555 272.151 -4459
v -7555 272.387 -4461
v -7555 272.523 -4463
v -7555 272.665 -4465
v -7555 272.72 -4467
v -7555 272.66 -4469
v -7555 272.625 -4471
v -7555 272.485 -4473
v -7555 272.105 -4475
v -7555 271.825 -4477
v -7555 271.509 -4479
v -7555 270.883 -4481
v -7555 270.343 -4483
v -7555 269.657 -4485
v -7555 268.758 -4487
v -7553 262.427 -4425
v -7553 265.279 -4427
v -7553 266.554 -4429
v -7553 266.873 -4431
v -7553 266.945 -4433
v -7553 266.92 -4435
v -7553 266.02 -4437
v -7553 266.316 -4439
v -7553 267.623 -4441
v -7553 269.065 -4443
v -7553 269.513 -4445
v -7553 269.829 -4447
v -7553 269.212 -4449
v -7553 269.944 -4451
v -7553 270.763 -4453
v -7553 271.157 -4455
v -7553 271.434 -4457
v -7553 271.723 -4459
v -7553 271.956 -4461
v -7553 272.018 -4463
v -7553 272.167 -4465
v -7553 272.238 -4467
v -7553 272.188 -4469
v -7553 272.098 -4471
v -7553 271.969 -4473
v -7553 271.759 -4475
v -7553 271.468 -4477
v -7553 271.121 -4479
v -7553 270.547 -4481
v -7553 269.856 -4483
v -7553 269.026 -4485
v -7553 268.179 -4487
v -7551 260.287 -4425
v -7551 260.668 -4427
v -7551 262.741 -4429
v -7551 263.921 -4431
v -7551 263.862 -4433
v -7551 263.163 -4435
v -7551 262.886 -4437
v -7551 263.708 -4439
v -7551 264.375 -4441
v -7551 265.92 -4443
v -7551 266.606 -4445
v -7551 267.362 -4447
v -7551 268.486 -4449
v -7551 269.85 -4451
v -7551 270.261 -4453
v -7551 270.605 -4455
v -7551 270.932 -4457
v -7551 271.168 -4459
v -7551 271.452 -4461
v -7551 271.549 -4463
v -7551 271.644 -4465
v -7551 271.723 -4467
v -7551 271.744 -4469
v -7551 271.664 -4471
v -7551 271.485 -4473
v -7551 271.29 -4475
v -7551 271.02 -4477
v -7551 270.572 -4479
v -7551 269.975 -4481
v -7551 269.358 -4483
v -7551 268.601 -4485
v -7551 267.704 -4487
v -7549 259.929 -4425
v -7549 260.314 -4427
v -7549 260.683 -4429
v -7549 261.065 -4431
v -7549 261.447 -4433
v -7549 262.103 -4435
v -7549 262.669 -4437
v -7549 263.43 -4439
v -7549 264.284 -4441
v -7549 265.067 -4443
v -7549 265.939 -4445
v -7549 267.029 -4447
v -7549 268.233 -4449
v -7549 269.336 -4451
v -7549 269.712 -4453
v -7549 270.02 -4455
v -7549 270.388 -4457
v -7549 270.671 -4459
v -7549 270.797 -4461
v -7549 270.903 -4463
v -7549 271.095 -4465
v -7549 271.289 -4467
v -7549 271.264 -4469
v -7549 271.19 -4471
v -7549 270.942 -4473
v -7549 270.636 -4475
v -7549 270.282 -4477
v -7549 270.067 -4479
v -7549 269.496 -4481
v -7549 268.877 -4483
v -7549 268.086 -4485
v -7549 267.281 -4487
v -7547 262.388 -4425
v -7547 259.987 -4427
v -7547 260.372 -4429
v -7547 260.765 -4431
v -7547 261.087 -4433
v -7547 261.699 -4435
v -7547 262.424 -4437
v -7547 263.02 -4439
v -7547 263.84 -4441
v -7547 264.753 -4443
v -7547 265.68 -4445
v -7547 266.765 -4447
v -7547 267.906 -4449
v -7547 268.766 -4451
v -7547 269.096 -4453
v -7547 269.413 -4455
v -7547 269.743 -4457
v -7547 269.959 -4459
v -7547 270.172 -4461
v -7547 270.404 -4463
v -7547 270.61 -4465
v -7547 270.712 -4467
v -7547 270.562 -4469
v -7547 270.526 -4471
v -7547 270.293 -4473
v -7547 270.116 -4475
v -7547 269.701 -4477
v -7547 269.326 -4479
v -7547 268.888 -4481
v -7547 268.279 -4483
v -7547 267.559 -4485
v -7547 266.804 -4487
v -7545 263.689 -4425
v -7545 262.371 -4427
v -7545 260.283 -4429
v -7545 260.4 -4431
v -7545 260.8 -4433
v -7545 261.252 -4435
v -7545 261.959 -4437
v -7545 262.621 -4439
v -7545 263.357 -4441
v -7545 264.306 -4443
v -7545 264.67 -4445
v -7545 266.289 -4447
v -7545 267.543 -4449
v -7545 268.045 -4451
v -7545 268.396 -4453
v -7545 268.77 -4455
v -7545 269.086 -4457
v -7545 269.389 -4459
v -7545 269.532 -4461
v -7545 269.777 -4463
v -7545 269.905 -4465
v -7545 270.002 -4467
v -7545 269.895 -4469
v -7545 269.783 -4471
v -7545 269.56 -4473
v -7545 269.294 -4475
v -7545 269.014 -4477
v -7545 268.643 -4479
v -7545 268.262 -4481
v -7545 267.766 -4483
v -7545 267.05 -4485
v -7545 266.275 -4487
v -7543 263.253 -4425
v -7543 262.686 -4427
v -7543 261.001 -4429
v -7543 259.971 -4431
v -7543 260.362 -4433
v -7543 260.876 -4435
v -7543 261.419 -4437
v -7543 262.026 -4439
v -7543 262.774 -4441
v -7543 263.721 -4443
v -7543 263.803 -4445
v -7543 265.697 -4447
v -7543 266.951 -4449
v -7543 267.416 -4451
v -7543 267.787 -4453
v -7543 268.203 -4455
v -7543 268.464 -4457
v -7543 268.7 -4459
v -7543 268.953 -4461
v -7543 269.199 -4463
v -7543 269.301 -4465
v -7543 269.298 -4467
v -7543 269.223 -4469
v -7543 269.106 -4471
v -7543 269.025 -4473
v -7543 268.755 -4475
v -7543 268.492 -4477
v -7543 267.994 -4479
v -7543 267.563 -4481
v -7543 267.08 -4483
v -7543 266.458 -4485
v -7543 265.671 -4487
v -7541 261.436 -4425
v -7541 261.29 -4427
v -7541 259.727 -4429
v -7541 259.602 -4431
v -7541 260.021 -4433
v -7541 260.374 -4435
v -7541 260.788 -4437
v -7541 261.462 -4439
v -7541 262.176 -4441
v -7541 263.049 -4443
v -7541 263.477 -4445
v -7541 265.034 -4447
v -7541 266.178 -4449
v -7541 266.799 -4451
v -7541 267.097 -4453
v -7541 267.422 -4455
v -7541 267.678 -4457
v -7541 267.977 -4459
v -7541 268.178 -4461
v -7541 268.372 -4463
v -7541 268.504 -4465
v -7541 268.554 -4467
v -7541 268.606 -4469
v -7541 268.498 -4471
v -7541 268.308 -4473
v -7541 268.039 -4475
v -7541 267.761 -4477
v -7541 267.416 -4479
v -7541 266.972 -4481
v -7541 266.499 -4483
v -7541 265.837 -4485
v -7541 265.109 -4487
v -7539 258.312 -4425
v -7539 258.721 -4427
v -7539 258.748 -4429
v -7539 259.266 -4431
v -7539 259.606 -4433
v -7539 259.924 -4435
v -7539 260.248 -4437
v -7539 260.748 -4439
v -7539 261.461 -4441
v -7539 262.211 -4443
v -7539 263.206 -4445
v -7539 264.304 -4447
v -7539 265.516 -4449
v -7539 266 -4451
v -7539 266.393 -4453
v -7539 266.67 -4455
v -7539 267.035 -4457
v -7539 267.207 -4459
v -7539 267.466 -4461
v -7539 267.623 -4463
v -7539 267.758 -4465
v -7539 267.843 -4467
v -7539 267.912 -4469
v -7539 267.868 -4471
v -7539 267.61 -4473
v -7539 267.432 -4475
v -7539 267.065 -4477
v -7539 266.83 -4479
v -7539 266.352 -4481
v -7539 265.894 -4483
v -7539 265.209 -4485
v -7539 264.387 -4487
v -7537 257.326 -4425
v -7537 257.863 -4427
v -7537 258.229 -4429
v -7537 258.648 -4431
v -7537 259.023 -4433
v -7537 259.518 -4435
v -7537 259.873 -4437
v -7537 260.299 -4439
v -7537 260.777 -4441
v -7537 261.38 -4443
v -7537 262.353 -4445
v -7537 263.404 -4447
v -7537 264.604 -4449
v -7537 265.198 -4451
v -7537 265.652 -4453
v -7537 265.892 -4455
v -7537 266.272 -4457
v -7537 266.427 -4459
v -7537 266.685 -4461
v -7537 266.952 -4463
v -7537 267.16 -4465
v -7537 267.138 -4467
v -7537 267.207 -4469
v -7537 267.107 -4471
v -7537 266.947 -4473
v -7537 266.794 -4475
v -7537 266.542 -4477
v -7537 266.131 -4479
v -7537 265.979 -4481
v -7537 265.362 -4483
v -7537 264.556 -4485
v -7537 263.765 -4487
v -7535 257.156 -4425
v -7535 257.358 -4427
v -7535 257.787 -4429
v -7535 258.102 -4431
v -7535 258.559 -4433
v -7535 258.901 -4435
v -7535 258.514 -4437
v -7535 259.739 -4439
v -7535 260.228 -4441
v -7535 260.791 -4443
v -7535 261.378 -4445
v -7535 262.405 -4447
v -7535 263.702 -4449
v -7535 264.5 -4451
v -7535 264.793 -4453
v -7535 265.081 -4455
v -7535 265.496 -4457
v -7535 265.673 -4459
v -7535 265.863 -4461
v -7535 266.17 -4463
v -7535 266.274 -4465
v -7535 266.382 -4467
v -7535 266.525 -4469
v -7535 266.351 -4471
v -7535 266.258 -4473
v -7535 265.952 -4475
v -7535 265.792 -4477
v -7535 265.444 -4479
v -7535 265.442 -4481
v -7535 265.07 -4483
v -7535 263.867 -4485
v -7535 263.107 -4487
v -7533 257.435 -4425
v -7533 256.81 -4427
v -7533 257.218 -4429
v -7533 257.68 -4431
v -7533 257.967 -4433
v -7533 258.204 -4435
v -7533 258.786 -4437
v -7533 259.243 -4439
v -7533 259.705 -4441
v -7533 259.48 -4443
v -7533 258.198 -4445
v -7533 258.761 -4447
v -7533 261.728 -4449
v -7533 263.694 -4451
v -7533 263.942 -4453
v -7533 264.266 -4455
v -7533 264.538 -4457
v -7533 264.855 -4459
v -7533 265.141 -4461
v -7533 265.266 -4463
v -7533 265.51 -4465
v -7533 265.666 -4467
v -7533 265.716 -4469
v -7533 265.574 -4471
v -7533 265.431 -4473
v -7533 265.366 -4475
v -7533 265.033 -4477
v -7533 264.738 -4479
v -7533 264.295 -4481
v -7533 263.877 -4483
v -7533 263.131 -4485
v -7533 262.41 -4487
v -7531 256.489 -4425
v -7531 256.137 -4427
v -7531 256.634 -4429
v -7531 257.092 -4431
v -7531 257.39 -4433
v -7531 257.769 -4435
v -7531 258.158 -4437
v -7531 258.627 -4439
v -7531 257.147 -4441
v -7531 255.728 -4443
v -7531 256.612 -4445
v -7531 256.796 -4447
v -7531 257.353 -4449
v -7531 262.756 -4451
v -7531 263.18 -4453
v -7531 263.476 -4455
v -7531 263.751 -4457
v -7531 263.96 -4459
v -7531 264.255 -4461
v -7531 264.387 -4463
v -7531 264.65 -4465
v -7531 264.76 -4467
v -7531 264.758 -4469
v -7531 264.75 -4471
v -7531 264.671 -4473
v -7531 264.553 -4475
v -7531 264.203 -4477
v -7531 263.974 -4479
v -7531 263.545 -4481
v -7531 263.014 -4483
v -7531 262.335 -4485
v -7531 261.589 -4487
v -7529 255.115 -4425
v -7529 255.681 -4427
v -7529 256.079 -4429
v -7529 256.449 -4431
v -7529 256.771 -4433
v -7529 257.202 -4435
v -7529 257.62 -4437
v -7529 256.635 -4439
v -7529 256.867 -4441
v -7529 258.979 -4443
v -7529 259.535 -4445
v -7529 258.636 -4447
v -7529 257.706 -4449
v -7529 258.817 -4451
v -7529 262.172 -4453
v -7529 262.496 -4455
v -7529 262.891 -4457
v -7529 263.081 -4459
v -7529 263.323 -4461
v -7529 263.472 -4463
v -7529 263.699 -4465
v -7529 263.888 -4467
v -7529 263.813 -4469
v -7529 263.892 -4471
v -7529 263.747 -4473
v -7529 263.636 -4475
v -7529 263.427 -4477
v -7529 263.059 -4479
v -7529 262.718 -4481
v -7529 262.203 -4483
v -7529 261.59 -4485
v -7529 260.851 -4487
f 34 2 1
f 1 33 34
f 66 34 33
f 33 65 66
f 98 66 65
f 65 97 98
f 130 98 97
f 97 129 130
f 162 130 129
f 129 161 162
f 194 162 161
f 161 193 194
f 226 194 193
f 193 225 226
f 258 226 225
f 225 257 258
f 290 258 257
f 257 289 290
f 322 290 289
f 289 321 322
f 354 322 321
f 321 353 354
f 386 354 353
f 353 385 386
f 418 386 385
f 385 417 418
f 450 418 417
f 417 449 450
f 482 450 449
f 449 481 482
f 514 482 481
f 481 513 514
f 546 514 513
f 513 545 546
f 578 546 545
f 545 577 578
f 610 578 577
f 577 609 610
f 642 610 609
f 609 641 642
f 674 642 641
f 641 673 674
f 706 674 673
f 673 705 706
f 738 706 705
f 705 737 738
f 770 738 737
f 737 769 770
f 802 770 769
f 769 801 802
f 834 802 801
f 801 833 834
f 866 834 833
f 833 865 866
f 898 866 865
f 865 897 898
f 930 898 897
f 897 929 930
f 962 930 929
f 929 961 962
f 994 962 961
f 961 993 994
f 35 3 2
f 2 34 35
f 67 35 34
f 34 66 67
f 99 67 66
f 66 98 99
f 131 99 98
f 98 130 131
f 163 131 130
f 130 162 163
f 195 163 162
f 162 194 195
f 227 195 194
f 194 226 227
f 259 227 226
f 226 258 259
f 291 259 258
f 258 290 291
f 323 291 290
f 290 322 323
f 355 323 322
f 322 354 355
f 387 355 354
f 354 386 387
f 419 387 386
f 386 418 419
f 451 419 418
f 418 450 451
f 483 451 450
f 450 482 483
f 515 483 482
f 482 514 515
f 547 515 514
f 514 546 547
f 579 547 546
f 546 578 579
f 611 579 578
f 578 610 611
f 643 611 610
f 610 642 643
f 675 643 642
f 642 674 675
f 707 675 674
f 674 706 707
f 739 707 706
f 706 738 739
f 771 739 738
f 738 770 771
f 803 771 770
f 770 802 803
f 835 803 802
f 802 834 835
f 867 835 834
f 834 866 867
f 899 867 866
f 866 898 899
f 931 899 898
f 898 930 931
f 963 931 930
f 930 962 963
f 995 963 962
f 962 994 995
f 36 4 3
f 3 35 36
f 68 36 35
f 35 67 68
f 100 68 67
f 67 99 100
f 132 100 99
f 99 131 132
f 164 132 131
f 131 163 164
f 196 164 163
f 163 195 196
f 228 196 195
f 195 227 228
f 260 228 227
f 227 259 260
f 292 260 259
f 259 291 292
f 324 292 291
f 291 323 324
f 356 324 323
f 323 355 356
f 388 356 355
f 355 387 388
f 420 388 387
f 387 419 420
f 452 420 419
f 419 451 452
f 484 452 451
f 451 483 484
f 516 484 483
f 483 515 516
f 548 516 515
f 515 547 548
f 580 548 547
f 547 579 580
f 612 580 579
f 579 611 612
f 644 612 611
f 611 643 644
f 676 644 643
f 643 675 676
f 708 676 675
f 675 707 708
f 740 708 707
f 707 739 740
f 772 740 739
f 739 771 772
f 804 772 771
f 771 803 804
f 836 804 803
f 803 835 836
f 868 836 835
f 835 867 868
f 900 868 867
f 867 899 900
f 932 900 899
f 899 931 932
f 964 932 931
f 931 963 964
f 996 964 963
f 963 995 996
f 37 5 4
f 4 36 37
f 69 37 36
f 36 68 69
f 101 69 68
f 68 100 101
f 133 101 100
f 100 132 133
f 165 133 132
f 132 164 165
f 197 165 164
f 164 196 197
f 229 197 196
f 196 228 229
f 261 229 228
f 228 260 261
f 293 261 260
f 260 292 293
f 325 293 292
f 292 324 325
f 357 325 324
f 324 356 357
f 389 357 356
f 356 388 389
f 421 389 388
f 388 420 421
f 453 421 420
f 420 452 453
f 485 453 452
f 452 484 485
f 517 485 484
f 484 516 517
f 549 517 516
f 516 548 549
f 581 549 548
f 548 580 581
f 613 581 580
f 580 612 613
f 645 613 612
f 612 644 645
f 677 645 644
f 644 676 677
f 709 677 676
f 676 708 709
f 741 709 708
f 708 740 741
f 773 741 740
f 740 772 773
f 805 773 772
f 772 804 805
f 837 805 804
f 804 836 837
f 869 837 836
f 836 868 869
f 901 869 868
f 868 900 901
f 933 901 900
f 900 932 933
f 965 933 932
f 932 964 965
f 997 965 964
f 964 996 997
f 38 6 5
f 5 37 38
f 70 38 37
f 37 69 70
f 102 70 69
f 69 101 102
f 134 102 101
f 101 133 134
f 166 134 133
f 133 165 166
f 198 166 165
f 165 197 198
f 230 198 197
f 197 229 230
f 262 230 229
f 229 261 262
f 294 262 261
f 261 293 294
f 326 294 293
f 293 325 326
f 358 326 325
f 325 357 358
f 390 358 357
f 357 389 390
f 422 390 389
f 389 421 422
f 454 422 421
f 421 453 454
f 486 454 453
f 453 485 486
f 518 486 485
f 485 517 518
f 550 518 517
f 517 549 550
f 582 550 549
f 549 581 582
f 614 582 581
f 581 613 614
f 646 614 613
f 613 645 646
f 678 646 645
f 645 677 678
f 710 678 677
f 677 709 710
f 742 710 709
f 709 741 742
f 774 742 741
f 741 773 774
f 806 774 773
f 773 805 806
f 838 806 805
f 805 837 838
f 870 838 837
f 837 869 870
f 902 870 869
f 869 901 902
f 934 902 901
f 901 933 934
f 966 934 933
f 933 965 966
f 998 966 965
f 965 997 998
f 39 7 6
f 6 38 39
f 71 39 38
f 38 70 71
f 103 71 70
f 70 102 103
f 135 103 102
f 102 134 135
f 167 135 134
f 134 166 167
f 199 167 166
f 166 198 199
f 231 199 198
f 198 230 231
f 263 231 230
f 230 262 263
f 295 263 262
f 262 294 295
f 327 295 294
f 294 326 327
f 359 327 326
f 326 358 359
f 391 359 358
f 358 390 391
f 423 391 390
f 390 422 423
f 455 423 422
f 422 454 455
f 487 455 454
f 454 486 487
f 519 487 486
f 486 518 519
f 551 519 518
f 518 550 551
f 583 551 550
f 550 582 583
f 615 583 582
f 582 614 615
f 647 615 614
f 614 646 647
f 679 647 646
f 646 678 679
f 711 679 678
f 678 710 711
f 743 711 710
f 710 742 743
f 775 743 742
f 742 774 775
f 807 775 774
f 774 806 807
f 839 807 806
f 806 838 839
f 871 839 838
f 838 870 871
f 903 871 870
f 870 902 903
f 935 903 902
f 902 934 935
f 967 935 934
f 934 966 967
f 999 967 966
f 966 998 999
f 40 8 7
f 7 39 40
f 72 40 39
f 39 71 72
f 104 72 71
f 71 103 104
f 136 104 103
f 103 135 136
f 168 136 135
f 135 167 168
f 200 168 167
f 167 199 200
f 232 200 199
f 199 231 232
f 264 232 231
f 231 263 264
f 296 264 263
f 263 295 296
f 328 296 295
f 295 327 328
f 360 328 327
f 327 359 360
f 392 360 359
f 359 391 392
f 424 392 391
f 391 423 424
f 456 424 423
f 423 455 456
f 488 456 455
f 455 487 488
f 520 488 487
f 487 519 520
f 552 520 519
f 519 551 552
f 584 552 551
f 551 583 584
f 616 584 583
f 583 615 616
f 648 616 615
f 615 647 648
f 680 648 647
f 647 679 680
f 712 680 679
f 679 711 712
f 744 712 711
f 711 743 744
f 776 744 743
f 743 775 776
f 808 776 775
f 775 807 808
f 840 808 807
f 807 839 840
f 872 840 839
f 839 871 872
f 904 872 871
f 871 903 904
f 936 904 903
f 903 935 936
f 968 936 935
f 935 967 968
f 1000 968 967
f 967 999 1000
f 41 9 8
f 8 40 41
f 73 41 40
f 40 72 73
f 105 73 72
f 72 104 105
f 137 105 104
f 104 136 137
f 169 137 136
f 136 168 169
f 201 169 168
f 168 200 201
f 233 201 200
f 200 232 233
f 265 233 232
f 232 264 265
f 297 265 264
f 264 296 297
f 329 297 296
f 296 328 329
f 361 329 328
f 328 360 361
f 393 361 360
f 360 392 393
f 425 393 392
f 392 424 425
f 457 425 424
f 424 456 457
f 489 457 456
f 456 488 489
f 521 489 488
f 488 520 521
f 553 521 520
f 520 552 553
f 585 553 552
f 552 584 585
f 617 585 584
f 584 616 617
f 649 617 616
f 616 648 649
f 681 649 648
f 648 680 681
f 713 681 680
f 680 712 713
f 745 713 712
f 712 744 745
f 777 745 744
f 744 776 777
f 809 777 776
f 776 808 809
f 841 809 808
f 808 840 841
f 873 841 840
f 840 872 873
f 905 873 872
f 872 904 905
f 937 905 904
f 904 936 937
f 969 937 936
f 936 968 969
f 1001 969 968
f 968 1000 1001
f 42 10 9
f 9 41 42
f 74 42 41
f 41 73 74
f 106 74 73
f 73 105 106
f 138 106 105
f 105 137 138
f 170 138 137
f 137 169 170
f 202 170 169
f 169 201 202
f 234 202 201
f 201 233 234
f 266 234 233
f 233 265 266
f 298 266 265
f 265 297 298
f 330 298 297
f 297 329 330
f 362 330 329
f 329 361 362
f 394 362 361
f 361 393 394
f 426 394 393
f 393 425 426
f 458 426 425
f 425 457 458
f 490 458 457
f 457 489 490
f 522 490 489
f 489 521 522
f 554 522 521
f 521 553 554
f 586 554 553
f 553 585 586
f 618 586 585
f 585 617 618
f 650 618 617
f 617 649 650
f 682 650 649
f 649 681 682
f 714 682 681
f 681 713 714
f 746 714 713
f 713 745 746
f 778 746 745
f 745 777 778
f 810 778 777
f 777 809 810
f 842 810 809
f 809 841 842
f 874 842 841
f 841 873 874
f 906 874 873
f 873 905 906
f 938 906 905
f 905 937 938
f 970 938 937
f 937 969 970
f 1002 970 969
f 969 1001 1002
f 43 11 10
f 10 42 43
f 75 43 42
f 42 74 75
f 107 75 74
f 74 106 107
f 139 107 106
f 106 138 139
f 171 139 138
f 138 170 171
f 203 171 170
f 170 202 203
f 235 203 202
f 202 234 235
f 267 235 234
f 234 266 267
f 299 267 266
f 266 298 299
f 331 299 298
f 298 330 331
f 363 331 330
f 330 362 363
f 395 363 362
f 362 394 395
f 427 395 394
f 394 426 427
f 459 427 426
f 426 458 459
f 491 459 458
f 458 490 491
f 523 491 490
f 490 522 523
f 555 523 522
f 522 554 555
f 587 555 554
f 554 586 587
f 619 587 586
f 586 618 619
f 651 619 618
f 618 650 651
f 683 651 650
f 650 682 683
f 715 683 682
f 682 714 715
f 747 715 714
f 714 746 747
f 779 747 746
f 746 778 779
f 811 779 778
f 778 810 811
f 843 811 810
f 810 842 843
f 875 843 842
f 842 874 875
f 907 875 874
f 874 906 907
f 939 907 906
f 906 938 939
f 971 939 938
f 938 970 971
f 1003 971 970
f 970 1002 1003
f 44 12 11
f 11 43 44
f 76 44 43
f 43 75 76
f 108 76 75
f 75 107 108
f 140 108 107
f 107 139 140
f 172 140 139
f 139 171 172
f 204 172 171
f 171 203 204
f 236 204 203
f 203 235 236
f 268 236 235
f 235 267 268
f 300 268 267
f 267 299 300
f 332 300 299
f 299 331 332
f 364 332 331
f 331 363 364
f 396 364 363
f 363 395 396
f 428 396 395
f 395 427 428
f 460 428 427
f 427 459 460
f 492 460 459
f 459 491 492
f 524 492 491
f 491 523 524
f 556 524 523
f 523 555 556
f 588 556 555
f 555 587 588
f 620 588 587
f 587 619 620
f 652 620 619
f 619 651 652
f 684 652 651
f 651 683 684
f 716 684 683
f 683 715 716
f 748 716 715
f 715 747 748
f 780 748 747
f 747 779 780
f 812 780 779
f 779 811 812
f 844 812 811
f 811 843 844
f 876 844 843
f 843 875 876
f 908 876 875
f 875 907 908
f 940 908 907
f 907 939 940
f 972 940 939
f 939 971 972
f 1004 972 971
f 971 1003 1004
f 45 13 12
f 12 44 45
f 77 45 44
f 44 76 77
f 109 77 76
f 76 108 109
f 141 109 108
f 108 140 141
f 173 141 140
f 140 172 173
f 205 173 172
f 172 204 205
f 237 205 204
f 204 236 237
f 269 237 236
f 236 268 269
f 301 269 268
f 268 300 301
f 333 301 300
f 300 332 333
f 365 333 332
f 332 364 365
f 397 365 364
f 364 396 397
f 429 397 396
f 396 428 429
f 461 429 428
f 428 460 461
f 493 461 460
f 460 492 493
f 525 493 492
f 492 524 525
f 557 525 524
f 524 556 557
f 589 557 556
f 556 588 589
f 621 589 588
f 588 620 621
f 653 621 620
f 620 652 653
f 685 653 652
f 652 684 685
f 717 685 684
f 684 716 717
f 749 717 716
f 716 748 749
f 781 749 748
f 748 780 781
f 813 781 780
f 780 812 813
f 845 813 812
f 812 844 845
f 877 845 844
f 844 876 877
f 909 877 876
f 876 908 909
f 941 909 908
f 908 940 941
f 973 941 940
f 940 972 973
f 1005 973 972
f 972 1004 1005
f 46 14 13
f 13 45 46
f 78 46 45
f 45 77 78
f 110 78 77
f 77 109 110
f 142 110 109
f 109 141 142
f 174 142 141
f 141 173 174
f 206 174 173
f 173 205 206
f 238 206 205
f 205 237 238
f 270 238 237
f 237 269 270
f 302 270 269
f 269 301 302
f 334 302 301
f 301 333 334
f 366 334 333
f 333 365 366
f 398 366 365
f 365 397 398
f 430 398 397
f 397 429 430
f 462 430 429
f 429 461 462
f 494 462 461
f 461 493 494
f 526 494 493
f 493 525 526
f 558 526 525
f 525 557 558
f 590 558 557
f 557 589 590
f 622 590 589
f 589 621 622
f 654 622 621
f 621 653 654
f 686 654 653
f 653 685 686
f 718 686 685
f 685 717 718
f 750 718 717
f 717 749 750
f 782 750 749
f 749 781 782
f 814 782 781
f 781 813 814
f 846 814 813
f 813 845 846
f 878 846 845
f 845 877 878
f 910 878 877
f 877 909 910
f 942 910 909
f 909 941 942
f 974 942 941
f 941 973 974
f 1006 974 973
f 973 1005 1006
f 47 15 14
f 14 46 47
f 79 47 46
f 46 78 79
f 111 79 78
f 78 110 111
f 143 111 110
f 110 142 143
f 175 143 142
f 142 174 175
f 207 175 174
f 174 206 207
f 239 207 206
f 206 238 239
f 271 239 238
f 238 270 271
f 303 271 270
f 270 302 303
f 335 303 302
f 302 334 335
f 367 335 334
f 334 366 367
f 399 367 366
f 366 398 399
f 431 399 398
f 398 430 431
f 463 431 430
f 430 462 463
f 495 463 462
f 462 494 495
f 527 495 494
f 494 526 527
f 559 527 526
f 526 558 559
f 591 559 558
f 558 590 591
f 623 591 590
f 590 622 623
f 655 623 622
f 622 654 655
f 687 655 654
f 654 686 687
f 719 687 686
f 686 718 719
f 751 719 718
f 718 750 751
f 783 751 750
f 750 782 783
f 815 783 782
f 782 814 815
f 847 815 814
f 814 846 847
f 879 847 846
f 846 878 879
f 911 879 878
f 878 910 911
f 943 911 910
f 910 942 943
f 975 943 942
f 942 974 975
f 1007 975 974
f 974 1006 1007
f 48 16 15
f 15 47 48
f 80 48 47
f 47 79 80
f 112 80 79
f 79 111 112
f 144 112 111
f 111 143 144
f 176 144 143
f 143 175 176
f 208 176 175
f 175 207 208
f 240 208 207
f 207 239 240
f 272 240 239
f 239 271 272
f 304 272 271
f 271 303 304
f 336 304 303
f 303 335 336
f 368 336 335
f 335 367 368
f 400 368 367
f 367 399 400
f 432 400 399
f 399 431 432
f 464 432 431
f 431 463 464
f 496 464 463
f 463 495 496
f 528 496 495
f 495 527 528
f 560 528 527
f 527 559 560
f 592 560 559
f 559 591 592
f 624 592 591
f 591 623 624
f 656 624 623
f 623 655 656
f 688 656 655
f 655 687 688
f 720 688 687
f 687 719 720
f 752 720 719
f 719 751 752
f 784 752 751
f 751 783 784
f 816 784 783
f 783 815 816
f 848 816 815
f 815 847 848
f 880 848 847
f 847 879 880
f 912 880 879
f 879 911 912
f 944 912 911
f 911 943 944
f 976 944 943
f 943 975 976
f 1008 976 975
f 975 1007 1008
f 49 17 16
f 16 48 49
f 81 49 48
f 48 80 81
f 113 81 80
f 80 112 113
f 145 113 112
f 112 144 145
f 177 145 144
f 144 176 177
f 209 177 176
f 176 208 209
f 241 209 208
f 208 240 241
f 273 241 240
f 240 272 273
f 305 273 272
f 272 304 305
f 337 305 304
f 304 336 337
f 369 337 336
f 336 368 369
f 401 369 368
f 368 400 401
f 433 401 400
f 400 432 433
f 465 433 432
f 432 464 465
f 497 465 464
f 464 496 497
f 529 497 496
f 496 528 529
f 561 529 528
f 528 560 561
f 593 561 560
f 560 592 593
f 625 593 592
f 592 624 625
f 657 625 624
f 624 656 657
f 689 657 656
f 656 688 689
f 721 689 688
f 688 720 721
f 753 721 720
f 720 752 753
f 785 753 752
f 752 784 785
f 817 785 784
f 784 816 817
f 849 817 816
f 816 848 849
f 881 849 848
f 848 880 881
f 913 881 880
f 880 912 913
f 945 913 912
f 912 944 945
f 977 945 944
f 944 976 977
f 1009 977 976
f 976 1008 1009
f 50 18 17
f 17 49 50
f 82 50 49
f 49 81 82
f 114 82 81
f 81 113 114
f 146 114 113
f 113 145 146
f 178 146 145
f 145 177 178
f 210 178 177
f 177 209 210
f 242 210 209
f 209 241 242
f 274 242 241
f 241 273 274
f 306 274 273
f 273 305 306
f 338 306 305
f 305 337 338
f 370 338 337
f 337 369 370
f 402 370 369
f 369 401 402
f 434 402 401
f 401 433 434
f 466 434 433
f 433 465 466
f 498 466 465
f 465 497 498
f 530 498 497
f 497 529 530
f 562 530 529
f 529 561 562
f 594 562 561
f 561 593 594
f 626 594 593
f 593 625 626
f 658 626 625
f 625 657 658
f 690 658 657
f 657 689 690
f 722 690 689
f 689 721 722
f 754 722 721
f 721 753 754
f 786 754 753
f 753 785 786
f 818 786 785
f 785 817 818
f 850 818 817
f 817 849 850
f 882 850 849
f 849 881 882
f 914 882 881
f 881 913 914
f 946 914 913
f 913 945 946
f 978 946 945
f 945 977 978
f 1010 978 977
f 977 1009 1010
f 51 19 18
f 18 50 51
f 83 51 50
f 50 82 83
f 115 83 82
f 82 114 115
f 147 115 114
f 114 146 147
f 179 147 146
f 146 178 179
f 211 179 178
f 178 210 211
f 243 211 210
f 210 242 243
f 275 243 242
f 242 274 275
f 307 275 274
f 274 306 307
f 339 307 306
f 306 338 339
f 371 339 338
f 338 370 371
f 403 371 370
f 370 402 403
f 435 403 402
f 402 434 435
f 467 435 434
f 434 466 467
f 499 467 466
f 466 498 499
f 531 499 498
f 498 530 531
f 563 531 530
f 530 562 563
f 595 563 562
f 562 594 595
f 627 595 594
f 594 626 627
f 659 627 626
f 626 658 659
f 691 659 658
f 658 690 691
f 723 691 690
f 690 722 723
f 755 723 722
f 722 754 755
f 787 755 754
f 754 786 787
f 819 787 786
f 786 818 819
f 851 819 818
f 818 850 851
f 883 851 850
f 850 882 883
f 915 883 882
f 882 914 915
f 947 915 914
f 914 946 947
f 979 947 946
f 946 978 979
f 1011 979 978
f 978 1010 1011
f 52 20 19
f 19 51 52
f 84 52 51
f 51 83 84
f 116 84 83
f 83 115 116
f 148 116 115
f 115 147 148
f 180 148 147
f 147 179 180
f 212 180 179
f 179 211 212
f 244 212 211
f 211 243 244
f 276 244 243
f 243 275 276
f 308 276 275
f 275 307 308
f 340 308 307
f 307 339 340
f 372 340 339
f 339 371 372
f 404 372 371
f 371 403 404
f 436 404 403
f 403 435 436
f 468 436 435
f 435 467 468
f 500 468 467
f 467 499 500
f 532 500 499
f 499 531 532
f 564 532 531
f 531 563 564
f 596 564 563
f 563 595 596
f 628 596 595
f 595 627 628
f 660 628 627
f 627 659 660
f 692 660 659
f 659 691 692
f 724 692 691
f 691 723 724
f 756 724 723
f 723 755 756
f 788 756 755
f 755 787 788
f 820 788 787
f 787 819 820
f 852 820 819
f 819 851 852
f 884 852 851
f 851 883 884
f 916 884 883
f 883 915 916
f 948 916 915
f 915 947 948
f 980 948 947
f 947 979 980
f 1012 980 979
f 979 1011 1012
f 53 21 20
f 20 52 53
f 85 53 52
f 52 84 85
f 117 85 84
f 84 116 117
f 149 117 116
f 116 148 149
f 181 149 148
f 148 180 181
f 213 181 180
f 180 212 213
f 245 213 212
f 212 244 245
f 277 245 244
f 244 276 277
f 309 277 276
f 276 308 309
f 341 309 308
f 308 340 341
f 373 341 340
f 340 372 373
f 405 373 372
f 372 404 405
f 437 405 404
f 404 436 437
f 469 437 436
f 436 468 469
f 501 469 468
f 468 500 501
f 533 501 500
f 500 532 533
f 565 533 532
f 532 564 565
f 597 565 564
f 564 596 597
f 629 597 596
f 596 628 629
f 661 629 628
f 628 660 661
f 693 661 660
f 660 692 693
f 725 693 692
f 692 724 725
f 757 725 724
f 724 756 757
f 789 757 756
f 756 788 789
f 821 789 788
f 788 820 821
f 853 821 820
f 820 852 853
f 885 853 852
f 852 884 885
f 917 885 884
f 884 916 917
f 949 917 916
f 916 948 949
f 981 949 948
f 948 980 981
f 1013 981 980
f 980 1012 1013
f 54 22 21
f 21 53 54
f 86 54 53
f 53 85 86
f 118 86 85
f 85 117 118
f 150 118 117
f 117 149 150
f 182 150 149
f 149 181 182
f 214 182 181
f 181 213 214
f 246 214 213
f 213 245 246
f 278 246 245
f 245 277 278
f 310 278 277
f 277 309 310
f 342 310 309
f 309 341 342
f 374 342 341
f 341 373 374
f 406 374 373
f 373 405 406
f 438 406 405
f 405 437 438
f 470 438 437
f 437 469 470
f 502 470 469
f 469 501 502
f 534 502 501
f 501 533 534
f 566 534 533
f 533 565 566
f 598 566 565
f 565 597 598
f 630 598 597
f 597 629 630
f 662 630 629
f 629 661 662
f 694 662 661
f 661 693 694
f 726 694 693
f 693 725 726
f 758 726 725
f 725 757 758
f 790 758 757
f 757 789 790
f 822 790 789
f 789 821 822
f 854 822 821
f 821 853 854
f 886 854 853
f 853 885 886
f 918 886 885
f 885 917 918
f 950 918 917
f 917 949 950
f 982 950 949
f 949 981 982
f 1014 982 981
f 981 1013 1014
f 55 23 22
f 22 54 55
f 87 55 54
f 54 86 87
f 119 87 86
f 86 118 119
f 151 119 118
f 118 150 151
f 183 151 150
f 150 182 183
f 215 183 182
f 182 214 215
f 247 215 214
f 214 246 247
f 279 247 246
f 246 278 279
f 311 279 278
f 278 310 311
f 343 311 310
f 310 342 343
f 375 343 342
f 342 374 375
f 407 375 374
f 374 406 407
f 439 407 406
f 406 438 439
f 471 439 438
f 438 470 471
f 503 471 470
f 470 502 503
f 535 503 502
f 502 534 535
f 567 535 534
f 534 566 567
f 599 567 566
f 566 598 599
f 631 599 598
f 598 630 631
f 663 631 630
f 630 662 663
f 695 663 662
f 662 694 695
f 727 695 694
f 694 726 727
f 759 727 726
f 726 758 759
f 791 759 758
f 758 790 791
f 823 791 790
f 790 822 823
f 855 823 822
f 822 854 855
f 887 855 854
f 854 886 887
f 919 887 886
f 886 918 919
f 951 919 918
f 918 950 951
f 983 951 950
f 950 982 983
f 1015 983 982
f 982 1014 1015
f 56 24 23
f 23 55 56
f 88 56 55
f 55 87 88
f 120 88 87
f 87 119 120
f 152 120 119
f 119 151 152
f 184 152 151
f 151 183 184
f 216 184 183
f 183 215 216
f 248 216 215
f 215 247 248
f 280 248 247
f 247 279 280
f 312 280 279
f 279 311 312
f 344 312 311
f 311 343 344
f 376 344 343
f 343 375 376
f 408 376 375
f 375 407 408
f 440 408 407
f 407 439 440
f 472 440 439
f 439 471 472
f 504 472 471
f 471 503 504
f 536 504 503
f 503 535 536
f 568 536 535
f 535 567 568
f 600 568 567
f 567 599 600
f 632 600 599
f 599 631 632
f 664 632 631
f 631 663 664
f 696 664 663
f 663 695 696
f 728 696 695
f 695 727 728
f 760 728 727
f 727 759 760
f 792 760 759
f 759 791 792
f 824 792 791
f 791 823 824
f 856 824 823
f 823 855 856
f 888 856 855
f 855 887 888
f 920 888 887
f 887 919 920
f 952 920 919
f 919 951 952
f 984 952 951
f 951 983 984
f 1016 984 983
f 983 1015 1016
f 57 25 24
f 24 56 57
f 89 57 56
f 56 88 89
f 121 89 88
f 88 120 121
f 153 121 120
f 120 152 153
f 185 153 152
f 152 184 185
f 217 185 184
f 184 216 217
f 249 217 216
f 216 248 249
f 281 249 248
f 248 280 281
f 313 281 280
f 280 312 313
f 345 313 312
f 312 344 345
f 377 345 344
f 344 376 377
f 409 377 376
f 376 408 409
f 441 409 408
f 408 440 441
f 473 441 440
f 440 472 473
f 505 473 472
f 472 504 505
f 537 505 504
f 504 536 537
f 569 537 536
f 536 568 569
f 601 569 568
f 568 600 601
f 633 601 600
f 600 632 633
f 665 633 632
f 632 664 665
f 697 665 664
f 664 696 697
f 729 697 696
f 696 728 729
f 761 729 728
f 728 760 761
f 793 761 760
f 760 792 793
f 825 793 792
f 792 824 825
f 857 825 824
f 824 856 857
f 889 857 856
f 856 888 889
f 921 889 888
f 888 920 921
f 953 921 920
f 920 952 953
f 985 953 952
f 952 984 985
f 1017 985 984
f 984 1016 1017
f 58 26 25
f 25 57 58
f 90 58 57
f 57 89 90
f 122 90 89
f 89 121 122
f 154 122 121
f 121 153 154
f 186 154 153
f 153 185 186
f 218 186 185
f 185 217 218
f 250 218 217
f 217 249 250
f 282 250 249
f 249 281 282
f 314 282 281
f 281 313 314
f 346 314 313
f 313 345 346
f 378 346 345
f 345 377 378
f 410 378 377
f 377 409 410
f 442 410 409
f 409 441 442
f 474 442 441
f 441 473 474
f 506 474 473
f 473 505 506
f 538 506 505
f 505 537 538
f 570 538 537
f 537 569 570
f 602 570 569
f 569 601 602
f 634 602 601
f 601 633 634
f 666 634 633
f 633 665 666
f 698 666 665
f 665 697 698
f 730 698 697
f 697 729 730
f 762 730 729
f 729 761 762
f 794 762 761
f 761 793 794
f 826 794 793
f 793 825 826
f 858 826 825
f 825 857 858
f 890 858 857
f 857 889 890
f 922 890 889
f 889 921 922
f 954 922 921
f 921 953 954
f 986 954 953
f 953 985 986
f 1018 986 985
f 985 1017 1018
f 59 27 26
f 26 58 59
f 91 59 58
f 58 90 91
f 123 91 90
f 90 122 123
f 155 123 122
f 122 154 155
f 187 155 154
f 154 186 187
f 219 187 186
f 186 218 219
f 251 219 218
f 218 250 251
f 283 251 250
f 250 282 283
f 315 283 282
f 282 314 315
f 347 315 314
f 314 346 347
f 379 347 346
f 346 378 379
f 411 379 378
f 378 410 411
f 443 411 410
f 410 442 443
f 475 443 442
f 442 474 475
f 507 475 474
f 474 506 507
f 539 507 506
f 506 538 539
f 571 539 538
f 538 570 571
f 603 571 570
f 570 602 603
f 635 603 602
f 602 634 635
f 667 635 634
f 634 666 667
f 699 667 666
f 666 698 699
f 731 699 698
f 698 730 731
f 763 731 730
f 730 762 763
f 795 763 762
f 762 794 795
f 827 795 794
f 794 826 827
f 859 827 826
f 826 858 859
f 891 859 858
f 858 890 891
f 923 891 890
f 890 922 923
f 955 923 922
f 922 954 955
f 987 955 954
f 954 986 987
f 1019 987 986
f 986 1018 1019
f 60 28 27
f 27 59 60
f 92 60 59
f 59 91 92
f 124 92 91
f 91 123 124
f 156 124 123
f 123 155 156
f 188 156 155
f 155 187 188
f 220 188 187
f 187 219 220
f 252 220 219
f 219 251 252
f 284 252 251
f 251 283 284
f 316 284 283
f 283 315 316
f 348 316 315
f 315 347 348
f 380 348 347
f 347 379 380
f 412 380 379
f 379 411 412
f 444 412 411
f 411 443 444
f 476 444 443
f 443 475 476
f 508 476 475
f 475 507 508
f 540 508 507
f 507 539 540
f 572 540 539
f 539 571 572
f 604 572 571
f 571 603 604
f 636 604 603
f 603 635 636
f 668 636 635
f 635 667 668
f 700 668 667
f 667 699 700
f 732 700 699
f 699 731 732
f 764 732 731
f 731 763 764
f 796 764 763
f 763 795 796
f 828 796 795
f 795 827 828
f 860 828 827
f 827 859 860
f 892 860 859
f 859 891 892
f 924 892 891
f 891 923 924
f 956 924 923
f 923 955 956
f 988 956 955
f 955 987 988
f 1020 988 987
f 987 1019 1020
f 61 29 28
f 28 60 61
f 93 61 60
f 60 92 93
f 125 93 92
f 92 124 125
f 157 125 124
f 124 156 157
f 189 157 156
f 156 188 189
f 221 189 188
f 188 220 221
f 253 221 220
f 220 252 253
f 285 253 252
f 252 284 285
f 317 285 284
f 284 316 317
f 349 317 316
f 316 348 349
f 381 349 348
f 348 380 381
f 413 381 380
f 380 412 413
f 445 413 412
f 412 444 445
f 477 445 444
f 444 476 477
f 509 477 476
f 476 508 509
f 541 509 508
f 508 540 541
f 573 541 540
f 540 572 573
f 605 573 572
f 572 604 605
f 637 605 604
f 604 636 637
f 669 637 636
f 636 668 669
f 701 669 668
f 668 700 701
f 733 701 700
f 700 732 733
f 765 733 732
f 732 764 765
f 797 765 764
f 764 796 797
f 829 797 796
f 796 828 829
f 861 829 828
f 828 860 861
f 893 861 860
f 860 892 893
f 925 893 892
f 892 924 925
f 957 925 924
f 924 956 957
f 989 957 956
f 956 988 989
f 1021 989 988
f 988 1020 1021
f 62 30 29
f 29 61 62
f 94 62 61
f 61 93 94
f 126 94 93
f 93 125 126
f 158 126 125
f 125 157 158
f 190 158 157
f 157 189 190
f 222 190 189
f 189 221 222
f 254 222 221
f 221 253 254
f 286 254 253
f 253 285 286
f 318 286 285
f 285 317 318
f 350 318 317
f 317 349 350
f 382 350 349
f 349 381 382
f 414 382 381
f 381 413 414
f 446 414 413
f 413 445 446
f 478 446 445
f 445 477 478
f 510 478 477
f 477 509 510
f 542 510 509
f 509 541 542
f 574 542 541
f 541 573 574
f 606 574 573
f 573 605 606
f 638 606 605
f 605 637 638
f 670 638 637
f 637 669 670
f 702 670 669
f 669 701 702
f 734 702 701
f 701 733 734
f 766 734 733
f 733 765 766
f 798 766 765
f 765 797 798
f 830 798 797
f 797 829 830
f 862 830 829
f 829 861 862
f 894 862 861
f 861 893 894
f 926 894 893
f 893 925 926
f 958 926 925
f 925 957 958
f 990 958 957
f 957 989 990
f 1022 990 989
f 989 1021 1022
f 63 31 30
f 30 62 63
f 95 63 62
f 62 94 95
f 127 95 94
f 94 126 127
f 159 127 126
f 126 158 159
f 191 159 158
f 158 190 191
f 223 191 190
f 190 222 223
f 255 223 222
f 222 254 255
f 287 255 254
f 254 286 287
f 319 287 286
f 286 318 319
f 351 319 318
f 318 350 351
f 383 351 350
f 350 382 383
f 415 383 382
f 382 414 415
f 447 415 414
f 414 446 447
f 479 447 446
f 446 478 479
f 511 479 478
f 478 510 511
f 543 511 510
f 510 542 543
f 575 543 542
f 542 574 575
f 607 575 574
f 574 606 607
f 639 607 606
f 606 638 639
f 671 639 638
f 638 670 671
f 703 671 670
f 670 702 703
f 735 703 702
f 702 734 735
f 767 735 734
f 734 766 767
f 799 767 766
f 766 798 799
f 831 799 798
f 798 830 831
f 863 831 830
f 830 862 863
f 895 863 862
f 862 894 895
f 927 895 894
f 894 926 927
f 959 927 926
f 926 958 959
f 991 959 958
f 958 990 991
f 1023 991 990
f 990 1022 1023
f 64 32 31
f 31 63 64
f 96 64 63
f 63 95 96
f 128 96 95
f 95 127 128
f 160 128 127
f 127 159 160
f 192 160 159
f 159 191 192
f 224 192 191
f 191 223 224
f 256 224 223
f 223 255 256
f 288 256 255
f 255 287 288
f 320 288 287
f 287 319 320
f 352 320 319
f 319 351 352
f 384 352 351
f 351 383 384
f 416 384 383
f 383 415 416
f 448 416 415
f 415 447 448
f 480 448 447
f 447 479 480
f 512 480 479
f 479 511 512
f 544 512 511
f 511 543 544
f 576 544 543
f 543 575 576
f 608 576 575
f 575 607 608
f 640 608 607
f 607 639 640
f 672 640 639
f 639 671 672
f 704 672 671
f 671 703 704
f 736 704 703
f 703 735 736
f 768 736 735
f 735 767 768
f 800 768 767
f 767 799 800
f 832 800 799
f 799 831 832
f 864 832 831
f 831 863 864
f 896 864 863
f 863 895 896
f 928 896 895
f 895 927 928
f 960 928 927
f 927 959 960
f 992 960 959
f 959 991 992
f 1024 992 991
f 991 1023 1024
