v -4465 11.9334 5782
v -4465 11.958 5780
v -4465 12.0486 5778
v -4465 12.0717 5776
v -4465 12.0168 5774
v -4465 12.1529 5772
v -4465 12.1089 5770
v -4465 12.0301 5768
v -4465 12.0394 5766
v -4465 11.8803 5764
v -4465 11.8469 5762
v -4465 12.0375 5760
v -4465 11.9994 5758
v -4465 11.9252 5756
v -4465 11.9502 5754
v -4465 11.9199 5752
v -4465 11.8547 5750
v -4465 11.9242 5748
v -4465 11.9875 5746
v -4465 12.128 5744
v -4465 12.1752 5742
v -4465 12.0771 5740
v -4465 12.0503 5738
v -4465 12.0021 5736
v -4465 11.8771 5734
v -4465 12.0006 5732
v -4465 12.0414 5730
v -4465 12.0923 5728
v -4465 12.1312 5726
v -4465 12.0862 5724
v -4465 12.0724 5722
v -4465 12.0424 5720
v -4463 11.9386 5782
v -4463 12.0352 5780
v -4463 12.0257 5778
v -4463 12.1036 5776
v -4463 12.0739 5774
v -4463 12.057 5772
v -4463 11.978 5770
v -4463 11.9392 5768
v -4463 11.9896 5766
v -4463 11.8376 5764
v -4463 11.9912 5762
v -4463 12.0002 5760
v -4463 12.0386 5758
v -4463 12.1052 5756
v -4463 12.0995 5754
v -4463 11.9728 5752
v -4463 12.0474 5750
v -4463 12.109 5748
v -4463 12.0021 5746
v -4463 12.1044 5744
v -4463 12.0167 5742
v -4463 11.9898 5740
v -4463 11.9038 5738
v -4463 11.9753 5736
v -4463 11.8552 5734
v -4463 11.896 5732
v -4463 12.0011 5730
v -4463 12.0401 5728
v -4463 12.1395 5726
v -4463 12.707 5724
v -4463 12.1091 5722
v -4463 11.9858 5720
v -4461 12.0089 5782
v -4461 12.0491 5780
v -4461 12.1239 5778
v -4461 12.1054 5776
v -4461 12.0672 5774
v -4461 11.9818 5772
v -4461 11.9667 5770
v -4461 11.8559 5768
v -4461 11.8753 5766
v -4461 11.9597 5764
v -4461 11.9351 5762
v -4461 12.0382 5760
v -4461 12.0502 5758
v -4461 12.0601 5756
v -4461 12.1605 5754
v -4461 12.0594 5752
v -4461 12.1313 5750
v -4461 12.1691 5748
v -4461 12.0371 5746
v -4461 12.0919 5744
v -4461 12.0052 5742
v -4461 11.9422 5740
v -4461 11.9349 5738
v -4461 11.8343 5736
v -4461 11.8818 5734
v -4461 11.9485 5732
v -4461 12.0534 5730
v -4461 12.0969 5728
v -4461 12.1323 5726
v -4461 12.1735 5724
v -4461 12.1542 5722
v -4461 12.0488 5720
v -4459 12.0288 5782
v -4459 12.0149 5780
v -4459 12.08 5778
v -4459 12.0668 5776
v -4459 12.1061 5774
v -4459 12.0871 5772
v -4459 11.982 5770
v -4459 11.9067 5768
v -4459 11.9279 5766
v -4459 11.9345 5764
v -4459 11.8692 5762
v -4459 12.0004 5760
v -4459 12.0231 5758
v -4459 12.1236 5756
v -4459 12.1637 5754
v -4459 12.3889 5752
v -4459 12.7156 5750
v -4459 12.1731 5748
v -4459 12.1278 5746
v -4459 12.096 5744
v -4459 12.0011 5742
v -4459 11.9672 5740
v -4459 11.9441 5738
v -4459 11.9272 5736
v -4459 11.9873 5734
v -4459 11.9671 5732
v -4459 12.0189 5730
v -4459 12.1546 5728
v -4459 12.0359 5726
v -4459 12.1151 5724
v -4459 12.7078 5722
v -4459 12.5936 5720
v -4457 11.9702 5782
v -4457 12.0329 5780
v -4457 12.1516 5778
v -4457 12.0924 5776
v -4457 12.0502 5774
v -4457 12.0329 5772
v -4457 11.9832 5770
v -4457 12.0467 5768
v -4457 11.8978 5766
v -4457 11.8644 5764
v -4457 11.8975 5762
v -4457 11.8894 5760
v -4457 12.0389 5758
v -4457 12.0683 5756
v -4457 12.1103 5754
v -4457 12.1192 5752
v -4457 12.1659 5750
v -4457 12.727 5748
v -4457 12.3759 5746
v -4457 12.1002 5744
v -4457 12.0316 5742
v -4457 12.0325 5740
v -4457 12.019 5738
v -4457 12.0343 5736
v -4457 12.0229 5734
v -4457 12.0375 5732
v -4457 11.9779 5730
v -4457 12.0286 5728
v -4457 12.0577 5726
v -4457 12.1089 5724
v -4457 12.06 5722
v -4457 12.1082 5720
v -4455 11.9156 5782
v -4455 12.0193 5780
v -4455 12.1109 5778
v -4455 12.1304 5776
v -4455 12.0669 5774
v -4455 12.1253 5772
v -4455 12.0007 5770
v -4455 11.9613 5768
v -4455 11.8458 5766
v -4455 11.9223 5764
v -4455 11.9457 5762
v -4455 11.9677 5760
v -4455 12.0156 5758
v -4455 11.8907 5756
v -4455 12.1092 5754
v -4455 12.0495 5752
v -4455 12.0908 5750
v -4455 12.085 5748
v -4455 12.0769 5746
v -4455 12.022 5744
v -4455 11.9803 5742
v -4455 12.0296 5740
v -4455 12.0051 5738
v -4455 12.0899 5736
v -4455 11.917 5734
v -4455 11.9652 5732
v -4455 11.9499 5730
v -4455 12.0505 5728
v -4455 12.0443 5726
v -4455 11.9924 5724
v -4455 12.0343 5722
v -4455 12.0668 5720
v -4453 11.9487 5782
v -4453 12.0256 5780
v -4453 12.1279 5778
v -4453 12.0717 5776
v -4453 12.1589 5774
v -4453 12.1194 5772
v -4453 11.9983 5770
v -4453 11.9546 5768
v -4453 11.9151 5766
v -4453 12.0122 5764
v -4453 11.9659 5762
v -4453 12.0063 5760
v -4453 11.929 5758
v -4453 11.9656 5756
v -4453 12.0376 5754
v -4453 11.9817 5752
v -4453 12.0076 5750
v -4453 12.0014 5748
v -4453 11.977 5746
v -4453 12.0485 5744
v -4453 11.8996 5742
v -4453 12.0188 5740
v -4453 12.1084 5738
v -4453 12.0682 5736
v -4453 12.0181 5734
v -4453 12.0053 5732
v -4453 11.9755 5730
v -4453 12.0352 5728
v -4453 12.0407 5726
v -4453 11.8552 5724
v -4453 12.0245 5722
v -4453 12.0321 5720
v -4451 11.8963 5782
v -4451 12.0666 5780
v -4451 12.1092 5778
v -4451 12.1642 5776
v -4451 12.2912 5774
v -4451 11.9989 5772
v -4451 12.0128 5770
v -4451 11.9144 5768
v -4451 11.9131 5766
v -4451 12.0402 5764
v -4451 12.0108 5762
v -4451 12.0862 5760
v -4451 12.1065 5758
v -4451 12.0076 5756
v -4451 11.9345 5754
v -4451 11.8374 5752
v -4451 11.8842 5750
v -4451 11.9218 5748
v -4451 11.8179 5746
v -4451 11.9162 5744
v -4451 11.8838 5742
v -4451 11.9687 5740
v -4451 11.9666 5738
v -4451 12.0017 5736
v -4451 12.1005 5734
v -4451 11.9987 5732
v -4451 12.0739 5730
v -4451 12.0427 5728
v -4451 12.0702 5726
v -4451 12.0393 5724
v -4451 11.9764 5722
v -4451 11.9396 5720
v -4449 12.0448 5782
v -4449 12.0963 5780
v -4449 12.0642 5778
v -4449 12.1351 5776
v -4449 12.1434 5774
v -4449 12.051 5772
v -4449 11.8893 5770
v -4449 11.928 5768
v -4449 11.8968 5766
v -4449 12.0135 5764
v -4449 12.1652 5762
v -4449 12.1774 5760
v -4449 12.0991 5758
v -4449 11.9883 5756
v -4449 11.8482 5754
v -4449 11.9384 5752
v -4449 11.9199 5750
v -4449 11.9425 5748
v -4449 11.9005 5746
v -4449 11.9701 5744
v -4449 11.9343 5742
v -4449 12.0011 5740
v -4449 12.0471 5738
v -4449 11.9886 5736
v -4449 12.1588 5734
v -4449 12.1122 5732
v -4449 12.6971 5730
v -4449 12.0963 5728
v -4449 12.0225 5726
v -4449 11.9964 5724
v -4449 11.9449 5722
v -4449 12.0042 5720
v -4447 12.0993 5782
v -4447 12.0963 5780
v -4447 12.107 5778
v -4447 12.1643 5776
v -4447 12.0607 5774
v -4447 11.981 5772
v -4447 11.9764 5770
v -4447 11.8645 5768
v -4447 11.9445 5766
v -4447 11.9436 5764
v -4447 12.1353 5762
v -4447 12.1675 5760
v -4447 12.1501 5758
v -4447 12.1439 5756
v -4447 11.8267 5754
v -4447 11.8757 5752
v -4447 11.7511 5750
v -4447 11.8344 5748
v -4447 11.8682 5746
v -4447 11.9481 5744
v -4447 11.9791 5742
v -4447 11.9383 5740
v -4447 12.0197 5738
v -4447 11.9422 5736
v -4447 12.1505 5734
v -4447 12.0906 5732
v -4447 12.1282 5730
v -4447 12.0708 5728
v -4447 12.1027 5726
v -4447 12.0629 5724
v -4447 11.9998 5722
v -4447 12.0703 5720
v -4445 12.0627 5782
v -4445 12.0865 5780
v -4445 12.0521 5778
v -4445 12.0049 5776
v -4445 12.0178 5774
v -4445 12.089 5772
v -4445 11.9943 5770
v -4445 11.8671 5768
v -4445 11.981 5766
v -4445 11.9572 5764
v -4445 12.0273 5762
v -4445 12.1185 5760
v -4445 12.1563 5758
v -4445 12.0237 5756
v -4445 11.9775 5754
v -4445 11.8649 5752
v -4445 11.834 5750
v -4445 11.9003 5748
v -4445 11.9768 5746
v -4445 12.1001 5744
v -4445 12.0033 5742
v -4445 11.9996 5740
v -4445 11.9838 5738
v -4445 12.0717 5736
v -4445 12.0591 5734
v -4445 12.0696 5732
v -4445 12.0988 5730
v -4445 12.0581 5728
v -4445 11.939 5726
v -4445 12.0713 5724
v -4445 12.0335 5722
v -4445 12.0526 5720
v -4443 12.1212 5782
v -4443 12.0128 5780
v -4443 12.0029 5778
v -4443 12.0218 5776
v -4443 12.0234 5774
v -4443 12.0881 5772
v -4443 11.9839 5770
v -4443 11.9454 5768
v -4443 11.7661 5766
v -4443 11.8438 5764
v -4443 11.9585 5762
v -4443 12.0536 5760
v -4443 12.0455 5758
v -4443 11.9973 5756
v -4443 12.078 5754
v -4443 11.9037 5752
v -4443 12.0393 5750
v -4443 11.9663 5748
v -4443 12.1332 5746
v -4443 12.1447 5744
v -4443 12.106 5742
v -4443 11.9176 5740
v -4443 11.9793 5738
v -4443 11.9434 5736
v -4443 11.9665 5734
v -4443 12.0925 5732
v -4443 12.0889 5730
v -4443 12.0585 5728
v -4443 11.8669 5726
v -4443 11.9606 5724
v -4443 11.9433 5722
v -4443 12.1104 5720
v -4441 11.9987 5782
v -4441 12.0103 5780
v -4441 11.8436 5778
v -4441 12.0021 5776
v -4441 12.0674 5774
v -4441 11.9857 5772
v -4441 12.029 5770
v -4441 11.9085 5768
v -4441 11.8309 5766
v -4441 11.8397 5764
v -4441 11.9294 5762
v -4441 12.0276 5760
v -4441 12.0186 5758
v -4441 12.0013 5756
v -4441 12.1177 5754
v -4441 12.0643 5752
v -4441 11.9582 5750
v -4441 12.0722 5748
v -4441 12.747 5746
v -4441 12.1529 5744
v -4441 12.0594 5742
v -4441 12.1056 5740
v -4441 11.9948 5738
v -4441 12.0027 5736
v -4441 12.0266 5734
v -4441 12.044 5732
v -4441 11.9501 5730
v -4441 11.897 5728
v -4441 11.7773 5726
v -4441 11.8944 5724
v -4441 11.9939 5722
v -4441 11.9182 5720
v -4439 12.0406 5782
v -4439 11.8891 5780
v -4439 11.9352 5778
v -4439 11.9309 5776
v -4439 12.0701 5774
v -4439 12.0085 5772
v -4439 11.9632 5770
v -4439 11.8301 5768
v -4439 11.8546 5766
v -4439 11.6284 5764
v -4439 11.8661 5762
v -4439 11.8304 5760
v -4439 11.9155 5758
v -4439 11.9066 5756
v -4439 11.9368 5754
v -4439 12.0415 5752
v -4439 12.0917 5750
v -4439 12.0937 5748
v -4439 12.7146 5746
v -4439 12.1324 5744
v -4439 12.0603 5742
v -4439 12.0123 5740
v -4439 12.0388 5738
v -4439 11.9983 5736
v -4439 11.991 5734
v -4439 11.9825 5732
v -4439 11.9691 5730
v -4439 11.8114 5728
v -4439 11.8638 5726
v -4439 11.8171 5724
v -4439 11.854 5722
v -4439 11.8546 5720
v -4437 11.9631 5782
v -4437 11.8663 5780
v -4437 11.902 5778
v -4437 12.0661 5776
v -4437 12.0026 5774
v -4437 11.9825 5772
v -4437 11.9626 5770
v -4437 11.8865 5768
v -4437 11.743 5766
v -4437 11.6824 5764
v -4437 11.7573 5762
v -4437 11.7928 5760
v -4437 11.7762 5758
v -4437 11.8803 5756
v -4437 11.9072 5754
v -4437 12.0196 5752
v -4437 12.0561 5750
v -4437 12.1522 5748
v -4437 12.0664 5746
v -4437 12.1431 5744
v -4437 12.1104 5742
v -4437 12.0677 5740
v -4437 12.082 5738
v -4437 12.0275 5736
v -4437 12.1549 5734
v -4437 12.0092 5732
v -4437 11.9825 5730
v -4437 11.8341 5728
v -4437 11.9319 5726
v -4437 11.8049 5724
v -4437 11.799 5722
v -4437 11.8048 5720
v -4435 11.9438 5782
v -4435 11.9242 5780
v -4435 11.97 5778
v -4435 11.9999 5776
v -4435 11.9996 5774
v -4435 11.9237 5772
v -4435 11.8535 5770
v -4435 11.8403 5768
v -4435 11.6963 5766
v -4435 11.6355 5764
v -4435 11.6438 5762
v -4435 11.7815 5760
v -4435 11.7712 5758
v -4435 11.9476 5756
v -4435 11.937 5754
v -4435 11.8727 5752
v -4435 11.9717 5750
v -4435 12.0824 5748
v -4435 12.1384 5746
v -4435 12.0961 5744
v -4435 12.1682 5742
v -4435 12.0916 5740
v -4435 12.1625 5738
v -4435 12.7081 5736
v -4435 12.1507 5734
v -4435 12.0835 5732
v -4435 11.9151 5730
v -4435 11.9071 5728
v -4435 11.8425 5726
v -4435 11.8054 5724
v -4435 11.8468 5722
v -4435 11.9495 5720
v -4433 11.9009 5782
v -4433 11.9393 5780
v -4433 12.0359 5778
v -4433 12.0815 5776
v -4433 12.166 5774
v -4433 12.0469 5772
v -4433 12.0626 5770
v -4433 11.9508 5768
v -4433 11.9105 5766
v -4433 11.8747 5764
v -4433 11.921 5762
v -4433 11.9188 5760
v -4433 11.9524 5758
v -4433 11.8478 5756
v -4433 11.8421 5754
v -4433 12.0243 5752
v -4433 12.0854 5750
v -4433 12.0365 5748
v -4433 12.0743 5746
v -4433 12.0057 5744
v -4433 11.9794 5742
v -4433 12.0997 5740
v -4433 12.0336 5738
v -4433 12.103 5736
v -4433 12.0735 5734
v -4433 12.1642 5732
v -4433 12.0724 5730
v -4433 12.0462 5728
v -4433 11.9817 5726
v -4433 11.9802 5724
v -4433 12.0262 5722
v -4433 11.9081 5720
v -4431 12.0343 5782
v -4431 12.0485 5780
v -4431 12.1336 5778
v -4431 12.1151 5776
v -4431 12.7332 5774
v -4431 12.1089 5772
v -4431 12.0015 5770
v -4431 11.9092 5768
v -4431 12.0248 5766
v -4431 11.9367 5764
v -4431 11.9419 5762
v -4431 12.052 5760
v -4431 12.0258 5758
v -4431 11.9382 5756
v -4431 11.9014 5754
v -4431 11.9624 5752
v -4431 11.9805 5750
v -4431 12.0559 5748
v -4431 11.9543 5746
v -4431 12.0409 5744
v -4431 12.0031 5742
v -4431 11.9643 5740
v -4431 12.1171 5738
v -4431 12.1829 5736
v -4431 12.1212 5734
v -4431 12.0702 5732
v -4431 11.9788 5730
v -4431 11.935 5728
v -4431 12.0477 5726
v -4431 12.0328 5724
v -4431 12.0298 5722
v -4431 12.0125 5720
v -4429 12.0598 5782
v -4429 12.1059 5780
v -4429 12.1579 5778
v -4429 12.7108 5776
v -4429 12.1446 5774
v -4429 12.117 5772
v -4429 12.0239 5770
v -4429 11.9652 5768
v -4429 11.9269 5766
v -4429 11.9591 5764
v -4429 12.0384 5762
v -4429 12.0522 5760
v -4429 12.0802 5758
v -4429 11.9763 5756
v -4429 11.9796 5754
v -4429 11.9754 5752
v -4429 12.0692 5750
v -4429 12.1295 5748
v -4429 12.0675 5746
v -4429 11.9951 5744
v -4429 11.9004 5742
v -4429 11.9501 5740
v -4429 12.0207 5738
v -4429 12.162 5736
v -4429 12.1516 5734
v -4429 12.0646 5732
v -4429 12.0113 5730
v -4429 11.9862 5728
v -4429 12.0878 5726
v -4429 11.9946 5724
v -4429 12.0859 5722
v -4429 12.0214 5720
v -4427 12.0865 5782
v -4427 12.1733 5780
v -4427 12.7151 5778
v -4427 12.7039 5776
v -4427 12.1148 5774
v -4427 12.0043 5772
v -4427 11.9916 5770
v -4427 11.8666 5768
v -4427 11.7927 5766
v -4427 11.8697 5764
v -4427 12.0504 5762
v -4427 12.0694 5760
v -4427 12.0282 5758
v -4427 12.0959 5756
v -4427 12.0461 5754
v -4427 12.0252 5752
v -4427 12.1111 5750
v -4427 12.36 5748
v -4427 12.066 5746
v -4427 12.0375 5744
v -4427 11.9773 5742
v -4427 11.9427 5740
v -4427 12.0487 5738
v -4427 12.0754 5736
v -4427 12.1376 5734
v -4427 12.0805 5732
v -4427 12.1369 5730
v -4427 12.0722 5728
v -4427 12.1398 5726
v -4427 12.0504 5724
v -4427 12.0054 5722
v -4427 11.9995 5720
v -4425 12.1155 5782
v -4425 12.1478 5780
v -4425 12.7617 5778
v -4425 12.7434 5776
v -4425 12.1796 5774
v -4425 12.0771 5772
v -4425 11.909 5770
v -4425 11.9322 5768
v -4425 11.9251 5766
v -4425 11.905 5764
v -4425 11.9804 5762
v -4425 11.9302 5760
v -4425 11.8673 5758
v -4425 11.9266 5756
v -4425 11.9026 5754
v -4425 12.0579 5752
v -4425 12.1716 5750
v -4425 12.7097 5748
v -4425 12.104 5746
v -4425 12.0028 5744
v -4425 11.8957 5742
v -4425 12.0679 5740
v -4425 12.0011 5738
v -4425 12.0895 5736
v -4425 12.7082 5734
v -4425 12.0821 5732
v -4425 12.0617 5730
v -4425 12.0884 5728
v -4425 12.1072 5726
v -4425 12.062 5724
v -4425 11.9697 5722
v -4425 11.9665 5720
v -4423 12.0064 5782
v -4423 12.0418 5780
v -4423 12.1043 5778
v -4423 12.0982 5776
v -4423 12.0986 5774
v -4423 12.1003 5772
v -4423 11.9768 5770
v -4423 11.9793 5768
v -4423 11.977 5766
v -4423 11.9309 5764
v -4423 12.0359 5762
v -4423 12.0115 5760
v -4423 11.9639 5758
v -4423 11.9283 5756
v -4423 11.8697 5754
v -4423 12.0497 5752
v -4423 12.0925 5750
v -4423 12.0914 5748
v -4423 12.0868 5746
v -4423 12.0112 5744
v -4423 12.0171 5742
v -4423 11.9903 5740
v -4423 12.1242 5738
v -4423 12.024 5736
v -4423 12.0883 5734
v -4423 12.0176 5732
v -4423 12.0402 5730
v -4423 12.0995 5728
v -4423 12.0681 5726
v -4423 12.1343 5724
v -4423 12.0914 5722
v -4423 11.9871 5720
v -4421 11.9531 5782
v -4421 12.0005 5780
v -4421 12.1175 5778
v -4421 12.0873 5776
v -4421 12.0691 5774
v -4421 12.1058 5772
v -4421 12.0157 5770
v -4421 12.0186 5768
v -4421 11.8988 5766
v -4421 12.0305 5764
v -4421 12.0271 5762
v -4421 12.0153 5760
v -4421 11.9694 5758
v -4421 11.8865 5756
v -4421 11.823 5754
v -4421 11.9679 5752
v -4421 12.0216 5750
v -4421 12.0357 5748
v -4421 12.0692 5746
v -4421 11.9834 5744
v -4421 11.9574 5742
v -4421 12.0121 5740
v -4421 12.0326 5738
v -4421 12.0515 5736
v -4421 12.0762 5734
v -4421 11.9766 5732
v -4421 12.0208 5730
v -4421 12.0715 5728
v -4421 12.1015 5726
v -4421 12.155 5724
v -4421 12.0681 5722
v -4421 12.0031 5720
v -4419 11.8819 5782
v -4419 11.9941 5780
v -4419 12.0348 5778
v -4419 12.0901 5776
v -4419 12.0821 5774
v -4419 12.113 5772
v -4419 11.9956 5770
v -4419 12.0177 5768
v -4419 12.0925 5766
v -4419 12.0151 5764
v -4419 12.1105 5762
v -4419 12.0181 5760
v -4419 11.9989 5758
v -4419 11.9832 5756
v -4419 11.8188 5754
v -4419 11.848 5752
v -4419 11.9183 5750
v -4419 11.9932 5748
v -4419 12.0057 5746
v -4419 11.8983 5744
v -4419 11.9409 5742
v -4419 11.9205 5740
v -4419 11.9278 5738
v -4419 11.9222 5736
v -4419 12.0468 5734
v -4419 11.9164 5732
v -4419 11.8854 5730
v -4419 11.9723 5728
v -4419 12.1273 5726
v -4419 12.1252 5724
v -4419 12.0918 5722
v -4419 12.0276 5720
v -4417 11.9343 5782
v -4417 11.8498 5780
v -4417 11.9352 5778
v -4417 12.0786 5776
v -4417 12.1081 5774
v -4417 12.1469 5772
v -4417 12.1473 5770
v -4417 12.0083 5768
v -4417 12.1752 5766
v -4417 12.1169 5764
v -4417 12.1554 5762
v -4417 12.7155 5760
v -4417 12.09 5758
v -4417 12.0683 5756
v -4417 11.9531 5754
v -4417 12.0688 5752
v -4417 12.1093 5750
v -4417 11.9866 5748
v -4417 12.0156 5746
v -4417 11.8538 5744
v -4417 11.8069 5742
v -4417 11.8675 5740
v -4417 11.9617 5738
v -4417 11.9903 5736
v -4417 11.9652 5734
v -4417 11.7508 5732
v -4417 11.9178 5730
v -4417 11.8211 5728
v -4417 12.1253 5726
v -4417 12.1253 5724
v -4417 12.097 5722
v -4417 12.1345 5720
v -4415 11.784 5782
v -4415 11.7867 5780
v -4415 11.932 5778
v -4415 12.0847 5776
v -4415 12.1306 5774
v -4415 12.5733 5772
v -4415 12.1134 5770
v -4415 12.089 5768
v -4415 12.1296 5766
v -4415 12.121 5764
v -4415 12.1429 5762
v -4415 12.1333 5760
v -4415 12.0675 5758
v -4415 12.0932 5756
v -4415 11.9557 5754
v -4415 11.9836 5752
v -4415 12.0235 5750
v -4415 12.0527 5748
v -4415 11.9668 5746
v -4415 11.7916 5744
v -4415 11.9106 5742
v -4415 11.8937 5740
v -4415 11.8754 5738
v -4415 11.9752 5736
v -4415 11.8692 5734
v -4415 11.8592 5732
v -4415 11.741 5730
v -4415 11.8381 5728
v -4415 12.0337 5726
v -4415 12.0245 5724
v -4415 12.1105 5722
v -4415 12.0247 5720
v -4413 11.9166 5782
v -4413 11.874 5780
v -4413 11.905 5778
v -4413 12.1419 5776
v -4413 12.0808 5774
v -4413 12.1401 5772
v -4413 12.0681 5770
v -4413 12.0408 5768
v -4413 12.0822 5766
v -4413 12.0769 5764
v -4413 12.0888 5762
v -4413 12.1108 5760
v -4413 12.016 5758
v -4413 12.0278 5756
v -4413 11.9565 5754
v -4413 12.0363 5752
v -4413 12.0683 5750
v -4413 12.0256 5748
v -4413 12.0247 5746
v -4413 11.9181 5744
v -4413 11.8883 5742
v -4413 11.8983 5740
v -4413 11.9079 5738
v -4413 12.0209 5736
v -4413 11.9204 5734
v -4413 11.9339 5732
v -4413 11.8582 5730
v -4413 11.9186 5728
v -4413 11.938 5726
v -4413 12.0573 5724
v -4413 12.0927 5722
v -4413 12.0195 5720
v -4411 12.0082 5782
v -4411 11.9666 5780
v -4411 12.0356 5778
v -4411 12.1726 5776
v -4411 12.0821 5774
v -4411 12.0803 5772
v -4411 11.9642 5770
v -4411 12.0125 5768
v -4411 11.9112 5766
v -4411 11.952 5764
v -4411 12.069 5762
v -4411 12.05 5760
v -4411 12.0263 5758
v -4411 11.9507 5756
v -4411 11.9189 5754
v -4411 12.0091 5752
v -4411 11.9733 5750
v -4411 11.9812 5748
v -4411 11.952 5746
v -4411 11.8875 5744
v -4411 11.9773 5742
v -4411 12.0478 5740
v -4411 11.9979 5738
v -4411 12.0927 5736
v -4411 11.953 5734
v -4411 12.0246 5732
v -4411 12.0526 5730
v -4411 11.9731 5728
v -4411 12.0266 5726
v -4411 12.1076 5724
v -4411 12.0973 5722
v -4411 11.9962 5720
v -4409 11.9756 5782
v -4409 12.1084 5780
v -4409 12.0093 5778
v -4409 12.1053 5776
v -4409 12.0921 5774
v -4409 12.0918 5772
v -4409 12.0024 5770
v -4409 12.022 5768
v -4409 11.9433 5766
v -4409 11.9826 5764
v -4409 12.0183 5762
v -4409 11.9813 5760
v -4409 11.9728 5758
v -4409 11.9229 5756
v -4409 11.8934 5754
v -4409 11.9154 5752
v -4409 12.0191 5750
v -4409 11.9365 5748
v -4409 12.0296 5746
v -4409 11.9526 5744
v -4409 11.9588 5742
v -4409 11.9645 5740
v -4409 12.0724 5738
v -4409 12.5529 5736
v -4409 12.0952 5734
v -4409 12.1123 5732
v -4409 11.9769 5730
v -4409 12.0288 5728
v -4409 12.1229 5726
v -4409 12.1653 5724
v -4409 12.0602 5722
v -4409 12.0067 5720
v -4407 12.162 5782
v -4407 12.1406 5780
v -4407 12.176 5778
v -4407 12.1658 5776
v -4407 12.1658 5774
v -4407 12.0986 5772
v -4407 11.9829 5770
v -4407 11.8915 5768
v -4407 11.8671 5766
v -4407 11.9221 5764
v -4407 11.9007 5762
v -4407 11.8596 5760
v -4407 11.8566 5758
v -4407 11.7624 5756
v -4407 11.6957 5754
v -4407 11.7538 5752
v -4407 11.8332 5750
v -4407 11.8724 5748
v -4407 12.0352 5746
v -4407 11.9626 5744
v -4407 12.0664 5742
v -4407 12.143 5740
v -4407 12.1614 5738
v -4407 12.7779 5736
v -4407 12.7336 5734
v -4407 12.6577 5732
v -4407 12.2434 5730
v -4407 12.1243 5728
v -4407 12.0965 5726
v -4407 12.1131 5724
v -4407 12.0259 5722
v -4407 12.0329 5720
v -4405 12.1351 5782
v -4405 12.653 5780
v -4405 12.3512 5778
v -4405 12.1542 5776
v -4405 12.1534 5774
v -4405 12.0239 5772
v -4405 11.9253 5770
v -4405 11.7879 5768
v -4405 11.7874 5766
v -4405 11.8021 5764
v -4405 11.8983 5762
v -4405 11.8868 5760
v -4405 11.8481 5758
v -4405 11.9342 5756
v -4405 11.6666 5754
v -4405 11.7789 5752
v -4405 11.8053 5750
v -4405 11.8431 5748
v -4405 11.9758 5746
v -4405 11.8967 5744
v -4405 12.0768 5742
v -4405 12.1323 5740
v -4405 12.1735 5738
v -4405 12.7394 5736
v -4405 12.7583 5734
v -4405 12.7535 5732
v -4405 12.628 5730
v -4405 12.1746 5728
v -4405 12.016 5726
v -4405 12.0433 5724
v -4405 12.0171 5722
v -4405 11.9529 5720
v -4403 12.1545 5782
v -4403 12.1647 5780
v -4403 12.096 5778
v -4403 12.1365 5776
v -4403 12.1132 5774
v -4403 12.0717 5772
v -4403 11.9886 5770
v -4403 11.8857 5768
v -4403 11.7054 5766
v -4403 11.8347 5764
v -4403 11.7981 5762
v -4403 11.9684 5760
v -4403 11.879 5758
v -4403 11.9702 5756
v -4403 11.8251 5754
v -4403 11.8752 5752
v -4403 11.7835 5750
v -4403 11.9011 5748
v -4403 11.8246 5746
v -4403 11.9259 5744
v -4403 12.0401 5742
v -4403 12.1034 5740
v -4403 12.6972 5738
v -4403 12.7031 5736
v -4403 12.188 5734
v -4403 12.7347 5732
v -4403 12.1095 5730
v -4403 12.089 5728
v -4403 12.0889 5726
v -4403 11.8814 5724
v -4403 11.9126 5722
v -4403 11.8527 5720
f 34 2 1
f 1 33 34
f 66 34 33
f 33 65 66
f 98 66 65
f 65 97 98
f 130 98 97
f 97 129 130
f 162 130 129
f 129 161 162
f 194 162 161
f 161 193 194
f 226 194 193
f 193 225 226
f 258 226 225
f 225 257 258
f 290 258 257
f 257 289 290
f 322 290 289
f 289 321 322
f 354 322 321
f 321 353 354
f 386 354 353
f 353 385 386
f 418 386 385
f 385 417 418
f 450 418 417
f 417 449 450
f 482 450 449
f 449 481 482
f 514 482 481
f 481 513 514
f 546 514 513
f 513 545 546
f 578 546 545
f 545 577 578
f 610 578 577
f 577 609 610
f 642 610 609
f 609 641 642
f 674 642 641
f 641 673 674
f 706 674 673
f 673 705 706
f 738 706 705
f 705 737 738
f 770 738 737
f 737 769 770
f 802 770 769
f 769 801 802
f 834 802 801
f 801 833 834
f 866 834 833
f 833 865 866
f 898 866 865
f 865 897 898
f 930 898 897
f 897 929 930
f 962 930 929
f 929 961 962
f 994 962 961
f 961 993 994
f 35 3 2
f 2 34 35
f 67 35 34
f 34 66 67
f 99 67 66
f 66 98 99
f 131 99 98
f 98 130 131
f 163 131 130
f 130 162 163
f 195 163 162
f 162 194 195
f 227 195 194
f 194 226 227
f 259 227 226
f 226 258 259
f 291 259 258
f 258 290 291
f 323 291 290
f 290 322 323
f 355 323 322
f 322 354 355
f 387 355 354
f 354 386 387
f 419 387 386
f 386 418 419
f 451 419 418
f 418 450 451
f 483 451 450
f 450 482 483
f 515 483 482
f 482 514 515
f 547 515 514
f 514 546 547
f 579 547 546
f 546 578 579
f 611 579 578
f 578 610 611
f 643 611 610
f 610 642 643
f 675 643 642
f 642 674 675
f 707 675 674
f 674 706 707
f 739 707 706
f 706 738 739
f 771 739 738
f 738 770 771
f 803 771 770
f 770 802 803
f 835 803 802
f 802 834 835
f 867 835 834
f 834 866 867
f 899 867 866
f 866 898 899
f 931 899 898
f 898 930 931
f 963 931 930
f 930 962 963
f 995 963 962
f 962 994 995
f 36 4 3
f 3 35 36
f 68 36 35
f 35 67 68
f 100 68 67
f 67 99 100
f 132 100 99
f 99 131 132
f 164 132 131
f 131 163 164
f 196 164 163
f 163 195 196
f 228 196 195
f 195 227 228
f 260 228 227
f 227 259 260
f 292 260 259
f 259 291 292
f 324 292 291
f 291 323 324
f 356 324 323
f 323 355 356
f 388 356 355
f 355 387 388
f 420 388 387
f 387 419 420
f 452 420 419
f 419 451 452
f 484 452 451
f 451 483 484
f 516 484 483
f 483 515 516
f 548 516 515
f 515 547 548
f 580 548 547
f 547 579 580
f 612 580 579
f 579 611 612
f 644 612 611
f 611 643 644
f 676 644 643
f 643 675 676
f 708 676 675
f 675 707 708
f 740 708 707
f 707 739 740
f 772 740 739
f 739 771 772
f 804 772 771
f 771 803 804
f 836 804 803
f 803 835 836
f 868 836 835
f 835 867 868
f 900 868 867
f 867 899 900
f 932 900 899
f 899 931 932
f 964 932 931
f 931 963 964
f 996 964 963
f 963 995 996
f 37 5 4
f 4 36 37
f 69 37 36
f 36 68 69
f 101 69 68
f 68 100 101
f 133 101 100
f 100 132 133
f 165 133 132
f 132 164 165
f 197 165 164
f 164 196 197
f 229 197 196
f 196 228 229
f 261 229 228
f 228 260 261
f 293 261 260
f 260 292 293
f 325 293 292
f 292 324 325
f 357 325 324
f 324 356 357
f 389 357 356
f 356 388 389
f 421 389 388
f 388 420 421
f 453 421 420
f 420 452 453
f 485 453 452
f 452 484 485
f 517 485 484
f 484 516 517
f 549 517 516
f 516 548 549
f 581 549 548
f 548 580 581
f 613 581 580
f 580 612 613
f 645 613 612
f 612 644 645
f 677 645 644
f 644 676 677
f 709 677 676
f 676 708 709
f 741 709 708
f 708 740 741
f 773 741 740
f 740 772 773
f 805 773 772
f 772 804 805
f 837 805 804
f 804 836 837
f 869 837 836
f 836 868 869
f 901 869 868
f 868 900 901
f 933 901 900
f 900 932 933
f 965 933 932
f 932 964 965
f 997 965 964
f 964 996 997
f 38 6 5
f 5 37 38
f 70 38 37
f 37 69 70
f 102 70 69
f 69 101 102
f 134 102 101
f 101 133 134
f 166 134 133
f 133 165 166
f 198 166 165
f 165 197 198
f 230 198 197
f 197 229 230
f 262 230 229
f 229 261 262
f 294 262 261
f 261 293 294
f 326 294 293
f 293 325 326
f 358 326 325
f 325 357 358
f 390 358 357
f 357 389 390
f 422 390 389
f 389 421 422
f 454 422 421
f 421 453 454
f 486 454 453
f 453 485 486
f 518 486 485
f 485 517 518
f 550 518 517
f 517 549 550
f 582 550 549
f 549 581 582
f 614 582 581
f 581 613 614
f 646 614 613
f 613 645 646
f 678 646 645
f 645 677 678
f 710 678 677
f 677 709 710
f 742 710 709
f 709 741 742
f 774 742 741
f 741 773 774
f 806 774 773
f 773 805 806
f 838 806 805
f 805 837 838
f 870 838 837
f 837 869 870
f 902 870 869
f 869 901 902
f 934 902 901
f 901 933 934
f 966 934 933
f 933 965 966
f 998 966 965
f 965 997 998
f 39 7 6
f 6 38 39
f 71 39 38
f 38 70 71
f 103 71 70
f 70 102 103
f 135 103 102
f 102 134 135
f 167 135 134
f 134 166 167
f 199 167 166
f 166 198 199
f 231 199 198
f 198 230 231
f 263 231 230
f 230 262 263
f 295 263 262
f 262 294 295
f 327 295 294
f 294 326 327
f 359 327 326
f 326 358 359
f 391 359 358
f 358 390 391
f 423 391 390
f 390 422 423
f 455 423 422
f 422 454 455
f 487 455 454
f 454 486 487
f 519 487 486
f 486 518 519
f 551 519 518
f 518 550 551
f 583 551 550
f 550 582 583
f 615 583 582
f 582 614 615
f 647 615 614
f 614 646 647
f 679 647 646
f 646 678 679
f 711 679 678
f 678 710 711
f 743 711 710
f 710 742 743
f 775 743 742
f 742 774 775
f 807 775 774
f 774 806 807
f 839 807 806
f 806 838 839
f 871 839 838
f 838 870 871
f 903 871 870
f 870 902 903
f 935 903 902
f 902 934 935
f 967 935 934
f 934 966 967
f 999 967 966
f 966 998 999
f 40 8 7
f 7 39 40
f 72 40 39
f 39 71 72
f 104 72 71
f 71 103 104
f 136 104 103
f 103 135 136
f 168 136 135
f 135 167 168
f 200 168 167
f 167 199 200
f 232 200 199
f 199 231 232
f 264 232 231
f 231 263 264
f 296 264 263
f 263 295 296
f 328 296 295
f 295 327 328
f 360 328 327
f 327 359 360
f 392 360 359
f 359 391 392
f 424 392 391
f 391 423 424
f 456 424 423
f 423 455 456
f 488 456 455
f 455 487 488
f 520 488 487
f 487 519 520
f 552 520 519
f 519 551 552
f 584 552 551
f 551 583 584
f 616 584 583
f 583 615 616
f 648 616 615
f 615 647 648
f 680 648 647
f 647 679 680
f 712 680 679
f 679 711 712
f 744 712 711
f 711 743 744
f 776 744 743
f 743 775 776
f 808 776 775
f 775 807 808
f 840 808 807
f 807 839 840
f 872 840 839
f 839 871 872
f 904 872 871
f 871 903 904
f 936 904 903
f 903 935 936
f 968 936 935
f 935 967 968
f 1000 968 967
f 967 999 1000
f 41 9 8
f 8 40 41
f 73 41 40
f 40 72 73
f 105 73 72
f 72 104 105
f 137 105 104
f 104 136 137
f 169 137 136
f 136 168 169
f 201 169 168
f 168 200 201
f 233 201 200
f 200 232 233
f 265 233 232
f 232 264 265
f 297 265 264
f 264 296 297
f 329 297 296
f 296 328 329
f 361 329 328
f 328 360 361
f 393 361 360
f 360 392 393
f 425 393 392
f 392 424 425
f 457 425 424
f 424 456 457
f 489 457 456
f 456 488 489
f 521 489 488
f 488 520 521
f 553 521 520
f 520 552 553
f 585 553 552
f 552 584 585
f 617 585 584
f 584 616 617
f 649 617 616
f 616 648 649
f 681 649 648
f 648 680 681
f 713 681 680
f 680 712 713
f 745 713 712
f 712 744 745
f 777 745 744
f 744 776 777
f 809 777 776
f 776 808 809
f 841 809 808
f 808 840 841
f 873 841 840
f 840 872 873
f 905 873 872
f 872 904 905
f 937 905 904
f 904 936 937
f 969 937 936
f 936 968 969
f 1001 969 968
f 968 1000 1001
f 42 10 9
f 9 41 42
f 74 42 41
f 41 73 74
f 106 74 73
f 73 105 106
f 138 106 105
f 105 137 138
f 170 138 137
f 137 169 170
f 202 170 169
f 169 201 202
f 234 202 201
f 201 233 234
f 266 234 233
f 233 265 266
f 298 266 265
f 265 297 298
f 330 298 297
f 297 329 330
f 362 330 329
f 329 361 362
f 394 362 361
f 361 393 394
f 426 394 393
f 393 425 426
f 458 426 425
f 425 457 458
f 490 458 457
f 457 489 490
f 522 490 489
f 489 521 522
f 554 522 521
f 521 553 554
f 586 554 553
f 553 585 586
f 618 586 585
f 585 617 618
f 650 618 617
f 617 649 650
f 682 650 649
f 649 681 682
f 714 682 681
f 681 713 714
f 746 714 713
f 713 745 746
f 778 746 745
f 745 777 778
f 810 778 777
f 777 809 810
f 842 810 809
f 809 841 842
f 874 842 841
f 841 873 874
f 906 874 873
f 873 905 906
f 938 906 905
f 905 937 938
f 970 938 937
f 937 969 970
f 1002 970 969
f 969 1001 1002
f 43 11 10
f 10 42 43
f 75 43 42
f 42 74 75
f 107 75 74
f 74 106 107
f 139 107 106
f 106 138 139
f 171 139 138
f 138 170 171
f 203 171 170
f 170 202 203
f 235 203 202
f 202 234 235
f 267 235 234
f 234 266 267
f 299 267 266
f 266 298 299
f 331 299 298
f 298 330 331
f 363 331 330
f 330 362 363
f 395 363 362
f 362 394 395
f 427 395 394
f 394 426 427
f 459 427 426
f 426 458 459
f 491 459 458
f 458 490 491
f 523 491 490
f 490 522 523
f 555 523 522
f 522 554 555
f 587 555 554
f 554 586 587
f 619 587 586
f 586 618 619
f 651 619 618
f 618 650 651
f 683 651 650
f 650 682 683
f 715 683 682
f 682 714 715
f 747 715 714
f 714 746 747
f 779 747 746
f 746 778 779
f 811 779 778
f 778 810 811
f 843 811 810
f 810 842 843
f 875 843 842
f 842 874 875
f 907 875 874
f 874 906 907
f 939 907 906
f 906 938 939
f 971 939 938
f 938 970 971
f 1003 971 970
f 970 1002 1003
f 44 12 11
f 11 43 44
f 76 44 43
f 43 75 76
f 108 76 75
f 75 107 108
f 140 108 107
f 107 139 140
f 172 140 139
f 139 171 172
f 204 172 171
f 171 203 204
f 236 204 203
f 203 235 236
f 268 236 235
f 235 267 268
f 300 268 267
f 267 299 300
f 332 300 299
f 299 331 332
f 364 332 331
f 331 363 364
f 396 364 363
f 363 395 396
f 428 396 395
f 395 427 428
f 460 428 427
f 427 459 460
f 492 460 459
f 459 491 492
f 524 492 491
f 491 523 524
f 556 524 523
f 523 555 556
f 588 556 555
f 555 587 588
f 620 588 587
f 587 619 620
f 652 620 619
f 619 651 652
f 684 652 651
f 651 683 684
f 716 684 683
f 683 715 716
f 748 716 715
f 715 747 748
f 780 748 747
f 747 779 780
f 812 780 779
f 779 811 812
f 844 812 811
f 811 843 844
f 876 844 843
f 843 875 876
f 908 876 875
f 875 907 908
f 940 908 907
f 907 939 940
f 972 940 939
f 939 971 972
f 1004 972 971
f 971 1003 1004
f 45 13 12
f 12 44 45
f 77 45 44
f 44 76 77
f 109 77 76
f 76 108 109
f 141 109 108
f 108 140 141
f 173 141 140
f 140 172 173
f 205 173 172
f 172 204 205
f 237 205 204
f 204 236 237
f 269 237 236
f 236 268 269
f 301 269 268
f 268 300 301
f 333 301 300
f 300 332 333
f 365 333 332
f 332 364 365
f 397 365 364
f 364 396 397
f 429 397 396
f 396 428 429
f 461 429 428
f 428 460 461
f 493 461 460
f 460 492 493
f 525 493 492
f 492 524 525
f 557 525 524
f 524 556 557
f 589 557 556
f 556 588 589
f 621 589 588
f 588 620 621
f 653 621 620
f 620 652 653
f 685 653 652
f 652 684 685
f 717 685 684
f 684 716 717
f 749 717 716
f 716 748 749
f 781 749 748
f 748 780 781
f 813 781 780
f 780 812 813
f 845 813 812
f 812 844 845
f 877 845 844
f 844 876 877
f 909 877 876
f 876 908 909
f 941 909 908
f 908 940 941
f 973 941 940
f 940 972 973
f 1005 973 972
f 972 1004 1005
f 46 14 13
f 13 45 46
f 78 46 45
f 45 77 78
f 110 78 77
f 77 109 110
f 142 110 109
f 109 141 142
f 174 142 141
f 141 173 174
f 206 174 173
f 173 205 206
f 238 206 205
f 205 237 238
f 270 238 237
f 237 269 270
f 302 270 269
f 269 301 302
f 334 302 301
f 301 333 334
f 366 334 333
f 333 365 366
f 398 366 365
f 365 397 398
f 430 398 397
f 397 429 430
f 462 430 429
f 429 461 462
f 494 462 461
f 461 493 494
f 526 494 493
f 493 525 526
f 558 526 525
f 525 557 558
f 590 558 557
f 557 589 590
f 622 590 589
f 589 621 622
f 654 622 621
f 621 653 654
f 686 654 653
f 653 685 686
f 718 686 685
f 685 717 718
f 750 718 717
f 717 749 750
f 782 750 749
f 749 781 782
f 814 782 781
f 781 813 814
f 846 814 813
f 813 845 846
f 878 846 845
f 845 877 878
f 910 878 877
f 877 909 910
f 942 910 909
f 909 941 942
f 974 942 941
f 941 973 974
f 1006 974 973
f 973 1005 1006
f 47 15 14
f 14 46 47
f 79 47 46
f 46 78 79
f 111 79 78
f 78 110 111
f 143 111 110
f 110 142 143
f 175 143 142
f 142 174 175
f 207 175 174
f 174 206 207
f 239 207 206
f 206 238 239
f 271 239 238
f 238 270 271
f 303 271 270
f 270 302 303
f 335 303 302
f 302 334 335
f 367 335 334
f 334 366 367
f 399 367 366
f 366 398 399
f 431 399 398
f 398 430 431
f 463 431 430
f 430 462 463
f 495 463 462
f 462 494 495
f 527 495 494
f 494 526 527
f 559 527 526
f 526 558 559
f 591 559 558
f 558 590 591
f 623 591 590
f 590 622 623
f 655 623 622
f 622 654 655
f 687 655 654
f 654 686 687
f 719 687 686
f 686 718 719
f 751 719 718
f 718 750 751
f 783 751 750
f 750 782 783
f 815 783 782
f 782 814 815
f 847 815 814
f 814 846 847
f 879 847 846
f 846 878 879
f 911 879 878
f 878 910 911
f 943 911 910
f 910 942 943
f 975 943 942
f 942 974 975
f 1007 975 974
f 974 1006 1007
f 48 16 15
f 15 47 48
f 80 48 47
f 47 79 80
f 112 80 79
f 79 111 112
f 144 112 111
f 111 143 144
f 176 144 143
f 143 175 176
f 208 176 175
f 175 207 208
f 240 208 207
f 207 239 240
f 272 240 239
f 239 271 272
f 304 272 271
f 271 303 304
f 336 304 303
f 303 335 336
f 368 336 335
f 335 367 368
f 400 368 367
f 367 399 400
f 432 400 399
f 399 431 432
f 464 432 431
f 431 463 464
f 496 464 463
f 463 495 496
f 528 496 495
f 495 527 528
f 560 528 527
f 527 559 560
f 592 560 559
f 559 591 592
f 624 592 591
f 591 623 624
f 656 624 623
f 623 655 656
f 688 656 655
f 655 687 688
f 720 688 687
f 687 719 720
f 752 720 719
f 719 751 752
f 784 752 751
f 751 783 784
f 816 784 783
f 783 815 816
f 848 816 815
f 815 847 848
f 880 848 847
f 847 879 880
f 912 880 879
f 879 911 912
f 944 912 911
f 911 943 944
f 976 944 943
f 943 975 976
f 1008 976 975
f 975 1007 1008
f 49 17 16
f 16 48 49
f 81 49 48
f 48 80 81
f 113 81 80
f 80 112 113
f 145 113 112
f 112 144 145
f 177 145 144
f 144 176 177
f 209 177 176
f 176 208 209
f 241 209 208
f 208 240 241
f 273 241 240
f 240 272 273
f 305 273 272
f 272 304 305
f 337 305 304
f 304 336 337
f 369 337 336
f 336 368 369
f 401 369 368
f 368 400 401
f 433 401 400
f 400 432 433
f 465 433 432
f 432 464 465
f 497 465 464
f 464 496 497
f 529 497 496
f 496 528 529
f 561 529 528
f 528 560 561
f 593 561 560
f 560 592 593
f 625 593 592
f 592 624 625
f 657 625 624
f 624 656 657
f 689 657 656
f 656 688 689
f 721 689 688
f 688 720 721
f 753 721 720
f 720 752 753
f 785 753 752
f 752 784 785
f 817 785 784
f 784 816 817
f 849 817 816
f 816 848 849
f 881 849 848
f 848 880 881
f 913 881 880
f 880 912 913
f 945 913 912
f 912 944 945
f 977 945 944
f 944 976 977
f 1009 977 976
f 976 1008 1009
f 50 18 17
f 17 49 50
f 82 50 49
f 49 81 82
f 114 82 81
f 81 113 114
f 146 114 113
f 113 145 146
f 178 146 145
f 145 177 178
f 210 178 177
f 177 209 210
f 242 210 209
f 209 241 242
f 274 242 241
f 241 273 274
f 306 274 273
f 273 305 306
f 338 306 305
f 305 337 338
f 370 338 337
f 337 369 370
f 402 370 369
f 369 401 402
f 434 402 401
f 401 433 434
f 466 434 433
f 433 465 466
f 498 466 465
f 465 497 498
f 530 498 497
f 497 529 530
f 562 530 529
f 529 561 562
f 594 562 561
f 561 593 594
f 626 594 593
f 593 625 626
f 658 626 625
f 625 657 658
f 690 658 657
f 657 689 690
f 722 690 689
f 689 721 722
f 754 722 721
f 721 753 754
f 786 754 753
f 753 785 786
f 818 786 785
f 785 817 818
f 850 818 817
f 817 849 850
f 882 850 849
f 849 881 882
f 914 882 881
f 881 913 914
f 946 914 913
f 913 945 946
f 978 946 945
f 945 977 978
f 1010 978 977
f 977 1009 1010
f 51 19 18
f 18 50 51
f 83 51 50
f 50 82 83
f 115 83 82
f 82 114 115
f 147 115 114
f 114 146 147
f 179 147 146
f 146 178 179
f 211 179 178
f 178 210 211
f 243 211 210
f 210 242 243
f 275 243 242
f 242 274 275
f 307 275 274
f 274 306 307
f 339 307 306
f 306 338 339
f 371 339 338
f 338 370 371
f 403 371 370
f 370 402 403
f 435 403 402
f 402 434 435
f 467 435 434
f 434 466 467
f 499 467 466
f 466 498 499
f 531 499 498
f 498 530 531
f 563 531 530
f 530 562 563
f 595 563 562
f 562 594 595
f 627 595 594
f 594 626 627
f 659 627 626
f 626 658 659
f 691 659 658
f 658 690 691
f 723 691 690
f 690 722 723
f 755 723 722
f 722 754 755
f 787 755 754
f 754 786 787
f 819 787 786
f 786 818 819
f 851 819 818
f 818 850 851
f 883 851 850
f 850 882 883
f 915 883 882
f 882 914 915
f 947 915 914
f 914 946 947
f 979 947 946
f 946 978 979
f 1011 979 978
f 978 1010 1011
f 52 20 19
f 19 51 52
f 84 52 51
f 51 83 84
f 116 84 83
f 83 115 116
f 148 116 115
f 115 147 148
f 180 148 147
f 147 179 180
f 212 180 179
f 179 211 212
f 244 212 211
f 211 243 244
f 276 244 243
f 243 275 276
f 308 276 275
f 275 307 308
f 340 308 307
f 307 339 340
f 372 340 339
f 339 371 372
f 404 372 371
f 371 403 404
f 436 404 403
f 403 435 436
f 468 436 435
f 435 467 468
f 500 468 467
f 467 499 500
f 532 500 499
f 499 531 532
f 564 532 531
f 531 563 564
f 596 564 563
f 563 595 596
f 628 596 595
f 595 627 628
f 660 628 627
f 627 659 660
f 692 660 659
f 659 691 692
f 724 692 691
f 691 723 724
f 756 724 723
f 723 755 756
f 788 756 755
f 755 787 788
f 820 788 787
f 787 819 820
f 852 820 819
f 819 851 852
f 884 852 851
f 851 883 884
f 916 884 883
f 883 915 916
f 948 916 915
f 915 947 948
f 980 948 947
f 947 979 980
f 1012 980 979
f 979 1011 1012
f 53 21 20
f 20 52 53
f 85 53 52
f 52 84 85
f 117 85 84
f 84 116 117
f 149 117 116
f 116 148 149
f 181 149 148
f 148 180 181
f 213 181 180
f 180 212 213
f 245 213 212
f 212 244 245
f 277 245 244
f 244 276 277
f 309 277 276
f 276 308 309
f 341 309 308
f 308 340 341
f 373 341 340
f 340 372 373
f 405 373 372
f 372 404 405
f 437 405 404
f 404 436 437
f 469 437 436
f 436 468 469
f 501 469 468
f 468 500 501
f 533 501 500
f 500 532 533
f 565 533 532
f 532 564 565
f 597 565 564
f 564 596 597
f 629 597 596
f 596 628 629
f 661 629 628
f 628 660 661
f 693 661 660
f 660 692 693
f 725 693 692
f 692 724 725
f 757 725 724
f 724 756 757
f 789 757 756
f 756 788 789
f 821 789 788
f 788 820 821
f 853 821 820
f 820 852 853
f 885 853 852
f 852 884 885
f 917 885 884
f 884 916 917
f 949 917 916
f 916 948 949
f 981 949 948
f 948 980 981
f 1013 981 980
f 980 1012 1013
f 54 22 21
f 21 53 54
f 86 54 53
f 53 85 86
f 118 86 85
f 85 117 118
f 150 118 117
f 117 149 150
f 182 150 149
f 149 181 182
f 214 182 181
f 181 213 214
f 246 214 213
f 213 245 246
f 278 246 245
f 245 277 278
f 310 278 277
f 277 309 310
f 342 310 309
f 309 341 342
f 374 342 341
f 341 373 374
f 406 374 373
f 373 405 406
f 438 406 405
f 405 437 438
f 470 438 437
f 437 469 470
f 502 470 469
f 469 501 502
f 534 502 501
f 501 533 534
f 566 534 533
f 533 565 566
f 598 566 565
f 565 597 598
f 630 598 597
f 597 629 630
f 662 630 629
f 629 661 662
f 694 662 661
f 661 693 694
f 726 694 693
f 693 725 726
f 758 726 725
f 725 757 758
f 790 758 757
f 757 789 790
f 822 790 789
f 789 821 822
f 854 822 821
f 821 853 854
f 886 854 853
f 853 885 886
f 918 886 885
f 885 917 918
f 950 918 917
f 917 949 950
f 982 950 949
f 949 981 982
f 1014 982 981
f 981 1013 1014
f 55 23 22
f 22 54 55
f 87 55 54
f 54 86 87
f 119 87 86
f 86 118 119
f 151 119 118
f 118 150 151
f 183 151 150
f 150 182 183
f 215 183 182
f 182 214 215
f 247 215 214
f 214 246 247
f 279 247 246
f 246 278 279
f 311 279 278
f 278 310 311
f 343 311 310
f 310 342 343
f 375 343 342
f 342 374 375
f 407 375 374
f 374 406 407
f 439 407 406
f 406 438 439
f 471 439 438
f 438 470 471
f 503 471 470
f 470 502 503
f 535 503 502
f 502 534 535
f 567 535 534
f 534 566 567
f 599 567 566
f 566 598 599
f 631 599 598
f 598 630 631
f 663 631 630
f 630 662 663
f 695 663 662
f 662 694 695
f 727 695 694
f 694 726 727
f 759 727 726
f 726 758 759
f 791 759 758
f 758 790 791
f 823 791 790
f 790 822 823
f 855 823 822
f 822 854 855
f 887 855 854
f 854 886 887
f 919 887 886
f 886 918 919
f 951 919 918
f 918 950 951
f 983 951 950
f 950 982 983
f 1015 983 982
f 982 1014 1015
f 56 24 23
f 23 55 56
f 88 56 55
f 55 87 88
f 120 88 87
f 87 119 120
f 152 120 119
f 119 151 152
f 184 152 151
f 151 183 184
f 216 184 183
f 183 215 216
f 248 216 215
f 215 247 248
f 280 248 247
f 247 279 280
f 312 280 279
f 279 311 312
f 344 312 311
f 311 343 344
f 376 344 343
f 343 375 376
f 408 376 375
f 375 407 408
f 440 408 407
f 407 439 440
f 472 440 439
f 439 471 472
f 504 472 471
f 471 503 504
f 536 504 503
f 503 535 536
f 568 536 535
f 535 567 568
f 600 568 567
f 567 599 600
f 632 600 599
f 599 631 632
f 664 632 631
f 631 663 664
f 696 664 663
f 663 695 696
f 728 696 695
f 695 727 728
f 760 728 727
f 727 759 760
f 792 760 759
f 759 791 792
f 824 792 791
f 791 823 824
f 856 824 823
f 823 855 856
f 888 856 855
f 855 887 888
f 920 888 887
f 887 919 920
f 952 920 919
f 919 951 952
f 984 952 951
f 951 983 984
f 1016 984 983
f 983 1015 1016
f 57 25 24
f 24 56 57
f 89 57 56
f 56 88 89
f 121 89 88
f 88 120 121
f 153 121 120
f 120 152 153
f 185 153 152
f 152 184 185
f 217 185 184
f 184 216 217
f 249 217 216
f 216 248 249
f 281 249 248
f 248 280 281
f 313 281 280
f 280 312 313
f 345 313 312
f 312 344 345
f 377 345 344
f 344 376 377
f 409 377 376
f 376 408 409
f 441 409 408
f 408 440 441
f 473 441 440
f 440 472 473
f 505 473 472
f 472 504 505
f 537 505 504
f 504 536 537
f 569 537 536
f 536 568 569
f 601 569 568
f 568 600 601
f 633 601 600
f 600 632 633
f 665 633 632
f 632 664 665
f 697 665 664
f 664 696 697
f 729 697 696
f 696 728 729
f 761 729 728
f 728 760 761
f 793 761 760
f 760 792 793
f 825 793 792
f 792 824 825
f 857 825 824
f 824 856 857
f 889 857 856
f 856 888 889
f 921 889 888
f 888 920 921
f 953 921 920
f 920 952 953
f 985 953 952
f 952 984 985
f 1017 985 984
f 984 1016 1017
f 58 26 25
f 25 57 58
f 90 58 57
f 57 89 90
f 122 90 89
f 89 121 122
f 154 122 121
f 121 153 154
f 186 154 153
f 153 185 186
f 218 186 185
f 185 217 218
f 250 218 217
f 217 249 250
f 282 250 249
f 249 281 282
f 314 282 281
f 281 313 314
f 346 314 313
f 313 345 346
f 378 346 345
f 345 377 378
f 410 378 377
f 377 409 410
f 442 410 409
f 409 441 442
f 474 442 441
f 441 473 474
f 506 474 473
f 473 505 506
f 538 506 505
f 505 537 538
f 570 538 537
f 537 569 570
f 602 570 569
f 569 601 602
f 634 602 601
f 601 633 634
f 666 634 633
f 633 665 666
f 698 666 665
f 665 697 698
f 730 698 697
f 697 729 730
f 762 730 729
f 729 761 762
f 794 762 761
f 761 793 794
f 826 794 793
f 793 825 826
f 858 826 825
f 825 857 858
f 890 858 857
f 857 889 890
f 922 890 889
f 889 921 922
f 954 922 921
f 921 953 954
f 986 954 953
f 953 985 986
f 1018 986 985
f 985 1017 1018
f 59 27 26
f 26 58 59
f 91 59 58
f 58 90 91
f 123 91 90
f 90 122 123
f 155 123 122
f 122 154 155
f 187 155 154
f 154 186 187
f 219 187 186
f 186 218 219
f 251 219 218
f 218 250 251
f 283 251 250
f 250 282 283
f 315 283 282
f 282 314 315
f 347 315 314
f 314 346 347
f 379 347 346
f 346 378 379
f 411 379 378
f 378 410 411
f 443 411 410
f 410 442 443
f 475 443 442
f 442 474 475
f 507 475 474
f 474 506 507
f 539 507 506
f 506 538 539
f 571 539 538
f 538 570 571
f 603 571 570
f 570 602 603
f 635 603 602
f 602 634 635
f 667 635 634
f 634 666 667
f 699 667 666
f 666 698 699
f 731 699 698
f 698 730 731
f 763 731 730
f 730 762 763
f 795 763 762
f 762 794 795
f 827 795 794
f 794 826 827
f 859 827 826
f 826 858 859
f 891 859 858
f 858 890 891
f 923 891 890
f 890 922 923
f 955 923 922
f 922 954 955
f 987 955 954
f 954 986 987
f 1019 987 986
f 986 1018 1019
f 60 28 27
f 27 59 60
f 92 60 59
f 59 91 92
f 124 92 91
f 91 123 124
f 156 124 123
f 123 155 156
f 188 156 155
f 155 187 188
f 220 188 187
f 187 219 220
f 252 220 219
f 219 251 252
f 284 252 251
f 251 283 284
f 316 284 283
f 283 315 316
f 348 316 315
f 315 347 348
f 380 348 347
f 347 379 380
f 412 380 379
f 379 411 412
f 444 412 411
f 411 443 444
f 476 444 443
f 443 475 476
f 508 476 475
f 475 507 508
f 540 508 507
f 507 539 540
f 572 540 539
f 539 571 572
f 604 572 571
f 571 603 604
f 636 604 603
f 603 635 636
f 668 636 635
f 635 667 668
f 700 668 667
f 667 699 700
f 732 700 699
f 699 731 732
f 764 732 731
f 731 763 764
f 796 764 763
f 763 795 796
f 828 796 795
f 795 827 828
f 860 828 827
f 827 859 860
f 892 860 859
f 859 891 892
f 924 892 891
f 891 923 924
f 956 924 923
f 923 955 956
f 988 956 955
f 955 987 988
f 1020 988 987
f 987 1019 1020
f 61 29 28
f 28 60 61
f 93 61 60
f 60 92 93
f 125 93 92
f 92 124 125
f 157 125 124
f 124 156 157
f 189 157 156
f 156 188 189
f 221 189 188
f 188 220 221
f 253 221 220
f 220 252 253
f 285 253 252
f 252 284 285
f 317 285 284
f 284 316 317
f 349 317 316
f 316 348 349
f 381 349 348
f 348 380 381
f 413 381 380
f 380 412 413
f 445 413 412
f 412 444 445
f 477 445 444
f 444 476 477
f 509 477 476
f 476 508 509
f 541 509 508
f 508 540 541
f 573 541 540
f 540 572 573
f 605 573 572
f 572 604 605
f 637 605 604
f 604 636 637
f 669 637 636
f 636 668 669
f 701 669 668
f 668 700 701
f 733 701 700
f 700 732 733
f 765 733 732
f 732 764 765
f 797 765 764
f 764 796 797
f 829 797 796
f 796 828 829
f 861 829 828
f 828 860 861
f 893 861 860
f 860 892 893
f 925 893 892
f 892 924 925
f 957 925 924
f 924 956 957
f 989 957 956
f 956 988 989
f 1021 989 988
f 988 1020 1021
f 62 30 29
f 29 61 62
f 94 62 61
f 61 93 94
f 126 94 93
f 93 125 126
f 158 126 125
f 125 157 158
f 190 158 157
f 157 189 190
f 222 190 189
f 189 221 222
f 254 222 221
f 221 253 254
f 286 254 253
f 253 285 286
f 318 286 285
f 285 317 318
f 350 318 317
f 317 349 350
f 382 350 349
f 349 381 382
f 414 382 381
f 381 413 414
f 446 414 413
f 413 445 446
f 478 446 445
f 445 477 478
f 510 478 477
f 477 509 510
f 542 510 509
f 509 541 542
f 574 542 541
f 541 573 574
f 606 574 573
f 573 605 606
f 638 606 605
f 605 637 638
f 670 638 637
f 637 669 670
f 702 670 669
f 669 701 702
f 734 702 701
f 701 733 734
f 766 734 733
f 733 765 766
f 798 766 765
f 765 797 798
f 830 798 797
f 797 829 830
f 862 830 829
f 829 861 862
f 894 862 861
f 861 893 894
f 926 894 893
f 893 925 926
f 958 926 925
f 925 957 958
f 990 958 957
f 957 989 990
f 1022 990 989
f 989 1021 1022
f 63 31 30
f 30 62 63
f 95 63 62
f 62 94 95
f 127 95 94
f 94 126 127
f 159 127 126
f 126 158 159
f 191 159 158
f 158 190 191
f 223 191 190
f 190 222 223
f 255 223 222
f 222 254 255
f 287 255 254
f 254 286 287
f 319 287 286
f 286 318 319
f 351 319 318
f 318 350 351
f 383 351 350
f 350 382 383
f 415 383 382
f 382 414 415
f 447 415 414
f 414 446 447
f 479 447 446
f 446 478 479
f 511 479 478
f 478 510 511
f 543 511 510
f 510 542 543
f 575 543 542
f 542 574 575
f 607 575 574
f 574 606 607
f 639 607 606
f 606 638 639
f 671 639 638
f 638 670 671
f 703 671 670
f 670 702 703
f 735 703 702
f 702 734 735
f 767 735 734
f 734 766 767
f 799 767 766
f 766 798 799
f 831 799 798
f 798 830 831
f 863 831 830
f 830 862 863
f 895 863 862
f 862 894 895
f 927 895 894
f 894 926 927
f 959 927 926
f 926 958 959
f 991 959 958
f 958 990 991
f 1023 991 990
f 990 1022 1023
f 64 32 31
f 31 63 64
f 96 64 63
f 63 95 96
f 128 96 95
f 95 127 128
f 160 128 127
f 127 159 160
f 192 160 159
f 159 191 192
f 224 192 191
f 191 223 224
f 256 224 223
f 223 255 256
f 288 256 255
f 255 287 288
f 320 288 287
f 287 319 320
f 352 320 319
f 319 351 352
f 384 352 351
f 351 383 384
f 416 384 383
f 383 415 416
f 448 416 415
f 415 447 448
f 480 448 447
f 447 479 480
f 512 480 479
f 479 511 512
f 544 512 511
f 511 543 544
f 576 544 543
f 543 575 576
f 608 576 575
f 575 607 608
f 640 608 607
f 607 639 640
f 672 640 639
f 639 671 672
f 704 672 671
f 671 703 704
f 736 704 703
f 703 735 736
f 768 736 735
f 735 767 768
f 800 768 767
f 767 799 800
f 832 800 799
f 799 831 832
f 864 832 831
f 831 863 864
f 896 864 863
f 863 895 896
f 928 896 895
f 895 927 928
f 960 928 927
f 927 959 960
f 992 960 959
f 959 991 992
f 1024 992 991
f 991 1023 1024
