v -4563.73 42.5777 6544
v -4563.78 42.2171 6543.08
v -4563.28 41.4363 6543.09
v -4563.15 41.6559 6544.12
v -4562.94 40.5366 6543.05
v -4562.75 40.5936 6544.18
v -4562.93 39.6059 6542.99
v -4562.74 39.4948 6544.17
v -4563.21 38.7353 6542.91
v -4563.07 38.4671 6544.09
v -4564.36 37.5014 6542.61
v -4564.44 37.0104 6543.75
v -4565.92 37.3062 6542.23
v -4566.28 36.7798 6543.3
v -4567.28 38.2241 6541.91
v -4567.88 37.8636 6542.91
v -4567.71 39.0049 6541.82
v -4568.39 38.7853 6542.79
v -4567.92 39.9047 6541.78
v -4568.64 39.8476 6542.73
v -4567.83 40.8354 6541.89
v -4568.49 40.9464 6542.79
v -4567.48 41.7059 6542.1
v -4568.04 41.9741 6542.93
v -4566.98 42.431 6542.33
v -4567.42 42.8302 6543.11
v -4566.39 42.9398 6542.55
v -4566.71 43.4309 6543.3
v -4565.06 43.1351 6542.9
v -4565.18 43.6614 6543.68
v -4565.38 40.2206 6542.28
v -4564.22 40.8285 6542.42
v -4564.47 41.2189 6542.43
v -4564.08 40.3786 6542.37
v -4564.08 39.9132 6542.34
v -4564.22 39.478 6542.29
v -4564.8 38.861 6542.14
v -4565.57 38.7634 6541.95
v -4566.25 39.2224 6541.79
v -4566.47 39.6128 6541.75
v -4566.58 40.0626 6541.73
v -4566.55 40.528 6541.79
v -4566.41 40.9633 6541.91
v -4566.17 41.3258 6542.03
v -4565.86 41.5802 6542.16
v -4565.14 41.6778 6542.35
v -4571.32 42.1188 6547.65
v -4570.94 42.189 6548.08
v -4571.24 41.2368 6548.59
v -4571.64 41.1999 6548.13
v -4571.08 41.246 6548.64
v -4570.79 42.2065 6548.12
v -4571.94 41.0832 6547.59
v -4571.62 41.8967 6547.2
v -4570.56 43.3163 6546.31
v -4570.25 43.4582 6546.52
v -4570.89 42.9569 6546.03
v -4569.77 43.3163 6544.79
v -4569.44 43.4582 6544.94
v -4570.18 42.9569 6544.65
v -4569.11 42.1188 6543.39
v -4568.68 42.2065 6543.51
v -4569.63 41.8967 6543.38
v -4568.9 41.1999 6542.85
v -4568.42 41.246 6542.98
v -4569.49 41.0832 6542.89
v -4568.82 40.1813 6542.52
v -4568.27 40.1813 6542.66
v -4569.47 40.1813 6542.59
v -4568.87 39.086 6542.58
v -4568.32 39.0307 6542.72
v -4569.54 39.2238 6542.65
v -4569.09 38.1321 6542.94
v -4568.54 38.0301 6543.1
v -4569.74 38.3868 6542.96
v -4570.08 37.7689 6543.51
v -4568.91 37.3007 6543.76
v -4570.51 37.4306 6544.25
v -4569.41 36.9137 6544.65
v -4571.4 37.4306 6545.96
v -4570.29 36.9137 6546.85
v -4571.77 37.7689 6546.74
v -4571.39 37.4342 6547.24
v -4570.74 37.3007 6547.77
v -4570.91 37.3274 6547.72
v -4571.69 38.1321 6547.9
v -4571.24 38.0505 6548.4
v -4571.07 38.0301 6548.46
v -4572.03 38.3868 6547.33
v -4571.86 39.086 6548.29
v -4571.41 39.0418 6548.79
v -4571.25 39.0307 6548.85
v -4572.17 39.2238 6547.68
v -4571.87 40.1813 6548.37
v -4571.43 40.1813 6548.87
v -4571.27 40.1813 6548.93
v -4572.17 40.1813 6547.77
v -4571 40.1813 6545.08
v -4571.57 41.039 6546.06
v -4571.73 40.6322 6546.23
v -4571.18 41.5691 6545.46
v -4570.79 41.5691 6544.72
v -4570.53 41.039 6544.05
v -4570.48 40.6322 6543.82
v -4570.5 40.1813 6543.69
v -4570.54 39.7262 6543.73
v -4570.66 39.3223 6543.89
v -4570.83 39.0133 6544.17
v -4571.04 38.8296 6544.53
v -4571.47 38.8296 6545.36
v -4571.64 39.0133 6545.73
v -4571.77 39.3223 6546.03
v -4571.84 39.7262 6546.22
v -4571.85 40.1813 6546.28
v -4560.76 43.1575 6548.54
v -4561.35 43.0155 6550.17
v -4561.69 43.9711 6550.09
v -4561.14 44.1052 6548.55
v -4560.83 42.9097 6548.52
v -4561.42 42.7698 6550.13
v -4562.32 44.829 6549.9
v -4561.84 44.9482 6548.52
v -4560.81 43.2745 6546.75
v -4561.18 44.2155 6546.86
v -4560.88 43.025 6546.76
v -4561.88 45.0458 6547.02
v -4561.48 43.3551 6544.98
v -4561.81 44.2912 6545.19
v -4561.54 43.1044 6545.01
v -4562.43 45.1124 6545.56
v -4562.95 44.3236 6543.74
v -4562.69 43.3898 6543.43
v -4562.73 43.1387 6543.49
v -4563.42 45.1403 6544.3
v -4564.57 44.2912 6542.86
v -4564.41 43.3551 6542.5
v -4564.43 43.1044 6542.56
v -4564.83 45.1124 6543.53
v -4566.32 44.2155 6542.52
v -4566.28 43.2745 6542.13
v -4566.27 43.025 6542.2
v -4566.36 45.0458 6543.23
v -4567.99 44.1052 6542.76
v -4568.05 43.1575 6542.39
v -4568.02 42.9097 6542.45
v -4567.84 44.9482 6543.44
v -4569.41 43.9711 6543.56
v -4569.56 43.0155 6543.24
v -4569.5 42.7698 6543.29
v -4569.12 44.829 6544.15
v -4570.7 42.8609 6544.59
v -4570.5 43.825 6544.83
v -4570.63 42.6175 6544.63
v -4570.11 44.6988 6545.27
v -4571.49 42.6462 6546.23
v -4571.25 43.5594 6546.37
v -4571.41 42.4217 6546.24
v -4570.78 44.3943 6546.61
v -4571.84 42.4525 6548.01
v -4571.58 43.3198 6548.04
v -4571.75 42.2451 6548
v -4571.08 44.1196 6548.08
v -4571.75 42.2988 6549.73
v -4571.49 43.1296 6549.66
v -4571.66 42.1049 6549.7
v -4570.99 43.9016 6549.51
v -4571.21 42.2002 6551.24
v -4570.98 43.0075 6551.09
v -4571.14 42.0149 6551.19
v -4570.53 43.7616 6550.78
v -4570.27 42.1662 6552.41
v -4570.09 42.9655 6552.19
v -4570.21 41.9839 6552.33
v -4569.73 43.7134 6551.76
v -4568.85 43.0075 6552.89
v -4568.97 42.2002 6553.14
v -4568.92 42.0149 6553.06
v -4568.62 43.7616 6552.39
v -4567.36 43.1296 6553.15
v -4567.39 42.2988 6553.42
v -4567.37 42.1049 6553.33
v -4567.3 43.9016 6552.64
v -4565.74 43.3198 6552.97
v -4565.67 42.4525 6553.22
v -4565.67 42.2451 6553.13
v -4565.87 44.1196 6552.48
v -4564.15 43.5594 6552.36
v -4563.97 42.6462 6552.58
v -4564 42.4217 6552.5
v -4564.47 44.3943 6551.94
v -4562.77 43.825 6551.37
v -4562.49 42.8609 6551.53
v -4562.54 42.6175 6551.46
v -4563.26 44.6988 6551.05
v -4566.73 45.2959 6548.22
v -4564.33 45.4162 6548.31
v -4564.56 45.3557 6549.02
v -4564.35 45.4651 6547.56
v -4564.61 45.4974 6546.86
v -4565.08 45.5097 6546.27
v -4565.74 45.4974 6545.9
v -4566.48 45.4651 6545.76
v -4567.22 45.4162 6545.87
v -4567.89 45.3557 6546.21
v -4568.43 45.289 6546.75
v -4568.79 45.1133 6547.4
v -4568.95 44.9549 6548.12
v -4568.91 44.8291 6548.84
v -4568.66 44.7483 6549.48
v -4568.23 44.7205 6550
v -4567.66 44.7483 6550.33
v -4566.98 44.8291 6550.47
v -4566.26 44.9549 6550.39
v -4565.58 45.1133 6550.11
v -4565 45.289 6549.65
v -4561.05 41.1999 6549.45
v -4561.55 42.1188 6549.73
v -4561.72 42.2065 6549.31
v -4561.23 41.246 6548.97
v -4561.02 41.0832 6550.06
v -4561.48 41.8967 6550.27
v -4562.83 43.3163 6550.6
v -4563.01 43.4582 6550.28
v -4562.65 42.9569 6551
v -4564.2 43.3163 6551.62
v -4564.44 43.4582 6551.33
v -4563.9 42.9569 6551.92
v -4565.91 42.189 6552.29
v -4565.42 42.1188 6552.58
v -4565.95 42.2065 6552.11
v -4564.95 41.8967 6552.82
v -4565.85 41.1999 6552.97
v -4566.38 41.2368 6552.65
v -4566.42 41.246 6552.47
v -4565.3 41.0832 6553.19
v -4566.06 40.1813 6553.22
v -4566.63 40.1813 6552.88
v -4566.69 40.1813 6552.7
v -4565.45 40.1813 6553.45
v -4566.56 39.0418 6552.85
v -4565.99 39.086 6553.2
v -4566.62 39.0307 6552.66
v -4565.37 39.2238 6553.43
v -4566.21 38.0505 6552.61
v -4565.63 38.1321 6552.97
v -4566.26 38.0301 6552.42
v -4565.04 38.3868 6553.24
v -4563.79 37.4306 6552.42
v -4564.79 36.9137 6551.42
v -4562.22 37.4306 6551.28
v -4562.72 36.9137 6550.22
v -4561.05 38.3868 6550.34
v -4561.1 38.1321 6549.67
v -4561.32 38.0301 6549.13
v -4560.79 39.086 6549.4
v -4560.98 39.0307 6548.85
v -4560.77 39.2238 6550.08
v -4560.74 40.1813 6549.33
v -4560.93 40.1813 6548.8
v -4560.73 40.1813 6550.01
v -4562.97 40.1813 6551.9
v -4562.03 41.039 6551.28
v -4561.81 40.6322 6551.2
v -4562.65 41.5691 6551.63
v -4563.32 41.5691 6552.13
v -4563.85 41.039 6552.61
v -4564 40.6322 6552.8
v -4564.04 40.1813 6552.92
v -4563.98 39.7262 6552.91
v -4563.81 39.3223 6552.81
v -4563.19 38.8296 6552.41
v -4562.43 38.8296 6551.86
v -4561.86 39.3223 6551.39
v -4561.71 39.7262 6551.25
v -4561.68 40.1813 6551.2
v -4561.99 39.8846 6543.92
v -4563.18 39.8533 6543.88
v -4561.93 38.9981 6544.07
v -4562.94 37.8871 6544.47
v -4561.78 38.2516 6544.42
v -4561.93 41.5451 6544.53
v -4562.95 41.8182 6544.59
v -4561.8 42.2784 6545.04
v -4562.72 42.6675 6545.17
v -4561.61 42.7104 6545.61
v -4562.46 43.1776 6545.81
v -4561.18 42.7974 6546.78
v -4561.97 43.2803 6547.14
v -4560.98 42.4438 6547.35
v -4561.77 42.8628 6547.81
v -4560.76 41.7728 6547.86
v -4561.57 42.0869 6548.43
v -4560.37 40.174 6548.5
v -4561.25 40.1994 6549.27
v -4560.37 39.275 6548.43
v -4561.37 38.1496 6548.86
v -4560.45 38.4716 6548.13
v -4560.79 37.5453 6547.01
v -4561.77 37.0669 6547.52
v -4561.29 37.4994 6545.58
v -4562.35 37.0198 6545.84
v -4560.92 40.0333 6546.13
v -4561.14 39.5499 6544.99
v -4561.06 39.1926 6545.17
v -4561.17 39.9642 6544.92
v -4561.18 40.7892 6545.19
v -4561.12 41.1107 6545.44
v -4561.03 41.3268 6545.74
v -4560.79 41.3702 6546.39
v -4560.68 41.1934 6546.7
v -4560.56 40.903 6546.95
v -4560.36 40.1036 6547.22
v -4560.36 39.6799 6547.18
v -4560.4 39.2993 6547.03
v -4560.57 38.8234 6546.46
v -4560.82 38.7922 6545.75
v -4563.85 42.4908 6544.2
v -4563.73 42.5777 6544
v -4563.15 41.6559 6544.12
v -4563.29 41.603 6544.34
v -4562.75 40.5936 6544.18
v -4562.92 40.5799 6544.43
v -4562.74 39.4948 6544.17
v -4562.92 39.5216 6544.43
v -4563.07 38.4671 6544.09
v -4563.24 38.5317 6544.35
v -4564.56 37.1287 6544.03
v -4564.44 37.0104 6543.75
v -4566.33 36.9066 6543.6
v -4566.28 36.7798 6543.3
v -4567.87 37.9504 6543.22
v -4567.88 37.8636 6542.91
v -4568.39 38.7853 6542.79
v -4568.36 38.8382 6543.1
v -4568.64 39.8476 6542.73
v -4568.6 39.8614 6543.04
v -4568.49 40.9464 6542.79
v -4568.45 40.9196 6543.08
v -4568.04 41.9741 6542.93
v -4568.01 41.9095 6543.18
v -4567.42 42.8302 6543.11
v -4567.42 42.7341 6543.33
v -4566.71 43.4309 6543.3
v -4566.72 43.3126 6543.5
v -4565.24 43.5346 6543.86
v -4565.18 43.6614 6543.68
v -4565.69 40.2206 6543.55
v -4569.28 43.3374 6545.06
v -4570.07 43.3374 6546.59
v -4570.25 43.4582 6546.52
v -4569.44 43.4582 6544.94
v -4568.52 42.1319 6543.7
v -4568.68 42.2065 6543.51
v -4568.42 41.246 6542.98
v -4568.24 41.2068 6543.19
v -4568.27 40.1813 6542.66
v -4568.08 40.1813 6542.91
v -4568.32 39.0307 6542.72
v -4568.12 39.0778 6542.98
v -4568.54 38.0301 6543.1
v -4568.33 38.117 6543.34
v -4568.91 37.3007 6543.76
v -4568.68 37.4144 6543.98
v -4569.41 36.9137 6544.65
v -4569.16 37.0388 6544.84
v -4570.19 37.0388 6546.8
v -4570.29 36.9137 6546.85
v -4571.08 41.246 6548.64
v -4570.79 42.2065 6548.12
v -4569.87 40.1813 6545.71
v -4570.74 37.3007 6547.77
v -4571.07 38.0301 6548.46
v -4571.25 39.0307 6548.85
v -4571.27 40.1813 6548.93
v -4561.86 42.6219 6549.89
v -4561.42 42.7698 6550.13
v -4560.83 42.9097 6548.52
v -4561.34 42.749 6548.43
v -4560.88 43.025 6546.76
v -4561.38 42.8537 6546.83
v -4561.54 43.1044 6545.01
v -4561.98 42.9256 6545.24
v -4562.73 43.1387 6543.49
v -4563.06 42.9564 6543.87
v -4564.43 43.1044 6542.56
v -4564.59 42.9256 6543.03
v -4566.27 43.025 6542.2
v -4566.25 42.8537 6542.71
v -4568.02 42.9097 6542.45
v -4567.84 42.749 6542.94
v -4569.5 42.7698 6543.29
v -4569.19 42.6219 6543.7
v -4570.63 42.6175 6544.63
v -4570.22 42.4833 6544.9
v -4571.41 42.4217 6546.24
v -4570.94 42.3455 6546.37
v -4571.75 42.2451 6548
v -4564 42.4217 6552.5
v -4564.21 42.3455 6552.05
v -4565.67 42.2451 6553.13
v -4562.54 42.6175 6551.46
v -4562.88 42.4833 6551.11
v -4566.58 42.8046 6548.03
v -4571.66 42.1049 6549.7
v -4571.14 42.0149 6551.19
v -4570.21 41.9839 6552.33
v -4568.92 42.0149 6553.06
v -4567.37 42.1049 6553.33
v -4561.46 41.2068 6548.83
v -4561.23 41.246 6548.97
v -4561.72 42.2065 6549.31
v -4561.91 42.1319 6549.18
v -4563.14 43.3374 6550.14
v -4563.01 43.4582 6550.28
v -4564.53 43.3374 6551.16
v -4564.44 43.4582 6551.33
v -4562.94 37.0388 6549.99
v -4564.73 37.0388 6551.3
v -4564.79 36.9137 6551.42
v -4562.72 36.9137 6550.22
v -4561.58 38.117 6548.95
v -4561.32 38.0301 6549.13
v -4560.98 39.0307 6548.85
v -4561.25 39.0778 6548.69
v -4560.93 40.1813 6548.8
v -4561.19 40.1813 6548.64
v -4563.71 40.1813 6550.83
v -4565.95 42.2065 6552.11
v -4566.42 41.246 6552.47
v -4566.69 40.1813 6552.7
v -4566.62 39.0307 6552.66
v -4566.26 38.0301 6552.42
v -4563.18 37.9761 6544.64
v -4562.62 37.136 6545.97
v -4562.35 37.0198 6545.84
v -4562.94 37.8871 6544.47
v -4563.42 39.861 6544.08
v -4563.18 39.8533 6543.88
v -4563.15 41.7524 6544.74
v -4562.95 41.8182 6544.59
v -4562.72 42.6675 6545.17
v -4562.92 42.5738 6545.29
v -4562.46 43.1776 6545.81
v -4562.66 43.065 6545.9
v -4562.17 43.1639 6547.2
v -4561.97 43.2803 6547.14
v -4561.77 42.8628 6547.81
v -4561.99 42.7618 6547.85
v -4561.57 42.0869 6548.43
v -4561.81 42.0112 6548.45
v -4561.55 40.1933 6549.27
v -4561.25 40.1994 6549.27
v -4561.67 38.2283 6548.87
v -4561.37 38.1496 6548.86
v -4562.05 37.183 6547.59
v -4561.77 37.0669 6547.52
v -4562.14 40.0333 6546.57
v -4572.27 37.7649 6547.72
v -4571.55 37.7649 6548.83
v -4572.27 39.7649 6547.72
v -4571.55 39.7649 6548.83
v -4571.55 37.7649 6548.83
v -4571.06 37.7649 6548.85
v -4571.55 39.7649 6548.83
v -4571.06 39.7649 6548.85
v -4566.71 37.7649 6552.59
v -4566.55 37.7649 6552.95
v -4566.71 39.7649 6552.59
v -4566.55 39.7649 6552.95
v -4566.55 37.7649 6552.95
v -4565.48 37.7649 6553.53
v -4566.55 39.7649 6552.95
v -4565.48 39.7649 6553.53
v -4565.48 37.7649 6553.53
v -4563.97 37.7649 6552.99
v -4565.48 39.7649 6553.53
v -4563.97 39.7649 6552.99
v -4563.97 37.7649 6552.99
v -4561.86 37.7649 6551.49
v -4563.97 39.7649 6552.99
v -4561.86 39.7649 6551.49
v -4561.86 37.7649 6551.49
v -4560.67 37.7649 6550.08
v -4561.86 39.7649 6551.49
v -4560.67 39.7649 6550.08
v -4560.67 37.7649 6550.08
v -4560.15 37.7649 6547.75
v -4560.67 39.7649 6550.08
v -4560.15 39.7649 6547.75
v -4560.15 37.7649 6547.75
v -4561.08 37.7649 6544.92
v -4560.15 39.7649 6547.75
v -4561.08 39.7649 6544.92
v -4561.08 37.7649 6544.92
v -4562.86 37.7649 6542.93
v -4561.08 39.7649 6544.92
v -4562.86 39.7649 6542.93
v -4562.86 37.7649 6542.93
v -4565.32 37.7649 6541.82
v -4562.86 39.7649 6542.93
v -4565.32 39.7649 6541.82
v -4565.32 37.7649 6541.82
v -4567.78 37.7649 6541.67
v -4565.32 39.7649 6541.82
v -4567.78 39.7649 6541.67
v -4571.73 37.7649 6545.77
v -4572.27 37.7649 6547.72
v -4571.73 39.7649 6545.77
v -4572.27 39.7649 6547.72
v -4567.78 37.7649 6541.67
v -4569.55 37.7649 6542.52
v -4567.78 39.7649 6541.67
v -4569.55 39.7649 6542.52
v -4569.55 37.7649 6542.52
v -4570.81 37.7649 6543.98
v -4569.55 39.7649 6542.52
v -4570.81 39.7649 6543.98
v -4570.81 37.7649 6543.98
v -4571.73 37.7649 6545.77
v -4570.81 39.7649 6543.98
v -4571.73 39.7649 6545.77
v -4571.06 37.7649 6548.85
v -4568.17 37.7649 6543.2
v -4571.06 39.7649 6548.85
v -4568.17 39.7649 6543.2
v -4561.72 37.7649 6548.91
v -4566.71 37.7649 6552.59
v -4561.72 39.7649 6548.91
v -4566.71 39.7649 6552.59
v -4563.35 37.7649 6544.41
v -4561.72 37.7649 6548.91
v -4563.35 39.7649 6544.41
v -4561.72 39.7649 6548.91
v -4568.17 37.7649 6543.2
v -4563.35 37.7649 6544.41
v -4568.17 39.7649 6543.2
v -4563.35 39.7649 6544.41
v -4566.11 38.171 6547.33
v -4566.11 38.1801 6547.35
v -4566.11 38.2648 6547.33
v -4566.11 38.259 6547.35
v -4566.2 37.8182 6547.62
v -4566.18 37.8747 6547.56
v -4566.2 37.9754 6547.43
v -4566.17 37.8983 6547.54
v -4566.15 37.8601 6547.58
v -4566.11 37.8182 6547.62
v -4566.11 37.9754 6547.43
v -4566.14 37.8983 6547.54
v -4566.12 37.8747 6547.56
v -4566.11 37.9834 6547.44
v -4566.11 37.9754 6547.43
v -4566.11 37.8182 6547.62
v -4566.11 37.8346 6547.63
v -4566.11 37.7783 6547.82
v -4566.11 37.7956 6547.82
v -4566.2 38.1801 6547.35
v -4566.2 37.9834 6547.44
v -4566.2 38.171 6547.33
v -4566.2 37.9754 6547.43
v -4566.2 37.8182 6547.62
v -4566.2 37.8346 6547.63
v -4566.2 37.7783 6547.82
v -4566.2 37.7956 6547.82
v -4566.11 38.1801 6547.35
v -4566.11 37.9834 6547.44
v -4566.2 38.1801 6547.35
v -4566.2 37.9834 6547.44
v -4566.2 38.2648 6547.33
v -4566.2 38.259 6547.35
v -4566.2 38.171 6547.33
v -4566.11 38.171 6547.33
v -4566.11 37.7956 6547.82
v -4566.2 37.7956 6547.82
v -4566.11 37.8346 6547.63
v -4566.2 37.8346 6547.63
v -4566.2 38.2648 6547.33
v -4566.11 38.2648 6547.33
v -4566.11 37.7783 6547.82
v -4566.2 37.7783 6547.82
v -4566.15 37.5868 6547.36
v -4566.12 37.5868 6547.34
v -4566.18 37.5868 6547.34
v -4566.14 37.5868 6547.29
v -4566.17 37.5868 6547.29
v -4566.14 37.5868 6547.29
v -4566.12 37.5868 6547.34
v -4566.14 37.8983 6547.54
v -4566.12 37.8747 6547.56
v -4566.17 37.8983 6547.54
v -4566.17 37.5868 6547.29
v -4566.18 37.5868 6547.34
v -4566.18 37.8747 6547.56
v -4566.15 37.5868 6547.36
v -4566.15 37.8601 6547.58
v -4566.11 38.259 6547.35
v -4566.2 38.259 6547.35
v -4566.2 38.171 6548.41
v -4566.2 38.1801 6548.39
v -4566.2 38.2648 6548.41
v -4566.2 38.259 6548.39
v -4566.11 37.8182 6548.12
v -4566.12 37.8747 6548.18
v -4566.11 37.9754 6548.32
v -4566.14 37.8983 6548.2
v -4566.15 37.8601 6548.17
v -4566.2 37.8182 6548.12
v -4566.2 37.9754 6548.32
v -4566.17 37.8983 6548.2
v -4566.18 37.8747 6548.18
v -4566.2 38.1801 6548.39
v -4566.2 37.9834 6548.3
v -4566.2 37.9754 6548.32
v -4566.2 37.8182 6548.12
v -4566.2 37.8346 6548.12
v -4566.2 37.7783 6547.92
v -4566.2 37.7956 6547.92
v -4566.11 38.1801 6548.39
v -4566.11 37.9834 6548.3
v -4566.11 38.171 6548.41
v -4566.11 37.9754 6548.32
v -4566.11 37.8182 6548.12
v -4566.11 37.8346 6548.12
v -4566.11 37.7783 6547.92
v -4566.11 37.7956 6547.92
v -4566.2 38.1801 6548.39
v -4566.2 37.9834 6548.3
v -4566.11 38.1801 6548.39
v -4566.11 37.9834 6548.3
v -4566.11 38.2648 6548.41
v -4566.11 38.259 6548.39
v -4566.11 38.171 6548.41
v -4566.2 38.171 6548.41
v -4566.2 37.7956 6547.92
v -4566.11 37.7956 6547.92
v -4566.2 37.8346 6548.12
v -4566.11 37.8346 6548.12
v -4566.11 38.2648 6548.41
v -4566.2 38.2648 6548.41
v -4566.2 37.7783 6547.92
v -4566.11 37.7783 6547.92
v -4566.15 37.5868 6548.38
v -4566.18 37.5868 6548.41
v -4566.12 37.5868 6548.41
v -4566.17 37.5868 6548.45
v -4566.14 37.5868 6548.45
v -4566.17 37.5868 6548.45
v -4566.18 37.5868 6548.41
v -4566.17 37.8983 6548.2
v -4566.18 37.8747 6548.18
v -4566.14 37.8983 6548.2
v -4566.14 37.5868 6548.45
v -4566.12 37.5868 6548.41
v -4566.12 37.8747 6548.18
v -4566.15 37.5868 6548.38
v -4566.15 37.8601 6548.17
v -4566.2 38.259 6548.39
v -4566.11 38.259 6548.39
v -4565.61 38.171 6547.92
v -4565.63 38.1801 6547.92
v -4565.61 38.2648 6547.92
v -4565.63 38.259 6547.92
v -4565.9 37.8182 6547.82
v -4565.85 37.8747 6547.84
v -4565.71 37.9754 6547.82
v -4565.82 37.8983 6547.85
v -4565.86 37.8601 6547.87
v -4565.9 37.8182 6547.92
v -4565.71 37.9754 6547.92
v -4565.82 37.8983 6547.89
v -4565.85 37.8747 6547.9
v -4566.11 37.7783 6547.92
v -4566.11 37.7956 6547.92
v -4565.9 37.8182 6547.92
v -4565.91 37.8346 6547.92
v -4565.71 37.9754 6547.92
v -4565.72 37.9834 6547.92
v -4566.11 37.7783 6547.82
v -4566.2 37.7783 6547.82
v -4566.11 37.7783 6547.92
v -4566.2 37.7783 6547.92
v -4566.11 37.7956 6547.92
v -4566.2 37.7956 6547.92
v -4566.11 37.7956 6547.82
v -4566.2 37.7956 6547.82
v -4565.63 38.1801 6547.92
v -4565.72 37.9834 6547.92
v -4565.63 38.1801 6547.82
v -4565.72 37.9834 6547.82
v -4565.61 38.171 6547.82
v -4565.61 38.2648 6547.82
v -4565.63 38.1801 6547.82
v -4565.63 38.259 6547.82
v -4565.61 38.171 6547.82
v -4565.61 38.171 6547.92
v -4565.91 37.8346 6547.92
v -4565.91 37.8346 6547.82
v -4565.61 38.2648 6547.82
v -4565.61 38.2648 6547.92
v -4565.62 37.5868 6547.9
v -4565.58 37.5868 6547.89
v -4565.63 37.5868 6547.87
v -4565.58 37.5868 6547.85
v -4565.62 37.5868 6547.84
v -4565.58 37.5868 6547.89
v -4565.62 37.5868 6547.9
v -4565.82 37.8983 6547.89
v -4565.85 37.8747 6547.9
v -4565.82 37.8983 6547.85
v -4565.58 37.5868 6547.85
v -4565.62 37.5868 6547.84
v -4565.85 37.8747 6547.84
v -4565.63 37.5868 6547.87
v -4565.86 37.8601 6547.87
v -4565.63 38.259 6547.92
v -4565.63 38.259 6547.82
v -4565.52 38.2837 6547.87
v -4565.64 38.2837 6547.5
v -4565.61 38.2648 6547.82
v -4565.63 38.259 6547.82
v -4565.71 38.259 6547.55
v -4565.96 38.2837 6547.27
v -4565.98 38.259 6547.35
v -4566.2 38.259 6547.35
v -4566.2 38.2648 6547.33
v -4566.32 38.259 6547.35
v -4566.11 38.259 6547.35
v -4566.11 38.2648 6547.33
v -4566.35 38.2837 6547.27
v -4565.96 38.2837 6547.27
v -4565.98 38.3054 6547.35
v -4566.35 38.2837 6547.27
v -4566.32 38.3054 6547.35
v -4565.64 38.2837 6547.5
v -4565.71 38.3054 6547.55
v -4565.52 38.2837 6547.87
v -4565.61 38.3054 6547.87
v -4565.98 38.259 6547.35
v -4566.11 38.259 6547.35
v -4565.98 38.3054 6547.35
v -4566.32 38.3054 6547.35
v -4566.2 38.259 6547.35
v -4566.32 38.259 6547.35
v -4565.71 38.259 6547.55
v -4565.71 38.3054 6547.55
v -4565.61 38.2648 6547.92
v -4565.64 38.2837 6548.24
v -4565.71 38.259 6548.19
v -4565.96 38.2837 6548.47
v -4565.98 38.259 6548.39
v -4566.2 38.259 6548.39
v -4566.32 38.259 6548.39
v -4566.2 38.2648 6548.41
v -4566.11 38.259 6548.39
v -4566.11 38.2648 6548.41
v -4566.35 38.2837 6548.47
v -4566.35 38.2837 6548.47
v -4566.32 38.3054 6548.39
v -4565.96 38.2837 6548.47
v -4565.98 38.3054 6548.39
v -4565.64 38.2837 6548.24
v -4565.71 38.3054 6548.19
v -4565.61 38.3054 6547.87
v -4566.32 38.259 6548.39
v -4566.2 38.259 6548.39
v -4566.32 38.3054 6548.39
v -4565.98 38.3054 6548.39
v -4566.11 38.259 6548.39
v -4565.98 38.259 6548.39
v -4565.71 38.259 6548.19
v -4565.71 38.3054 6548.19
v -4565.63 38.259 6547.92
v -4565.61 38.3054 6547.87
v -4565.63 38.259 6547.82
v -4565.71 38.3054 6547.55
v -4565.71 38.259 6547.55
v -4565.71 38.3054 6548.19
v -4565.63 38.259 6547.92
v -4565.71 38.259 6548.19
v -4566.11 37.7783 6547.82
v -4565.9 37.8182 6547.82
v -4566.11 37.7956 6547.82
v -4565.91 37.8346 6547.82
v -4565.71 37.9754 6547.82
v -4565.72 37.9834 6547.82
v -4566.69 38.171 6547.82
v -4566.67 38.1801 6547.82
v -4566.69 38.2648 6547.82
v -4566.67 38.259 6547.82
v -4566.4 37.8182 6547.92
v -4566.46 37.8747 6547.9
v -4566.6 37.9754 6547.92
v -4566.49 37.8983 6547.89
v -4566.45 37.8601 6547.87
v -4566.4 37.8182 6547.82
v -4566.6 37.9754 6547.82
v -4566.49 37.8983 6547.85
v -4566.46 37.8747 6547.84
v -4566.2 37.7783 6547.82
v -4566.2 37.7956 6547.82
v -4566.4 37.8182 6547.82
v -4566.4 37.8346 6547.82
v -4566.6 37.9754 6547.82
v -4566.58 37.9834 6547.82
v -4566.67 38.1801 6547.82
v -4566.67 38.1801 6547.82
v -4566.58 37.9834 6547.82
v -4566.67 38.1801 6547.92
v -4566.58 37.9834 6547.92
v -4566.69 38.171 6547.92
v -4566.69 38.2648 6547.92
v -4566.67 38.1801 6547.92
v -4566.67 38.259 6547.92
v -4566.69 38.171 6547.92
v -4566.69 38.171 6547.82
v -4566.2 37.7956 6547.82
v -4566.2 37.7956 6547.92
v -4566.4 37.8346 6547.82
v -4566.4 37.8346 6547.92
v -4566.69 38.2648 6547.92
v -4566.69 38.2648 6547.82
v -4566.2 37.7783 6547.82
v -4566.2 37.7783 6547.92
v -4566.69 37.5868 6547.84
v -4566.73 37.5868 6547.85
v -4566.68 37.5868 6547.87
v -4566.73 37.5868 6547.89
v -4566.69 37.5868 6547.9
v -4566.73 37.5868 6547.85
v -4566.69 37.5868 6547.84
v -4566.49 37.8983 6547.85
v -4566.46 37.8747 6547.84
v -4566.49 37.8983 6547.89
v -4566.73 37.5868 6547.89
v -4566.69 37.5868 6547.9
v -4566.46 37.8747 6547.9
v -4566.68 37.5868 6547.87
v -4566.45 37.8601 6547.87
v -4566.67 38.259 6547.82
v -4566.67 38.259 6547.92
v -4566.78 38.2837 6547.87
v -4566.66 38.2837 6548.24
v -4566.69 38.2648 6547.92
v -4566.67 38.259 6547.92
v -4566.6 38.259 6548.19
v -4566.35 38.2837 6548.47
v -4566.32 38.259 6548.39
v -4566.66 38.2837 6548.24
v -4566.6 38.3054 6548.19
v -4566.35 38.2837 6548.47
v -4566.32 38.3054 6548.39
v -4566.78 38.2837 6547.87
v -4566.69 38.3054 6547.87
v -4566.6 38.259 6548.19
v -4566.32 38.259 6548.39
v -4566.6 38.3054 6548.19
v -4566.32 38.3054 6548.39
v -4566.69 38.2648 6547.82
v -4566.66 38.2837 6547.5
v -4566.6 38.259 6547.55
v -4566.35 38.2837 6547.27
v -4566.32 38.259 6547.35
v -4566.35 38.2837 6547.27
v -4566.32 38.3054 6547.35
v -4566.66 38.2837 6547.5
v -4566.6 38.3054 6547.55
v -4566.69 38.3054 6547.87
v -4566.6 38.259 6547.55
v -4566.6 38.3054 6547.55
v -4566.32 38.259 6547.35
v -4566.32 38.3054 6547.35
v -4566.67 38.259 6547.82
v -4566.69 38.3054 6547.87
v -4566.67 38.259 6547.92
v -4566.6 38.3054 6548.19
v -4566.6 38.259 6548.19
v -4566.6 38.3054 6547.55
v -4566.67 38.259 6547.82
v -4566.6 38.259 6547.55
v -4566.2 37.7783 6547.92
v -4566.4 37.8182 6547.92
v -4566.2 37.7956 6547.92
v -4566.4 37.8346 6547.92
v -4566.6 37.9754 6547.92
v -4566.58 37.9834 6547.92
v -4605 37.2183 6588
v -4605 36.2007 6586
v -4605 35.7374 6584
v -4605 34.8836 6582
v -4605 34.1356 6580
v -4605 33.356 6578
v -4605 32.4817 6576
v -4605 32.1495 6574
v -4605 31.3554 6572
v -4605 30.8356 6570
v -4605 30.3544 6568
v -4605 29.6203 6566
v -4605 29.1569 6564
v -4605 28.9169 6562
v -4605 28.44 6560
v -4605 28.3664 6558
v -4605 27.2706 6556
v -4605 27.8312 6554
v -4605 26.8603 6552
v -4605 27.0675 6550
v -4605 27.5688 6548
v -4605 27.4919 6546
v -4605 28.3828 6544
v -4605 28.4834 6542
v -4605 28.2853 6540
v -4605 27.8988 6538
v -4605 27.7953 6536
v -4605 28.0487 6534
v -4605 28.4178 6532
v -4605 28.7874 6530
v -4605 29.4205 6528
v -4605 30.5082 6526
v -4603 36.4144 6588
v -4603 35.6836 6586
v -4603 34.9943 6584
v -4603 34.2326 6582
v -4603 33.669 6580
v -4603 32.6098 6578
v -4603 32.2594 6576
v -4603 31.2655 6574
v -4603 30.3547 6572
v -4603 30.2469 6570
v -4603 29.8275 6568
v -4603 28.5231 6566
v -4603 28.22 6564
v -4603 28.0669 6562
v -4603 28.194 6560
v -4603 28.1645 6558
v -4603 27.876 6556
v -4603 26.9178 6554
v -4603 26.9585 6552
v -4603 27.2878 6550
v -4603 27.4638 6548
v -4603 27.8959 6546
v -4603 28.2627 6544
v -4603 28.0082 6542
v -4603 28.3552 6540
v -4603 28.3048 6538
v -4603 28.0928 6536
v -4603 28.092 6534
v -4603 29.3025 6532
v -4603 29.8364 6530
v -4603 30.398 6528
v -4603 31.3389 6526
v -4601 35.8949 6588
v -4601 35.0563 6586
v -4601 34.8471 6584
v -4601 33.9637 6582
v -4601 32.8663 6580
v -4601 32.134 6578
v -4601 31.1406 6576
v -4601 30.7428 6574
v -4601 30.5019 6572
v -4601 29.4735 6570
v -4601 28.7896 6568
v -4601 27.8448 6566
v -4601 27.8135 6564
v -4601 28.0092 6562
v -4601 27.8829 6560
v -4601 27.4049 6558
v -4601 28.0183 6556
v -4601 27.9584 6554
v -4601 27.2677 6552
v -4601 27.0109 6550
v -4601 27.4701 6548
v -4601 28.1781 6546
v -4601 28.5778 6544
v -4601 28.9717 6542
v -4601 28.4062 6540
v -4601 28.9669 6538
v -4601 29.0293 6536
v -4601 29.3551 6534
v -4601 29.9183 6532
v -4601 30.8589 6530
v -4601 31.5231 6528
v -4601 32.0414 6526
v -4599 35.3061 6588
v -4599 34.3702 6586
v -4599 34.141 6584
v -4599 33.2665 6582
v -4599 32.9304 6580
v -4599 31.8306 6578
v -4599 30.9762 6576
v -4599 30.4584 6574
v -4599 29.4782 6572
v -4599 28.9448 6570
v -4599 27.73 6568
v -4599 27.6073 6566
v -4599 27.6248 6564
v -4599 27.4227 6562
v -4599 27.4 6560
v -4599 27.853 6558
v -4599 28.0728 6556
v -4599 27.8382 6554
v -4599 27.4997 6552
v -4599 27.8839 6550
v -4599 28.4736 6548
v -4599 28.8741 6546
v -4599 29.2683 6544
v -4599 29.4209 6542
v -4599 30.0412 6540
v -4599 29.486 6538
v -4599 29.6888 6536
v -4599 30.4762 6534
v -4599 31.1358 6532
v -4599 31.3718 6530
v -4599 32.3166 6528
v -4599 32.7002 6526
v -4597 34.5713 6588
v -4597 34.2303 6586
v -4597 33.5687 6584
v -4597 32.6562 6582
v -4597 31.7735 6580
v -4597 31.0032 6578
v -4597 30.4333 6576
v -4597 29.5494 6574
v -4597 29.0003 6572
v -4597 28.654 6570
v -4597 28.4119 6568
v -4597 27.7725 6566
v -4597 27.8645 6564
v -4597 27.9366 6562
v -4597 27.7175 6560
v -4597 27.7362 6558
v -4597 28.0285 6556
v -4597 27.8775 6554
v -4597 28.3506 6552
v -4597 28.752 6550
v -4597 29.1612 6548
v -4597 29.5561 6546
v -4597 29.945 6544
v -4597 30.2186 6542
v -4597 30.3345 6540
v -4597 30.4978 6538
v -4597 30.5654 6536
v -4597 30.9471 6534
v -4597 31.4278 6532
v -4597 32.2882 6530
v -4597 32.7513 6528
v -4597 33.3438 6526
v -4595 34.1523 6588
v -4595 33.6142 6586
v -4595 32.4553 6584
v -4595 32.0645 6582
v -4595 31.0826 6580
v -4595 30.0884 6578
v -4595 29.8933 6576
v -4595 28.2988 6574
v -4595 28.515 6572
v -4595 28.3261 6570
v -4595 28.2241 6568
v -4595 27.054 6566
v -4595 27.6728 6564
v -4595 27.2158 6562
v -4595 27.448 6560
v -4595 27.6153 6558
v -4595 28.087 6556
v -4595 28.6265 6554
v -4595 29.0374 6552
v -4595 29.3803 6550
v -4595 29.8369 6548
v -4595 30.0533 6546
v -4595 30.6105 6544
v -4595 30.9897 6542
v -4595 31.1719 6540
v -4595 31.2478 6538
v -4595 31.0951 6536
v -4595 31.6127 6534
v -4595 32.3335 6532
v -4595 32.823 6530
v -4595 33.2645 6528
v -4595 33.9745 6526
v -4593 33.64 6588
v -4593 32.9691 6586
v -4593 32.1811 6584
v -4593 31.2463 6582
v -4593 30.3806 6580
v -4593 29.1329 6578
v -4593 28.9517 6576
v -4593 27.9636 6574
v -4593 28.4875 6572
v -4593 28.3467 6570
v -4593 27.4496 6568
v -4593 27.3966 6566
v -4593 27.249 6564
v -4593 27.3788 6562
v -4593 27.5689 6560
v -4593 27.7864 6558
v -4593 28.8919 6556
v -4593 29.305 6554
v -4593 29.7105 6552
v -4593 29.9193 6550
v -4593 30.0282 6548
v -4593 30.884 6546
v -4593 30.8754 6544
v -4593 31.6138 6542
v -4593 31.9426 6540
v -4593 31.8905 6538
v -4593 31.7721 6536
v -4593 32.4271 6534
v -4593 32.9589 6532
v -4593 33.5106 6530
v -4593 34.0614 6528
v -4593 34.3064 6526
v -4591 32.7129 6588
v -4591 31.8221 6586
v -4591 31.5593 6584
v -4591 30.6477 6582
v -4591 29.5529 6580
v -4591 28.222 6578
v -4591 28.5807 6576
v -4591 28.3429 6574
v -4591 28.1615 6572
v -4591 27.8815 6570
v -4591 27.3314 6568
v -4591 26.8054 6566
v -4591 26.5629 6564
v -4591 27.0994 6562
v -4591 28.2042 6560
v -4591 28.6646 6558
v -4591 29.5615 6556
v -4591 29.8662 6554
v -4591 30.0352 6552
v -4591 30.3087 6550
v -4591 30.6493 6548
v -4591 31.2008 6546
v -4591 31.6847 6544
v -4591 32.186 6542
v -4591 32.0905 6540
v -4591 32.5551 6538
v -4591 32.5397 6536
v -4591 33.0808 6534
v -4591 33.5141 6532
v -4591 34.1568 6530
v -4591 34.7636 6528
v -4591 35.0043 6526
v -4589 32.3177 6588
v -4589 31.5829 6586
v -4589 30.8504 6584
v -4589 30.1179 6582
v -4589 29.1714 6580
v -4589 28.8826 6578
v -4589 28.424 6576
v -4589 28.4767 6574
v -4589 28.7266 6572
v -4589 27.8833 6570
v -4589 27.8105 6568
v -4589 27.7963 6566
v -4589 28.1516 6564
v -4589 28.5146 6562
v -4589 28.8513 6560
v -4589 29.8055 6558
v -4589 30.2164 6556
v -4589 30.6193 6554
v -4589 31.0145 6552
v -4589 31.1893 6550
v -4589 31.3029 6548
v -4589 31.7476 6546
v -4589 32.4992 6544
v -4589 32.7768 6542
v -4589 33.2503 6540
v -4589 33.3537 6538
v -4589 33.3156 6536
v -4589 33.9054 6534
v -4589 34.5737 6532
v -4589 34.9342 6530
v -4589 35.3953 6528
v -4589 35.7578 6526
v -4587 31.4804 6588
v -4587 30.8747 6586
v -4587 29.9809 6584
v -4587 29.6744 6582
v -4587 29.1189 6580
v -4587 29.1089 6578
v -4587 28.8478 6576
v -4587 28.5423 6574
v -4587 28.6747 6572
v -4587 28.517 6570
v -4587 28.3395 6568
v -4587 28.3852 6566
v -4587 28.8053 6564
v -4587 29.436 6562
v -4587 29.7039 6560
v -4587 30.2447 6558
v -4587 30.8573 6556
v -4587 31.2552 6554
v -4587 31.6452 6552
v -4587 31.952 6550
v -4587 32.2777 6548
v -4587 32.3968 6546
v -4587 33.0692 6544
v -4587 33.4918 6542
v -4587 33.6672 6540
v -4587 34.0165 6538
v -4587 34.0947 6536
v -4587 34.5524 6534
v -4587 35.0328 6532
v -4587 35.5986 6530
v -4587 35.9517 6528
v -4587 36.3072 6526
v -4585 30.1447 6588
v -4585 30.0426 6586
v -4585 29.8058 6584
v -4585 29.276 6582
v -4585 29.0818 6580
v -4585 28.4702 6578
v -4585 28.3201 6576
v -4585 28.426 6574
v -4585 28.3407 6572
v -4585 28.5164 6570
v -4585 28.9632 6568
v -4585 29.3992 6566
v -4585 29.5109 6564
v -4585 29.9327 6562
v -4585 30.3363 6560
v -4585 30.8012 6558
v -4585 31.4841 6556
v -4585 31.8768 6554
v -4585 32.2613 6552
v -4585 32.5128 6550
v -4585 32.7343 6548
v -4585 33.2855 6546
v -4585 33.673 6544
v -4585 34.076 6542
v -4585 34.4085 6540
v -4585 34.6521 6538
v -4585 34.9575 6536
v -4585 35.2124 6534
v -4585 35.7947 6532
v -4585 36.138 6530
v -4585 36.483 6528
v -4585 36.8301 6526
v -4583 29.2313 6588
v -4583 29.7391 6586
v -4583 29.4766 6584
v -4583 29.2297 6582
v -4583 28.8893 6580
v -4583 28.2965 6578
v -4583 27.6603 6576
v -4583 27.8459 6574
v -4583 27.852 6572
v -4583 29.0953 6570
v -4583 29.3197 6568
v -4583 30.032 6566
v -4583 30.2639 6564
v -4583 30.6667 6562
v -4583 30.8493 6560
v -4583 31.2147 6558
v -4583 31.9849 6556
v -4583 32.4679 6554
v -4583 32.8143 6552
v -4583 33.159 6550
v -4583 33.3769 6548
v -4583 33.6654 6546
v -4583 34.2982 6544
v -4583 34.574 6542
v -4583 34.9257 6540
v -4583 35.1028 6538
v -4583 35.4729 6536
v -4583 35.9121 6534
v -4583 36.2415 6532
v -4583 36.6516 6530
v -4583 36.9785 6528
v -4583 37.3244 6526
v -4581 29.0373 6588
v -4581 29.8282 6586
v -4581 29.6226 6584
v -4581 28.7457 6582
v -4581 28.5977 6580
v -4581 27.9894 6578
v -4581 27.5095 6576
v -4581 28.1019 6574
v -4581 28.2202 6572
v -4581 29.1141 6570
v -4581 30.2183 6568
v -4581 30.6495 6566
v -4581 31.0747 6564
v -4581 31.3545 6562
v -4581 31.808 6560
v -4581 31.9 6558
v -4581 32.6581 6556
v -4581 32.9479 6554
v -4581 33.1665 6552
v -4581 33.4612 6550
v -4581 34.0644 6548
v -4581 34.3506 6546
v -4581 34.7123 6544
v -4581 35.1215 6542
v -4581 35.4059 6540
v -4581 35.6784 6538
v -4581 35.9884 6536
v -4581 36.3716 6534
v -4581 36.7497 6532
v -4581 37.1368 6530
v -4581 37.4462 6528
v -4581 37.7435 6526
v -4579 29.3968 6588
v -4579 29.5037 6586
v -4579 29.5441 6584
v -4579 29.1929 6582
v -4579 28.8939 6580
v -4579 27.6918 6578
v -4579 27.3034 6576
v -4579 28.3507 6574
v -4579 29.0298 6572
v -4579 30.3795 6570
v -4579 30.5129 6568
v -4579 31.2522 6566
v -4579 31.6735 6564
v -4579 32.0866 6562
v -4579 32.0545 6560
v -4579 32.6507 6558
v -4579 33.27 6556
v -4579 33.6442 6554
v -4579 33.9896 6552
v -4579 34.1957 6550
v -4579 34.5444 6548
v -4579 34.8729 6546
v -4579 35.2061 6544
v -4579 35.652 6542
v -4579 35.9566 6540
v -4579 36.1872 6538
v -4579 36.3601 6536
v -4579 36.7398 6534
v -4579 37.2101 6532
v -4579 37.4525 6530
v -4579 37.85 6528
v -4579 38.1835 6526
v -4577 29.8372 6588
v -4577 29.6539 6586
v -4577 29.4752 6584
v -4577 29.303 6582
v -4577 29.0538 6580
v -4577 29.1275 6578
v -4577 29.0802 6576
v -4577 29.4544 6574
v -4577 30.0399 6572
v -4577 30.3501 6570
v -4577 31.2644 6568
v -4577 31.8421 6566
v -4577 32.2588 6564
v -4577 32.6666 6562
v -4577 33.0649 6560
v -4577 33.3028 6558
v -4577 33.8304 6556
v -4577 34.197 6554
v -4577 34.4591 6552
v -4577 34.8229 6550
v -4577 35.1422 6548
v -4577 35.2995 6546
v -4577 35.7131 6544
v -4577 36.1367 6542
v -4577 36.4104 6540
v -4577 36.6948 6538
v -4577 36.9518 6536
v -4577 37.2831 6534
v -4577 37.5874 6532
v -4577 37.9302 6530
v -4577 38.2197 6528
v -4577 38.5747 6526
v -4575 29.7506 6588
v -4575 29.5813 6586
v -4575 29.4166 6584
v -4575 29.258 6582
v -4575 29.4526 6580
v -4575 29.8672 6578
v -4575 30.0376 6576
v -4575 30.5718 6574
v -4575 30.595 6572
v -4575 31.1383 6570
v -4575 31.6462 6568
v -4575 31.9155 6566
v -4575 32.7283 6564
v -4575 33.2334 6562
v -4575 33.6249 6560
v -4575 34.0055 6558
v -4575 34.3749 6556
v -4575 34.6466 6554
v -4575 35.0748 6552
v -4575 35.3629 6550
v -4575 35.7208 6548
v -4575 35.9586 6546
v -4575 36.2006 6544
v -4575 36.5713 6542
v -4575 36.8851 6540
v -4575 37.1822 6538
v -4575 37.4624 6536
v -4575 37.7986 6534
v -4575 38.0316 6532
v -4575 38.3271 6530
v -4575 38.6262 6528
v -4575 38.9022 6526
v -4573 29.2205 6588
v -4573 29.5193 6586
v -4573 29.3687 6584
v -4573 29.6556 6582
v -4573 30.0539 6580
v -4573 30.4649 6578
v -4573 30.8843 6576
v -4573 31.3084 6574
v -4573 31.3262 6572
v -4573 31.8481 6570
v -4573 32.2869 6568
v -4573 32.5802 6566
v -4573 32.7778 6564
v -4573 33.5584 6562
v -4573 34.0353 6560
v -4573 34.5443 6558
v -4573 34.9046 6556
v -4573 35.1184 6554
v -4573 35.5896 6552
v -4573 35.8597 6550
v -4573 36.226 6548
v -4573 36.4853 6546
v -4573 36.7274 6544
v -4573 37.0695 6542
v -4573 37.3294 6540
v -4573 37.6688 6538
v -4573 37.9474 6536
v -4573 38.1865 6534
v -4573 38.4629 6532
v -4573 38.7282 6530
v -4573 38.9852 6528
v -4573 39.263 6526
v -4571 29.276 6588
v -4571 29.4089 6586
v -4571 29.6318 6584
v -4571 30.2591 6582
v -4571 30.1997 6580
v -4571 31.0596 6578
v -4571 31.4742 6576
v -4571 31.6421 6574
v -4571 31.9884 6572
v -4571 32.4936 6570
v -4571 32.3905 6568
v -4571 32.8115 6566
v -4571 33.4751 6564
v -4571 34.0167 6562
v -4571 34.6768 6560
v -4571 35.0697 6558
v -4571 35.4039 6556
v -4571 35.7574 6554
v -4571 36.0827 6552
v -4571 36.38 6550
v -4571 36.5922 6548
v -4571 36.8809 6546
v -4571 37.1361 6544
v -4571 37.4472 6542
v -4571 37.7866 6540
v -4571 38.0784 6538
v -4571 38.3359 6536
v -4571 38.5889 6534
v -4571 38.8416 6532
v -4571 39.0782 6530
v -4571 39.3293 6528
v -4571 39.5777 6526
v -4569 29.7206 6588
v -4569 30.1106 6586
v -4569 29.7421 6584
v -4569 30.2993 6582
v -4569 30.8841 6580
v -4569 31.3977 6578
v -4569 31.9138 6576
v -4569 32.4293 6574
v -4569 32.8874 6572
v -4569 32.9003 6570
v -4569 33.3978 6568
v -4569 33.4776 6566
v -4569 33.9602 6564
v -4569 34.4146 6562
v -4569 34.9751 6560
v -4569 35.4707 6558
v -4569 35.7499 6556
v -4569 36.2268 6554
v -4569 36.4193 6552
v -4569 36.7714 6550
v -4569 37.077 6548
v -4569 37.3578 6546
v -4569 37.6468 6544
v -4569 37.9229 6542
v -4569 38.1947 6540
v -4569 38.4377 6538
v -4569 38.6868 6536
v -4569 38.9222 6534
v -4569 39.1514 6532
v -4569 39.382 6530
v -4569 39.6093 6528
v -4569 39.8389 6526
v -4567 30.2978 6588
v -4567 30.6642 6586
v -4567 30.5797 6584
v -4567 31.0981 6582
v -4567 31.4438 6580
v -4567 32.1284 6578
v -4567 32.5006 6576
v -4567 33.0508 6574
v -4567 33.4567 6572
v -4567 33.7844 6570
v -4567 33.7761 6568
v -4567 34.187 6566
v -4567 34.5613 6564
v -4567 35.0692 6562
v -4567 35.5737 6560
v -4567 35.978 6558
v -4567 36.2064 6556
v -4567 36.6003 6554
v -4567 36.833 6552
v -4567 37.1845 6550
v -4567 37.5315 6548
v -4567 37.7792 6546
v -4567 38.0701 6544
v -4567 38.2913 6542
v -4567 38.5449 6540
v -4567 38.7901 6538
v -4567 39.0098 6536
v -4567 39.2247 6534
v -4567 39.4344 6532
v -4567 39.6435 6530
v -4567 39.8504 6528
v -4567 40.0559 6526
v -4565 30.2835 6588
v -4565 31.3429 6586
v -4565 31.1149 6584
v -4565 31.8886 6582
v -4565 32.0936 6580
v -4565 32.7252 6578
v -4565 32.8916 6576
v -4565 33.6241 6574
v -4565 34.0214 6572
v -4565 34.3058 6570
v -4565 34.6106 6568
v -4565 34.6911 6566
v -4565 35.1557 6564
v -4565 35.6264 6562
v -4565 36.0218 6560
v -4565 36.3736 6558
v -4565 36.7058 6556
v -4565 36.9791 6554
v -4565 37.3608 6552
v -4565 37.652 6550
v -4565 37.9522 6548
v -4565 38.2029 6546
v -4565 38.467 6544
v -4565 38.6785 6542
v -4565 38.8963 6540
v -4565 39.1009 6538
v -4565 39.3043 6536
v -4565 39.4972 6534
v -4565 39.6856 6532
v -4565 39.8714 6530
v -4565 40.0633 6528
v -4565 40.7338 6526
v -4563 31.0329 6588
v -4563 31.6939 6586
v -4563 32.147 6584
v -4563 32.6072 6582
v -4563 32.7421 6580
v -4563 33.2756 6578
v -4563 33.6691 6576
v -4563 34.0309 6574
v -4563 34.5488 6572
v -4563 34.8308 6570
v -4563 35.15 6568
v -4563 35.2926 6566
v -4563 35.8393 6564
v -4563 36.1674 6562
v -4563 36.5537 6560
v -4563 36.8919 6558
v -4563 37.1273 6556
v -4563 37.4946 6554
v -4563 37.817 6552
v -4563 38.0994 6550
v -4563 38.3687 6548
v -4563 38.6015 6546
v -4563 38.8214 6544
v -4563 39.0225 6542
v -4563 39.2112 6540
v -4563 39.3955 6538
v -4563 39.5712 6536
v -4563 39.7408 6534
v -4563 39.9131 6532
v -4563 40.5761 6530
v -4563 41.7915 6528
v -4563 43.0946 6526
v -4561 31.642 6588
v -4561 32.2394 6586
v -4561 32.8795 6584
v -4561 33.0398 6582
v -4561 33.3139 6580
v -4561 33.8099 6578
v -4561 34.3143 6576
v -4561 34.7585 6574
v -4561 35.0996 6572
v -4561 35.4649 6570
v -4561 35.6575 6568
v -4561 35.9478 6566
v -4561 36.3883 6564
v -4561 36.8066 6562
v -4561 37.0798 6560
v -4561 37.3594 6558
v -4561 37.6893 6556
v -4561 37.9465 6554
v -4561 38.2468 6552
v -4561 38.51 6550
v -4561 38.7541 6548
v -4561 38.9636 6546
v -4561 39.1548 6544
v -4561 39.3339 6542
v -4561 39.5015 6540
v -4561 39.6606 6538
v -4561 39.8149 6536
v -4561 40.195 6534
v -4561 41.4705 6532
v -4561 42.8689 6530
v -4561 44.363 6528
v -4561 45.9283 6526
v -4559 32.7465 6588
v -4559 32.8714 6586
v -4559 33.2495 6584
v -4559 33.7392 6582
v -4559 34.1587 6580
v -4559 34.4033 6578
v -4559 34.8188 6576
v -4559 35.3183 6574
v -4559 35.6222 6572
v -4559 35.8653 6570
v -4559 36.3436 6568
v -4559 36.6342 6566
v -4559 37.0118 6564
v -4559 37.3799 6562
v -4559 37.6587 6560
v -4559 37.8355 6558
v -4559 38.117 6556
v -4559 38.3659 6554
v -4559 38.6752 6552
v -4559 38.9148 6550
v -4559 39.114 6548
v -4559 39.2972 6546
v -4559 39.4655 6544
v -4559 39.621 6542
v -4559 39.7649 6540
v -4559 39.9099 6538
v -4559 40.9117 6536
v -4559 42.352 6534
v -4559 43.9255 6532
v -4559 45.6046 6530
v -4559 47.1214 6528
v -4559 47.3114 6526
v -4557 33.4686 6588
v -4557 33.8069 6586
v -4557 33.8902 6584
v -4557 34.2893 6582
v -4557 34.3893 6580
v -4557 34.9448 6578
v -4557 35.117 6576
v -4557 35.6776 6574
v -4557 36.1629 6572
v -4557 36.458 6570
v -4557 36.7569 6568
v -4557 37.1506 6566
v -4557 37.5517 6564
v -4557 37.8498 6562
v -4557 38.1315 6560
v -4557 38.389 6558
v -4557 38.6058 6556
v -4557 38.8307 6554
v -4557 39.0533 6552
v -4557 39.2575 6550
v -4557 39.4472 6548
v -4557 39.6088 6546
v -4557 39.7538 6544
v -4557 39.8865 6542
v -4557 40.1841 6540
v -4557 41.5995 6538
v -4557 43.1927 6536
v -4557 44.9319 6534
v -4557 46.7859 6532
v -4557 47.1909 6530
v -4557 47.7128 6528
v -4557 48.6006 6526
v -4555 33.8872 6588
v -4555 34.3658 6586
v -4555 34.7067 6584
v -4555 34.8657 6582
v -4555 35.1752 6580
v -4555 35.4056 6578
v -4555 35.9021 6576
v -4555 36.2238 6574
v -4555 36.6741 6572
v -4555 37.0277 6570
v -4555 37.3805 6568
v -4555 37.7282 6566
v -4555 37.989 6564
v -4555 38.3069 6562
v -4555 38.571 6560
v -4555 38.8169 6558
v -4555 39.033 6556
v -4555 39.2468 6554
v -4555 39.4235 6552
v -4555 39.6052 6550
v -4555 39.7624 6548
v -4555 39.8998 6546
v -4555 40.0246 6544
v -4555 40.7044 6542
v -4555 42.2445 6540
v -4555 43.9774 6538
v -4555 45.869 6536
v -4555 47.1166 6534
v -4555 47.2818 6532
v -4555 48.3584 6530
v -4555 49.4936 6528
v -4555 51.859 6526
v -4553 34.474 6588
v -4553 34.7744 6586
v -4553 35.3299 6584
v -4553 35.5012 6582
v -4553 35.8532 6580
v -4553 36.0729 6578
v -4553 36.3693 6576
v -4553 36.8171 6574
v -4553 37.148 6572
v -4553 37.5703 6570
v -4553 37.9067 6568
v -4553 38.2058 6566
v -4553 38.4863 6564
v -4553 38.75 6562
v -4553 38.9956 6560
v -4553 39.222 6558
v -4553 39.4175 6556
v -4553 39.6155 6554
v -4553 39.7767 6552
v -4553 39.9282 6550
v -4553 40.0576 6548
v -4553 40.1771 6546
v -4553 41.1901 6544
v -4553 42.8412 6542
v -4553 44.6981 6540
v -4553 46.7274 6538
v -4553 47.2363 6536
v -4553 47.9332 6534
v -4553 48.7869 6532
v -4553 51.0022 6530
v -4553 52.2653 6528
v -4553 53.6648 6526
v -4551 34.8957 6588
v -4551 35.3863 6586
v -4551 35.9139 6584
v -4551 36.215 6582
v -4551 36.3812 6580
v -4551 36.6274 6578
v -4551 36.9389 6576
v -4551 37.33 6574
v -4551 37.6359 6572
v -4551 37.9724 6570
v -4551 38.3569 6568
v -4551 38.6698 6566
v -4551 38.9327 6564
v -4551 39.1485 6562
v -4551 39.4039 6560
v -4551 39.6099 6558
v -4551 39.7916 6556
v -4551 39.9591 6554
v -4551 40.1028 6552
v -4551 40.2257 6550
v -4551 40.3421 6548
v -4551 41.6436 6546
v -4551 43.3902 6544
v -4551 45.3564 6542
v -4551 47.2297 6540
v -4551 47.3742 6538
v -4551 48.421 6536
v -4551 49.7887 6534
v -4551 52.2088 6532
v -4551 52.4624 6530
v -4551 56.4256 6528
v -4551 58.3194 6526
v -4549 35.542 6588
v -4549 35.954 6586
v -4549 36.2188 6584
v -4549 36.4932 6582
v -4549 36.9424 6580
v -4549 37.1316 6578
v -4549 37.7041 6576
v -4549 38.4639 6574
v -4549 38.2814 6572
v -4549 38.5289 6570
v -4549 38.7818 6568
v -4549 39.0855 6566
v -4549 39.3375 6564
v -4549 39.5699 6562
v -4549 39.7766 6560
v -4549 39.9724 6558
v -4549 40.1421 6556
v -4549 40.2831 6554
v -4549 40.4025 6552
v -4549 40.5173 6550
v -4549 42.0702 6548
v -4549 43.8975 6546
v -4549 45.9569 6544
v -4549 47.3899 6542
v -4549 47.739 6540
v -4549 48.7871 6538
v -4549 50.8854 6536
v -4549 52.341 6534
v -4549 54.4258 6532
v -4549 58.0625 6530
v -4549 58.503 6528
v -4549 58.6596 6526
v -4547 36.2416 6588
v -4547 36.6307 6586
v -4547 36.7821 6584
v -4547 37.1882 6582
v -4547 37.4025 6580
v -4547 37.5935 6578
v -4547 39.1188 6576
v -4547 40.1972 6574
v -4547 39.3135 6572
v -4547 38.9661 6570
v -4547 39.2646 6568
v -4547 39.51 6566
v -4547 39.7525 6564
v -4547 39.9663 6562
v -4547 40.1558 6560
v -4547 40.3266 6558
v -4547 40.4676 6556
v -4547 40.5855 6554
v -4547 40.8615 6552
v -4547 42.4805 6550
v -4547 44.3746 6548
v -4547 46.5119 6546
v -4547 47.5634 6544
v -4547 48.1941 6542
v -4547 49.2381 6540
v -4547 52.012 6538
v -4547 52.4906 6536
v -4547 56.4311 6534
v -4547 58.4399 6532
v -4547 58.6274 6530
v -4547 58.5554 6528
v -4547 59.087 6526
v -4545 36.7513 6588
v -4545 37.1196 6586
v -4545 37.3659 6584
v -4545 37.7261 6582
v -4545 37.9485 6580
v -4545 38.1861 6578
v -4545 39.4136 6576
v -4545 40.2455 6574
v -4545 39.6532 6572
v -4545 39.4258 6570
v -4545 39.6938 6568
v -4545 39.9254 6566
v -4545 40.1588 6564
v -4545 40.3441 6562
v -4545 40.5125 6560
v -4545 40.6542 6558
v -4545 40.7725 6556
v -4545 41.2173 6554
v -4545 42.8847 6552
v -4545 44.8345 6550
v -4545 47.0352 6548
v -4545 47.7478 6546
v -4545 48.5879 6544
v -4545 49.8967 6542
v -4545 52.5201 6540
v -4545 53.3871 6538
v -4545 58.0426 6536
v -4545 58.7546 6534
v -4545 58.8596 6532
v -4545 58.9641 6530
v -4545 58.9702 6528
v -4545 59.4307 6526
v -4543 37.4294 6588
v -4543 37.6174 6586
v -4543 37.9126 6584
v -4543 38.2323 6582
v -4543 38.5415 6580
v -4543 38.7925 6578
v -4543 39.0136 6576
v -4543 39.342 6574
v -4543 39.6202 6572
v -4543 39.8864 6570
v -4543 40.115 6568
v -4543 40.335 6566
v -4543 40.5329 6564
v -4543 40.6989 6562
v -4543 40.8411 6560
v -4543 40.9609 6558
v -4543 41.5893 6556
v -4543 43.2974 6554
v -4543 45.2925 6552
v -4543 47.5452 6550
v -4543 47.941 6548
v -4543 48.941 6546
v -4543 50.5657 6544
v -4543 52.7043 6542
v -4543 54.6336 6540
v -4543 58.4578 6538
v -4543 58.913 6536
v -4543 59.6579 6534
v -4543 60.2841 6532
v -4543 59.9295 6530
v -4543 61.552 6528
v -4543 68.3982 6526
f 105 69 106
f 69 72 106
f 105 106 98
f 106 107 98
f 106 72 107
f 104 105 98
f 104 66 105
f 66 69 105
f 107 108 98
f 107 75 108
f 72 75 107
f 75 76 108
f 108 76 109
f 108 109 98
f 72 69 67
f 70 72 67
f 75 72 70
f 69 66 64
f 67 69 64
f 104 103 63
f 66 104 63
f 103 104 98
f 73 76 75
f 73 75 70
f 109 110 98
f 80 110 109
f 78 80 109
f 76 78 109
f 79 78 76
f 77 79 76
f 73 77 76
f 63 103 102
f 102 103 98
f 64 66 61
f 66 63 61
f 110 111 98
f 110 80 111
f 81 80 78
f 79 81 78
f 151 148 149
f 153 151 149
f 155 151 153
f 152 151 155
f 147 148 151
f 152 147 151
f 144 148 147
f 149 148 145
f 148 144 145
f 60 63 102
f 101 102 98
f 60 102 101
f 111 82 112
f 80 82 111
f 111 112 98
f 58 61 63
f 60 58 63
f 157 155 153
f 100 99 98
f 114 100 98
f 113 114 98
f 99 101 98
f 112 113 98
f 71 70 67
f 71 74 70
f 74 73 70
f 68 67 64
f 68 71 67
f 112 89 113
f 82 89 112
f 74 77 73
f 89 93 113
f 113 93 114
f 57 60 101
f 57 101 99
f 93 97 114
f 114 97 53
f 100 114 53
f 65 68 64
f 65 64 61
f 100 53 99
f 53 54 99
f 54 57 99
f 19 21 42
f 41 19 42
f 17 19 41
f 20 19 17
f 20 22 19
f 22 21 19
f 156 158 152
f 156 152 155
f 152 154 147
f 158 154 152
f 147 150 143
f 143 144 147
f 154 150 147
f 80 83 82
f 81 83 80
f 18 20 17
f 62 65 61
f 62 61 58
f 55 58 60
f 57 55 60
f 156 155 159
f 159 155 157
f 21 23 43
f 24 23 21
f 22 24 21
f 42 21 43
f 18 17 15
f 15 17 40
f 40 17 41
f 161 159 157
f 89 82 83
f 16 18 15
f 145 144 140
f 140 144 143
f 141 145 140
f 162 158 156
f 160 156 159
f 160 162 156
f 86 89 83
f 93 89 86
f 47 55 57
f 54 47 57
f 59 62 58
f 59 58 55
f 24 26 23
f 43 23 44
f 23 25 44
f 26 25 23
f 97 93 90
f 90 93 86
f 39 15 40
f 15 39 38
f 13 15 38
f 16 15 13
f 150 154 205
f 205 154 206
f 154 158 206
f 150 146 143
f 139 140 143
f 143 146 139
f 146 150 204
f 204 150 205
f 53 97 94
f 94 97 90
f 47 54 50
f 54 53 50
f 50 53 94
f 14 16 13
f 83 85 86
f 85 83 81
f 56 59 55
f 48 55 47
f 48 56 55
f 206 158 207
f 158 162 207
f 41 42 31
f 40 41 31
f 165 163 159
f 161 165 159
f 160 159 163
f 42 43 31
f 44 25 45
f 26 28 25
f 28 27 25
f 25 27 45
f 86 87 90
f 85 87 86
f 39 40 31
f 142 146 203
f 146 142 139
f 203 146 204
f 49 48 47
f 50 49 47
f 87 91 90
f 90 91 94
f 50 94 49
f 91 95 94
f 94 95 49
f 43 44 31
f 164 166 160
f 164 160 163
f 166 162 160
f 52 56 48
f 38 39 31
f 85 81 84
f 136 140 139
f 141 140 136
f 44 45 31
f 137 141 136
f 84 88 85
f 88 87 85
f 162 166 208
f 207 162 208
f 30 29 27
f 27 29 45
f 28 30 27
f 139 142 135
f 135 136 139
f 88 92 87
f 92 91 87
f 52 48 51
f 48 49 51
f 14 13 11
f 11 13 37
f 13 38 37
f 29 46 45
f 45 46 31
f 96 95 91
f 92 96 91
f 51 49 95
f 96 51 95
f 37 38 31
f 142 138 135
f 138 142 202
f 202 142 203
f 165 169 163
f 169 167 163
f 164 163 167
f 12 14 11
f 33 32 31
f 36 37 31
f 32 34 31
f 34 35 31
f 35 36 31
f 46 33 31
f 168 170 164
f 168 164 167
f 170 166 164
f 2 33 46
f 29 2 46
f 11 37 36
f 166 170 209
f 208 166 209
f 204 205 195
f 205 206 195
f 203 204 195
f 1 2 29
f 30 1 29
f 206 207 195
f 33 2 32
f 137 136 132
f 132 136 135
f 35 7 36
f 9 11 36
f 7 9 36
f 133 137 132
f 202 203 195
f 32 3 34
f 2 3 32
f 12 11 9
f 131 132 135
f 135 138 131
f 34 5 35
f 5 7 35
f 207 208 195
f 3 5 34
f 138 134 131
f 134 138 201
f 201 138 202
f 168 167 171
f 173 171 167
f 169 173 167
f 172 168 171
f 174 170 168
f 172 174 168
f 201 202 195
f 208 209 195
f 209 170 210
f 170 174 210
f 10 12 9
f 3 2 1
f 200 134 201
f 200 201 195
f 10 9 7
f 4 3 1
f 6 5 3
f 4 6 3
f 209 210 195
f 8 10 7
f 8 7 5
f 6 8 5
f 282 281 277
f 281 276 277
f 278 277 276
f 278 279 277
f 133 132 127
f 129 133 127
f 130 134 200
f 134 130 128
f 177 176 173
f 176 171 173
f 213 214 195
f 214 215 195
f 215 197 195
f 197 196 195
f 196 198 195
f 198 199 195
f 199 200 195
f 199 130 200
f 171 176 175
f 172 171 175
f 175 178 172
f 178 174 172
f 174 178 211
f 210 174 211
f 210 211 195
f 211 212 195
f 212 213 195
f 131 134 128
f 128 127 131
f 127 132 131
f 301 279 300
f 279 280 300
f 280 279 278
f 282 284 281
f 211 178 212
f 126 130 199
f 198 126 199
f 276 281 305
f 278 276 305
f 280 278 303
f 303 278 305
f 284 286 283
f 284 283 281
f 178 182 212
f 182 178 175
f 212 182 213
f 306 281 307
f 281 283 307
f 281 306 305
f 304 280 303
f 300 280 304
f 122 126 198
f 196 122 198
f 179 182 175
f 175 176 179
f 180 176 177
f 181 180 177
f 176 180 179
f 130 126 124
f 128 130 124
f 286 285 283
f 286 288 285
f 307 283 308
f 283 285 308
f 213 186 214
f 182 186 213
f 128 124 127
f 299 301 298
f 301 300 298
f 121 122 196
f 197 121 196
f 129 127 125
f 124 123 127
f 127 123 125
f 214 190 215
f 186 190 214
f 303 305 302
f 305 306 302
f 197 215 121
f 304 303 302
f 285 287 308
f 288 287 285
f 215 194 121
f 190 194 215
f 306 307 302
f 316 304 302
f 316 300 304
f 186 182 179
f 300 316 315
f 298 300 315
f 307 308 302
f 183 186 179
f 179 180 183
f 287 309 308
f 308 309 302
f 185 184 181
f 184 180 181
f 180 184 183
f 238 242 237
f 238 237 233
f 234 238 233
f 315 316 302
f 124 126 118
f 126 122 118
f 288 290 287
f 244 240 242
f 242 240 237
f 246 244 242
f 234 233 230
f 249 244 246
f 236 237 240
f 233 237 236
f 312 313 302
f 313 314 302
f 314 315 302
f 311 312 302
f 310 311 302
f 309 310 302
f 233 228 230
f 230 228 226
f 241 240 244
f 241 236 240
f 228 233 232
f 232 233 236
f 244 249 245
f 245 241 244
f 229 225 228
f 229 228 232
f 225 226 228
f 309 287 310
f 290 289 287
f 287 289 310
f 296 299 297
f 299 298 297
f 124 118 123
f 190 186 183
f 290 292 289
f 125 123 119
f 249 251 248
f 245 249 248
f 298 315 314
f 123 115 119
f 118 115 123
f 310 289 311
f 243 239 236
f 241 243 236
f 236 239 232
f 232 235 229
f 239 235 232
f 297 298 314
f 226 225 222
f 223 226 222
f 245 247 241
f 247 243 241
f 225 229 231
f 235 231 229
f 183 184 187
f 187 190 183
f 292 291 289
f 289 291 311
f 291 293 311
f 293 312 311
f 245 248 247
f 118 122 117
f 122 121 117
f 313 295 314
f 295 297 314
f 292 294 291
f 227 225 231
f 184 188 187
f 222 225 227
f 194 190 187
f 223 222 217
f 218 223 217
f 293 295 313
f 312 293 313
f 231 235 267
f 267 235 268
f 235 239 268
f 231 266 265
f 227 231 265
f 185 189 184
f 189 188 184
f 266 231 267
f 294 293 291
f 254 253 251
f 251 253 250
f 251 250 248
f 239 243 269
f 268 239 269
f 269 243 270
f 243 247 270
f 121 194 191
f 117 121 191
f 118 117 115
f 191 194 187
f 296 295 294
f 296 297 295
f 217 222 224
f 224 222 227
f 247 248 270
f 219 218 216
f 218 217 216
f 227 265 264
f 224 227 264
f 187 188 191
f 259 219 258
f 219 216 258
f 120 119 116
f 119 115 116
f 254 256 253
f 117 116 115
f 256 259 255
f 256 255 253
f 259 258 255
f 189 193 188
f 294 295 293
f 221 224 262
f 221 217 224
f 224 264 262
f 188 192 191
f 193 192 188
f 217 221 216
f 248 271 270
f 248 250 271
f 265 266 261
f 266 267 261
f 267 268 261
f 191 192 117
f 192 116 117
f 268 269 261
f 269 270 261
f 264 265 261
f 216 220 258
f 221 220 216
f 270 271 261
f 250 253 252
f 257 252 253
f 255 257 253
f 271 272 261
f 272 273 261
f 273 274 261
f 262 264 261
f 263 262 261
f 275 263 261
f 274 275 261
f 193 120 192
f 120 116 192
f 258 260 255
f 220 260 258
f 260 257 255
f 220 221 262
f 250 272 271
f 250 252 272
f 275 260 220
f 263 275 220
f 263 220 262
f 252 273 272
f 273 252 274
f 252 257 274
f 257 260 275
f 274 257 275
f 393 391 392
f 392 391 390
f 391 389 390
f 395 393 394
f 394 393 392
f 337 335 336
f 336 335 334
f 335 333 334
f 396 397 395
f 396 395 394
f 339 337 338
f 338 337 336
f 403 396 394
f 403 394 392
f 403 392 390
f 334 333 331
f 333 332 331
f 358 356 357
f 357 356 355
f 356 354 355
f 347 338 336
f 360 358 359
f 359 358 357
f 347 336 334
f 390 389 388
f 389 387 388
f 362 360 361
f 361 360 359
f 354 353 352
f 355 354 352
f 340 339 338
f 347 340 338
f 347 334 331
f 364 362 363
f 363 362 361
f 353 351 352
f 370 359 357
f 370 357 355
f 370 361 359
f 341 339 340
f 403 397 396
f 370 355 352
f 370 363 361
f 367 364 366
f 365 364 363
f 364 365 366
f 332 330 331
f 351 348 352
f 352 348 370
f 403 390 388
f 342 341 340
f 347 342 340
f 370 365 363
f 351 350 348
f 330 329 331
f 331 329 347
f 366 365 370
f 348 349 370
f 370 349 369
f 370 369 368
f 370 371 366
f 370 372 371
f 370 373 372
f 370 374 373
f 370 368 374
f 350 349 348
f 403 404 397
f 343 341 342
f 369 349 350
f 344 343 342
f 347 344 342
f 366 371 367
f 387 385 386
f 388 387 386
f 403 388 386
f 343 344 345
f 346 343 345
f 345 344 347
f 330 328 329
f 403 405 404
f 328 327 329
f 329 327 347
f 347 322 320
f 347 324 322
f 317 345 347
f 347 326 324
f 320 317 347
f 327 326 347
f 386 385 384
f 385 383 384
f 346 345 317
f 318 346 317
f 403 386 384
f 403 406 405
f 328 325 327
f 325 326 327
f 319 318 317
f 320 319 317
f 439 437 457
f 438 437 439
f 438 436 437
f 436 433 437
f 437 433 457
f 440 438 439
f 403 402 399
f 403 399 400
f 403 400 408
f 403 408 407
f 403 407 406
f 403 375 402
f 378 375 403
f 403 380 378
f 403 384 382
f 403 382 380
f 383 381 382
f 384 383 382
f 321 319 320
f 322 321 320
f 326 325 324
f 325 323 324
f 436 435 433
f 435 434 433
f 433 434 457
f 323 321 322
f 324 323 322
f 457 442 439
f 442 441 439
f 441 440 439
f 457 444 442
f 443 441 442
f 444 443 442
f 443 444 445
f 445 444 457
f 434 455 457
f 435 456 434
f 456 455 434
f 446 443 445
f 382 381 380
f 381 379 380
f 455 453 457
f 453 451 457
f 451 450 457
f 457 450 448
f 457 448 445
f 448 447 445
f 447 446 445
f 427 430 429
f 427 431 430
f 427 432 431
f 427 429 428
f 432 418 419
f 427 418 432
f 427 428 415
f 415 428 416
f 456 454 455
f 454 453 455
f 380 379 378
f 449 447 448
f 450 449 448
f 417 418 427
f 419 418 417
f 379 377 378
f 420 419 417
f 416 414 415
f 414 413 415
f 415 413 427
f 449 450 451
f 413 412 427
f 411 412 413
f 414 411 413
f 400 399 398
f 421 417 427
f 427 424 421
f 427 426 424
f 427 409 426
f 452 449 451
f 412 409 427
f 420 417 421
f 378 377 375
f 452 451 453
f 454 452 453
f 412 411 409
f 422 420 421
f 424 423 421
f 423 422 421
f 402 401 399
f 401 398 399
f 411 410 409
f 409 410 426
f 426 425 424
f 425 423 424
f 410 425 426
f 377 376 375
f 375 376 402
f 376 401 402
f 458 459 460
f 460 459 461
f 462 463 464
f 464 463 465
f 466 467 468
f 468 467 469
f 470 471 472
f 472 471 473
f 474 475 476
f 476 475 477
f 478 479 480
f 480 479 481
f 482 483 484
f 484 483 485
f 486 487 488
f 488 487 489
f 490 491 492
f 492 491 493
f 494 495 496
f 496 495 497
f 498 499 500
f 500 499 501
f 502 503 504
f 504 503 505
f 506 507 508
f 508 507 509
f 510 511 512
f 512 511 513
f 514 515 516
f 516 515 517
f 518 519 520
f 520 519 521
f 522 523 524
f 524 523 525
f 526 527 528
f 528 527 529
f 530 531 532
f 532 531 533
f 534 535 536
f 536 535 537
f 734 737 736
f 762 736 763
f 736 762 761
f 747 746 717
f 719 718 717
f 719 717 746
f 704 703 702
f 702 703 701
f 702 701 700
f 705 710 707
f 707 710 709
f 711 709 710
f 707 706 705
f 720 718 719
f 699 694 698
f 695 694 699
f 778 777 773
f 773 774 778
f 734 735 737
f 691 692 693
f 692 691 690
f 775 774 773
f 690 785 692
f 690 784 785
f 669 665 695
f 695 665 694
f 659 677 676
f 660 677 659
f 661 660 659
f 747 772 746
f 660 661 662
f 709 711 712
f 713 712 711
f 708 706 707
f 708 713 706
f 712 713 714
f 714 713 708
f 747 748 772
f 721 718 720
f 774 775 776
f 716 686 715
f 688 686 716
f 779 777 778
f 688 687 686
f 689 687 688
f 761 760 759
f 760 761 762
f 749 748 747
f 718 723 722
f 718 721 723
f 730 735 734
f 783 784 781
f 785 784 783
f 676 675 674
f 676 677 675
f 669 666 665
f 669 670 666
f 670 669 671
f 671 669 668
f 665 666 664
f 665 664 663
f 748 749 750
f 769 771 770
f 730 731 735
f 740 738 745
f 745 738 744
f 767 771 769
f 667 663 664
f 671 668 667
f 667 668 663
f 697 696 689
f 689 696 687
f 680 663 668
f 678 663 680
f 674 675 673
f 674 673 672
f 782 781 780
f 783 781 782
f 697 684 696
f 696 684 682
f 758 759 760
f 759 758 757
f 756 755 749
f 749 755 750
f 722 725 729
f 722 728 725
f 723 728 722
f 732 731 730
f 740 739 738
f 732 733 731
f 741 739 740
f 767 765 766
f 767 768 765
f 767 769 768
f 728 723 727
f 750 755 754
f 579 542 547
f 556 555 554
f 546 547 542
f 580 542 579
f 550 547 546
f 550 548 547
f 549 548 550
f 548 549 545
f 548 545 544
f 554 555 553
f 639 632 638
f 633 632 639
f 633 604 632
f 554 553 551
f 551 553 552
f 551 552 538
f 551 538 539
f 540 539 538
f 540 541 539
f 620 619 618
f 621 619 620
f 680 679 678
f 575 574 573
f 576 574 575
f 576 575 568
f 568 575 566
f 568 566 567
f 567 566 565
f 567 565 597
f 597 565 596
f 741 742 739
f 618 630 620
f 684 683 682
f 685 683 684
f 578 571 577
f 572 571 578
f 572 544 571
f 548 544 572
f 637 635 636
f 636 635 634
f 641 602 640
f 624 623 622
f 624 625 623
f 681 679 680
f 630 618 631
f 622 619 621
f 622 623 619
f 658 626 657
f 628 626 658
f 628 627 626
f 629 627 628
f 629 636 627
f 637 636 629
f 606 607 602
f 606 602 603
f 604 603 602
f 604 605 603
f 756 753 755
f 640 602 607
f 608 604 633
f 608 605 604
f 583 582 581
f 583 584 582
f 589 594 587
f 589 587 588
f 588 587 586
f 595 594 589
f 644 645 643
f 644 646 645
f 655 654 653
f 651 653 654
f 653 651 652
f 644 643 642
f 654 655 656
f 583 585 584
f 588 591 590
f 586 591 588
f 608 609 605
f 649 652 651
f 647 652 649
f 546 542 543
f 593 594 595
f 594 593 592
f 656 655 650
f 650 655 648
f 610 607 606
f 592 590 591
f 590 592 593
f 544 545 543
f 650 648 649
f 649 648 647
f 609 608 610
f 544 543 542
f 610 608 607
f 557 569 559
f 569 557 570
f 559 558 557
f 560 558 559
f 561 558 560
f 561 562 558
f 563 562 561
f 563 564 562
f 729 725 726
f 726 725 724
f 743 742 741
f 756 752 753
f 822 790 795
f 823 790 822
f 801 800 799
f 801 802 800
f 753 752 751
f 766 765 764
f 819 817 818
f 818 817 816
f 617 616 615
f 615 616 614
f 600 601 599
f 600 599 598
f 883 881 882
f 882 881 880
f 612 614 613
f 615 614 612
f 612 598 611
f 612 613 598
f 864 865 866
f 865 864 863
f 856 855 854
f 871 869 870
f 870 869 868
f 860 861 862
f 857 855 856
f 842 847 846
f 850 851 849
f 842 845 847
f 850 849 848
f 861 860 859
f 809 818 807
f 819 818 809
f 803 804 802
f 803 802 801
f 885 884 883
f 883 884 881
f 798 796 795
f 798 795 794
f 794 795 790
f 794 790 791
f 792 791 790
f 838 837 832
f 836 837 838
f 797 796 798
f 832 837 830
f 832 830 831
f 837 836 835
f 792 793 791
f 833 835 836
f 835 833 834
f 831 834 833
f 829 834 831
f 831 830 829
f 796 797 793
f 796 793 792
f 805 804 786
f 786 804 803
f 810 884 885
f 808 807 806
f 809 807 808
f 810 885 812
f 878 877 873
f 866 852 867
f 852 866 865
f 848 849 853
f 879 877 878
f 874 875 876
f 875 874 873
f 845 842 844
f 859 860 872
f 796 792 815
f 815 792 814
f 848 853 852
f 843 842 841
f 844 842 843
f 859 872 858
f 859 858 841
f 811 812 813
f 812 811 810
f 787 788 789
f 788 787 786
f 873 874 878
f 840 806 839
f 808 806 840
f 826 825 824
f 826 827 825
f 828 827 826
f 821 814 820
f 815 814 821
f 843 841 858
f 919 887 886
f 886 918 919
f 951 919 918
f 918 950 951
f 983 951 950
f 950 982 983
f 1015 983 982
f 982 1014 1015
f 1047 1015 1014
f 1014 1046 1047
f 1079 1047 1046
f 1046 1078 1079
f 1111 1079 1078
f 1078 1110 1111
f 1143 1111 1110
f 1110 1142 1143
f 1175 1143 1142
f 1142 1174 1175
f 1207 1175 1174
f 1174 1206 1207
f 1239 1207 1206
f 1206 1238 1239
f 1271 1239 1238
f 1238 1270 1271
f 1303 1271 1270
f 1270 1302 1303
f 1335 1303 1302
f 1302 1334 1335
f 1367 1335 1334
f 1334 1366 1367
f 1399 1367 1366
f 1366 1398 1399
f 1431 1399 1398
f 1398 1430 1431
f 1463 1431 1430
f 1430 1462 1463
f 1495 1463 1462
f 1462 1494 1495
f 1527 1495 1494
f 1494 1526 1527
f 1559 1527 1526
f 1526 1558 1559
f 1591 1559 1558
f 1558 1590 1591
f 1623 1591 1590
f 1590 1622 1623
f 1655 1623 1622
f 1622 1654 1655
f 1687 1655 1654
f 1654 1686 1687
f 1719 1687 1686
f 1686 1718 1719
f 1751 1719 1718
f 1718 1750 1751
f 1783 1751 1750
f 1750 1782 1783
f 1815 1783 1782
f 1782 1814 1815
f 1847 1815 1814
f 1814 1846 1847
f 1879 1847 1846
f 1846 1878 1879
f 920 888 887
f 887 919 920
f 952 920 919
f 919 951 952
f 984 952 951
f 951 983 984
f 1016 984 983
f 983 1015 1016
f 1048 1016 1015
f 1015 1047 1048
f 1080 1048 1047
f 1047 1079 1080
f 1112 1080 1079
f 1079 1111 1112
f 1144 1112 1111
f 1111 1143 1144
f 1176 1144 1143
f 1143 1175 1176
f 1208 1176 1175
f 1175 1207 1208
f 1240 1208 1207
f 1207 1239 1240
f 1272 1240 1239
f 1239 1271 1272
f 1304 1272 1271
f 1271 1303 1304
f 1336 1304 1303
f 1303 1335 1336
f 1368 1336 1335
f 1335 1367 1368
f 1400 1368 1367
f 1367 1399 1400
f 1432 1400 1399
f 1399 1431 1432
f 1464 1432 1431
f 1431 1463 1464
f 1496 1464 1463
f 1463 1495 1496
f 1528 1496 1495
f 1495 1527 1528
f 1560 1528 1527
f 1527 1559 1560
f 1592 1560 1559
f 1559 1591 1592
f 1624 1592 1591
f 1591 1623 1624
f 1656 1624 1623
f 1623 1655 1656
f 1688 1656 1655
f 1655 1687 1688
f 1720 1688 1687
f 1687 1719 1720
f 1752 1720 1719
f 1719 1751 1752
f 1784 1752 1751
f 1751 1783 1784
f 1816 1784 1783
f 1783 1815 1816
f 1848 1816 1815
f 1815 1847 1848
f 1880 1848 1847
f 1847 1879 1880
f 921 889 888
f 888 920 921
f 953 921 920
f 920 952 953
f 985 953 952
f 952 984 985
f 1017 985 984
f 984 1016 1017
f 1049 1017 1016
f 1016 1048 1049
f 1081 1049 1048
f 1048 1080 1081
f 1113 1081 1080
f 1080 1112 1113
f 1145 1113 1112
f 1112 1144 1145
f 1177 1145 1144
f 1144 1176 1177
f 1209 1177 1176
f 1176 1208 1209
f 1241 1209 1208
f 1208 1240 1241
f 1273 1241 1240
f 1240 1272 1273
f 1305 1273 1272
f 1272 1304 1305
f 1337 1305 1304
f 1304 1336 1337
f 1369 1337 1336
f 1336 1368 1369
f 1401 1369 1368
f 1368 1400 1401
f 1433 1401 1400
f 1400 1432 1433
f 1465 1433 1432
f 1432 1464 1465
f 1497 1465 1464
f 1464 1496 1497
f 1529 1497 1496
f 1496 1528 1529
f 1561 1529 1528
f 1528 1560 1561
f 1593 1561 1560
f 1560 1592 1593
f 1625 1593 1592
f 1592 1624 1625
f 1657 1625 1624
f 1624 1656 1657
f 1689 1657 1656
f 1656 1688 1689
f 1721 1689 1688
f 1688 1720 1721
f 1753 1721 1720
f 1720 1752 1753
f 1785 1753 1752
f 1752 1784 1785
f 1817 1785 1784
f 1784 1816 1817
f 1849 1817 1816
f 1816 1848 1849
f 1881 1849 1848
f 1848 1880 1881
f 922 890 889
f 889 921 922
f 954 922 921
f 921 953 954
f 986 954 953
f 953 985 986
f 1018 986 985
f 985 1017 1018
f 1050 1018 1017
f 1017 1049 1050
f 1082 1050 1049
f 1049 1081 1082
f 1114 1082 1081
f 1081 1113 1114
f 1146 1114 1113
f 1113 1145 1146
f 1178 1146 1145
f 1145 1177 1178
f 1210 1178 1177
f 1177 1209 1210
f 1242 1210 1209
f 1209 1241 1242
f 1274 1242 1241
f 1241 1273 1274
f 1306 1274 1273
f 1273 1305 1306
f 1338 1306 1305
f 1305 1337 1338
f 1370 1338 1337
f 1337 1369 1370
f 1402 1370 1369
f 1369 1401 1402
f 1434 1402 1401
f 1401 1433 1434
f 1466 1434 1433
f 1433 1465 1466
f 1498 1466 1465
f 1465 1497 1498
f 1530 1498 1497
f 1497 1529 1530
f 1562 1530 1529
f 1529 1561 1562
f 1594 1562 1561
f 1561 1593 1594
f 1626 1594 1593
f 1593 1625 1626
f 1658 1626 1625
f 1625 1657 1658
f 1690 1658 1657
f 1657 1689 1690
f 1722 1690 1689
f 1689 1721 1722
f 1754 1722 1721
f 1721 1753 1754
f 1786 1754 1753
f 1753 1785 1786
f 1818 1786 1785
f 1785 1817 1818
f 1850 1818 1817
f 1817 1849 1850
f 1882 1850 1849
f 1849 1881 1882
f 923 891 890
f 890 922 923
f 955 923 922
f 922 954 955
f 987 955 954
f 954 986 987
f 1019 987 986
f 986 1018 1019
f 1051 1019 1018
f 1018 1050 1051
f 1083 1051 1050
f 1050 1082 1083
f 1115 1083 1082
f 1082 1114 1115
f 1147 1115 1114
f 1114 1146 1147
f 1179 1147 1146
f 1146 1178 1179
f 1211 1179 1178
f 1178 1210 1211
f 1243 1211 1210
f 1210 1242 1243
f 1275 1243 1242
f 1242 1274 1275
f 1307 1275 1274
f 1274 1306 1307
f 1339 1307 1306
f 1306 1338 1339
f 1371 1339 1338
f 1338 1370 1371
f 1403 1371 1370
f 1370 1402 1403
f 1435 1403 1402
f 1402 1434 1435
f 1467 1435 1434
f 1434 1466 1467
f 1499 1467 1466
f 1466 1498 1499
f 1531 1499 1498
f 1498 1530 1531
f 1563 1531 1530
f 1530 1562 1563
f 1595 1563 1562
f 1562 1594 1595
f 1627 1595 1594
f 1594 1626 1627
f 1659 1627 1626
f 1626 1658 1659
f 1691 1659 1658
f 1658 1690 1691
f 1723 1691 1690
f 1690 1722 1723
f 1755 1723 1722
f 1722 1754 1755
f 1787 1755 1754
f 1754 1786 1787
f 1819 1787 1786
f 1786 1818 1819
f 1851 1819 1818
f 1818 1850 1851
f 1883 1851 1850
f 1850 1882 1883
f 924 892 891
f 891 923 924
f 956 924 923
f 923 955 956
f 988 956 955
f 955 987 988
f 1020 988 987
f 987 1019 1020
f 1052 1020 1019
f 1019 1051 1052
f 1084 1052 1051
f 1051 1083 1084
f 1116 1084 1083
f 1083 1115 1116
f 1148 1116 1115
f 1115 1147 1148
f 1180 1148 1147
f 1147 1179 1180
f 1212 1180 1179
f 1179 1211 1212
f 1244 1212 1211
f 1211 1243 1244
f 1276 1244 1243
f 1243 1275 1276
f 1308 1276 1275
f 1275 1307 1308
f 1340 1308 1307
f 1307 1339 1340
f 1372 1340 1339
f 1339 1371 1372
f 1404 1372 1371
f 1371 1403 1404
f 1436 1404 1403
f 1403 1435 1436
f 1468 1436 1435
f 1435 1467 1468
f 1500 1468 1467
f 1467 1499 1500
f 1532 1500 1499
f 1499 1531 1532
f 1564 1532 1531
f 1531 1563 1564
f 1596 1564 1563
f 1563 1595 1596
f 1628 1596 1595
f 1595 1627 1628
f 1660 1628 1627
f 1627 1659 1660
f 1692 1660 1659
f 1659 1691 1692
f 1724 1692 1691
f 1691 1723 1724
f 1756 1724 1723
f 1723 1755 1756
f 1788 1756 1755
f 1755 1787 1788
f 1820 1788 1787
f 1787 1819 1820
f 1852 1820 1819
f 1819 1851 1852
f 1884 1852 1851
f 1851 1883 1884
f 925 893 892
f 892 924 925
f 957 925 924
f 924 956 957
f 989 957 956
f 956 988 989
f 1021 989 988
f 988 1020 1021
f 1053 1021 1020
f 1020 1052 1053
f 1085 1053 1052
f 1052 1084 1085
f 1117 1085 1084
f 1084 1116 1117
f 1149 1117 1116
f 1116 1148 1149
f 1181 1149 1148
f 1148 1180 1181
f 1213 1181 1180
f 1180 1212 1213
f 1245 1213 1212
f 1212 1244 1245
f 1277 1245 1244
f 1244 1276 1277
f 1309 1277 1276
f 1276 1308 1309
f 1341 1309 1308
f 1308 1340 1341
f 1373 1341 1340
f 1340 1372 1373
f 1405 1373 1372
f 1372 1404 1405
f 1437 1405 1404
f 1404 1436 1437
f 1469 1437 1436
f 1436 1468 1469
f 1501 1469 1468
f 1468 1500 1501
f 1533 1501 1500
f 1500 1532 1533
f 1565 1533 1532
f 1532 1564 1565
f 1597 1565 1564
f 1564 1596 1597
f 1629 1597 1596
f 1596 1628 1629
f 1661 1629 1628
f 1628 1660 1661
f 1693 1661 1660
f 1660 1692 1693
f 1725 1693 1692
f 1692 1724 1725
f 1757 1725 1724
f 1724 1756 1757
f 1789 1757 1756
f 1756 1788 1789
f 1821 1789 1788
f 1788 1820 1821
f 1853 1821 1820
f 1820 1852 1853
f 1885 1853 1852
f 1852 1884 1885
f 926 894 893
f 893 925 926
f 958 926 925
f 925 957 958
f 990 958 957
f 957 989 990
f 1022 990 989
f 989 1021 1022
f 1054 1022 1021
f 1021 1053 1054
f 1086 1054 1053
f 1053 1085 1086
f 1118 1086 1085
f 1085 1117 1118
f 1150 1118 1117
f 1117 1149 1150
f 1182 1150 1149
f 1149 1181 1182
f 1214 1182 1181
f 1181 1213 1214
f 1246 1214 1213
f 1213 1245 1246
f 1278 1246 1245
f 1245 1277 1278
f 1310 1278 1277
f 1277 1309 1310
f 1342 1310 1309
f 1309 1341 1342
f 1374 1342 1341
f 1341 1373 1374
f 1406 1374 1373
f 1373 1405 1406
f 1438 1406 1405
f 1405 1437 1438
f 1470 1438 1437
f 1437 1469 1470
f 1502 1470 1469
f 1469 1501 1502
f 1534 1502 1501
f 1501 1533 1534
f 1566 1534 1533
f 1533 1565 1566
f 1598 1566 1565
f 1565 1597 1598
f 1630 1598 1597
f 1597 1629 1630
f 1662 1630 1629
f 1629 1661 1662
f 1694 1662 1661
f 1661 1693 1694
f 1726 1694 1693
f 1693 1725 1726
f 1758 1726 1725
f 1725 1757 1758
f 1790 1758 1757
f 1757 1789 1790
f 1822 1790 1789
f 1789 1821 1822
f 1854 1822 1821
f 1821 1853 1854
f 1886 1854 1853
f 1853 1885 1886
f 927 895 894
f 894 926 927
f 959 927 926
f 926 958 959
f 991 959 958
f 958 990 991
f 1023 991 990
f 990 1022 1023
f 1055 1023 1022
f 1022 1054 1055
f 1087 1055 1054
f 1054 1086 1087
f 1119 1087 1086
f 1086 1118 1119
f 1151 1119 1118
f 1118 1150 1151
f 1183 1151 1150
f 1150 1182 1183
f 1215 1183 1182
f 1182 1214 1215
f 1247 1215 1214
f 1214 1246 1247
f 1279 1247 1246
f 1246 1278 1279
f 1311 1279 1278
f 1278 1310 1311
f 1343 1311 1310
f 1310 1342 1343
f 1375 1343 1342
f 1342 1374 1375
f 1407 1375 1374
f 1374 1406 1407
f 1439 1407 1406
f 1406 1438 1439
f 1471 1439 1438
f 1438 1470 1471
f 1503 1471 1470
f 1470 1502 1503
f 1535 1503 1502
f 1502 1534 1535
f 1567 1535 1534
f 1534 1566 1567
f 1599 1567 1566
f 1566 1598 1599
f 1631 1599 1598
f 1598 1630 1631
f 1663 1631 1630
f 1630 1662 1663
f 1695 1663 1662
f 1662 1694 1695
f 1727 1695 1694
f 1694 1726 1727
f 1759 1727 1726
f 1726 1758 1759
f 1791 1759 1758
f 1758 1790 1791
f 1823 1791 1790
f 1790 1822 1823
f 1855 1823 1822
f 1822 1854 1855
f 1887 1855 1854
f 1854 1886 1887
f 928 896 895
f 895 927 928
f 960 928 927
f 927 959 960
f 992 960 959
f 959 991 992
f 1024 992 991
f 991 1023 1024
f 1056 1024 1023
f 1023 1055 1056
f 1088 1056 1055
f 1055 1087 1088
f 1120 1088 1087
f 1087 1119 1120
f 1152 1120 1119
f 1119 1151 1152
f 1184 1152 1151
f 1151 1183 1184
f 1216 1184 1183
f 1183 1215 1216
f 1248 1216 1215
f 1215 1247 1248
f 1280 1248 1247
f 1247 1279 1280
f 1312 1280 1279
f 1279 1311 1312
f 1344 1312 1311
f 1311 1343 1344
f 1376 1344 1343
f 1343 1375 1376
f 1408 1376 1375
f 1375 1407 1408
f 1440 1408 1407
f 1407 1439 1440
f 1472 1440 1439
f 1439 1471 1472
f 1504 1472 1471
f 1471 1503 1504
f 1536 1504 1503
f 1503 1535 1536
f 1568 1536 1535
f 1535 1567 1568
f 1600 1568 1567
f 1567 1599 1600
f 1632 1600 1599
f 1599 1631 1632
f 1664 1632 1631
f 1631 1663 1664
f 1696 1664 1663
f 1663 1695 1696
f 1728 1696 1695
f 1695 1727 1728
f 1760 1728 1727
f 1727 1759 1760
f 1792 1760 1759
f 1759 1791 1792
f 1824 1792 1791
f 1791 1823 1824
f 1856 1824 1823
f 1823 1855 1856
f 1888 1856 1855
f 1855 1887 1888
f 929 897 896
f 896 928 929
f 961 929 928
f 928 960 961
f 993 961 960
f 960 992 993
f 1025 993 992
f 992 1024 1025
f 1057 1025 1024
f 1024 1056 1057
f 1089 1057 1056
f 1056 1088 1089
f 1121 1089 1088
f 1088 1120 1121
f 1153 1121 1120
f 1120 1152 1153
f 1185 1153 1152
f 1152 1184 1185
f 1217 1185 1184
f 1184 1216 1217
f 1249 1217 1216
f 1216 1248 1249
f 1281 1249 1248
f 1248 1280 1281
f 1313 1281 1280
f 1280 1312 1313
f 1345 1313 1312
f 1312 1344 1345
f 1377 1345 1344
f 1344 1376 1377
f 1409 1377 1376
f 1376 1408 1409
f 1441 1409 1408
f 1408 1440 1441
f 1473 1441 1440
f 1440 1472 1473
f 1505 1473 1472
f 1472 1504 1505
f 1537 1505 1504
f 1504 1536 1537
f 1569 1537 1536
f 1536 1568 1569
f 1601 1569 1568
f 1568 1600 1601
f 1633 1601 1600
f 1600 1632 1633
f 1665 1633 1632
f 1632 1664 1665
f 1697 1665 1664
f 1664 1696 1697
f 1729 1697 1696
f 1696 1728 1729
f 1761 1729 1728
f 1728 1760 1761
f 1793 1761 1760
f 1760 1792 1793
f 1825 1793 1792
f 1792 1824 1825
f 1857 1825 1824
f 1824 1856 1857
f 1889 1857 1856
f 1856 1888 1889
f 930 898 897
f 897 929 930
f 962 930 929
f 929 961 962
f 994 962 961
f 961 993 994
f 1026 994 993
f 993 1025 1026
f 1058 1026 1025
f 1025 1057 1058
f 1090 1058 1057
f 1057 1089 1090
f 1122 1090 1089
f 1089 1121 1122
f 1154 1122 1121
f 1121 1153 1154
f 1186 1154 1153
f 1153 1185 1186
f 1218 1186 1185
f 1185 1217 1218
f 1250 1218 1217
f 1217 1249 1250
f 1282 1250 1249
f 1249 1281 1282
f 1314 1282 1281
f 1281 1313 1314
f 1346 1314 1313
f 1313 1345 1346
f 1378 1346 1345
f 1345 1377 1378
f 1410 1378 1377
f 1377 1409 1410
f 1442 1410 1409
f 1409 1441 1442
f 1474 1442 1441
f 1441 1473 1474
f 1506 1474 1473
f 1473 1505 1506
f 1538 1506 1505
f 1505 1537 1538
f 1570 1538 1537
f 1537 1569 1570
f 1602 1570 1569
f 1569 1601 1602
f 1634 1602 1601
f 1601 1633 1634
f 1666 1634 1633
f 1633 1665 1666
f 1698 1666 1665
f 1665 1697 1698
f 1730 1698 1697
f 1697 1729 1730
f 1762 1730 1729
f 1729 1761 1762
f 1794 1762 1761
f 1761 1793 1794
f 1826 1794 1793
f 1793 1825 1826
f 1858 1826 1825
f 1825 1857 1858
f 1890 1858 1857
f 1857 1889 1890
f 931 899 898
f 898 930 931
f 963 931 930
f 930 962 963
f 995 963 962
f 962 994 995
f 1027 995 994
f 994 1026 1027
f 1059 1027 1026
f 1026 1058 1059
f 1091 1059 1058
f 1058 1090 1091
f 1123 1091 1090
f 1090 1122 1123
f 1155 1123 1122
f 1122 1154 1155
f 1187 1155 1154
f 1154 1186 1187
f 1219 1187 1186
f 1186 1218 1219
f 1251 1219 1218
f 1218 1250 1251
f 1283 1251 1250
f 1250 1282 1283
f 1315 1283 1282
f 1282 1314 1315
f 1347 1315 1314
f 1314 1346 1347
f 1379 1347 1346
f 1346 1378 1379
f 1411 1379 1378
f 1378 1410 1411
f 1443 1411 1410
f 1410 1442 1443
f 1475 1443 1442
f 1442 1474 1475
f 1507 1475 1474
f 1474 1506 1507
f 1539 1507 1506
f 1506 1538 1539
f 1571 1539 1538
f 1538 1570 1571
f 1603 1571 1570
f 1570 1602 1603
f 1635 1603 1602
f 1602 1634 1635
f 1667 1635 1634
f 1634 1666 1667
f 1699 1667 1666
f 1666 1698 1699
f 1731 1699 1698
f 1698 1730 1731
f 1763 1731 1730
f 1730 1762 1763
f 1795 1763 1762
f 1762 1794 1795
f 1827 1795 1794
f 1794 1826 1827
f 1859 1827 1826
f 1826 1858 1859
f 1891 1859 1858
f 1858 1890 1891
f 932 900 899
f 899 931 932
f 964 932 931
f 931 963 964
f 996 964 963
f 963 995 996
f 1028 996 995
f 995 1027 1028
f 1060 1028 1027
f 1027 1059 1060
f 1092 1060 1059
f 1059 1091 1092
f 1124 1092 1091
f 1091 1123 1124
f 1156 1124 1123
f 1123 1155 1156
f 1188 1156 1155
f 1155 1187 1188
f 1220 1188 1187
f 1187 1219 1220
f 1252 1220 1219
f 1219 1251 1252
f 1284 1252 1251
f 1251 1283 1284
f 1316 1284 1283
f 1283 1315 1316
f 1348 1316 1315
f 1315 1347 1348
f 1380 1348 1347
f 1347 1379 1380
f 1412 1380 1379
f 1379 1411 1412
f 1444 1412 1411
f 1411 1443 1444
f 1476 1444 1443
f 1443 1475 1476
f 1508 1476 1475
f 1475 1507 1508
f 1540 1508 1507
f 1507 1539 1540
f 1572 1540 1539
f 1539 1571 1572
f 1604 1572 1571
f 1571 1603 1604
f 1636 1604 1603
f 1603 1635 1636
f 1668 1636 1635
f 1635 1667 1668
f 1700 1668 1667
f 1667 1699 1700
f 1732 1700 1699
f 1699 1731 1732
f 1764 1732 1731
f 1731 1763 1764
f 1796 1764 1763
f 1763 1795 1796
f 1828 1796 1795
f 1795 1827 1828
f 1860 1828 1827
f 1827 1859 1860
f 1892 1860 1859
f 1859 1891 1892
f 933 901 900
f 900 932 933
f 965 933 932
f 932 964 965
f 997 965 964
f 964 996 997
f 1029 997 996
f 996 1028 1029
f 1061 1029 1028
f 1028 1060 1061
f 1093 1061 1060
f 1060 1092 1093
f 1125 1093 1092
f 1092 1124 1125
f 1157 1125 1124
f 1124 1156 1157
f 1189 1157 1156
f 1156 1188 1189
f 1221 1189 1188
f 1188 1220 1221
f 1253 1221 1220
f 1220 1252 1253
f 1285 1253 1252
f 1252 1284 1285
f 1317 1285 1284
f 1284 1316 1317
f 1349 1317 1316
f 1316 1348 1349
f 1381 1349 1348
f 1348 1380 1381
f 1413 1381 1380
f 1380 1412 1413
f 1445 1413 1412
f 1412 1444 1445
f 1477 1445 1444
f 1444 1476 1477
f 1509 1477 1476
f 1476 1508 1509
f 1541 1509 1508
f 1508 1540 1541
f 1573 1541 1540
f 1540 1572 1573
f 1605 1573 1572
f 1572 1604 1605
f 1637 1605 1604
f 1604 1636 1637
f 1669 1637 1636
f 1636 1668 1669
f 1701 1669 1668
f 1668 1700 1701
f 1733 1701 1700
f 1700 1732 1733
f 1765 1733 1732
f 1732 1764 1765
f 1797 1765 1764
f 1764 1796 1797
f 1829 1797 1796
f 1796 1828 1829
f 1861 1829 1828
f 1828 1860 1861
f 1893 1861 1860
f 1860 1892 1893
f 934 902 901
f 901 933 934
f 966 934 933
f 933 965 966
f 998 966 965
f 965 997 998
f 1030 998 997
f 997 1029 1030
f 1062 1030 1029
f 1029 1061 1062
f 1094 1062 1061
f 1061 1093 1094
f 1126 1094 1093
f 1093 1125 1126
f 1158 1126 1125
f 1125 1157 1158
f 1190 1158 1157
f 1157 1189 1190
f 1222 1190 1189
f 1189 1221 1222
f 1254 1222 1221
f 1221 1253 1254
f 1286 1254 1253
f 1253 1285 1286
f 1318 1286 1285
f 1285 1317 1318
f 1350 1318 1317
f 1317 1349 1350
f 1382 1350 1349
f 1349 1381 1382
f 1414 1382 1381
f 1381 1413 1414
f 1446 1414 1413
f 1413 1445 1446
f 1478 1446 1445
f 1445 1477 1478
f 1510 1478 1477
f 1477 1509 1510
f 1542 1510 1509
f 1509 1541 1542
f 1574 1542 1541
f 1541 1573 1574
f 1606 1574 1573
f 1573 1605 1606
f 1638 1606 1605
f 1605 1637 1638
f 1670 1638 1637
f 1637 1669 1670
f 1702 1670 1669
f 1669 1701 1702
f 1734 1702 1701
f 1701 1733 1734
f 1766 1734 1733
f 1733 1765 1766
f 1798 1766 1765
f 1765 1797 1798
f 1830 1798 1797
f 1797 1829 1830
f 1862 1830 1829
f 1829 1861 1862
f 1894 1862 1861
f 1861 1893 1894
f 935 903 902
f 902 934 935
f 967 935 934
f 934 966 967
f 999 967 966
f 966 998 999
f 1031 999 998
f 998 1030 1031
f 1063 1031 1030
f 1030 1062 1063
f 1095 1063 1062
f 1062 1094 1095
f 1127 1095 1094
f 1094 1126 1127
f 1159 1127 1126
f 1126 1158 1159
f 1191 1159 1158
f 1158 1190 1191
f 1223 1191 1190
f 1190 1222 1223
f 1255 1223 1222
f 1222 1254 1255
f 1287 1255 1254
f 1254 1286 1287
f 1319 1287 1286
f 1286 1318 1319
f 1351 1319 1318
f 1318 1350 1351
f 1383 1351 1350
f 1350 1382 1383
f 1415 1383 1382
f 1382 1414 1415
f 1447 1415 1414
f 1414 1446 1447
f 1479 1447 1446
f 1446 1478 1479
f 1511 1479 1478
f 1478 1510 1511
f 1543 1511 1510
f 1510 1542 1543
f 1575 1543 1542
f 1542 1574 1575
f 1607 1575 1574
f 1574 1606 1607
f 1639 1607 1606
f 1606 1638 1639
f 1671 1639 1638
f 1638 1670 1671
f 1703 1671 1670
f 1670 1702 1703
f 1735 1703 1702
f 1702 1734 1735
f 1767 1735 1734
f 1734 1766 1767
f 1799 1767 1766
f 1766 1798 1799
f 1831 1799 1798
f 1798 1830 1831
f 1863 1831 1830
f 1830 1862 1863
f 1895 1863 1862
f 1862 1894 1895
f 936 904 903
f 903 935 936
f 968 936 935
f 935 967 968
f 1000 968 967
f 967 999 1000
f 1032 1000 999
f 999 1031 1032
f 1064 1032 1031
f 1031 1063 1064
f 1096 1064 1063
f 1063 1095 1096
f 1128 1096 1095
f 1095 1127 1128
f 1160 1128 1127
f 1127 1159 1160
f 1192 1160 1159
f 1159 1191 1192
f 1224 1192 1191
f 1191 1223 1224
f 1256 1224 1223
f 1223 1255 1256
f 1288 1256 1255
f 1255 1287 1288
f 1320 1288 1287
f 1287 1319 1320
f 1352 1320 1319
f 1319 1351 1352
f 1384 1352 1351
f 1351 1383 1384
f 1416 1384 1383
f 1383 1415 1416
f 1448 1416 1415
f 1415 1447 1448
f 1480 1448 1447
f 1447 1479 1480
f 1512 1480 1479
f 1479 1511 1512
f 1544 1512 1511
f 1511 1543 1544
f 1576 1544 1543
f 1543 1575 1576
f 1608 1576 1575
f 1575 1607 1608
f 1640 1608 1607
f 1607 1639 1640
f 1672 1640 1639
f 1639 1671 1672
f 1704 1672 1671
f 1671 1703 1704
f 1736 1704 1703
f 1703 1735 1736
f 1768 1736 1735
f 1735 1767 1768
f 1800 1768 1767
f 1767 1799 1800
f 1832 1800 1799
f 1799 1831 1832
f 1864 1832 1831
f 1831 1863 1864
f 1896 1864 1863
f 1863 1895 1896
f 937 905 904
f 904 936 937
f 969 937 936
f 936 968 969
f 1001 969 968
f 968 1000 1001
f 1033 1001 1000
f 1000 1032 1033
f 1065 1033 1032
f 1032 1064 1065
f 1097 1065 1064
f 1064 1096 1097
f 1129 1097 1096
f 1096 1128 1129
f 1161 1129 1128
f 1128 1160 1161
f 1193 1161 1160
f 1160 1192 1193
f 1225 1193 1192
f 1192 1224 1225
f 1257 1225 1224
f 1224 1256 1257
f 1289 1257 1256
f 1256 1288 1289
f 1321 1289 1288
f 1288 1320 1321
f 1353 1321 1320
f 1320 1352 1353
f 1385 1353 1352
f 1352 1384 1385
f 1417 1385 1384
f 1384 1416 1417
f 1449 1417 1416
f 1416 1448 1449
f 1481 1449 1448
f 1448 1480 1481
f 1513 1481 1480
f 1480 1512 1513
f 1545 1513 1512
f 1512 1544 1545
f 1577 1545 1544
f 1544 1576 1577
f 1609 1577 1576
f 1576 1608 1609
f 1641 1609 1608
f 1608 1640 1641
f 1673 1641 1640
f 1640 1672 1673
f 1705 1673 1672
f 1672 1704 1705
f 1737 1705 1704
f 1704 1736 1737
f 1769 1737 1736
f 1736 1768 1769
f 1801 1769 1768
f 1768 1800 1801
f 1833 1801 1800
f 1800 1832 1833
f 1865 1833 1832
f 1832 1864 1865
f 1897 1865 1864
f 1864 1896 1897
f 938 906 905
f 905 937 938
f 970 938 937
f 937 969 970
f 1002 970 969
f 969 1001 1002
f 1034 1002 1001
f 1001 1033 1034
f 1066 1034 1033
f 1033 1065 1066
f 1098 1066 1065
f 1065 1097 1098
f 1130 1098 1097
f 1097 1129 1130
f 1162 1130 1129
f 1129 1161 1162
f 1194 1162 1161
f 1161 1193 1194
f 1226 1194 1193
f 1193 1225 1226
f 1258 1226 1225
f 1225 1257 1258
f 1290 1258 1257
f 1257 1289 1290
f 1322 1290 1289
f 1289 1321 1322
f 1354 1322 1321
f 1321 1353 1354
f 1386 1354 1353
f 1353 1385 1386
f 1418 1386 1385
f 1385 1417 1418
f 1450 1418 1417
f 1417 1449 1450
f 1482 1450 1449
f 1449 1481 1482
f 1514 1482 1481
f 1481 1513 1514
f 1546 1514 1513
f 1513 1545 1546
f 1578 1546 1545
f 1545 1577 1578
f 1610 1578 1577
f 1577 1609 1610
f 1642 1610 1609
f 1609 1641 1642
f 1674 1642 1641
f 1641 1673 1674
f 1706 1674 1673
f 1673 1705 1706
f 1738 1706 1705
f 1705 1737 1738
f 1770 1738 1737
f 1737 1769 1770
f 1802 1770 1769
f 1769 1801 1802
f 1834 1802 1801
f 1801 1833 1834
f 1866 1834 1833
f 1833 1865 1866
f 1898 1866 1865
f 1865 1897 1898
f 939 907 906
f 906 938 939
f 971 939 938
f 938 970 971
f 1003 971 970
f 970 1002 1003
f 1035 1003 1002
f 1002 1034 1035
f 1067 1035 1034
f 1034 1066 1067
f 1099 1067 1066
f 1066 1098 1099
f 1131 1099 1098
f 1098 1130 1131
f 1163 1131 1130
f 1130 1162 1163
f 1195 1163 1162
f 1162 1194 1195
f 1227 1195 1194
f 1194 1226 1227
f 1259 1227 1226
f 1226 1258 1259
f 1291 1259 1258
f 1258 1290 1291
f 1323 1291 1290
f 1290 1322 1323
f 1355 1323 1322
f 1322 1354 1355
f 1387 1355 1354
f 1354 1386 1387
f 1419 1387 1386
f 1386 1418 1419
f 1451 1419 1418
f 1418 1450 1451
f 1483 1451 1450
f 1450 1482 1483
f 1515 1483 1482
f 1482 1514 1515
f 1547 1515 1514
f 1514 1546 1547
f 1579 1547 1546
f 1546 1578 1579
f 1611 1579 1578
f 1578 1610 1611
f 1643 1611 1610
f 1610 1642 1643
f 1675 1643 1642
f 1642 1674 1675
f 1707 1675 1674
f 1674 1706 1707
f 1739 1707 1706
f 1706 1738 1739
f 1771 1739 1738
f 1738 1770 1771
f 1803 1771 1770
f 1770 1802 1803
f 1835 1803 1802
f 1802 1834 1835
f 1867 1835 1834
f 1834 1866 1867
f 1899 1867 1866
f 1866 1898 1899
f 940 908 907
f 907 939 940
f 972 940 939
f 939 971 972
f 1004 972 971
f 971 1003 1004
f 1036 1004 1003
f 1003 1035 1036
f 1068 1036 1035
f 1035 1067 1068
f 1100 1068 1067
f 1067 1099 1100
f 1132 1100 1099
f 1099 1131 1132
f 1164 1132 1131
f 1131 1163 1164
f 1196 1164 1163
f 1163 1195 1196
f 1228 1196 1195
f 1195 1227 1228
f 1260 1228 1227
f 1227 1259 1260
f 1292 1260 1259
f 1259 1291 1292
f 1324 1292 1291
f 1291 1323 1324
f 1356 1324 1323
f 1323 1355 1356
f 1388 1356 1355
f 1355 1387 1388
f 1420 1388 1387
f 1387 1419 1420
f 1452 1420 1419
f 1419 1451 1452
f 1484 1452 1451
f 1451 1483 1484
f 1516 1484 1483
f 1483 1515 1516
f 1548 1516 1515
f 1515 1547 1548
f 1580 1548 1547
f 1547 1579 1580
f 1612 1580 1579
f 1579 1611 1612
f 1644 1612 1611
f 1611 1643 1644
f 1676 1644 1643
f 1643 1675 1676
f 1708 1676 1675
f 1675 1707 1708
f 1740 1708 1707
f 1707 1739 1740
f 1772 1740 1739
f 1739 1771 1772
f 1804 1772 1771
f 1771 1803 1804
f 1836 1804 1803
f 1803 1835 1836
f 1868 1836 1835
f 1835 1867 1868
f 1900 1868 1867
f 1867 1899 1900
f 941 909 908
f 908 940 941
f 973 941 940
f 940 972 973
f 1005 973 972
f 972 1004 1005
f 1037 1005 1004
f 1004 1036 1037
f 1069 1037 1036
f 1036 1068 1069
f 1101 1069 1068
f 1068 1100 1101
f 1133 1101 1100
f 1100 1132 1133
f 1165 1133 1132
f 1132 1164 1165
f 1197 1165 1164
f 1164 1196 1197
f 1229 1197 1196
f 1196 1228 1229
f 1261 1229 1228
f 1228 1260 1261
f 1293 1261 1260
f 1260 1292 1293
f 1325 1293 1292
f 1292 1324 1325
f 1357 1325 1324
f 1324 1356 1357
f 1389 1357 1356
f 1356 1388 1389
f 1421 1389 1388
f 1388 1420 1421
f 1453 1421 1420
f 1420 1452 1453
f 1485 1453 1452
f 1452 1484 1485
f 1517 1485 1484
f 1484 1516 1517
f 1549 1517 1516
f 1516 1548 1549
f 1581 1549 1548
f 1548 1580 1581
f 1613 1581 1580
f 1580 1612 1613
f 1645 1613 1612
f 1612 1644 1645
f 1677 1645 1644
f 1644 1676 1677
f 1709 1677 1676
f 1676 1708 1709
f 1741 1709 1708
f 1708 1740 1741
f 1773 1741 1740
f 1740 1772 1773
f 1805 1773 1772
f 1772 1804 1805
f 1837 1805 1804
f 1804 1836 1837
f 1869 1837 1836
f 1836 1868 1869
f 1901 1869 1868
f 1868 1900 1901
f 942 910 909
f 909 941 942
f 974 942 941
f 941 973 974
f 1006 974 973
f 973 1005 1006
f 1038 1006 1005
f 1005 1037 1038
f 1070 1038 1037
f 1037 1069 1070
f 1102 1070 1069
f 1069 1101 1102
f 1134 1102 1101
f 1101 1133 1134
f 1166 1134 1133
f 1133 1165 1166
f 1198 1166 1165
f 1165 1197 1198
f 1230 1198 1197
f 1197 1229 1230
f 1262 1230 1229
f 1229 1261 1262
f 1294 1262 1261
f 1261 1293 1294
f 1326 1294 1293
f 1293 1325 1326
f 1358 1326 1325
f 1325 1357 1358
f 1390 1358 1357
f 1357 1389 1390
f 1422 1390 1389
f 1389 1421 1422
f 1454 1422 1421
f 1421 1453 1454
f 1486 1454 1453
f 1453 1485 1486
f 1518 1486 1485
f 1485 1517 1518
f 1550 1518 1517
f 1517 1549 1550
f 1582 1550 1549
f 1549 1581 1582
f 1614 1582 1581
f 1581 1613 1614
f 1646 1614 1613
f 1613 1645 1646
f 1678 1646 1645
f 1645 1677 1678
f 1710 1678 1677
f 1677 1709 1710
f 1742 1710 1709
f 1709 1741 1742
f 1774 1742 1741
f 1741 1773 1774
f 1806 1774 1773
f 1773 1805 1806
f 1838 1806 1805
f 1805 1837 1838
f 1870 1838 1837
f 1837 1869 1870
f 1902 1870 1869
f 1869 1901 1902
f 943 911 910
f 910 942 943
f 975 943 942
f 942 974 975
f 1007 975 974
f 974 1006 1007
f 1039 1007 1006
f 1006 1038 1039
f 1071 1039 1038
f 1038 1070 1071
f 1103 1071 1070
f 1070 1102 1103
f 1135 1103 1102
f 1102 1134 1135
f 1167 1135 1134
f 1134 1166 1167
f 1199 1167 1166
f 1166 1198 1199
f 1231 1199 1198
f 1198 1230 1231
f 1263 1231 1230
f 1230 1262 1263
f 1295 1263 1262
f 1262 1294 1295
f 1327 1295 1294
f 1294 1326 1327
f 1359 1327 1326
f 1326 1358 1359
f 1391 1359 1358
f 1358 1390 1391
f 1423 1391 1390
f 1390 1422 1423
f 1455 1423 1422
f 1422 1454 1455
f 1487 1455 1454
f 1454 1486 1487
f 1519 1487 1486
f 1486 1518 1519
f 1551 1519 1518
f 1518 1550 1551
f 1583 1551 1550
f 1550 1582 1583
f 1615 1583 1582
f 1582 1614 1615
f 1647 1615 1614
f 1614 1646 1647
f 1679 1647 1646
f 1646 1678 1679
f 1711 1679 1678
f 1678 1710 1711
f 1743 1711 1710
f 1710 1742 1743
f 1775 1743 1742
f 1742 1774 1775
f 1807 1775 1774
f 1774 1806 1807
f 1839 1807 1806
f 1806 1838 1839
f 1871 1839 1838
f 1838 1870 1871
f 1903 1871 1870
f 1870 1902 1903
f 944 912 911
f 911 943 944
f 976 944 943
f 943 975 976
f 1008 976 975
f 975 1007 1008
f 1040 1008 1007
f 1007 1039 1040
f 1072 1040 1039
f 1039 1071 1072
f 1104 1072 1071
f 1071 1103 1104
f 1136 1104 1103
f 1103 1135 1136
f 1168 1136 1135
f 1135 1167 1168
f 1200 1168 1167
f 1167 1199 1200
f 1232 1200 1199
f 1199 1231 1232
f 1264 1232 1231
f 1231 1263 1264
f 1296 1264 1263
f 1263 1295 1296
f 1328 1296 1295
f 1295 1327 1328
f 1360 1328 1327
f 1327 1359 1360
f 1392 1360 1359
f 1359 1391 1392
f 1424 1392 1391
f 1391 1423 1424
f 1456 1424 1423
f 1423 1455 1456
f 1488 1456 1455
f 1455 1487 1488
f 1520 1488 1487
f 1487 1519 1520
f 1552 1520 1519
f 1519 1551 1552
f 1584 1552 1551
f 1551 1583 1584
f 1616 1584 1583
f 1583 1615 1616
f 1648 1616 1615
f 1615 1647 1648
f 1680 1648 1647
f 1647 1679 1680
f 1712 1680 1679
f 1679 1711 1712
f 1744 1712 1711
f 1711 1743 1744
f 1776 1744 1743
f 1743 1775 1776
f 1808 1776 1775
f 1775 1807 1808
f 1840 1808 1807
f 1807 1839 1840
f 1872 1840 1839
f 1839 1871 1872
f 1904 1872 1871
f 1871 1903 1904
f 945 913 912
f 912 944 945
f 977 945 944
f 944 976 977
f 1009 977 976
f 976 1008 1009
f 1041 1009 1008
f 1008 1040 1041
f 1073 1041 1040
f 1040 1072 1073
f 1105 1073 1072
f 1072 1104 1105
f 1137 1105 1104
f 1104 1136 1137
f 1169 1137 1136
f 1136 1168 1169
f 1201 1169 1168
f 1168 1200 1201
f 1233 1201 1200
f 1200 1232 1233
f 1265 1233 1232
f 1232 1264 1265
f 1297 1265 1264
f 1264 1296 1297
f 1329 1297 1296
f 1296 1328 1329
f 1361 1329 1328
f 1328 1360 1361
f 1393 1361 1360
f 1360 1392 1393
f 1425 1393 1392
f 1392 1424 1425
f 1457 1425 1424
f 1424 1456 1457
f 1489 1457 1456
f 1456 1488 1489
f 1521 1489 1488
f 1488 1520 1521
f 1553 1521 1520
f 1520 1552 1553
f 1585 1553 1552
f 1552 1584 1585
f 1617 1585 1584
f 1584 1616 1617
f 1649 1617 1616
f 1616 1648 1649
f 1681 1649 1648
f 1648 1680 1681
f 1713 1681 1680
f 1680 1712 1713
f 1745 1713 1712
f 1712 1744 1745
f 1777 1745 1744
f 1744 1776 1777
f 1809 1777 1776
f 1776 1808 1809
f 1841 1809 1808
f 1808 1840 1841
f 1873 1841 1840
f 1840 1872 1873
f 1905 1873 1872
f 1872 1904 1905
f 946 914 913
f 913 945 946
f 978 946 945
f 945 977 978
f 1010 978 977
f 977 1009 1010
f 1042 1010 1009
f 1009 1041 1042
f 1074 1042 1041
f 1041 1073 1074
f 1106 1074 1073
f 1073 1105 1106
f 1138 1106 1105
f 1105 1137 1138
f 1170 1138 1137
f 1137 1169 1170
f 1202 1170 1169
f 1169 1201 1202
f 1234 1202 1201
f 1201 1233 1234
f 1266 1234 1233
f 1233 1265 1266
f 1298 1266 1265
f 1265 1297 1298
f 1330 1298 1297
f 1297 1329 1330
f 1362 1330 1329
f 1329 1361 1362
f 1394 1362 1361
f 1361 1393 1394
f 1426 1394 1393
f 1393 1425 1426
f 1458 1426 1425
f 1425 1457 1458
f 1490 1458 1457
f 1457 1489 1490
f 1522 1490 1489
f 1489 1521 1522
f 1554 1522 1521
f 1521 1553 1554
f 1586 1554 1553
f 1553 1585 1586
f 1618 1586 1585
f 1585 1617 1618
f 1650 1618 1617
f 1617 1649 1650
f 1682 1650 1649
f 1649 1681 1682
f 1714 1682 1681
f 1681 1713 1714
f 1746 1714 1713
f 1713 1745 1746
f 1778 1746 1745
f 1745 1777 1778
f 1810 1778 1777
f 1777 1809 1810
f 1842 1810 1809
f 1809 1841 1842
f 1874 1842 1841
f 1841 1873 1874
f 1906 1874 1873
f 1873 1905 1906
f 947 915 914
f 914 946 947
f 979 947 946
f 946 978 979
f 1011 979 978
f 978 1010 1011
f 1043 1011 1010
f 1010 1042 1043
f 1075 1043 1042
f 1042 1074 1075
f 1107 1075 1074
f 1074 1106 1107
f 1139 1107 1106
f 1106 1138 1139
f 1171 1139 1138
f 1138 1170 1171
f 1203 1171 1170
f 1170 1202 1203
f 1235 1203 1202
f 1202 1234 1235
f 1267 1235 1234
f 1234 1266 1267
f 1299 1267 1266
f 1266 1298 1299
f 1331 1299 1298
f 1298 1330 1331
f 1363 1331 1330
f 1330 1362 1363
f 1395 1363 1362
f 1362 1394 1395
f 1427 1395 1394
f 1394 1426 1427
f 1459 1427 1426
f 1426 1458 1459
f 1491 1459 1458
f 1458 1490 1491
f 1523 1491 1490
f 1490 1522 1523
f 1555 1523 1522
f 1522 1554 1555
f 1587 1555 1554
f 1554 1586 1587
f 1619 1587 1586
f 1586 1618 1619
f 1651 1619 1618
f 1618 1650 1651
f 1683 1651 1650
f 1650 1682 1683
f 1715 1683 1682
f 1682 1714 1715
f 1747 1715 1714
f 1714 1746 1747
f 1779 1747 1746
f 1746 1778 1779
f 1811 1779 1778
f 1778 1810 1811
f 1843 1811 1810
f 1810 1842 1843
f 1875 1843 1842
f 1842 1874 1875
f 1907 1875 1874
f 1874 1906 1907
f 948 916 915
f 915 947 948
f 980 948 947
f 947 979 980
f 1012 980 979
f 979 1011 1012
f 1044 1012 1011
f 1011 1043 1044
f 1076 1044 1043
f 1043 1075 1076
f 1108 1076 1075
f 1075 1107 1108
f 1140 1108 1107
f 1107 1139 1140
f 1172 1140 1139
f 1139 1171 1172
f 1204 1172 1171
f 1171 1203 1204
f 1236 1204 1203
f 1203 1235 1236
f 1268 1236 1235
f 1235 1267 1268
f 1300 1268 1267
f 1267 1299 1300
f 1332 1300 1299
f 1299 1331 1332
f 1364 1332 1331
f 1331 1363 1364
f 1396 1364 1363
f 1363 1395 1396
f 1428 1396 1395
f 1395 1427 1428
f 1460 1428 1427
f 1427 1459 1460
f 1492 1460 1459
f 1459 1491 1492
f 1524 1492 1491
f 1491 1523 1524
f 1556 1524 1523
f 1523 1555 1556
f 1588 1556 1555
f 1555 1587 1588
f 1620 1588 1587
f 1587 1619 1620
f 1652 1620 1619
f 1619 1651 1652
f 1684 1652 1651
f 1651 1683 1684
f 1716 1684 1683
f 1683 1715 1716
f 1748 1716 1715
f 1715 1747 1748
f 1780 1748 1747
f 1747 1779 1780
f 1812 1780 1779
f 1779 1811 1812
f 1844 1812 1811
f 1811 1843 1844
f 1876 1844 1843
f 1843 1875 1876
f 1908 1876 1875
f 1875 1907 1908
f 949 917 916
f 916 948 949
f 981 949 948
f 948 980 981
f 1013 981 980
f 980 1012 1013
f 1045 1013 1012
f 1012 1044 1045
f 1077 1045 1044
f 1044 1076 1077
f 1109 1077 1076
f 1076 1108 1109
f 1141 1109 1108
f 1108 1140 1141
f 1173 1141 1140
f 1140 1172 1173
f 1205 1173 1172
f 1172 1204 1205
f 1237 1205 1204
f 1204 1236 1237
f 1269 1237 1236
f 1236 1268 1269
f 1301 1269 1268
f 1268 1300 1301
f 1333 1301 1300
f 1300 1332 1333
f 1365 1333 1332
f 1332 1364 1365
f 1397 1365 1364
f 1364 1396 1397
f 1429 1397 1396
f 1396 1428 1429
f 1461 1429 1428
f 1428 1460 1461
f 1493 1461 1460
f 1460 1492 1493
f 1525 1493 1492
f 1492 1524 1525
f 1557 1525 1524
f 1524 1556 1557
f 1589 1557 1556
f 1556 1588 1589
f 1621 1589 1588
f 1588 1620 1621
f 1653 1621 1620
f 1620 1652 1653
f 1685 1653 1652
f 1652 1684 1685
f 1717 1685 1684
f 1684 1716 1717
f 1749 1717 1716
f 1716 1748 1749
f 1781 1749 1748
f 1748 1780 1781
f 1813 1781 1780
f 1780 1812 1813
f 1845 1813 1812
f 1812 1844 1845
f 1877 1845 1844
f 1844 1876 1877
f 1909 1877 1876
f 1876 1908 1909
