v -5810.79 75.608 -5797.79
v -5810.79 78.6088 -5797.79
v -5810.79 79.4987 -5797.65
v -5810.79 79.5091 -5796.88
v -5810.79 75.608 -5796.79
v -5810.74 79.6404 -5796.99
v -5810.79 79.7063 -5797.7
v -5809.79 79.8053 -5797.79
v -5810.48 77.3278 -5797.79
v -5809.79 76.8065 -5797.79
v -5810.33 76.7897 -5797.79
v -5809.96 76.1457 -5797.79
v -5810.39 76.1928 -5797.79
v -5810.35 75.608 -5797.79
v -5809.99 75.608 -5797.79
v -5809.79 75.608 -5797.64
v -5809.79 75.608 -5796.79
v -5809.79 76.1456 -5797.53
v -5809.79 79.5931 -5796.79
v -5809.79 76.8065 -5797.79
v -5809.79 79.8053 -5797.79
v -5809.79 76.1456 -5797.53
v -5809.79 76.8065 -5797.79
v -5809.96 76.1457 -5797.79
v -5810.79 79.4987 -5797.65
v -5810.73 79.5909 -5797.79
v -5810.79 79.7063 -5797.7
v -5810.72 79.7063 -5797.79
v -5810.67 79.2796 -5797.79
v -5810.79 78.6088 -5797.79
v -5810.53 79.042 -5796.79
v -5810.79 75.608 -5796.79
v -5810.79 79.5091 -5796.88
v -5809.79 75.608 -5797.64
v -5809.99 75.608 -5797.79
v -5809.79 79.5931 -5796.79
v -5809.79 75.608 -5796.79
v -5809.99 79.743 -5796.79
v -5810.22 79.5128 -5796.79
v -5810.3 79.2043 -5796.79
v -5810.58 79.8053 -5797.09
v -5810.49 79.8997 -5797.07
v -5810.6 79.8008 -5797.66
v -5810.27 79.8997 -5797.32
v -5810.6 79.8008 -5797.66
v -5810.29 79.725 -5796.88
v -5810.53 79.042 -5796.79
v -5810.79 79.5091 -5796.88
v -5810.58 79.8053 -5797.09
v -5810.29 79.725 -5796.88
v -5810.3 79.2043 -5796.79
v -5810.22 79.5128 -5796.79
v -5810.74 79.6404 -5796.99
v -5810.44 76.228 -5797.75
v -5810.45 75.608 -5797.75
v -5810.39 76.1928 -5797.79
v -5810.35 75.608 -5797.79
v -5810.33 76.7897 -5797.79
v -5810.38 76.7468 -5797.75
v -5810.48 77.3278 -5797.79
v -5810.42 76.808 -5797.79
v -5810.38 76.7468 -5797.75
v -5810.48 77.3278 -5797.79
v -5810.54 76.1736 -5797.79
v -5810.44 76.228 -5797.75
v -5810.45 75.608 -5797.75
v -5810.6 75.608 -5797.79
v -5810.79 75.608 -5797.79
v -5810.54 76.1736 -5797.79
v -5810.42 76.808 -5797.79
v -5810.79 78.6088 -5797.79
v -5810.6 75.608 -5797.79
v -5810.67 79.2796 -5797.79
v -5810.73 79.5909 -5797.79
v -5810.72 79.7063 -5797.79
v -5809.92 79.8375 -5796.95
v -5809.92 79.8997 -5797.66
v -5810.27 79.8997 -5797.32
v -5809.92 79.8375 -5796.95
v -5810.49 79.8997 -5797.07
v -5851 74.5518 -5794
v -5851 74.5804 -5796
v -5851 74.4267 -5798
v -5851 74.4367 -5800
v -5851 74.2951 -5802
v -5851 74.2369 -5804
v -5851 74.2505 -5806
v -5851 74.2864 -5808
v -5851 74.4252 -5810
v -5851 74.4751 -5812
v -5851 74.4248 -5814
v -5851 74.5098 -5816
v -5851 74.6862 -5818
v -5851 74.8922 -5820
v -5851 75.1076 -5822
v -5851 75.2343 -5824
v -5851 75.44 -5826
v -5851 75.4801 -5828
v -5851 75.633 -5830
v -5851 75.7921 -5832
v -5851 75.9256 -5834
v -5851 76.0272 -5836
v -5851 76.219 -5838
v -5851 76.263 -5840
v -5851 76.6132 -5842
v -5851 76.6917 -5844
v -5851 76.9275 -5846
v -5851 76.9035 -5848
v -5851 77.2018 -5850
v -5851 77.3391 -5852
v -5851 77.6884 -5854
v -5851 77.8655 -5856
v -5849 74.4944 -5794
v -5849 74.4715 -5796
v -5849 74.1806 -5798
v -5849 74.2914 -5800
v -5849 74.35 -5802
v -5849 74.2245 -5804
v -5849 74.3085 -5806
v -5849 74.3475 -5808
v -5849 74.4792 -5810
v -5849 74.468 -5812
v -5849 74.4829 -5814
v -5849 74.6146 -5816
v -5849 74.8723 -5818
v -5849 74.9632 -5820
v -5849 75.1043 -5822
v -5849 75.2833 -5824
v -5849 75.5169 -5826
v -5849 75.5463 -5828
v -5849 75.6469 -5830
v -5849 75.7809 -5832
v -5849 76.0011 -5834
v -5849 76.2436 -5836
v -5849 76.3863 -5838
v -5849 76.5482 -5840
v -5849 76.5755 -5842
v -5849 76.6967 -5844
v -5849 76.9294 -5846
v -5849 77.0564 -5848
v -5849 77.3775 -5850
v -5849 77.638 -5852
v -5849 77.686 -5854
v -5849 78.0546 -5856
v -5847 74.3192 -5794
v -5847 74.4053 -5796
v -5847 74.5546 -5798
v -5847 74.5299 -5800
v -5847 74.5988 -5802
v -5847 74.5744 -5804
v -5847 74.6285 -5806
v -5847 74.6327 -5808
v -5847 74.646 -5810
v -5847 74.673 -5812
v -5847 74.7776 -5814
v -5847 74.707 -5816
v -5847 75.0009 -5818
v -5847 75.1673 -5820
v -5847 75.2258 -5822
v -5847 75.3287 -5824
v -5847 75.421 -5826
v -5847 75.455 -5828
v -5847 75.6264 -5830
v -5847 75.7594 -5832
v -5847 75.9969 -5834
v -5847 76.2952 -5836
v -5847 76.2753 -5838
v -5847 76.4637 -5840
v -5847 76.6407 -5842
v -5847 76.9296 -5844
v -5847 76.9625 -5846
v -5847 77.0387 -5848
v -5847 77.3713 -5850
v -5847 77.7415 -5852
v -5847 78.2558 -5854
v -5847 78.9257 -5856
v -5845 74.375 -5794
v -5845 74.6828 -5796
v -5845 74.7135 -5798
v -5845 74.834 -5800
v -5845 74.8456 -5802
v -5845 74.8739 -5804
v -5845 74.9748 -5806
v -5845 74.8803 -5808
v -5845 74.8853 -5810
v -5845 74.9005 -5812
v -5845 74.8481 -5814
v -5845 75.0621 -5816
v -5845 75.0855 -5818
v -5845 75.3149 -5820
v -5845 75.421 -5822
v -5845 75.5364 -5824
v -5845 75.3987 -5826
v -5845 75.6072 -5828
v -5845 75.6858 -5830
v -5845 75.8147 -5832
v -5845 76.0215 -5834
v -5845 76.2794 -5836
v -5845 76.2906 -5838
v -5845 76.4769 -5840
v -5845 76.6164 -5842
v -5845 76.9062 -5844
v -5845 76.9918 -5846
v -5845 77.1046 -5848
v -5845 77.3036 -5850
v -5845 77.5417 -5852
v -5845 78.2315 -5854
v -5845 78.4632 -5856
v -5843 74.5745 -5794
v -5843 74.6375 -5796
v -5843 74.9036 -5798
v -5843 75.0234 -5800
v -5843 75.0625 -5802
v -5843 75.135 -5804
v -5843 75.2214 -5806
v -5843 75.0844 -5808
v -5843 75.0515 -5810
v -5843 75.0441 -5812
v -5843 74.9962 -5814
v -5843 75.1517 -5816
v -5843 75.3062 -5818
v -5843 75.4083 -5820
v -5843 75.5431 -5822
v -5843 75.6578 -5824
v -5843 75.4841 -5826
v -5843 75.6846 -5828
v -5843 75.7552 -5830
v -5843 75.9999 -5832
v -5843 76.0238 -5834
v -5843 76.1534 -5836
v -5843 76.2148 -5838
v -5843 76.4828 -5840
v -5843 76.5814 -5842
v -5843 76.8572 -5844
v -5843 77.0647 -5846
v -5843 77.1268 -5848
v -5843 77.162 -5850
v -5843 77.267 -5852
v -5843 77.5382 -5854
v -5843 78.1279 -5856
v -5841 74.7204 -5794
v -5841 74.717 -5796
v -5841 74.9633 -5798
v -5841 75.0834 -5800
v -5841 75.2623 -5802
v -5841 75.2909 -5804
v -5841 75.3935 -5806
v -5841 75.3792 -5808
v -5841 75.2867 -5810
v -5841 75.3114 -5812
v -5841 75.1612 -5814
v -5841 75.3295 -5816
v -5841 75.4113 -5818
v -5841 75.5683 -5820
v -5841 75.6616 -5822
v -5841 75.6672 -5824
v -5841 75.7258 -5826
v -5841 75.8614 -5828
v -5841 75.9344 -5830
v -5841 76.0973 -5832
v -5841 76.1419 -5834
v -5841 76.3214 -5836
v -5841 76.3096 -5838
v -5841 76.2817 -5840
v -5841 76.6166 -5842
v -5841 76.8153 -5844
v -5841 77.0074 -5846
v -5841 77.0009 -5848
v -5841 77.0671 -5850
v -5841 76.9841 -5852
v -5841 77.1105 -5854
v -5841 77.5762 -5856
v -5839 74.7405 -5794
v -5839 74.7793 -5796
v -5839 74.9321 -5798
v -5839 75.1847 -5800
v -5839 75.214 -5802
v -5839 75.4179 -5804
v -5839 75.4449 -5806
v -5839 75.4082 -5808
v -5839 75.4202 -5810
v -5839 75.4427 -5812
v -5839 75.2119 -5814
v -5839 75.3961 -5816
v -5839 75.5628 -5818
v -5839 75.6839 -5820
v -5839 75.6808 -5822
v -5839 75.6866 -5824
v -5839 75.7425 -5826
v -5839 75.8312 -5828
v -5839 75.9507 -5830
v -5839 76.0686 -5832
v -5839 76.1412 -5834
v -5839 76.3276 -5836
v -5839 76.2313 -5838
v -5839 76.4936 -5840
v -5839 76.5102 -5842
v -5839 76.6923 -5844
v -5839 76.8626 -5846
v -5839 76.8552 -5848
v -5839 76.8188 -5850
v -5839 77.0107 -5852
v -5839 76.9584 -5854
v -5839 77.0858 -5856
v -5837 74.9104 -5794
v -5837 75.1341 -5796
v -5837 75.1229 -5798
v -5837 75.2517 -5800
v -5837 75.3542 -5802
v -5837 75.5862 -5804
v -5837 75.4268 -5806
v -5837 75.5004 -5808
v -5837 75.4417 -5810
v -5837 75.3947 -5812
v -5837 75.3262 -5814
v -5837 75.4417 -5816
v -5837 75.4742 -5818
v -5837 75.6341 -5820
v -5837 75.6472 -5822
v -5837 75.7959 -5824
v -5837 75.6777 -5826
v -5837 75.8314 -5828
v -5837 75.9211 -5830
v -5837 76.0329 -5832
v -5837 76.1658 -5834
v -5837 76.389 -5836
v -5837 76.3212 -5838
v -5837 76.5117 -5840
v -5837 76.6778 -5842
v -5837 76.8141 -5844
v -5837 76.7419 -5846
v -5837 76.6386 -5848
v -5837 76.7279 -5850
v -5837 76.7278 -5852
v -5837 76.8934 -5854
v -5837 76.822 -5856
v -5835 75.0344 -5794
v -5835 75.3124 -5796
v -5835 75.2278 -5798
v -5835 75.3386 -5800
v -5835 75.4729 -5802
v -5835 75.551 -5804
v -5835 75.4758 -5806
v -5835 75.652 -5808
v -5835 75.5413 -5810
v -5835 75.4879 -5812
v -5835 75.3214 -5814
v -5835 75.5503 -5816
v -5835 75.5209 -5818
v -5835 75.7096 -5820
v -5835 75.8328 -5822
v -5835 75.8754 -5824
v -5835 75.7474 -5826
v -5835 75.884 -5828
v -5835 75.8921 -5830
v -5835 75.9518 -5832
v -5835 76.2383 -5834
v -5835 76.2081 -5836
v -5835 76.3646 -5838
v -5835 76.481 -5840
v -5835 76.515 -5842
v -5835 76.6575 -5844
v -5835 76.5258 -5846
v -5835 76.4821 -5848
v -5835 76.5569 -5850
v -5835 76.6028 -5852
v -5835 76.8164 -5854
v -5835 76.6989 -5856
v -5833 75.4558 -5794
v -5833 75.3754 -5796
v -5833 75.5042 -5798
v -5833 75.4968 -5800
v -5833 75.6136 -5802
v -5833 75.6646 -5804
v -5833 75.5952 -5806
v -5833 75.7587 -5808
v -5833 75.6865 -5810
v -5833 75.5752 -5812
v -5833 75.5903 -5814
v -5833 75.5417 -5816
v -5833 75.6821 -5818
v -5833 75.8296 -5820
v -5833 75.96 -5822
v -5833 75.9367 -5824
v -5833 75.8159 -5826
v -5833 75.8909 -5828
v -5833 75.9412 -5830
v -5833 75.9347 -5832
v -5833 76.1236 -5834
v -5833 76.0915 -5836
v -5833 76.2498 -5838
v -5833 76.2967 -5840
v -5833 76.4025 -5842
v -5833 76.2842 -5844
v -5833 76.3664 -5846
v -5833 76.2866 -5848
v -5833 76.3871 -5850
v -5833 76.4834 -5852
v -5833 76.7484 -5854
v -5833 76.6213 -5856
v -5831 75.6007 -5794
v -5831 75.6409 -5796
v -5831 75.7182 -5798
v -5831 75.7528 -5800
v -5831 75.7463 -5802
v -5831 75.832 -5804
v -5831 75.8946 -5806
v -5831 75.9919 -5808
v -5831 75.9437 -5810
v -5831 75.8543 -5812
v -5831 75.7529 -5814
v -5831 75.6312 -5816
v -5831 75.8121 -5818
v -5831 75.9059 -5820
v -5831 76.0746 -5822
v -5831 76.1572 -5824
v -5831 76.1139 -5826
v -5831 75.9421 -5828
v -5831 75.8324 -5830
v -5831 75.9236 -5832
v -5831 75.99 -5834
v -5831 76.1188 -5836
v -5831 76.2288 -5838
v -5831 76.2141 -5840
v -5831 76.0396 -5842
v -5831 76.0191 -5844
v -5831 76.2163 -5846
v -5831 76.1624 -5848
v -5831 76.2714 -5850
v -5831 76.3765 -5852
v -5831 76.5894 -5854
v -5831 76.7279 -5856
v -5829 75.6586 -5794
v -5829 75.866 -5796
v -5829 75.9352 -5798
v -5829 75.8961 -5800
v -5829 76.0227 -5802
v -5829 76.0297 -5804
v -5829 76.0466 -5806
v -5829 76.0475 -5808
v -5829 75.9739 -5810
v -5829 75.8263 -5812
v -5829 75.8833 -5814
v -5829 75.7498 -5816
v -5829 75.8596 -5818
v -5829 75.9554 -5820
v -5829 75.9691 -5822
v -5829 76.0449 -5824
v -5829 76.0585 -5826
v -5829 76.0297 -5828
v -5829 75.9956 -5830
v -5829 75.9472 -5832
v -5829 75.8408 -5834
v -5829 75.8809 -5836
v -5829 75.9693 -5838
v -5829 75.9257 -5840
v -5829 75.9616 -5842
v -5829 75.8388 -5844
v -5829 75.9542 -5846
v -5829 76.1171 -5848
v -5829 76.3093 -5850
v -5829 76.3712 -5852
v -5829 76.4621 -5854
v -5829 76.4969 -5856
v -5827 75.7314 -5794
v -5827 76.0297 -5796
v -5827 75.9448 -5798
v -5827 76.022 -5800
v -5827 76.0734 -5802
v -5827 76.1903 -5804
v -5827 76.2223 -5806
v -5827 76.131 -5808
v -5827 76.1163 -5810
v -5827 75.9658 -5812
v -5827 75.9864 -5814
v -5827 75.7438 -5816
v -5827 75.9039 -5818
v -5827 75.9545 -5820
v -5827 76.0683 -5822
v -5827 76.0275 -5824
v -5827 75.9132 -5826
v -5827 76.0049 -5828
v -5827 75.9575 -5830
v -5827 75.925 -5832
v -5827 76.0068 -5834
v -5827 75.8263 -5836
v -5827 75.7572 -5838
v -5827 75.7121 -5840
v -5827 75.7999 -5842
v -5827 75.792 -5844
v -5827 75.7738 -5846
v -5827 76.0012 -5848
v -5827 76.0659 -5850
v -5827 76.1353 -5852
v -5827 76.3839 -5854
v -5827 76.2962 -5856
v -5825 75.7949 -5794
v -5825 75.8368 -5796
v -5825 76.0573 -5798
v -5825 76.1104 -5800
v -5825 76.2286 -5802
v -5825 76.1985 -5804
v -5825 76.4312 -5806
v -5825 76.2229 -5808
v -5825 76.1694 -5810
v -5825 76.1061 -5812
v -5825 75.9978 -5814
v -5825 75.828 -5816
v -5825 76.01 -5818
v -5825 75.9422 -5820
v -5825 75.9281 -5822
v -5825 75.7767 -5824
v -5825 75.9485 -5826
v -5825 75.7933 -5828
v -5825 75.8432 -5830
v -5825 75.8858 -5832
v -5825 75.8802 -5834
v -5825 75.697 -5836
v -5825 75.7471 -5838
v -5825 75.628 -5840
v -5825 75.5223 -5842
v -5825 75.6684 -5844
v -5825 75.5751 -5846
v -5825 75.7439 -5848
v -5825 75.892 -5850
v -5825 75.9584 -5852
v -5825 76.138 -5854
v -5825 76.0088 -5856
v -5823 75.6478 -5794
v -5823 75.8874 -5796
v -5823 75.959 -5798
v -5823 76.0488 -5800
v -5823 76.1752 -5802
v -5823 76.4266 -5804
v -5823 76.3615 -5806
v -5823 76.2713 -5808
v -5823 76.1082 -5810
v -5823 76.0723 -5812
v -5823 76.0553 -5814
v -5823 75.8973 -5816
v -5823 75.9923 -5818
v -5823 75.9488 -5820
v -5823 75.8836 -5822
v -5823 75.6257 -5824
v -5823 75.7042 -5826
v -5823 75.6707 -5828
v -5823 75.6534 -5830
v -5823 75.7017 -5832
v -5823 75.819 -5834
v -5823 75.5919 -5836
v -5823 75.6238 -5838
v -5823 75.5618 -5840
v -5823 75.3626 -5842
v -5823 75.3552 -5844
v -5823 75.4073 -5846
v -5823 75.5574 -5848
v -5823 75.5457 -5850
v -5823 75.6539 -5852
v -5823 75.7219 -5854
v -5823 75.6788 -5856
v -5821 75.5328 -5794
v -5821 75.6753 -5796
v -5821 75.8566 -5798
v -5821 76.0676 -5800
v -5821 76.2883 -5802
v -5821 76.5153 -5804
v -5821 76.3538 -5806
v -5821 76.1625 -5808
v -5821 76.1278 -5810
v -5821 76.1317 -5812
v -5821 76.1373 -5814
v -5821 75.9467 -5816
v -5821 76.0934 -5818
v -5821 75.9322 -5820
v -5821 75.7493 -5822
v -5821 75.4734 -5824
v -5821 75.5195 -5826
v -5821 75.595 -5828
v -5821 75.6834 -5830
v -5821 75.5934 -5832
v -5821 75.767 -5834
v -5821 75.6215 -5836
v -5821 75.5219 -5838
v -5821 75.2877 -5840
v -5821 75.2147 -5842
v -5821 75.0432 -5844
v -5821 75.0976 -5846
v -5821 75.068 -5848
v -5821 75.284 -5850
v -5821 75.3135 -5852
v -5821 75.4174 -5854
v -5821 75.2754 -5856
v -5819 75.5025 -5794
v -5819 75.5143 -5796
v -5819 75.895 -5798
v -5819 76.0866 -5800
v -5819 76.1095 -5802
v -5819 76.317 -5804
v -5819 76.3482 -5806
v -5819 76.3464 -5808
v -5819 76.1836 -5810
v -5819 75.9393 -5812
v -5819 75.9765 -5814
v -5819 75.9119 -5816
v -5819 76.0053 -5818
v -5819 75.8382 -5820
v -5819 75.7828 -5822
v -5819 75.5767 -5824
v -5819 75.4608 -5826
v -5819 75.4195 -5828
v -5819 75.5088 -5830
v -5819 75.5862 -5832
v -5819 75.5723 -5834
v -5819 75.4286 -5836
v -5819 75.177 -5838
v -5819 75.0033 -5840
v -5819 74.8518 -5842
v -5819 74.6828 -5844
v -5819 74.7426 -5846
v -5819 74.813 -5848
v -5819 74.7679 -5850
v -5819 74.8377 -5852
v -5819 75.0862 -5854
v -5819 74.9957 -5856
v -5817 75.5944 -5794
v -5817 75.6509 -5796
v -5817 75.8863 -5798
v -5817 76.0202 -5800
v -5817 76.1859 -5802
v -5817 76.2196 -5804
v -5817 76.2036 -5806
v -5817 76.1592 -5808
v -5817 75.9964 -5810
v -5817 75.9644 -5812
v -5817 75.8606 -5814
v -5817 75.9697 -5816
v -5817 76.0219 -5818
v -5817 75.8865 -5820
v -5817 75.6677 -5822
v -5817 75.595 -5824
v -5817 75.4592 -5826
v -5817 75.4957 -5828
v -5817 75.3595 -5830
v -5817 75.3545 -5832
v -5817 75.169 -5834
v -5817 75.1514 -5836
v -5817 74.8984 -5838
v -5817 74.7695 -5840
v -5817 74.57 -5842
v -5817 74.5274 -5844
v -5817 74.3375 -5846
v -5817 74.3019 -5848
v -5817 74.47 -5850
v -5817 74.5504 -5852
v -5817 74.6021 -5854
v -5817 74.5158 -5856
v -5815 75.5175 -5794
v -5815 75.8483 -5796
v -5815 75.8091 -5798
v -5815 75.9619 -5800
v -5815 76.0227 -5802
v -5815 76.206 -5804
v -5815 76.0724 -5806
v -5815 75.9993 -5808
v -5815 75.915 -5810
v -5815 75.8676 -5812
v -5815 75.8406 -5814
v -5815 75.8432 -5816
v -5815 75.9243 -5818
v -5815 75.83 -5820
v -5815 75.7263 -5822
v -5815 75.5454 -5824
v -5815 75.3737 -5826
v -5815 75.3358 -5828
v -5815 75.2146 -5830
v -5815 75.1105 -5832
v -5815 74.9984 -5834
v -5815 74.7427 -5836
v -5815 74.6256 -5838
v -5815 74.4405 -5840
v -5815 74.318 -5842
v -5815 74.1032 -5844
v -5815 74.1808 -5846
v -5815 74.0167 -5848
v -5815 74.0622 -5850
v -5815 74.1196 -5852
v -5815 74.3103 -5854
v -5815 74.3692 -5856
v -5813 75.5836 -5794
v -5813 75.8721 -5796
v -5813 75.7954 -5798
v -5813 75.8945 -5800
v -5813 75.927 -5802
v -5813 76.0021 -5804
v -5813 75.8407 -5806
v -5813 75.9579 -5808
v -5813 75.8188 -5810
v -5813 75.7346 -5812
v -5813 75.7543 -5814
v -5813 75.8619 -5816
v -5813 75.7404 -5818
v -5813 75.6196 -5820
v -5813 75.4993 -5822
v -5813 75.4577 -5824
v -5813 75.2425 -5826
v -5813 75.0754 -5828
v -5813 74.9417 -5830
v -5813 74.7748 -5832
v -5813 74.7718 -5834
v -5813 74.5113 -5836
v -5813 74.311 -5838
v -5813 74.2736 -5840
v -5813 74.1954 -5842
v -5813 74.2038 -5844
v -5813 74.2768 -5846
v -5813 74.2852 -5848
v -5813 74.4966 -5850
v -5813 74.4612 -5852
v -5813 74.6593 -5854
v -5813 74.5773 -5856
v -5811 75.5147 -5794
v -5811 75.6371 -5796
v -5811 75.6792 -5798
v -5811 75.692 -5800
v -5811 75.7325 -5802
v -5811 75.7899 -5804
v -5811 75.7113 -5806
v -5811 75.8562 -5808
v -5811 75.7591 -5810
v -5811 75.5762 -5812
v -5811 75.5468 -5814
v -5811 75.5137 -5816
v -5811 75.4417 -5818
v -5811 75.5028 -5820
v -5811 75.2281 -5822
v -5811 75.2068 -5824
v -5811 75.2374 -5826
v -5811 74.9474 -5828
v -5811 74.6779 -5830
v -5811 74.5176 -5832
v -5811 74.3945 -5834
v -5811 74.3355 -5836
v -5811 74.3663 -5838
v -5811 74.3389 -5840
v -5811 74.413 -5842
v -5811 74.5277 -5844
v -5811 74.7578 -5846
v -5811 74.8008 -5848
v -5811 74.9311 -5850
v -5811 74.9364 -5852
v -5811 74.8974 -5854
v -5811 74.9411 -5856
v -5809 75.2676 -5794
v -5809 75.4661 -5796
v -5809 75.4376 -5798
v -5809 75.5091 -5800
v -5809 75.6462 -5802
v -5809 75.6344 -5804
v -5809 75.6634 -5806
v -5809 75.7937 -5808
v -5809 75.625 -5810
v -5809 75.4146 -5812
v -5809 75.428 -5814
v -5809 75.3287 -5816
v -5809 75.1964 -5818
v -5809 75.0772 -5820
v -5809 75.0978 -5822
v -5809 74.8577 -5824
v -5809 74.8151 -5826
v -5809 74.6154 -5828
v -5809 74.4749 -5830
v -5809 74.2307 -5832
v -5809 74.2595 -5834
v -5809 74.5642 -5836
v -5809 74.6249 -5838
v -5809 74.9304 -5840
v -5809 74.8369 -5842
v -5809 74.9557 -5844
v -5809 75.1091 -5846
v -5809 75.2025 -5848
v -5809 75.2608 -5850
v -5809 75.4298 -5852
v -5809 75.3662 -5854
v -5809 75.4424 -5856
v -5807 74.9482 -5794
v -5807 75.2769 -5796
v -5807 75.2663 -5798
v -5807 75.3557 -5800
v -5807 75.3285 -5802
v -5807 75.3017 -5804
v -5807 75.4689 -5806
v -5807 75.5522 -5808
v -5807 75.4576 -5810
v -5807 75.4316 -5812
v -5807 75.2434 -5814
v -5807 75.0259 -5816
v -5807 74.8138 -5818
v -5807 74.6849 -5820
v -5807 74.5711 -5822
v -5807 74.5771 -5824
v -5807 74.5289 -5826
v -5807 74.4588 -5828
v -5807 74.4199 -5830
v -5807 74.5964 -5832
v -5807 74.6522 -5834
v -5807 75.0225 -5836
v -5807 75.1485 -5838
v -5807 75.1574 -5840
v -5807 75.2681 -5842
v -5807 75.4321 -5844
v -5807 75.3888 -5846
v -5807 75.6065 -5848
v -5807 75.6862 -5850
v -5807 75.7914 -5852
v -5807 75.6253 -5854
v -5807 75.7705 -5856
v -5805 74.612 -5794
v -5805 74.9607 -5796
v -5805 75.0501 -5798
v -5805 75.0941 -5800
v -5805 75.0276 -5802
v -5805 75.199 -5804
v -5805 75.2119 -5806
v -5805 75.2698 -5808
v -5805 75.2968 -5810
v -5805 75.2314 -5812
v -5805 74.9236 -5814
v -5805 74.8264 -5816
v -5805 74.644 -5818
v -5805 74.4021 -5820
v -5805 74.2611 -5822
v -5805 74.2248 -5824
v -5805 74.3818 -5826
v -5805 74.5036 -5828
v -5805 74.7309 -5830
v -5805 74.9585 -5832
v -5805 75.1528 -5834
v -5805 75.2656 -5836
v -5805 75.4725 -5838
v -5805 75.5206 -5840
v -5805 75.5149 -5842
v -5805 75.6034 -5844
v -5805 75.7761 -5846
v -5805 75.8418 -5848
v -5805 75.9472 -5850
v -5805 76.0569 -5852
v -5805 75.9283 -5854
v -5805 76.1734 -5856
v -5803 74.3026 -5794
v -5803 74.5141 -5796
v -5803 74.7867 -5798
v -5803 74.8257 -5800
v -5803 74.8448 -5802
v -5803 74.7763 -5804
v -5803 74.8884 -5806
v -5803 74.8497 -5808
v -5803 74.947 -5810
v -5803 74.9682 -5812
v -5803 74.84 -5814
v -5803 74.5384 -5816
v -5803 74.4257 -5818
v -5803 74.2432 -5820
v -5803 74.2029 -5822
v -5803 74.2774 -5824
v -5803 74.6299 -5826
v -5803 74.7628 -5828
v -5803 75.1038 -5830
v -5803 75.2256 -5832
v -5803 75.5081 -5834
v -5803 75.6599 -5836
v -5803 75.7085 -5838
v -5803 75.7685 -5840
v -5803 75.8163 -5842
v -5803 75.9894 -5844
v -5803 75.8923 -5846
v -5803 76.1184 -5848
v -5803 76.1864 -5850
v -5803 76.2331 -5852
v -5803 76.2318 -5854
v -5803 76.445 -5856
v -5801 74.4871 -5794
v -5801 74.2233 -5796
v -5801 74.3912 -5798
v -5801 74.5112 -5800
v -5801 74.4948 -5802
v -5801 74.3239 -5804
v -5801 74.4958 -5806
v -5801 74.5235 -5808
v -5801 74.5005 -5810
v -5801 74.3997 -5812
v -5801 74.4501 -5814
v -5801 74.32 -5816
v -5801 74.4254 -5818
v -5801 74.4266 -5820
v -5801 74.5934 -5822
v -5801 74.7438 -5824
v -5801 74.8758 -5826
v -5801 75.0869 -5828
v -5801 75.3446 -5830
v -5801 75.694 -5832
v -5801 75.8559 -5834
v -5801 76.0306 -5836
v -5801 75.9702 -5838
v -5801 75.995 -5840
v -5801 75.9657 -5842
v -5801 76.1733 -5844
v -5801 76.1017 -5846
v -5801 76.3769 -5848
v -5801 76.5777 -5850
v -5801 76.5797 -5852
v -5801 76.6219 -5854
v -5801 76.7326 -5856
v -5799 74.9614 -5794
v -5799 74.8429 -5796
v -5799 74.7142 -5798
v -5799 74.3477 -5800
v -5799 74.252 -5802
v -5799 74.0839 -5804
v -5799 74.181 -5806
v -5799 74.2189 -5808
v -5799 74.4155 -5810
v -5799 74.5337 -5812
v -5799 74.7986 -5814
v -5799 74.8156 -5816
v -5799 74.8886 -5818
v -5799 75.0242 -5820
v -5799 75.1047 -5822
v -5799 75.0724 -5824
v -5799 75.1678 -5826
v -5799 75.4895 -5828
v -5799 75.6469 -5830
v -5799 75.9136 -5832
v -5799 75.9845 -5834
v -5799 76.2351 -5836
v -5799 76.3546 -5838
v -5799 76.4346 -5840
v -5799 76.3782 -5842
v -5799 76.5236 -5844
v -5799 76.4814 -5846
v -5799 76.7516 -5848
v -5799 76.7535 -5850
v -5799 76.8096 -5852
v -5799 76.7421 -5854
v -5799 76.7627 -5856
v -5797 75.2822 -5794
v -5797 75.2102 -5796
v -5797 75.0787 -5798
v -5797 74.922 -5800
v -5797 74.7431 -5802
v -5797 74.512 -5804
v -5797 74.5731 -5806
v -5797 74.631 -5808
v -5797 74.7776 -5810
v -5797 74.9755 -5812
v -5797 75.0579 -5814
v -5797 75.1574 -5816
v -5797 75.3688 -5818
v -5797 75.404 -5820
v -5797 75.5149 -5822
v -5797 75.505 -5824
v -5797 75.7054 -5826
v -5797 75.7571 -5828
v -5797 75.9946 -5830
v -5797 76.2841 -5832
v -5797 76.3938 -5834
v -5797 76.5736 -5836
v -5797 76.6502 -5838
v -5797 76.5977 -5840
v -5797 76.6672 -5842
v -5797 76.9098 -5844
v -5797 76.9044 -5846
v -5797 77.0529 -5848
v -5797 77.1158 -5850
v -5797 77.125 -5852
v -5797 77.0019 -5854
v -5797 77.0584 -5856
v -5795 75.8309 -5794
v -5795 75.688 -5796
v -5795 75.3871 -5798
v -5795 75.3196 -5800
v -5795 75.1787 -5802
v -5795 75.1952 -5804
v -5795 75.0035 -5806
v -5795 75.0243 -5808
v -5795 75.1325 -5810
v -5795 75.2686 -5812
v -5795 75.5435 -5814
v -5795 75.6085 -5816
v -5795 75.7218 -5818
v -5795 75.764 -5820
v -5795 75.7911 -5822
v -5795 75.9834 -5824
v -5795 75.9403 -5826
v -5795 76.2215 -5828
v -5795 76.377 -5830
v -5795 76.5716 -5832
v -5795 76.5679 -5834
v -5795 76.87 -5836
v -5795 76.7849 -5838
v -5795 76.9189 -5840
v -5795 77.002 -5842
v -5795 77.3019 -5844
v -5795 77.2193 -5846
v -5795 77.2441 -5848
v -5795 77.2949 -5850
v -5795 77.3015 -5852
v -5795 77.283 -5854
v -5795 77.2169 -5856
v -5793 76.1611 -5794
v -5793 76.0203 -5796
v -5793 75.894 -5798
v -5793 75.7947 -5800
v -5793 75.6999 -5802
v -5793 75.6442 -5804
v -5793 75.5827 -5806
v -5793 75.6111 -5808
v -5793 75.6359 -5810
v -5793 75.7026 -5812
v -5793 75.8575 -5814
v -5793 76.0911 -5816
v -5793 76.0978 -5818
v -5793 76.1248 -5820
v -5793 76.068 -5822
v -5793 76.2655 -5824
v -5793 76.4355 -5826
v -5793 76.4801 -5828
v -5793 76.7117 -5830
v -5793 76.878 -5832
v -5793 76.8311 -5834
v -5793 76.9702 -5836
v -5793 77.0502 -5838
v -5793 77.1133 -5840
v -5793 77.3342 -5842
v -5793 77.3991 -5844
v -5793 77.4873 -5846
v -5793 77.5301 -5848
v -5793 77.3914 -5850
v -5793 77.3997 -5852
v -5793 77.6145 -5854
v -5793 77.8715 -5856
v -5791 76.5311 -5794
v -5791 76.4556 -5796
v -5791 76.1803 -5798
v -5791 76.2145 -5800
v -5791 76.2517 -5802
v -5791 76.0875 -5804
v -5791 76.0451 -5806
v -5791 76.1288 -5808
v -5791 76.104 -5810
v -5791 76.3693 -5812
v -5791 76.3992 -5814
v -5791 76.3994 -5816
v -5791 76.4215 -5818
v -5791 76.4562 -5820
v -5791 76.5749 -5822
v -5791 76.5564 -5824
v -5791 76.7241 -5826
v -5791 76.7626 -5828
v -5791 76.8721 -5830
v -5791 77.0381 -5832
v -5791 77.0454 -5834
v -5791 77.0685 -5836
v -5791 77.311 -5838
v -5791 77.4298 -5840
v -5791 77.4788 -5842
v -5791 77.5101 -5844
v -5791 77.6785 -5846
v -5791 77.6103 -5848
v -5791 77.6687 -5850
v -5791 77.6649 -5852
v -5791 77.9978 -5854
v -5791 78.3034 -5856
v -5789 76.8202 -5794
v -5789 76.8575 -5796
v -5789 76.7118 -5798
v -5789 76.6728 -5800
v -5789 76.6423 -5802
v -5789 76.5998 -5804
v -5789 76.5535 -5806
v -5789 76.5048 -5808
v -5789 76.5447 -5810
v -5789 76.7473 -5812
v -5789 76.9175 -5814
v -5789 76.8479 -5816
v -5789 76.9283 -5818
v -5789 76.8048 -5820
v -5789 76.8381 -5822
v -5789 76.7421 -5824
v -5789 76.9506 -5826
v -5789 77.0571 -5828
v -5789 77.1487 -5830
v -5789 77.167 -5832
v -5789 77.1669 -5834
v -5789 77.1738 -5836
v -5789 77.3563 -5838
v -5789 77.4814 -5840
v -5789 77.683 -5842
v -5789 77.7762 -5844
v -5789 77.947 -5846
v -5789 77.8616 -5848
v -5789 77.7494 -5850
v -5789 78.3097 -5852
v -5789 78.5652 -5854
v -5789 78.5623 -5856
f 18 19 17
f 20 19 18
f 21 19 20
f 21 76 19
f 77 76 21
f 18 17 16
f 12 11 10
f 75 77 8
f 24 23 22
f 34 24 22
f 35 24 34
f 10 11 9
f 31 32 37
f 31 37 40
f 40 37 39
f 10 9 8
f 39 37 38
f 71 8 9
f 38 37 36
f 79 38 36
f 73 8 71
f 74 8 73
f 75 8 74
f 76 77 78
f 77 43 78
f 43 77 75
f 79 46 38
f 44 42 79
f 79 42 46
f 15 14 12
f 12 14 13
f 12 13 11
f 46 39 38
f 51 52 50
f 44 43 42
f 50 80 49
f 50 49 47
f 47 51 50
f 56 59 58
f 58 59 60
f 57 55 56
f 63 62 61
f 54 59 56
f 62 65 61
f 56 55 54
f 61 65 64
f 9 70 68
f 70 69 68
f 66 64 65
f 64 66 67
f 71 9 68
f 42 7 41
f 42 43 7
f 49 48 47
f 33 32 31
f 72 68 69
f 49 53 48
f 6 41 7
f 28 27 45
f 30 25 29
f 25 26 29
f 27 28 26
f 27 26 25
f 7 3 6
f 6 3 4
f 3 2 1
f 4 3 1
f 5 4 1
f 114 82 81
f 81 113 114
f 146 114 113
f 113 145 146
f 178 146 145
f 145 177 178
f 210 178 177
f 177 209 210
f 242 210 209
f 209 241 242
f 274 242 241
f 241 273 274
f 306 274 273
f 273 305 306
f 338 306 305
f 305 337 338
f 370 338 337
f 337 369 370
f 402 370 369
f 369 401 402
f 434 402 401
f 401 433 434
f 466 434 433
f 433 465 466
f 498 466 465
f 465 497 498
f 530 498 497
f 497 529 530
f 562 530 529
f 529 561 562
f 594 562 561
f 561 593 594
f 626 594 593
f 593 625 626
f 658 626 625
f 625 657 658
f 690 658 657
f 657 689 690
f 722 690 689
f 689 721 722
f 754 722 721
f 721 753 754
f 786 754 753
f 753 785 786
f 818 786 785
f 785 817 818
f 850 818 817
f 817 849 850
f 882 850 849
f 849 881 882
f 914 882 881
f 881 913 914
f 946 914 913
f 913 945 946
f 978 946 945
f 945 977 978
f 1010 978 977
f 977 1009 1010
f 1042 1010 1009
f 1009 1041 1042
f 1074 1042 1041
f 1041 1073 1074
f 115 83 82
f 82 114 115
f 147 115 114
f 114 146 147
f 179 147 146
f 146 178 179
f 211 179 178
f 178 210 211
f 243 211 210
f 210 242 243
f 275 243 242
f 242 274 275
f 307 275 274
f 274 306 307
f 339 307 306
f 306 338 339
f 371 339 338
f 338 370 371
f 403 371 370
f 370 402 403
f 435 403 402
f 402 434 435
f 467 435 434
f 434 466 467
f 499 467 466
f 466 498 499
f 531 499 498
f 498 530 531
f 563 531 530
f 530 562 563
f 595 563 562
f 562 594 595
f 627 595 594
f 594 626 627
f 659 627 626
f 626 658 659
f 691 659 658
f 658 690 691
f 723 691 690
f 690 722 723
f 755 723 722
f 722 754 755
f 787 755 754
f 754 786 787
f 819 787 786
f 786 818 819
f 851 819 818
f 818 850 851
f 883 851 850
f 850 882 883
f 915 883 882
f 882 914 915
f 947 915 914
f 914 946 947
f 979 947 946
f 946 978 979
f 1011 979 978
f 978 1010 1011
f 1043 1011 1010
f 1010 1042 1043
f 1075 1043 1042
f 1042 1074 1075
f 116 84 83
f 83 115 116
f 148 116 115
f 115 147 148
f 180 148 147
f 147 179 180
f 212 180 179
f 179 211 212
f 244 212 211
f 211 243 244
f 276 244 243
f 243 275 276
f 308 276 275
f 275 307 308
f 340 308 307
f 307 339 340
f 372 340 339
f 339 371 372
f 404 372 371
f 371 403 404
f 436 404 403
f 403 435 436
f 468 436 435
f 435 467 468
f 500 468 467
f 467 499 500
f 532 500 499
f 499 531 532
f 564 532 531
f 531 563 564
f 596 564 563
f 563 595 596
f 628 596 595
f 595 627 628
f 660 628 627
f 627 659 660
f 692 660 659
f 659 691 692
f 724 692 691
f 691 723 724
f 756 724 723
f 723 755 756
f 788 756 755
f 755 787 788
f 820 788 787
f 787 819 820
f 852 820 819
f 819 851 852
f 884 852 851
f 851 883 884
f 916 884 883
f 883 915 916
f 948 916 915
f 915 947 948
f 980 948 947
f 947 979 980
f 1012 980 979
f 979 1011 1012
f 1044 1012 1011
f 1011 1043 1044
f 1076 1044 1043
f 1043 1075 1076
f 117 85 84
f 84 116 117
f 149 117 116
f 116 148 149
f 181 149 148
f 148 180 181
f 213 181 180
f 180 212 213
f 245 213 212
f 212 244 245
f 277 245 244
f 244 276 277
f 309 277 276
f 276 308 309
f 341 309 308
f 308 340 341
f 373 341 340
f 340 372 373
f 405 373 372
f 372 404 405
f 437 405 404
f 404 436 437
f 469 437 436
f 436 468 469
f 501 469 468
f 468 500 501
f 533 501 500
f 500 532 533
f 565 533 532
f 532 564 565
f 597 565 564
f 564 596 597
f 629 597 596
f 596 628 629
f 661 629 628
f 628 660 661
f 693 661 660
f 660 692 693
f 725 693 692
f 692 724 725
f 757 725 724
f 724 756 757
f 789 757 756
f 756 788 789
f 821 789 788
f 788 820 821
f 853 821 820
f 820 852 853
f 885 853 852
f 852 884 885
f 917 885 884
f 884 916 917
f 949 917 916
f 916 948 949
f 981 949 948
f 948 980 981
f 1013 981 980
f 980 1012 1013
f 1045 1013 1012
f 1012 1044 1045
f 1077 1045 1044
f 1044 1076 1077
f 118 86 85
f 85 117 118
f 150 118 117
f 117 149 150
f 182 150 149
f 149 181 182
f 214 182 181
f 181 213 214
f 246 214 213
f 213 245 246
f 278 246 245
f 245 277 278
f 310 278 277
f 277 309 310
f 342 310 309
f 309 341 342
f 374 342 341
f 341 373 374
f 406 374 373
f 373 405 406
f 438 406 405
f 405 437 438
f 470 438 437
f 437 469 470
f 502 470 469
f 469 501 502
f 534 502 501
f 501 533 534
f 566 534 533
f 533 565 566
f 598 566 565
f 565 597 598
f 630 598 597
f 597 629 630
f 662 630 629
f 629 661 662
f 694 662 661
f 661 693 694
f 726 694 693
f 693 725 726
f 758 726 725
f 725 757 758
f 790 758 757
f 757 789 790
f 822 790 789
f 789 821 822
f 854 822 821
f 821 853 854
f 886 854 853
f 853 885 886
f 918 886 885
f 885 917 918
f 950 918 917
f 917 949 950
f 982 950 949
f 949 981 982
f 1014 982 981
f 981 1013 1014
f 1046 1014 1013
f 1013 1045 1046
f 1078 1046 1045
f 1045 1077 1078
f 119 87 86
f 86 118 119
f 151 119 118
f 118 150 151
f 183 151 150
f 150 182 183
f 215 183 182
f 182 214 215
f 247 215 214
f 214 246 247
f 279 247 246
f 246 278 279
f 311 279 278
f 278 310 311
f 343 311 310
f 310 342 343
f 375 343 342
f 342 374 375
f 407 375 374
f 374 406 407
f 439 407 406
f 406 438 439
f 471 439 438
f 438 470 471
f 503 471 470
f 470 502 503
f 535 503 502
f 502 534 535
f 567 535 534
f 534 566 567
f 599 567 566
f 566 598 599
f 631 599 598
f 598 630 631
f 663 631 630
f 630 662 663
f 695 663 662
f 662 694 695
f 727 695 694
f 694 726 727
f 759 727 726
f 726 758 759
f 791 759 758
f 758 790 791
f 823 791 790
f 790 822 823
f 855 823 822
f 822 854 855
f 887 855 854
f 854 886 887
f 919 887 886
f 886 918 919
f 951 919 918
f 918 950 951
f 983 951 950
f 950 982 983
f 1015 983 982
f 982 1014 1015
f 1047 1015 1014
f 1014 1046 1047
f 1079 1047 1046
f 1046 1078 1079
f 120 88 87
f 87 119 120
f 152 120 119
f 119 151 152
f 184 152 151
f 151 183 184
f 216 184 183
f 183 215 216
f 248 216 215
f 215 247 248
f 280 248 247
f 247 279 280
f 312 280 279
f 279 311 312
f 344 312 311
f 311 343 344
f 376 344 343
f 343 375 376
f 408 376 375
f 375 407 408
f 440 408 407
f 407 439 440
f 472 440 439
f 439 471 472
f 504 472 471
f 471 503 504
f 536 504 503
f 503 535 536
f 568 536 535
f 535 567 568
f 600 568 567
f 567 599 600
f 632 600 599
f 599 631 632
f 664 632 631
f 631 663 664
f 696 664 663
f 663 695 696
f 728 696 695
f 695 727 728
f 760 728 727
f 727 759 760
f 792 760 759
f 759 791 792
f 824 792 791
f 791 823 824
f 856 824 823
f 823 855 856
f 888 856 855
f 855 887 888
f 920 888 887
f 887 919 920
f 952 920 919
f 919 951 952
f 984 952 951
f 951 983 984
f 1016 984 983
f 983 1015 1016
f 1048 1016 1015
f 1015 1047 1048
f 1080 1048 1047
f 1047 1079 1080
f 121 89 88
f 88 120 121
f 153 121 120
f 120 152 153
f 185 153 152
f 152 184 185
f 217 185 184
f 184 216 217
f 249 217 216
f 216 248 249
f 281 249 248
f 248 280 281
f 313 281 280
f 280 312 313
f 345 313 312
f 312 344 345
f 377 345 344
f 344 376 377
f 409 377 376
f 376 408 409
f 441 409 408
f 408 440 441
f 473 441 440
f 440 472 473
f 505 473 472
f 472 504 505
f 537 505 504
f 504 536 537
f 569 537 536
f 536 568 569
f 601 569 568
f 568 600 601
f 633 601 600
f 600 632 633
f 665 633 632
f 632 664 665
f 697 665 664
f 664 696 697
f 729 697 696
f 696 728 729
f 761 729 728
f 728 760 761
f 793 761 760
f 760 792 793
f 825 793 792
f 792 824 825
f 857 825 824
f 824 856 857
f 889 857 856
f 856 888 889
f 921 889 888
f 888 920 921
f 953 921 920
f 920 952 953
f 985 953 952
f 952 984 985
f 1017 985 984
f 984 1016 1017
f 1049 1017 1016
f 1016 1048 1049
f 1081 1049 1048
f 1048 1080 1081
f 122 90 89
f 89 121 122
f 154 122 121
f 121 153 154
f 186 154 153
f 153 185 186
f 218 186 185
f 185 217 218
f 250 218 217
f 217 249 250
f 282 250 249
f 249 281 282
f 314 282 281
f 281 313 314
f 346 314 313
f 313 345 346
f 378 346 345
f 345 377 378
f 410 378 377
f 377 409 410
f 442 410 409
f 409 441 442
f 474 442 441
f 441 473 474
f 506 474 473
f 473 505 506
f 538 506 505
f 505 537 538
f 570 538 537
f 537 569 570
f 602 570 569
f 569 601 602
f 634 602 601
f 601 633 634
f 666 634 633
f 633 665 666
f 698 666 665
f 665 697 698
f 730 698 697
f 697 729 730
f 762 730 729
f 729 761 762
f 794 762 761
f 761 793 794
f 826 794 793
f 793 825 826
f 858 826 825
f 825 857 858
f 890 858 857
f 857 889 890
f 922 890 889
f 889 921 922
f 954 922 921
f 921 953 954
f 986 954 953
f 953 985 986
f 1018 986 985
f 985 1017 1018
f 1050 1018 1017
f 1017 1049 1050
f 1082 1050 1049
f 1049 1081 1082
f 123 91 90
f 90 122 123
f 155 123 122
f 122 154 155
f 187 155 154
f 154 186 187
f 219 187 186
f 186 218 219
f 251 219 218
f 218 250 251
f 283 251 250
f 250 282 283
f 315 283 282
f 282 314 315
f 347 315 314
f 314 346 347
f 379 347 346
f 346 378 379
f 411 379 378
f 378 410 411
f 443 411 410
f 410 442 443
f 475 443 442
f 442 474 475
f 507 475 474
f 474 506 507
f 539 507 506
f 506 538 539
f 571 539 538
f 538 570 571
f 603 571 570
f 570 602 603
f 635 603 602
f 602 634 635
f 667 635 634
f 634 666 667
f 699 667 666
f 666 698 699
f 731 699 698
f 698 730 731
f 763 731 730
f 730 762 763
f 795 763 762
f 762 794 795
f 827 795 794
f 794 826 827
f 859 827 826
f 826 858 859
f 891 859 858
f 858 890 891
f 923 891 890
f 890 922 923
f 955 923 922
f 922 954 955
f 987 955 954
f 954 986 987
f 1019 987 986
f 986 1018 1019
f 1051 1019 1018
f 1018 1050 1051
f 1083 1051 1050
f 1050 1082 1083
f 124 92 91
f 91 123 124
f 156 124 123
f 123 155 156
f 188 156 155
f 155 187 188
f 220 188 187
f 187 219 220
f 252 220 219
f 219 251 252
f 284 252 251
f 251 283 284
f 316 284 283
f 283 315 316
f 348 316 315
f 315 347 348
f 380 348 347
f 347 379 380
f 412 380 379
f 379 411 412
f 444 412 411
f 411 443 444
f 476 444 443
f 443 475 476
f 508 476 475
f 475 507 508
f 540 508 507
f 507 539 540
f 572 540 539
f 539 571 572
f 604 572 571
f 571 603 604
f 636 604 603
f 603 635 636
f 668 636 635
f 635 667 668
f 700 668 667
f 667 699 700
f 732 700 699
f 699 731 732
f 764 732 731
f 731 763 764
f 796 764 763
f 763 795 796
f 828 796 795
f 795 827 828
f 860 828 827
f 827 859 860
f 892 860 859
f 859 891 892
f 924 892 891
f 891 923 924
f 956 924 923
f 923 955 956
f 988 956 955
f 955 987 988
f 1020 988 987
f 987 1019 1020
f 1052 1020 1019
f 1019 1051 1052
f 1084 1052 1051
f 1051 1083 1084
f 125 93 92
f 92 124 125
f 157 125 124
f 124 156 157
f 189 157 156
f 156 188 189
f 221 189 188
f 188 220 221
f 253 221 220
f 220 252 253
f 285 253 252
f 252 284 285
f 317 285 284
f 284 316 317
f 349 317 316
f 316 348 349
f 381 349 348
f 348 380 381
f 413 381 380
f 380 412 413
f 445 413 412
f 412 444 445
f 477 445 444
f 444 476 477
f 509 477 476
f 476 508 509
f 541 509 508
f 508 540 541
f 573 541 540
f 540 572 573
f 605 573 572
f 572 604 605
f 637 605 604
f 604 636 637
f 669 637 636
f 636 668 669
f 701 669 668
f 668 700 701
f 733 701 700
f 700 732 733
f 765 733 732
f 732 764 765
f 797 765 764
f 764 796 797
f 829 797 796
f 796 828 829
f 861 829 828
f 828 860 861
f 893 861 860
f 860 892 893
f 925 893 892
f 892 924 925
f 957 925 924
f 924 956 957
f 989 957 956
f 956 988 989
f 1021 989 988
f 988 1020 1021
f 1053 1021 1020
f 1020 1052 1053
f 1085 1053 1052
f 1052 1084 1085
f 126 94 93
f 93 125 126
f 158 126 125
f 125 157 158
f 190 158 157
f 157 189 190
f 222 190 189
f 189 221 222
f 254 222 221
f 221 253 254
f 286 254 253
f 253 285 286
f 318 286 285
f 285 317 318
f 350 318 317
f 317 349 350
f 382 350 349
f 349 381 382
f 414 382 381
f 381 413 414
f 446 414 413
f 413 445 446
f 478 446 445
f 445 477 478
f 510 478 477
f 477 509 510
f 542 510 509
f 509 541 542
f 574 542 541
f 541 573 574
f 606 574 573
f 573 605 606
f 638 606 605
f 605 637 638
f 670 638 637
f 637 669 670
f 702 670 669
f 669 701 702
f 734 702 701
f 701 733 734
f 766 734 733
f 733 765 766
f 798 766 765
f 765 797 798
f 830 798 797
f 797 829 830
f 862 830 829
f 829 861 862
f 894 862 861
f 861 893 894
f 926 894 893
f 893 925 926
f 958 926 925
f 925 957 958
f 990 958 957
f 957 989 990
f 1022 990 989
f 989 1021 1022
f 1054 1022 1021
f 1021 1053 1054
f 1086 1054 1053
f 1053 1085 1086
f 127 95 94
f 94 126 127
f 159 127 126
f 126 158 159
f 191 159 158
f 158 190 191
f 223 191 190
f 190 222 223
f 255 223 222
f 222 254 255
f 287 255 254
f 254 286 287
f 319 287 286
f 286 318 319
f 351 319 318
f 318 350 351
f 383 351 350
f 350 382 383
f 415 383 382
f 382 414 415
f 447 415 414
f 414 446 447
f 479 447 446
f 446 478 479
f 511 479 478
f 478 510 511
f 543 511 510
f 510 542 543
f 575 543 542
f 542 574 575
f 607 575 574
f 574 606 607
f 639 607 606
f 606 638 639
f 671 639 638
f 638 670 671
f 703 671 670
f 670 702 703
f 735 703 702
f 702 734 735
f 767 735 734
f 734 766 767
f 799 767 766
f 766 798 799
f 831 799 798
f 798 830 831
f 863 831 830
f 830 862 863
f 895 863 862
f 862 894 895
f 927 895 894
f 894 926 927
f 959 927 926
f 926 958 959
f 991 959 958
f 958 990 991
f 1023 991 990
f 990 1022 1023
f 1055 1023 1022
f 1022 1054 1055
f 1087 1055 1054
f 1054 1086 1087
f 128 96 95
f 95 127 128
f 160 128 127
f 127 159 160
f 192 160 159
f 159 191 192
f 224 192 191
f 191 223 224
f 256 224 223
f 223 255 256
f 288 256 255
f 255 287 288
f 320 288 287
f 287 319 320
f 352 320 319
f 319 351 352
f 384 352 351
f 351 383 384
f 416 384 383
f 383 415 416
f 448 416 415
f 415 447 448
f 480 448 447
f 447 479 480
f 512 480 479
f 479 511 512
f 544 512 511
f 511 543 544
f 576 544 543
f 543 575 576
f 608 576 575
f 575 607 608
f 640 608 607
f 607 639 640
f 672 640 639
f 639 671 672
f 704 672 671
f 671 703 704
f 736 704 703
f 703 735 736
f 768 736 735
f 735 767 768
f 800 768 767
f 767 799 800
f 832 800 799
f 799 831 832
f 864 832 831
f 831 863 864
f 896 864 863
f 863 895 896
f 928 896 895
f 895 927 928
f 960 928 927
f 927 959 960
f 992 960 959
f 959 991 992
f 1024 992 991
f 991 1023 1024
f 1056 1024 1023
f 1023 1055 1056
f 1088 1056 1055
f 1055 1087 1088
f 129 97 96
f 96 128 129
f 161 129 128
f 128 160 161
f 193 161 160
f 160 192 193
f 225 193 192
f 192 224 225
f 257 225 224
f 224 256 257
f 289 257 256
f 256 288 289
f 321 289 288
f 288 320 321
f 353 321 320
f 320 352 353
f 385 353 352
f 352 384 385
f 417 385 384
f 384 416 417
f 449 417 416
f 416 448 449
f 481 449 448
f 448 480 481
f 513 481 480
f 480 512 513
f 545 513 512
f 512 544 545
f 577 545 544
f 544 576 577
f 609 577 576
f 576 608 609
f 641 609 608
f 608 640 641
f 673 641 640
f 640 672 673
f 705 673 672
f 672 704 705
f 737 705 704
f 704 736 737
f 769 737 736
f 736 768 769
f 801 769 768
f 768 800 801
f 833 801 800
f 800 832 833
f 865 833 832
f 832 864 865
f 897 865 864
f 864 896 897
f 929 897 896
f 896 928 929
f 961 929 928
f 928 960 961
f 993 961 960
f 960 992 993
f 1025 993 992
f 992 1024 1025
f 1057 1025 1024
f 1024 1056 1057
f 1089 1057 1056
f 1056 1088 1089
f 130 98 97
f 97 129 130
f 162 130 129
f 129 161 162
f 194 162 161
f 161 193 194
f 226 194 193
f 193 225 226
f 258 226 225
f 225 257 258
f 290 258 257
f 257 289 290
f 322 290 289
f 289 321 322
f 354 322 321
f 321 353 354
f 386 354 353
f 353 385 386
f 418 386 385
f 385 417 418
f 450 418 417
f 417 449 450
f 482 450 449
f 449 481 482
f 514 482 481
f 481 513 514
f 546 514 513
f 513 545 546
f 578 546 545
f 545 577 578
f 610 578 577
f 577 609 610
f 642 610 609
f 609 641 642
f 674 642 641
f 641 673 674
f 706 674 673
f 673 705 706
f 738 706 705
f 705 737 738
f 770 738 737
f 737 769 770
f 802 770 769
f 769 801 802
f 834 802 801
f 801 833 834
f 866 834 833
f 833 865 866
f 898 866 865
f 865 897 898
f 930 898 897
f 897 929 930
f 962 930 929
f 929 961 962
f 994 962 961
f 961 993 994
f 1026 994 993
f 993 1025 1026
f 1058 1026 1025
f 1025 1057 1058
f 1090 1058 1057
f 1057 1089 1090
f 131 99 98
f 98 130 131
f 163 131 130
f 130 162 163
f 195 163 162
f 162 194 195
f 227 195 194
f 194 226 227
f 259 227 226
f 226 258 259
f 291 259 258
f 258 290 291
f 323 291 290
f 290 322 323
f 355 323 322
f 322 354 355
f 387 355 354
f 354 386 387
f 419 387 386
f 386 418 419
f 451 419 418
f 418 450 451
f 483 451 450
f 450 482 483
f 515 483 482
f 482 514 515
f 547 515 514
f 514 546 547
f 579 547 546
f 546 578 579
f 611 579 578
f 578 610 611
f 643 611 610
f 610 642 643
f 675 643 642
f 642 674 675
f 707 675 674
f 674 706 707
f 739 707 706
f 706 738 739
f 771 739 738
f 738 770 771
f 803 771 770
f 770 802 803
f 835 803 802
f 802 834 835
f 867 835 834
f 834 866 867
f 899 867 866
f 866 898 899
f 931 899 898
f 898 930 931
f 963 931 930
f 930 962 963
f 995 963 962
f 962 994 995
f 1027 995 994
f 994 1026 1027
f 1059 1027 1026
f 1026 1058 1059
f 1091 1059 1058
f 1058 1090 1091
f 132 100 99
f 99 131 132
f 164 132 131
f 131 163 164
f 196 164 163
f 163 195 196
f 228 196 195
f 195 227 228
f 260 228 227
f 227 259 260
f 292 260 259
f 259 291 292
f 324 292 291
f 291 323 324
f 356 324 323
f 323 355 356
f 388 356 355
f 355 387 388
f 420 388 387
f 387 419 420
f 452 420 419
f 419 451 452
f 484 452 451
f 451 483 484
f 516 484 483
f 483 515 516
f 548 516 515
f 515 547 548
f 580 548 547
f 547 579 580
f 612 580 579
f 579 611 612
f 644 612 611
f 611 643 644
f 676 644 643
f 643 675 676
f 708 676 675
f 675 707 708
f 740 708 707
f 707 739 740
f 772 740 739
f 739 771 772
f 804 772 771
f 771 803 804
f 836 804 803
f 803 835 836
f 868 836 835
f 835 867 868
f 900 868 867
f 867 899 900
f 932 900 899
f 899 931 932
f 964 932 931
f 931 963 964
f 996 964 963
f 963 995 996
f 1028 996 995
f 995 1027 1028
f 1060 1028 1027
f 1027 1059 1060
f 1092 1060 1059
f 1059 1091 1092
f 133 101 100
f 100 132 133
f 165 133 132
f 132 164 165
f 197 165 164
f 164 196 197
f 229 197 196
f 196 228 229
f 261 229 228
f 228 260 261
f 293 261 260
f 260 292 293
f 325 293 292
f 292 324 325
f 357 325 324
f 324 356 357
f 389 357 356
f 356 388 389
f 421 389 388
f 388 420 421
f 453 421 420
f 420 452 453
f 485 453 452
f 452 484 485
f 517 485 484
f 484 516 517
f 549 517 516
f 516 548 549
f 581 549 548
f 548 580 581
f 613 581 580
f 580 612 613
f 645 613 612
f 612 644 645
f 677 645 644
f 644 676 677
f 709 677 676
f 676 708 709
f 741 709 708
f 708 740 741
f 773 741 740
f 740 772 773
f 805 773 772
f 772 804 805
f 837 805 804
f 804 836 837
f 869 837 836
f 836 868 869
f 901 869 868
f 868 900 901
f 933 901 900
f 900 932 933
f 965 933 932
f 932 964 965
f 997 965 964
f 964 996 997
f 1029 997 996
f 996 1028 1029
f 1061 1029 1028
f 1028 1060 1061
f 1093 1061 1060
f 1060 1092 1093
f 134 102 101
f 101 133 134
f 166 134 133
f 133 165 166
f 198 166 165
f 165 197 198
f 230 198 197
f 197 229 230
f 262 230 229
f 229 261 262
f 294 262 261
f 261 293 294
f 326 294 293
f 293 325 326
f 358 326 325
f 325 357 358
f 390 358 357
f 357 389 390
f 422 390 389
f 389 421 422
f 454 422 421
f 421 453 454
f 486 454 453
f 453 485 486
f 518 486 485
f 485 517 518
f 550 518 517
f 517 549 550
f 582 550 549
f 549 581 582
f 614 582 581
f 581 613 614
f 646 614 613
f 613 645 646
f 678 646 645
f 645 677 678
f 710 678 677
f 677 709 710
f 742 710 709
f 709 741 742
f 774 742 741
f 741 773 774
f 806 774 773
f 773 805 806
f 838 806 805
f 805 837 838
f 870 838 837
f 837 869 870
f 902 870 869
f 869 901 902
f 934 902 901
f 901 933 934
f 966 934 933
f 933 965 966
f 998 966 965
f 965 997 998
f 1030 998 997
f 997 1029 1030
f 1062 1030 1029
f 1029 1061 1062
f 1094 1062 1061
f 1061 1093 1094
f 135 103 102
f 102 134 135
f 167 135 134
f 134 166 167
f 199 167 166
f 166 198 199
f 231 199 198
f 198 230 231
f 263 231 230
f 230 262 263
f 295 263 262
f 262 294 295
f 327 295 294
f 294 326 327
f 359 327 326
f 326 358 359
f 391 359 358
f 358 390 391
f 423 391 390
f 390 422 423
f 455 423 422
f 422 454 455
f 487 455 454
f 454 486 487
f 519 487 486
f 486 518 519
f 551 519 518
f 518 550 551
f 583 551 550
f 550 582 583
f 615 583 582
f 582 614 615
f 647 615 614
f 614 646 647
f 679 647 646
f 646 678 679
f 711 679 678
f 678 710 711
f 743 711 710
f 710 742 743
f 775 743 742
f 742 774 775
f 807 775 774
f 774 806 807
f 839 807 806
f 806 838 839
f 871 839 838
f 838 870 871
f 903 871 870
f 870 902 903
f 935 903 902
f 902 934 935
f 967 935 934
f 934 966 967
f 999 967 966
f 966 998 999
f 1031 999 998
f 998 1030 1031
f 1063 1031 1030
f 1030 1062 1063
f 1095 1063 1062
f 1062 1094 1095
f 136 104 103
f 103 135 136
f 168 136 135
f 135 167 168
f 200 168 167
f 167 199 200
f 232 200 199
f 199 231 232
f 264 232 231
f 231 263 264
f 296 264 263
f 263 295 296
f 328 296 295
f 295 327 328
f 360 328 327
f 327 359 360
f 392 360 359
f 359 391 392
f 424 392 391
f 391 423 424
f 456 424 423
f 423 455 456
f 488 456 455
f 455 487 488
f 520 488 487
f 487 519 520
f 552 520 519
f 519 551 552
f 584 552 551
f 551 583 584
f 616 584 583
f 583 615 616
f 648 616 615
f 615 647 648
f 680 648 647
f 647 679 680
f 712 680 679
f 679 711 712
f 744 712 711
f 711 743 744
f 776 744 743
f 743 775 776
f 808 776 775
f 775 807 808
f 840 808 807
f 807 839 840
f 872 840 839
f 839 871 872
f 904 872 871
f 871 903 904
f 936 904 903
f 903 935 936
f 968 936 935
f 935 967 968
f 1000 968 967
f 967 999 1000
f 1032 1000 999
f 999 1031 1032
f 1064 1032 1031
f 1031 1063 1064
f 1096 1064 1063
f 1063 1095 1096
f 137 105 104
f 104 136 137
f 169 137 136
f 136 168 169
f 201 169 168
f 168 200 201
f 233 201 200
f 200 232 233
f 265 233 232
f 232 264 265
f 297 265 264
f 264 296 297
f 329 297 296
f 296 328 329
f 361 329 328
f 328 360 361
f 393 361 360
f 360 392 393
f 425 393 392
f 392 424 425
f 457 425 424
f 424 456 457
f 489 457 456
f 456 488 489
f 521 489 488
f 488 520 521
f 553 521 520
f 520 552 553
f 585 553 552
f 552 584 585
f 617 585 584
f 584 616 617
f 649 617 616
f 616 648 649
f 681 649 648
f 648 680 681
f 713 681 680
f 680 712 713
f 745 713 712
f 712 744 745
f 777 745 744
f 744 776 777
f 809 777 776
f 776 808 809
f 841 809 808
f 808 840 841
f 873 841 840
f 840 872 873
f 905 873 872
f 872 904 905
f 937 905 904
f 904 936 937
f 969 937 936
f 936 968 969
f 1001 969 968
f 968 1000 1001
f 1033 1001 1000
f 1000 1032 1033
f 1065 1033 1032
f 1032 1064 1065
f 1097 1065 1064
f 1064 1096 1097
f 138 106 105
f 105 137 138
f 170 138 137
f 137 169 170
f 202 170 169
f 169 201 202
f 234 202 201
f 201 233 234
f 266 234 233
f 233 265 266
f 298 266 265
f 265 297 298
f 330 298 297
f 297 329 330
f 362 330 329
f 329 361 362
f 394 362 361
f 361 393 394
f 426 394 393
f 393 425 426
f 458 426 425
f 425 457 458
f 490 458 457
f 457 489 490
f 522 490 489
f 489 521 522
f 554 522 521
f 521 553 554
f 586 554 553
f 553 585 586
f 618 586 585
f 585 617 618
f 650 618 617
f 617 649 650
f 682 650 649
f 649 681 682
f 714 682 681
f 681 713 714
f 746 714 713
f 713 745 746
f 778 746 745
f 745 777 778
f 810 778 777
f 777 809 810
f 842 810 809
f 809 841 842
f 874 842 841
f 841 873 874
f 906 874 873
f 873 905 906
f 938 906 905
f 905 937 938
f 970 938 937
f 937 969 970
f 1002 970 969
f 969 1001 1002
f 1034 1002 1001
f 1001 1033 1034
f 1066 1034 1033
f 1033 1065 1066
f 1098 1066 1065
f 1065 1097 1098
f 139 107 106
f 106 138 139
f 171 139 138
f 138 170 171
f 203 171 170
f 170 202 203
f 235 203 202
f 202 234 235
f 267 235 234
f 234 266 267
f 299 267 266
f 266 298 299
f 331 299 298
f 298 330 331
f 363 331 330
f 330 362 363
f 395 363 362
f 362 394 395
f 427 395 394
f 394 426 427
f 459 427 426
f 426 458 459
f 491 459 458
f 458 490 491
f 523 491 490
f 490 522 523
f 555 523 522
f 522 554 555
f 587 555 554
f 554 586 587
f 619 587 586
f 586 618 619
f 651 619 618
f 618 650 651
f 683 651 650
f 650 682 683
f 715 683 682
f 682 714 715
f 747 715 714
f 714 746 747
f 779 747 746
f 746 778 779
f 811 779 778
f 778 810 811
f 843 811 810
f 810 842 843
f 875 843 842
f 842 874 875
f 907 875 874
f 874 906 907
f 939 907 906
f 906 938 939
f 971 939 938
f 938 970 971
f 1003 971 970
f 970 1002 1003
f 1035 1003 1002
f 1002 1034 1035
f 1067 1035 1034
f 1034 1066 1067
f 1099 1067 1066
f 1066 1098 1099
f 140 108 107
f 107 139 140
f 172 140 139
f 139 171 172
f 204 172 171
f 171 203 204
f 236 204 203
f 203 235 236
f 268 236 235
f 235 267 268
f 300 268 267
f 267 299 300
f 332 300 299
f 299 331 332
f 364 332 331
f 331 363 364
f 396 364 363
f 363 395 396
f 428 396 395
f 395 427 428
f 460 428 427
f 427 459 460
f 492 460 459
f 459 491 492
f 524 492 491
f 491 523 524
f 556 524 523
f 523 555 556
f 588 556 555
f 555 587 588
f 620 588 587
f 587 619 620
f 652 620 619
f 619 651 652
f 684 652 651
f 651 683 684
f 716 684 683
f 683 715 716
f 748 716 715
f 715 747 748
f 780 748 747
f 747 779 780
f 812 780 779
f 779 811 812
f 844 812 811
f 811 843 844
f 876 844 843
f 843 875 876
f 908 876 875
f 875 907 908
f 940 908 907
f 907 939 940
f 972 940 939
f 939 971 972
f 1004 972 971
f 971 1003 1004
f 1036 1004 1003
f 1003 1035 1036
f 1068 1036 1035
f 1035 1067 1068
f 1100 1068 1067
f 1067 1099 1100
f 141 109 108
f 108 140 141
f 173 141 140
f 140 172 173
f 205 173 172
f 172 204 205
f 237 205 204
f 204 236 237
f 269 237 236
f 236 268 269
f 301 269 268
f 268 300 301
f 333 301 300
f 300 332 333
f 365 333 332
f 332 364 365
f 397 365 364
f 364 396 397
f 429 397 396
f 396 428 429
f 461 429 428
f 428 460 461
f 493 461 460
f 460 492 493
f 525 493 492
f 492 524 525
f 557 525 524
f 524 556 557
f 589 557 556
f 556 588 589
f 621 589 588
f 588 620 621
f 653 621 620
f 620 652 653
f 685 653 652
f 652 684 685
f 717 685 684
f 684 716 717
f 749 717 716
f 716 748 749
f 781 749 748
f 748 780 781
f 813 781 780
f 780 812 813
f 845 813 812
f 812 844 845
f 877 845 844
f 844 876 877
f 909 877 876
f 876 908 909
f 941 909 908
f 908 940 941
f 973 941 940
f 940 972 973
f 1005 973 972
f 972 1004 1005
f 1037 1005 1004
f 1004 1036 1037
f 1069 1037 1036
f 1036 1068 1069
f 1101 1069 1068
f 1068 1100 1101
f 142 110 109
f 109 141 142
f 174 142 141
f 141 173 174
f 206 174 173
f 173 205 206
f 238 206 205
f 205 237 238
f 270 238 237
f 237 269 270
f 302 270 269
f 269 301 302
f 334 302 301
f 301 333 334
f 366 334 333
f 333 365 366
f 398 366 365
f 365 397 398
f 430 398 397
f 397 429 430
f 462 430 429
f 429 461 462
f 494 462 461
f 461 493 494
f 526 494 493
f 493 525 526
f 558 526 525
f 525 557 558
f 590 558 557
f 557 589 590
f 622 590 589
f 589 621 622
f 654 622 621
f 621 653 654
f 686 654 653
f 653 685 686
f 718 686 685
f 685 717 718
f 750 718 717
f 717 749 750
f 782 750 749
f 749 781 782
f 814 782 781
f 781 813 814
f 846 814 813
f 813 845 846
f 878 846 845
f 845 877 878
f 910 878 877
f 877 909 910
f 942 910 909
f 909 941 942
f 974 942 941
f 941 973 974
f 1006 974 973
f 973 1005 1006
f 1038 1006 1005
f 1005 1037 1038
f 1070 1038 1037
f 1037 1069 1070
f 1102 1070 1069
f 1069 1101 1102
f 143 111 110
f 110 142 143
f 175 143 142
f 142 174 175
f 207 175 174
f 174 206 207
f 239 207 206
f 206 238 239
f 271 239 238
f 238 270 271
f 303 271 270
f 270 302 303
f 335 303 302
f 302 334 335
f 367 335 334
f 334 366 367
f 399 367 366
f 366 398 399
f 431 399 398
f 398 430 431
f 463 431 430
f 430 462 463
f 495 463 462
f 462 494 495
f 527 495 494
f 494 526 527
f 559 527 526
f 526 558 559
f 591 559 558
f 558 590 591
f 623 591 590
f 590 622 623
f 655 623 622
f 622 654 655
f 687 655 654
f 654 686 687
f 719 687 686
f 686 718 719
f 751 719 718
f 718 750 751
f 783 751 750
f 750 782 783
f 815 783 782
f 782 814 815
f 847 815 814
f 814 846 847
f 879 847 846
f 846 878 879
f 911 879 878
f 878 910 911
f 943 911 910
f 910 942 943
f 975 943 942
f 942 974 975
f 1007 975 974
f 974 1006 1007
f 1039 1007 1006
f 1006 1038 1039
f 1071 1039 1038
f 1038 1070 1071
f 1103 1071 1070
f 1070 1102 1103
f 144 112 111
f 111 143 144
f 176 144 143
f 143 175 176
f 208 176 175
f 175 207 208
f 240 208 207
f 207 239 240
f 272 240 239
f 239 271 272
f 304 272 271
f 271 303 304
f 336 304 303
f 303 335 336
f 368 336 335
f 335 367 368
f 400 368 367
f 367 399 400
f 432 400 399
f 399 431 432
f 464 432 431
f 431 463 464
f 496 464 463
f 463 495 496
f 528 496 495
f 495 527 528
f 560 528 527
f 527 559 560
f 592 560 559
f 559 591 592
f 624 592 591
f 591 623 624
f 656 624 623
f 623 655 656
f 688 656 655
f 655 687 688
f 720 688 687
f 687 719 720
f 752 720 719
f 719 751 752
f 784 752 751
f 751 783 784
f 816 784 783
f 783 815 816
f 848 816 815
f 815 847 848
f 880 848 847
f 847 879 880
f 912 880 879
f 879 911 912
f 944 912 911
f 911 943 944
f 976 944 943
f 943 975 976
f 1008 976 975
f 975 1007 1008
f 1040 1008 1007
f 1007 1039 1040
f 1072 1040 1039
f 1039 1071 1072
f 1104 1072 1071
f 1071 1103 1104
