v -1831.89 9.0631 -1437.9
v -1831.95 9.21418 -1437.62
v -1832.26 9.21418 -1437.74
v -1832.24 9.0631 -1437.94
v -1832.58 9.21418 -1437.64
v -1832.6 9.0631 -1437.87
v -1832.1 9.24052 -1437.46
v -1832.21 9.27537 -1437.53
v -1832.33 9.24686 -1437.51
v -1832.11 9.27537 -1437.39
v -1832.24 9.30936 -1437.41
v -1832.4 9.27568 -1437.43
v -1832.14 9.24267 -1437.27
v -1832.25 9.27537 -1437.26
v -1832.32 9.2382 -1437.33
v -1831.95 9.21418 -1437.07
v -1832.24 9.24898 -1437.02
v -1832.55 9.21418 -1437.24
v -1831.79 9.0631 -1436.99
v -1832.24 9.0631 -1436.87
v -1832.77 9.0631 -1437.1
v -1831.79 9.0631 -1436.99
v -1831.89 9.0631 -1437.9
v -1832.24 9.0631 -1437.94
v -1832.77 9.0631 -1437.41
v -1832.62 9.21418 -1437.41
v -1831.85 9.24018 -1437.41
v -1831.7 9.0631 -1437.41
v -1831.7 9.0631 -1437.41
v -1832.77 9.0631 -1437.1
v -1832.6 9.0631 -1437.87
v -1832.24 9.0631 -1436.87
v -1832.77 9.0631 -1437.41
v -1832.77 9.0631 -1437.1
v -1832.6 9.0631 -1437.87
v -1832.77 9.0631 -1437.41
v -1832.16 9.3376 -1437.61
v -1832.34 9.31542 -1437.52
v -1832.35 9.2777 -1437.52
v -1832.16 9.28376 -1437.62
v -1832.34 9.25457 -1437.5
v -1832.13 9.24326 -1437.59
v -1832.32 9.25519 -1437.48
v -1832.12 9.24627 -1437.53
v -1832.33 9.29085 -1437.45
v -1832.12 9.2907 -1437.5
v -1832.32 9.32144 -1437.46
v -1832.11 9.34393 -1437.52
v -1832.31 9.33181 -1437.5
v -1832.16 9.35434 -1437.56
v -1832.34 9.31542 -1437.52
v -1832.16 9.3376 -1437.61
v -1832.53 9.31932 -1437.45
v -1832.54 9.27567 -1437.46
v -1832.52 9.24696 -1437.44
v -1832.51 9.2452 -1437.39
v -1832.49 9.2819 -1437.37
v -1832.51 9.32396 -1437.38
v -1832.51 9.34116 -1437.42
v -1832.53 9.31932 -1437.45
v -1832.16 9.28376 -1437.62
v -1832.16 9.28882 -1437.55
v -1832.16 9.3376 -1437.61
v -1832.13 9.24326 -1437.59
v -1832.12 9.24627 -1437.53
v -1832.12 9.2907 -1437.5
v -1832.11 9.34393 -1437.52
v -1832.16 9.35434 -1437.56
v -1832.53 9.31932 -1437.45
v -1832.53 9.28893 -1437.41
v -1832.54 9.27567 -1437.46
v -1832.52 9.24696 -1437.44
v -1832.51 9.2452 -1437.39
v -1832.49 9.2819 -1437.37
v -1832.51 9.32396 -1437.38
v -1832.51 9.34116 -1437.42
v -1832.24 9.33045 -1437.11
v -1832.32 9.36826 -1437.28
v -1832.3 9.38092 -1437.31
v -1832.19 9.34563 -1437.13
v -1832.27 9.36114 -1437.32
v -1832.15 9.31445 -1437.15
v -1832.27 9.32848 -1437.32
v -1832.15 9.26329 -1437.17
v -1832.31 9.3051 -1437.33
v -1832.2 9.22911 -1437.17
v -1832.33 9.30702 -1437.31
v -1832.23 9.2305 -1437.12
v -1832.33 9.33165 -1437.27
v -1832.26 9.28417 -1437.12
v -1832.32 9.36826 -1437.28
v -1832.24 9.33045 -1437.11
v -1832.44 9.42403 -1437.45
v -1832.4 9.438 -1437.47
v -1832.37 9.421 -1437.48
v -1832.37 9.37348 -1437.51
v -1832.4 9.33858 -1437.48
v -1832.44 9.34731 -1437.47
v -1832.45 9.38065 -1437.44
v -1832.44 9.42403 -1437.45
v -1832.19 9.34563 -1437.13
v -1832.21 9.29366 -1437.17
v -1832.24 9.33045 -1437.11
v -1832.15 9.31445 -1437.15
v -1832.15 9.26329 -1437.17
v -1832.2 9.22911 -1437.17
v -1832.23 9.2305 -1437.12
v -1832.26 9.28417 -1437.12
v -1832.44 9.42403 -1437.45
v -1832.42 9.39213 -1437.48
v -1832.4 9.438 -1437.47
v -1832.37 9.421 -1437.48
v -1832.37 9.37348 -1437.51
v -1832.4 9.33858 -1437.48
v -1832.44 9.34731 -1437.47
v -1832.45 9.38065 -1437.44
v -1832.33 9.549 -1437.27
v -1832.23 9.41466 -1437.35
v -1832.23 9.37731 -1437.34
v -1832.36 9.51279 -1437.23
v -1832.26 9.36014 -1437.35
v -1832.41 9.48632 -1437.24
v -1832.29 9.36565 -1437.37
v -1832.44 9.48232 -1437.29
v -1832.27 9.38095 -1437.41
v -1832.42 9.50767 -1437.34
v -1832.25 9.40993 -1437.41
v -1832.4 9.5611 -1437.34
v -1832.24 9.43348 -1437.38
v -1832.35 9.55321 -1437.32
v -1832.23 9.41466 -1437.35
v -1832.33 9.549 -1437.27
v -1832.08 9.28969 -1437.44
v -1832.1 9.2562 -1437.42
v -1832.13 9.24032 -1437.42
v -1832.15 9.22683 -1437.47
v -1832.16 9.26552 -1437.5
v -1832.12 9.28969 -1437.51
v -1832.1 9.31211 -1437.48
v -1832.08 9.28969 -1437.44
v -1832.36 9.51279 -1437.23
v -1832.37 9.4972 -1437.31
v -1832.33 9.549 -1437.27
v -1832.41 9.48632 -1437.24
v -1832.44 9.48232 -1437.29
v -1832.42 9.50767 -1437.34
v -1832.4 9.5611 -1437.34
v -1832.35 9.55321 -1437.32
v -1832.08 9.28969 -1437.44
v -1832.11 9.25685 -1437.47
v -1832.1 9.2562 -1437.42
v -1832.13 9.24032 -1437.42
v -1832.15 9.22683 -1437.47
v -1832.16 9.26552 -1437.5
v -1832.12 9.28969 -1437.51
v -1832.1 9.31211 -1437.48
v -1831.96 9.31976 -1437.25
v -1832.03 9.31081 -1437.43
v -1832 9.31494 -1437.46
v -1831.9 9.32916 -1437.27
v -1831.98 9.29127 -1437.47
v -1831.86 9.29266 -1437.28
v -1831.98 9.25965 -1437.46
v -1831.87 9.23803 -1437.28
v -1832.02 9.2364 -1437.46
v -1831.91 9.20626 -1437.28
v -1832.04 9.2451 -1437.44
v -1831.95 9.22054 -1437.23
v -1832.04 9.27796 -1437.41
v -1831.98 9.27136 -1437.25
v -1832.03 9.31081 -1437.43
v -1831.96 9.31976 -1437.25
v -1832.14 9.32027 -1437.61
v -1832.1 9.32803 -1437.63
v -1832.07 9.3085 -1437.63
v -1832.07 9.25469 -1437.65
v -1832.1 9.22831 -1437.62
v -1832.14 9.24061 -1437.61
v -1832.15 9.28106 -1437.59
v -1832.14 9.32027 -1437.61
v -1831.9 9.32916 -1437.27
v -1831.94 9.26317 -1437.31
v -1831.96 9.31976 -1437.25
v -1831.86 9.29266 -1437.28
v -1831.87 9.23803 -1437.28
v -1831.91 9.20626 -1437.28
v -1831.95 9.22054 -1437.23
v -1831.98 9.27136 -1437.25
v -1832.14 9.32027 -1437.61
v -1832.12 9.27919 -1437.64
v -1832.1 9.32803 -1437.63
v -1832.07 9.3085 -1437.63
v -1832.07 9.25469 -1437.65
v -1832.1 9.22831 -1437.62
v -1832.14 9.24061 -1437.61
v -1832.15 9.28106 -1437.59
v -1832.14 9.32362 -1437.16
v -1832.08 9.36216 -1437.34
v -1832.04 9.36945 -1437.34
v -1832.09 9.33056 -1437.13
v -1832.01 9.3459 -1437.34
v -1832.05 9.29271 -1437.12
v -1832.02 9.31284 -1437.33
v -1832.05 9.24168 -1437.14
v -1832.04 9.29505 -1437.37
v -1832.08 9.21422 -1437.18
v -1832.08 9.30149 -1437.36
v -1832.14 9.22337 -1437.17
v -1832.09 9.32747 -1437.34
v -1832.15 9.27969 -1437.18
v -1832.08 9.36216 -1437.34
v -1832.14 9.32362 -1437.16
v -1832.04 9.42317 -1437.53
v -1832 9.4306 -1437.52
v -1831.97 9.40884 -1437.51
v -1831.96 9.36094 -1437.54
v -1832 9.33095 -1437.54
v -1832.04 9.34647 -1437.56
v -1832.06 9.3825 -1437.54
v -1832.04 9.42317 -1437.53
v -1832.09 9.33056 -1437.13
v -1832.09 9.28091 -1437.18
v -1832.14 9.32362 -1437.16
v -1832.05 9.29271 -1437.12
v -1832.05 9.24168 -1437.14
v -1832.08 9.21422 -1437.18
v -1832.14 9.22337 -1437.17
v -1832.15 9.27969 -1437.18
v -1832.04 9.42317 -1437.53
v -1832 9.38659 -1437.55
v -1832 9.4306 -1437.52
v -1831.97 9.40884 -1437.51
v -1831.96 9.36094 -1437.54
v -1832 9.33095 -1437.54
v -1832.04 9.34647 -1437.56
v -1832.06 9.3825 -1437.54
v -1832.2 4.8069 -1437.42
v -1832.2 7.80768 -1437.42
v -1832.2 8.69763 -1437.56
v -1832.24 8.70804 -1438.33
v -1832.25 4.8069 -1438.42
v -1832.28 8.83927 -1438.22
v -1832.2 8.90523 -1437.51
v -1833.19 9.00418 -1437.37
v -1832.5 6.52667 -1437.4
v -1833.19 6.00542 -1437.37
v -1832.65 5.98865 -1437.39
v -1833.02 5.34459 -1437.38
v -1832.59 5.39172 -1437.4
v -1832.63 4.8069 -1437.4
v -1832.99 4.8069 -1437.38
v -1833.2 4.8069 -1437.52
v -1833.25 4.8069 -1438.37
v -1833.21 5.34452 -1437.63
v -1833.25 8.79202 -1438.37
v -1833.19 6.00542 -1437.37
v -1833.19 9.00418 -1437.37
v -1833.21 5.34452 -1437.63
v -1833.19 6.00542 -1437.37
v -1833.02 5.34459 -1437.38
v -1832.2 8.69763 -1437.56
v -1832.25 8.78979 -1437.42
v -1832.2 8.90523 -1437.51
v -1832.26 8.90523 -1437.41
v -1832.31 8.47847 -1437.41
v -1832.2 7.80768 -1437.42
v -1832.5 8.24095 -1438.4
v -1832.25 4.8069 -1438.42
v -1832.24 8.70804 -1438.33
v -1833.2 4.8069 -1437.52
v -1832.99 4.8069 -1437.38
v -1833.25 8.79202 -1438.37
v -1833.25 4.8069 -1438.37
v -1833.04 8.94192 -1438.38
v -1832.81 8.71168 -1438.39
v -1832.74 8.40322 -1438.39
v -1832.44 9.00418 -1438.11
v -1832.53 9.09865 -1438.12
v -1832.39 8.9997 -1437.54
v -1832.74 9.09865 -1437.86
v -1832.39 8.9997 -1437.54
v -1832.73 8.92393 -1438.3
v -1832.5 8.24095 -1438.4
v -1832.24 8.70804 -1438.33
v -1832.44 9.00418 -1438.11
v -1832.73 8.92393 -1438.3
v -1832.74 8.40322 -1438.39
v -1832.81 8.71168 -1438.39
v -1832.28 8.83927 -1438.22
v -1832.54 5.4269 -1437.45
v -1832.53 4.8069 -1437.45
v -1832.59 5.39172 -1437.4
v -1832.63 4.8069 -1437.4
v -1832.65 5.98865 -1437.39
v -1832.61 5.94572 -1437.44
v -1832.5 6.52667 -1437.4
v -1832.56 6.0069 -1437.4
v -1832.61 5.94572 -1437.44
v -1832.5 6.52667 -1437.4
v -1832.45 5.37256 -1437.41
v -1832.54 5.4269 -1437.45
v -1832.53 4.8069 -1437.45
v -1832.38 4.8069 -1437.41
v -1832.2 4.8069 -1437.42
v -1832.45 5.37256 -1437.41
v -1832.56 6.0069 -1437.4
v -1832.2 7.80768 -1437.42
v -1832.38 4.8069 -1437.41
v -1832.31 8.47847 -1437.41
v -1832.25 8.78979 -1437.42
v -1832.26 8.90523 -1437.41
v -1833.1 9.03639 -1438.22
v -1833.06 9.09865 -1437.5
v -1832.74 9.09865 -1437.86
v -1833.1 9.03639 -1438.22
v -1832.53 9.09865 -1438.12
v -1831.18 4.91674 -1437.49
v -1831.18 7.91751 -1437.49
v -1831.19 8.80747 -1437.63
v -1831.25 8.81788 -1438.39
v -1831.26 4.91674 -1438.48
v -1831.29 8.94911 -1438.29
v -1831.18 9.01507 -1437.58
v -1832.17 9.11402 -1437.41
v -1831.48 6.6365 -1437.46
v -1832.17 6.11526 -1437.41
v -1831.63 6.09849 -1437.45
v -1832 5.45443 -1437.42
v -1831.57 5.50156 -1437.46
v -1831.61 4.91674 -1437.45
v -1831.97 4.91674 -1437.42
v -1832.18 4.91674 -1437.56
v -1832.25 4.91674 -1438.4
v -1832.19 5.45436 -1437.67
v -1832.25 8.90186 -1438.4
v -1832.17 6.11526 -1437.41
v -1832.17 9.11402 -1437.41
v -1832.19 5.45436 -1437.67
v -1832.17 6.11526 -1437.41
v -1832 5.45443 -1437.42
v -1831.19 8.80747 -1437.63
v -1831.23 8.89963 -1437.48
v -1831.18 9.01507 -1437.58
v -1831.24 9.01507 -1437.48
v -1831.29 8.58831 -1437.48
v -1831.18 7.91751 -1437.49
v -1831.51 8.35079 -1438.46
v -1831.26 4.91674 -1438.48
v -1831.25 8.81788 -1438.39
v -1832.18 4.91674 -1437.56
v -1831.97 4.91674 -1437.42
v -1832.25 8.90186 -1438.4
v -1832.25 4.91674 -1438.4
v -1832.05 9.05176 -1438.42
v -1831.82 8.82152 -1438.44
v -1831.74 8.51306 -1438.45
v -1831.44 9.11402 -1438.18
v -1831.53 9.20849 -1438.18
v -1831.37 9.10954 -1437.6
v -1831.73 9.20849 -1437.91
v -1831.37 9.10954 -1437.6
v -1831.74 9.03377 -1438.36
v -1831.51 8.35079 -1438.46
v -1831.25 8.81788 -1438.39
v -1831.44 9.11402 -1438.18
v -1831.74 9.03377 -1438.36
v -1831.74 8.51306 -1438.45
v -1831.82 8.82152 -1438.44
v -1831.29 8.94911 -1438.29
v -1831.52 5.53674 -1437.51
v -1831.51 4.91674 -1437.51
v -1831.57 5.50156 -1437.46
v -1831.61 4.91674 -1437.45
v -1831.63 6.09849 -1437.45
v -1831.59 6.05556 -1437.5
v -1831.48 6.6365 -1437.46
v -1831.54 6.11674 -1437.46
v -1831.59 6.05556 -1437.5
v -1831.48 6.6365 -1437.46
v -1831.42 5.48239 -1437.47
v -1831.52 5.53674 -1437.51
v -1831.51 4.91674 -1437.51
v -1831.36 4.91674 -1437.47
v -1831.18 4.91674 -1437.49
v -1831.42 5.48239 -1437.47
v -1831.54 6.11674 -1437.46
v -1831.18 7.91751 -1437.49
v -1831.36 4.91674 -1437.47
v -1831.29 8.58831 -1437.48
v -1831.23 8.89963 -1437.48
v -1831.24 9.01507 -1437.48
v -1832.1 9.14623 -1438.26
v -1832.05 9.20849 -1437.55
v -1831.73 9.20849 -1437.91
v -1832.1 9.14623 -1438.26
v -1831.53 9.20849 -1438.18
v -1833.19 4.95204 -1437.39
v -1833.19 7.95282 -1437.39
v -1833.18 8.84278 -1437.25
v -1833.12 8.85319 -1436.48
v -1833.11 4.95204 -1436.39
v -1833.08 8.98442 -1436.59
v -1833.18 9.05037 -1437.29
v -1832.2 9.14932 -1437.47
v -1832.89 6.67181 -1437.41
v -1832.2 6.15057 -1437.47
v -1832.74 6.1338 -1437.43
v -1832.37 5.48974 -1437.46
v -1832.8 5.53687 -1437.42
v -1832.76 4.95204 -1437.43
v -1832.4 4.95204 -1437.45
v -1832.18 4.95204 -1437.32
v -1832.12 4.95204 -1436.47
v -1832.17 5.48967 -1437.21
v -1832.12 8.93716 -1436.47
v -1832.2 6.15057 -1437.47
v -1832.2 9.14932 -1437.47
v -1832.17 5.48967 -1437.21
v -1832.2 6.15057 -1437.47
v -1832.37 5.48974 -1437.46
v -1833.18 8.84278 -1437.25
v -1833.14 8.93493 -1437.39
v -1833.18 9.05037 -1437.29
v -1833.13 9.05037 -1437.4
v -1833.08 8.62362 -1437.4
v -1833.19 7.95282 -1437.39
v -1832.86 8.3861 -1436.41
v -1833.11 4.95204 -1436.39
v -1833.12 8.85319 -1436.48
v -1832.18 4.95204 -1437.32
v -1832.4 4.95204 -1437.45
v -1832.12 8.93716 -1436.47
v -1832.12 4.95204 -1436.47
v -1832.32 9.08707 -1436.46
v -1832.55 8.85682 -1436.44
v -1832.62 8.54836 -1436.43
v -1832.93 9.14932 -1436.7
v -1832.84 9.24379 -1436.7
v -1832.99 9.14484 -1437.28
v -1832.64 9.24379 -1436.96
v -1832.99 9.14484 -1437.28
v -1832.63 9.06908 -1436.52
v -1832.86 8.3861 -1436.41
v -1833.12 8.85319 -1436.48
v -1832.93 9.14932 -1436.7
v -1832.63 9.06908 -1436.52
v -1832.62 8.54836 -1436.43
v -1832.55 8.85682 -1436.44
v -1833.08 8.98442 -1436.59
v -1832.85 5.57205 -1437.37
v -1832.85 4.95204 -1437.37
v -1832.8 5.53687 -1437.42
v -1832.76 4.95204 -1437.43
v -1832.74 6.1338 -1437.43
v -1832.78 6.09087 -1437.38
v -1832.89 6.67181 -1437.41
v -1832.83 6.15205 -1437.42
v -1832.78 6.09087 -1437.38
v -1832.89 6.67181 -1437.41
v -1832.94 5.5177 -1437.41
v -1832.85 5.57205 -1437.37
v -1832.85 4.95204 -1437.37
v -1833.01 4.95204 -1437.4
v -1833.19 4.95204 -1437.39
v -1832.94 5.5177 -1437.41
v -1832.83 6.15205 -1437.42
v -1833.19 7.95282 -1437.39
v -1833.01 4.95204 -1437.4
v -1833.08 8.62362 -1437.4
v -1833.14 8.93493 -1437.39
v -1833.13 9.05037 -1437.4
v -1832.27 9.18154 -1436.62
v -1832.32 9.24379 -1437.33
v -1832.64 9.24379 -1436.96
v -1832.27 9.18154 -1436.62
v -1832.84 9.24379 -1436.7
v -1832.12 4.88981 -1436.44
v -1832.12 7.89059 -1436.44
v -1831.98 8.78055 -1436.44
v -1831.21 8.79096 -1436.49
v -1831.12 4.88981 -1436.5
v -1831.31 8.92219 -1436.53
v -1832.02 8.98814 -1436.44
v -1832.18 9.0871 -1437.43
v -1832.13 6.60958 -1436.74
v -1832.18 6.08834 -1437.43
v -1832.14 6.07157 -1436.89
v -1832.16 5.42751 -1437.26
v -1832.14 5.47464 -1436.83
v -1832.14 4.88981 -1436.87
v -1832.16 4.88981 -1437.23
v -1832.02 4.88981 -1437.44
v -1831.18 4.88981 -1437.49
v -1831.92 5.42744 -1437.45
v -1831.18 8.87493 -1437.49
v -1832.18 6.08834 -1437.43
v -1832.18 9.0871 -1437.43
v -1831.92 5.42744 -1437.45
v -1832.18 6.08834 -1437.43
v -1832.16 5.42751 -1437.26
v -1831.98 8.78055 -1436.44
v -1832.12 8.87271 -1436.49
v -1832.02 8.98814 -1436.44
v -1832.12 8.98814 -1436.5
v -1832.12 8.56139 -1436.55
v -1832.12 7.89059 -1436.44
v -1831.13 8.32387 -1436.75
v -1831.12 4.88981 -1436.5
v -1831.21 8.79096 -1436.49
v -1832.02 4.88981 -1437.44
v -1832.16 4.88981 -1437.23
v -1831.18 8.87493 -1437.49
v -1831.18 4.88981 -1437.49
v -1831.16 9.02484 -1437.29
v -1831.15 8.79459 -1437.06
v -1831.15 8.48613 -1436.99
v -1831.42 9.0871 -1436.69
v -1831.42 9.18156 -1436.77
v -1832 9.08261 -1436.63
v -1831.68 9.18156 -1436.98
v -1832 9.08261 -1436.63
v -1831.23 9.00685 -1436.98
v -1831.13 8.32387 -1436.75
v -1831.21 8.79096 -1436.49
v -1831.42 9.0871 -1436.69
v -1831.23 9.00685 -1436.98
v -1831.15 8.48613 -1436.99
v -1831.15 8.79459 -1437.06
v -1831.31 8.92219 -1436.53
v -1832.09 5.50982 -1436.78
v -1832.09 4.88981 -1436.77
v -1832.14 5.47464 -1436.83
v -1832.14 4.88981 -1436.87
v -1832.14 6.07157 -1436.89
v -1832.09 6.02864 -1436.85
v -1832.13 6.60958 -1436.74
v -1832.14 6.08982 -1436.8
v -1832.09 6.02864 -1436.85
v -1832.13 6.60958 -1436.74
v -1832.13 5.45547 -1436.69
v -1832.09 5.50982 -1436.78
v -1832.09 4.88981 -1436.77
v -1832.13 4.88981 -1436.62
v -1832.12 4.88981 -1436.44
v -1832.13 5.45547 -1436.69
v -1832.14 6.08982 -1436.8
v -1832.12 7.89059 -1436.44
v -1832.13 4.88981 -1436.62
v -1832.12 8.56139 -1436.55
v -1832.12 8.87271 -1436.49
v -1832.12 8.98814 -1436.5
v -1831.32 9.11931 -1437.35
v -1832.04 9.18156 -1437.3
v -1831.68 9.18156 -1436.98
v -1831.32 9.11931 -1437.35
v -1831.42 9.18156 -1436.77
v -1828.69 7.70785 -1442.87
v -1828.69 8.32864 -1442.87
v -1827.69 7.70785 -1442.89
v -1827.69 10.0041 -1442.89
v -1828.69 10.7086 -1442.87
v -1827.74 11.2065 -1442.89
v -1828.6 11.6975 -1442.87
v -1827.78 11.609 -1442.89
v -1827.81 11.9996 -1442.88
v -1828.59 11.9996 -1442.87
v -1827.85 11.9996 -1443.01
v -1827.83 11.6179 -1442.95
v -1827.81 11.9996 -1442.88
v -1827.78 11.609 -1442.89
v -1828.58 8.24547 -1443.87
v -1828.71 9.24065 -1443.87
v -1828.71 8.24554 -1443.8
v -1828.6 11.6975 -1442.87
v -1828.69 11.7897 -1442.92
v -1828.59 11.9996 -1442.87
v -1828.69 11.9996 -1442.93
v -1828.69 11.4784 -1442.93
v -1828.69 10.7086 -1442.87
v -1827.74 11.2065 -1442.89
v -1827.74 11.2646 -1442.94
v -1827.69 10.0041 -1442.89
v -1827.69 11.1419 -1443.14
v -1828.62 7.70785 -1443.87
v -1828.71 7.70785 -1443.77
v -1827.85 11.9996 -1443.01
v -1827.81 11.9996 -1442.88
v -1828.14 11.9996 -1443.24
v -1827.7 11.3042 -1443.38
v -1827.69 11.1419 -1443.14
v -1827.74 11.2646 -1442.94
v -1828.65 8.32785 -1443.21
v -1828.65 7.70785 -1443.2
v -1828.7 8.29267 -1443.26
v -1828.7 7.70785 -1443.3
v -1828.7 8.8896 -1443.32
v -1828.65 8.84667 -1443.28
v -1828.69 9.42761 -1443.17
v -1828.7 8.90785 -1443.23
v -1828.65 8.84667 -1443.28
v -1828.69 9.42761 -1443.17
v -1828.69 8.2735 -1443.12
v -1828.65 8.32785 -1443.21
v -1828.65 7.70785 -1443.2
v -1828.69 7.70785 -1443.05
v -1828.69 10.7086 -1442.87
v -1828.69 8.32864 -1442.87
v -1828.69 9.42761 -1443.17
v -1828.7 8.90785 -1443.23
v -1828.69 8.2735 -1443.12
v -1828.69 7.70785 -1442.87
v -1828.69 7.70785 -1443.05
v -1828.7 10.2837 -1443.4
v -1828.69 9.42761 -1443.17
v -1828.71 9.63019 -1443.87
v -1828.71 9.24065 -1443.87
v -1828.7 8.8896 -1443.32
v -1828.71 8.24554 -1443.8
v -1828.7 8.29267 -1443.26
v -1828.7 7.70785 -1443.3
v -1828.71 7.70785 -1443.77
v -1828.7 10.2837 -1443.4
v -1828.69 10.5109 -1443.17
v -1828.69 9.42761 -1443.17
v -1828.69 10.7086 -1442.87
v -1828.69 11.4784 -1442.93
v -1828.69 10.9909 -1443.11
v -1827.99 8.08824 -1443.88
v -1828.58 8.24547 -1443.87
v -1828.62 7.70785 -1443.87
v -1827.84 8.84866 -1443.88
v -1828.71 9.24065 -1443.87
v -1827.91 9.41802 -1443.88
v -1828.71 9.63019 -1443.87
v -1828.54 10.0376 -1443.87
v -1827.71 10.2709 -1443.89
v -1828.39 10.7159 -1443.87
v -1828.15 10.9736 -1443.88
v -1827.71 11.4659 -1443.89
v -1827.86 11.4878 -1443.88
v -1827.71 11.4659 -1443.89
v -1827.71 10.2709 -1443.89
v -1827.7 11.3042 -1443.38
v -1827.7 9.41719 -1443.67
v -1827.69 7.70785 -1442.89
v -1827.71 8.88045 -1443.76
v -1827.71 8.66038 -1443.75
v -1827.7 8.03992 -1443.57
v -1827.7 9.41719 -1443.67
v -1827.71 10.2709 -1443.89
v -1827.91 9.41802 -1443.88
v -1827.71 8.88045 -1443.76
v -1827.84 8.84866 -1443.88
v -1827.71 8.66038 -1443.75
v -1827.99 8.08824 -1443.88
v -1827.7 8.03992 -1443.57
v -1828.14 11.9996 -1443.24
v -1828.69 11.9996 -1442.93
v -1828.27 11.4381 -1443.39
v -1828.69 11.7897 -1442.92
v -1828.69 11.4784 -1442.93
v -1828.71 9.63019 -1443.87
v -1828.54 10.0376 -1443.87
v -1828.44 10.7274 -1443.52
v -1828.39 10.7159 -1443.87
v -1828.7 10.2837 -1443.4
v -1828.69 10.5109 -1443.17
v -1828.15 10.9736 -1443.88
v -1828.69 10.9909 -1443.11
v -1827.86 11.4878 -1443.88
v -1828.69 11.9996 -1442.93
v -1828.14 11.9996 -1443.24
v -1828.59 11.9996 -1442.87
v -1827.81 11.9996 -1442.88
v -1827.87 11.9996 -1443.13
v -1827.85 11.9996 -1443.01
v -1828.14 11.9996 -1443.24
v -1827.83 11.6179 -1442.95
v -1827.87 11.9996 -1443.13
v -1827.97 11.6202 -1443.38
v -1827.83 11.672 -1443.22
v -1827.85 11.9996 -1443.01
v -1827.83 11.672 -1443.22
v -1827.87 11.9996 -1443.13
v -1827.78 11.5056 -1443.5
v -1827.78 11.5056 -1443.5
v -1827.92 11.5406 -1443.61
v -1828.14 11.9996 -1443.24
v -1827.71 11.4659 -1443.89
v -1827.71 11.4659 -1443.89
v -1827.86 11.4878 -1443.88
v -1828.12 7.71963 -1444.38
v -1828.22 7.99955 -1444.4
v -1828.74 7.69473 -1444.24
v -1828.4 8.03085 -1444.35
v -1828.18 7.72515 -1444.02
v -1828.22 7.99955 -1444.4
v -1828.12 7.71963 -1444.38
v -1828.4 8.03085 -1444.35
v -1828.49 7.70785 -1444.01
v -1828.74 7.69473 -1444.24
v -1828.49 7.70785 -1444.01
v -1828.4 8.03085 -1444.35
v -1828.18 7.72515 -1444.02
v -1828.22 7.99955 -1444.4
v -1828.65 7.73583 -1443.97
v -1828.96 7.90993 -1444.02
v -1829.16 7.70785 -1444.09
v -1829.19 8.20814 -1444.09
v -1829.16 7.70785 -1444.09
v -1829.3 8.42467 -1443.66
v -1829.38 7.69523 -1443.18
v -1829.19 8.20814 -1444.09
v -1829.34 8.24914 -1443.47
v -1829.38 7.69523 -1443.18
v -1829.34 8.24914 -1443.47
v -1829.16 7.98426 -1443.45
v -1828.96 7.90993 -1444.02
v -1829.07 7.98855 -1443.73
v -1829.19 8.20814 -1444.09
v -1829.3 8.42467 -1443.66
v -1828.65 7.73583 -1443.97
v -1828.74 7.73048 -1443.86
v -1828.96 7.90993 -1444.02
v -1829.07 7.98855 -1443.73
v -1829.18 7.70615 -1443.12
v -1829.16 7.98426 -1443.45
v -1829.38 7.69523 -1443.18
v -1827.69 7.70785 -1442.89
v -1827.7 8.03992 -1443.57
v -1827.41 7.70785 -1443.28
v -1827.21 7.70785 -1443.75
v -1827.37 7.70785 -1444.14
v -1827.77 7.70785 -1444.13
v -1827.99 8.08824 -1443.88
v -1827.89 7.70785 -1444.36
v -1828.62 7.70785 -1443.87
v -1828.81 8.36145 -1432.17
v -1828.81 11.3622 -1432.17
v -1828.8 12.2522 -1432.03
v -1828.74 12.2626 -1431.27
v -1828.74 8.36145 -1431.17
v -1828.7 12.3938 -1431.37
v -1828.8 12.4598 -1432.08
v -1827.81 12.5587 -1432.24
v -1828.5 10.0812 -1432.19
v -1827.81 9.55998 -1432.24
v -1828.35 9.5432 -1432.2
v -1827.98 8.89914 -1432.23
v -1828.42 8.94628 -1432.2
v -1828.37 8.36145 -1432.2
v -1828.01 8.36145 -1432.23
v -1827.8 8.36145 -1432.09
v -1827.74 8.36145 -1431.24
v -1827.79 8.89907 -1431.98
v -1827.74 12.3466 -1431.24
v -1827.81 9.55998 -1432.24
v -1827.81 12.5587 -1432.24
v -1827.79 8.89907 -1431.98
v -1827.81 9.55998 -1432.24
v -1827.98 8.89914 -1432.23
v -1828.8 12.2522 -1432.03
v -1828.75 12.3443 -1432.18
v -1828.8 12.4598 -1432.08
v -1828.75 12.4598 -1432.18
v -1828.69 12.033 -1432.18
v -1828.81 11.3622 -1432.17
v -1828.48 11.7955 -1431.19
v -1828.74 8.36145 -1431.17
v -1828.74 12.2626 -1431.27
v -1827.8 8.36145 -1432.09
v -1828.01 8.36145 -1432.23
v -1827.74 12.3466 -1431.24
v -1827.74 8.36145 -1431.24
v -1827.94 12.4965 -1431.23
v -1828.17 12.2662 -1431.21
v -1828.25 11.9578 -1431.21
v -1828.55 12.5587 -1431.48
v -1828.46 12.6532 -1431.48
v -1828.61 12.5542 -1432.06
v -1828.26 12.6532 -1431.74
v -1828.61 12.5542 -1432.06
v -1828.25 12.4785 -1431.3
v -1828.48 11.7955 -1431.19
v -1828.74 12.2626 -1431.27
v -1828.55 12.5587 -1431.48
v -1828.25 12.4785 -1431.3
v -1828.25 11.9578 -1431.21
v -1828.17 12.2662 -1431.21
v -1828.7 12.3938 -1431.37
v -1828.46 8.98145 -1432.15
v -1828.47 8.36145 -1432.15
v -1828.42 8.94628 -1432.2
v -1828.37 8.36145 -1432.2
v -1828.35 9.5432 -1432.2
v -1828.39 9.50027 -1432.15
v -1828.5 10.0812 -1432.19
v -1828.44 9.56145 -1432.2
v -1828.39 9.50027 -1432.15
v -1828.5 10.0812 -1432.19
v -1828.56 8.92711 -1432.19
v -1828.46 8.98145 -1432.15
v -1828.47 8.36145 -1432.15
v -1828.63 8.36145 -1432.18
v -1828.81 8.36145 -1432.17
v -1828.56 8.92711 -1432.19
v -1828.44 9.56145 -1432.2
v -1828.81 11.3622 -1432.17
v -1828.63 8.36145 -1432.18
v -1828.69 12.033 -1432.18
v -1828.75 12.3443 -1432.18
v -1828.75 12.4598 -1432.18
v -1827.89 12.5909 -1431.39
v -1827.94 12.6532 -1432.1
v -1828.26 12.6532 -1431.74
v -1827.89 12.5909 -1431.39
v -1828.46 12.6532 -1431.48
v -1835.57 8.06388 -1430.16
v -1835.57 11.0647 -1430.16
v -1835.57 11.9546 -1430.29
v -1835.61 11.965 -1431.06
v -1835.61 8.06388 -1431.15
v -1835.65 12.0963 -1430.96
v -1835.57 12.1622 -1430.25
v -1836.57 12.2612 -1430.11
v -1835.87 9.78365 -1430.14
v -1836.57 9.26241 -1430.11
v -1836.02 9.24563 -1430.14
v -1836.39 8.60157 -1430.12
v -1835.96 8.64871 -1430.14
v -1836 8.06388 -1430.14
v -1836.36 8.06388 -1430.12
v -1836.57 8.06388 -1430.26
v -1836.61 8.06388 -1431.11
v -1836.58 8.6015 -1430.37
v -1836.61 12.049 -1431.11
v -1836.57 9.26241 -1430.11
v -1836.57 12.2612 -1430.11
v -1836.58 8.6015 -1430.37
v -1836.57 9.26241 -1430.11
v -1836.39 8.60157 -1430.12
v -1835.57 11.9546 -1430.29
v -1835.62 12.0468 -1430.15
v -1835.57 12.1622 -1430.25
v -1835.63 12.1622 -1430.15
v -1835.68 11.7355 -1430.15
v -1835.57 11.0647 -1430.16
v -1835.86 11.4979 -1431.14
v -1835.61 8.06388 -1431.15
v -1835.61 11.965 -1431.06
v -1836.57 8.06388 -1430.26
v -1836.36 8.06388 -1430.12
v -1836.61 12.049 -1431.11
v -1836.61 8.06388 -1431.11
v -1836.4 12.1989 -1431.12
v -1836.17 11.9687 -1431.13
v -1836.1 11.6602 -1431.13
v -1835.8 12.2612 -1430.85
v -1835.89 12.3556 -1430.86
v -1835.76 12.2567 -1430.28
v -1836.11 12.3556 -1430.6
v -1835.76 12.2567 -1430.28
v -1836.1 12.1809 -1431.05
v -1835.86 11.4979 -1431.14
v -1835.61 11.965 -1431.06
v -1835.8 12.2612 -1430.85
v -1836.1 12.1809 -1431.05
v -1836.1 11.6602 -1431.13
v -1836.17 11.9687 -1431.13
v -1835.65 12.0963 -1430.96
v -1835.91 8.68389 -1430.19
v -1835.9 8.06388 -1430.19
v -1835.96 8.64871 -1430.14
v -1836 8.06388 -1430.14
v -1836.02 9.24563 -1430.14
v -1835.98 9.20271 -1430.18
v -1835.87 9.78365 -1430.14
v -1835.93 9.26388 -1430.14
v -1835.98 9.20271 -1430.18
v -1835.87 9.78365 -1430.14
v -1835.82 8.62954 -1430.14
v -1835.91 8.68389 -1430.19
v -1835.9 8.06388 -1430.19
v -1835.75 8.06388 -1430.15
v -1835.57 8.06388 -1430.16
v -1835.82 8.62954 -1430.14
v -1835.93 9.26388 -1430.14
v -1835.57 11.0647 -1430.16
v -1835.75 8.06388 -1430.15
v -1835.68 11.7355 -1430.15
v -1835.62 12.0468 -1430.15
v -1835.63 12.1622 -1430.15
v -1836.46 12.2934 -1430.96
v -1836.43 12.3556 -1430.25
v -1836.11 12.3556 -1430.6
v -1836.46 12.2934 -1430.96
v -1835.89 12.3556 -1430.86
v -1835.93 7.31787 -1443.94
v -1835.93 7.93867 -1443.94
v -1836.92 7.31787 -1443.88
v -1836.92 9.61413 -1443.88
v -1835.93 10.3187 -1443.94
v -1836.87 10.8166 -1443.88
v -1836.01 11.3076 -1443.93
v -1836.83 11.219 -1443.88
v -1836.8 11.6096 -1443.88
v -1836.02 11.6096 -1443.93
v -1836.76 11.6096 -1443.76
v -1836.78 11.228 -1443.82
v -1836.8 11.6096 -1443.88
v -1836.83 11.219 -1443.88
v -1835.99 7.8555 -1442.93
v -1835.87 8.85068 -1442.94
v -1835.87 7.85557 -1443.01
v -1836.01 11.3076 -1443.93
v -1835.92 11.3997 -1443.88
v -1836.02 11.6096 -1443.93
v -1835.92 11.6096 -1443.88
v -1835.92 11.0884 -1443.88
v -1835.93 10.3187 -1443.94
v -1836.87 10.8166 -1443.88
v -1836.87 10.8746 -1443.83
v -1836.92 9.61413 -1443.88
v -1836.91 10.7519 -1443.62
v -1835.95 7.31787 -1442.93
v -1835.87 7.31787 -1443.04
v -1836.76 11.6096 -1443.76
v -1836.8 11.6096 -1443.88
v -1836.45 11.6096 -1443.54
v -1836.89 10.9142 -1443.39
v -1836.91 10.7519 -1443.62
v -1836.87 10.8746 -1443.83
v -1835.95 7.93788 -1443.59
v -1835.95 7.31787 -1443.6
v -1835.9 7.9027 -1443.55
v -1835.9 7.31787 -1443.5
v -1835.9 8.49963 -1443.48
v -1835.95 8.4567 -1443.52
v -1835.91 9.03764 -1443.63
v -1835.9 8.51788 -1443.57
v -1835.95 8.4567 -1443.52
v -1835.91 9.03764 -1443.63
v -1835.91 7.88353 -1443.69
v -1835.95 7.93788 -1443.59
v -1835.95 7.31787 -1443.6
v -1835.92 7.31787 -1443.76
v -1835.93 10.3187 -1443.94
v -1835.93 7.93867 -1443.94
v -1835.91 9.03764 -1443.63
v -1835.9 8.51788 -1443.57
v -1835.91 7.88353 -1443.69
v -1835.93 7.31787 -1443.94
v -1835.92 7.31787 -1443.76
v -1835.89 9.89371 -1443.4
v -1835.91 9.03764 -1443.63
v -1835.87 9.24021 -1442.94
v -1835.87 8.85068 -1442.94
v -1835.9 8.49963 -1443.48
v -1835.87 7.85557 -1443.01
v -1835.9 7.9027 -1443.55
v -1835.9 7.31787 -1443.5
v -1835.87 7.31787 -1443.04
v -1835.89 9.89371 -1443.4
v -1835.91 10.1209 -1443.64
v -1835.91 9.03764 -1443.63
v -1835.93 10.3187 -1443.94
v -1835.92 11.0884 -1443.88
v -1835.91 10.6009 -1443.69
v -1836.59 7.69827 -1442.89
v -1835.99 7.8555 -1442.93
v -1835.95 7.31787 -1442.93
v -1836.74 8.45869 -1442.89
v -1835.87 8.85068 -1442.94
v -1836.66 9.02805 -1442.89
v -1835.87 9.24021 -1442.94
v -1836.03 9.64764 -1442.93
v -1836.86 9.88094 -1442.88
v -1836.18 10.3259 -1442.92
v -1836.42 10.5837 -1442.9
v -1836.86 11.0759 -1442.88
v -1836.71 11.0978 -1442.89
v -1836.86 11.0759 -1442.88
v -1836.86 9.88094 -1442.88
v -1836.89 10.9142 -1443.39
v -1836.88 9.02722 -1443.09
v -1836.92 7.31787 -1443.88
v -1836.87 8.49047 -1443.01
v -1836.87 8.27041 -1443.01
v -1836.88 7.64995 -1443.2
v -1836.88 9.02722 -1443.09
v -1836.86 9.88094 -1442.88
v -1836.66 9.02805 -1442.89
v -1836.87 8.49047 -1443.01
v -1836.74 8.45869 -1442.89
v -1836.87 8.27041 -1443.01
v -1836.59 7.69827 -1442.89
v -1836.88 7.64995 -1443.2
v -1836.45 11.6096 -1443.54
v -1835.92 11.6096 -1443.88
v -1836.32 11.0481 -1443.4
v -1835.92 11.3997 -1443.88
v -1835.92 11.0884 -1443.88
v -1835.87 9.24021 -1442.94
v -1836.03 9.64764 -1442.93
v -1836.15 10.3374 -1443.27
v -1836.18 10.3259 -1442.92
v -1835.89 9.89371 -1443.4
v -1835.91 10.1209 -1443.64
v -1836.42 10.5837 -1442.9
v -1835.91 10.6009 -1443.69
v -1836.71 11.0978 -1442.89
v -1835.92 11.6096 -1443.88
v -1836.45 11.6096 -1443.54
v -1836.02 11.6096 -1443.93
v -1836.8 11.6096 -1443.88
v -1836.73 11.6096 -1443.64
v -1836.76 11.6096 -1443.76
v -1836.45 11.6096 -1443.54
v -1836.78 11.228 -1443.82
v -1836.73 11.6096 -1443.64
v -1836.62 11.2302 -1443.39
v -1836.76 11.282 -1443.54
v -1836.76 11.6096 -1443.76
v -1836.76 11.282 -1443.54
v -1836.73 11.6096 -1443.64
v -1836.8 11.1156 -1443.26
v -1836.8 11.1156 -1443.26
v -1836.66 11.1506 -1443.17
v -1836.45 11.6096 -1443.54
v -1836.86 11.0759 -1442.88
v -1836.86 11.0759 -1442.88
v -1836.71 11.0978 -1442.89
v -1836.43 7.32966 -1442.4
v -1836.33 7.60958 -1442.39
v -1835.82 7.30476 -1442.57
v -1836.16 7.64088 -1442.45
v -1836.39 7.33517 -1442.77
v -1836.33 7.60958 -1442.39
v -1836.43 7.32966 -1442.4
v -1836.16 7.64088 -1442.45
v -1836.07 7.31787 -1442.79
v -1835.82 7.30476 -1442.57
v -1836.07 7.31787 -1442.79
v -1836.16 7.64088 -1442.45
v -1836.39 7.33517 -1442.77
v -1836.33 7.60958 -1442.39
v -1835.92 7.34586 -1442.84
v -1835.6 7.51996 -1442.8
v -1835.4 7.31787 -1442.73
v -1835.37 7.81817 -1442.74
v -1835.4 7.31787 -1442.73
v -1835.28 8.03469 -1443.17
v -1835.22 7.30526 -1443.66
v -1835.37 7.81817 -1442.74
v -1835.25 7.85917 -1443.36
v -1835.22 7.30526 -1443.66
v -1835.25 7.85917 -1443.36
v -1835.43 7.59429 -1443.37
v -1835.6 7.51996 -1442.8
v -1835.51 7.59858 -1443.09
v -1835.37 7.81817 -1442.74
v -1835.28 8.03469 -1443.17
v -1835.92 7.34586 -1442.84
v -1835.83 7.34051 -1442.95
v -1835.6 7.51996 -1442.8
v -1835.51 7.59858 -1443.09
v -1835.43 7.31618 -1443.7
v -1835.43 7.59429 -1443.37
v -1835.22 7.30526 -1443.66
v -1836.92 7.31787 -1443.88
v -1836.88 7.64995 -1443.2
v -1837.19 7.31787 -1443.47
v -1837.37 7.31787 -1442.99
v -1837.19 7.31787 -1442.61
v -1836.79 7.31787 -1442.64
v -1836.59 7.69827 -1442.89
v -1836.66 7.31787 -1442.41
v -1835.95 7.31787 -1442.93
v -1865 8.8032 -1405
v -1865 8.11265 -1407
v -1865 7.89806 -1409
v -1865 7.78947 -1411
v -1865 7.68051 -1413
v -1865 7.57122 -1415
v -1865 7.46159 -1417
v -1865 7.35164 -1419
v -1865 7.24137 -1421
v -1865 7.13082 -1423
v -1865 7.01997 -1425
v -1865 6.90884 -1427
v -1865 6.79745 -1429
v -1865 6.68579 -1431
v -1865 6.57391 -1433
v -1865 6.46178 -1435
v -1865 6.34944 -1437
v -1865 6.23689 -1439
v -1865 6.12413 -1441
v -1865 6.01119 -1443
v -1865 5.89808 -1445
v -1865 5.7848 -1447
v -1865 5.67136 -1449
v -1865 5.5578 -1451
v -1865 5.44409 -1453
v -1865 5.33027 -1455
v -1865 5.21635 -1457
v -1865 5.10232 -1459
v -1865 4.98818 -1461
v -1865 4.86979 -1463
v -1865 4.74333 -1465
v -1865 4.60359 -1467
v -1863 8.50998 -1405
v -1863 8.10315 -1407
v -1863 7.99475 -1409
v -1863 7.88599 -1411
v -1863 7.77688 -1413
v -1863 7.66742 -1415
v -1863 7.55762 -1417
v -1863 7.44751 -1419
v -1863 7.33709 -1421
v -1863 7.22637 -1423
v -1863 7.11536 -1425
v -1863 7.00407 -1427
v -1863 6.89252 -1429
v -1863 6.78071 -1431
v -1863 6.66866 -1433
v -1863 6.55637 -1435
v -1863 6.44387 -1437
v -1863 6.33116 -1439
v -1863 6.21825 -1441
v -1863 6.10515 -1443
v -1863 5.99187 -1445
v -1863 5.87844 -1447
v -1863 5.76484 -1449
v -1863 5.65112 -1451
v -1863 5.53725 -1453
v -1863 5.42327 -1455
v -1863 5.30919 -1457
v -1863 5.195 -1459
v -1863 5.08074 -1461
v -1863 4.96609 -1463
v -1863 4.84418 -1465
v -1863 4.71216 -1467
v -1861 8.30807 -1405
v -1861 8.19989 -1407
v -1861 8.09133 -1409
v -1861 7.98241 -1411
v -1861 7.87312 -1413
v -1861 7.7635 -1415
v -1861 7.65355 -1417
v -1861 7.54328 -1419
v -1861 7.43269 -1421
v -1861 7.32181 -1423
v -1861 7.21064 -1425
v -1861 7.09919 -1427
v -1861 6.98748 -1429
v -1861 6.87551 -1431
v -1861 6.76331 -1433
v -1861 6.65086 -1435
v -1861 6.5382 -1437
v -1861 6.42533 -1439
v -1861 6.31226 -1441
v -1861 6.19901 -1443
v -1861 6.08557 -1445
v -1861 5.97198 -1447
v -1861 5.85823 -1449
v -1861 5.74434 -1451
v -1861 5.63032 -1453
v -1861 5.51618 -1455
v -1861 5.40194 -1457
v -1861 5.2876 -1459
v -1861 5.17317 -1461
v -1861 5.05867 -1463
v -1861 4.94297 -1465
v -1861 4.81778 -1467
v -1859 8.40486 -1405
v -1859 8.29651 -1407
v -1859 8.18778 -1409
v -1859 8.0787 -1411
v -1859 7.96925 -1413
v -1859 7.85947 -1415
v -1859 7.74935 -1417
v -1859 7.63892 -1419
v -1859 7.52817 -1421
v -1859 7.41713 -1423
v -1859 7.30581 -1425
v -1859 7.1942 -1427
v -1859 7.08233 -1429
v -1859 6.9702 -1431
v -1859 6.85784 -1433
v -1859 6.74524 -1435
v -1859 6.63242 -1437
v -1859 6.5194 -1439
v -1859 6.40617 -1441
v -1859 6.29276 -1443
v -1859 6.17917 -1445
v -1859 6.06542 -1447
v -1859 5.95152 -1449
v -1859 5.83747 -1451
v -1859 5.72329 -1453
v -1859 5.609 -1455
v -1859 5.4946 -1457
v -1859 5.3801 -1459
v -1859 5.26552 -1461
v -1859 5.15085 -1463
v -1859 5.03614 -1465
v -1859 4.91865 -1467
v -1857 8.5015 -1405
v -1857 8.39299 -1407
v -1857 8.2841 -1409
v -1857 8.17485 -1411
v -1857 8.06524 -1413
v -1857 7.9553 -1415
v -1857 7.84502 -1417
v -1857 7.73443 -1419
v -1857 7.62353 -1421
v -1857 7.51233 -1423
v -1857 7.40084 -1425
v -1857 7.28908 -1427
v -1857 7.17705 -1429
v -1857 7.06477 -1431
v -1857 6.95225 -1433
v -1857 6.8395 -1435
v -1857 6.72653 -1437
v -1857 6.61335 -1439
v -1857 6.49996 -1441
v -1857 6.3864 -1443
v -1857 6.27266 -1445
v -1857 6.15875 -1447
v -1857 6.04469 -1449
v -1857 5.93049 -1451
v -1857 5.81616 -1453
v -1857 5.70171 -1455
v -1857 5.58715 -1457
v -1857 5.4725 -1459
v -1857 5.35776 -1461
v -1857 5.24294 -1463
v -1857 5.12806 -1465
v -1857 5.01313 -1467
v -1855 8.59801 -1405
v -1855 8.48933 -1407
v -1855 8.38027 -1409
v -1855 8.27086 -1411
v -1855 8.16109 -1413
v -1855 8.05099 -1415
v -1855 7.94055 -1417
v -1855 7.8298 -1419
v -1855 7.71874 -1421
v -1855 7.60738 -1423
v -1855 7.49574 -1425
v -1855 7.38382 -1427
v -1855 7.27164 -1429
v -1855 7.1592 -1431
v -1855 7.04653 -1433
v -1855 6.93362 -1435
v -1855 6.82049 -1437
v -1855 6.70716 -1439
v -1855 6.59362 -1441
v -1855 6.47991 -1443
v -1855 6.36601 -1445
v -1855 6.25195 -1447
v -1855 6.13774 -1449
v -1855 6.02339 -1451
v -1855 5.9089 -1453
v -1855 5.7943 -1455
v -1855 5.67959 -1457
v -1855 5.56478 -1459
v -1855 5.44989 -1461
v -1855 5.33491 -1463
v -1855 5.21988 -1465
v -1855 5.10479 -1467
v -1853 8.69435 -1405
v -1853 8.58551 -1407
v -1853 8.47629 -1409
v -1853 8.36672 -1411
v -1853 8.25679 -1413
v -1853 8.14653 -1415
v -1853 8.03593 -1417
v -1853 7.92502 -1419
v -1853 7.8138 -1421
v -1853 7.70229 -1423
v -1853 7.59049 -1425
v -1853 7.47841 -1427
v -1853 7.36608 -1429
v -1853 7.25349 -1431
v -1853 7.14066 -1433
v -1853 7.0276 -1435
v -1853 6.91432 -1437
v -1853 6.80084 -1439
v -1853 6.68715 -1441
v -1853 6.57328 -1443
v -1853 6.45923 -1445
v -1853 6.34502 -1447
v -1853 6.23066 -1449
v -1853 6.11615 -1451
v -1853 6.00151 -1453
v -1853 5.88676 -1455
v -1853 5.7719 -1457
v -1853 5.65694 -1459
v -1853 5.54189 -1461
v -1853 5.42677 -1463
v -1853 5.31158 -1465
v -1853 5.19634 -1467
v -1851 8.79052 -1405
v -1851 8.68151 -1407
v -1851 8.57213 -1409
v -1851 8.4624 -1411
v -1851 8.35231 -1413
v -1851 8.24189 -1415
v -1851 8.13113 -1417
v -1851 8.02006 -1419
v -1851 7.90869 -1421
v -1851 7.79702 -1423
v -1851 7.68507 -1425
v -1851 7.57284 -1427
v -1851 7.46035 -1429
v -1851 7.3476 -1431
v -1851 7.23463 -1433
v -1851 7.12141 -1435
v -1851 7.00798 -1437
v -1851 6.89435 -1439
v -1851 6.78051 -1441
v -1851 6.66649 -1443
v -1851 6.55229 -1445
v -1851 6.43793 -1447
v -1851 6.32342 -1449
v -1851 6.20877 -1451
v -1851 6.09398 -1453
v -1851 5.97907 -1455
v -1851 5.86406 -1457
v -1851 5.74895 -1459
v -1851 5.63375 -1461
v -1851 5.51848 -1463
v -1851 5.40314 -1465
v -1851 5.28775 -1467
v -1849 8.8865 -1405
v -1849 8.77733 -1407
v -1849 8.66779 -1409
v -1849 8.5579 -1411
v -1849 8.44765 -1413
v -1849 8.33706 -1415
v -1849 8.22615 -1417
v -1849 8.11493 -1419
v -1849 8.0034 -1421
v -1849 7.89157 -1423
v -1849 7.77947 -1425
v -1849 7.66708 -1427
v -1849 7.55445 -1429
v -1849 7.44155 -1431
v -1849 7.32842 -1433
v -1849 7.21505 -1435
v -1849 7.10148 -1437
v -1849 6.98769 -1439
v -1849 6.8737 -1441
v -1849 6.75954 -1443
v -1849 6.64519 -1445
v -1849 6.53068 -1447
v -1849 6.41602 -1449
v -1849 6.30122 -1451
v -1849 6.18628 -1453
v -1849 6.07123 -1455
v -1849 5.95607 -1457
v -1849 5.84081 -1459
v -1849 5.72546 -1461
v -1849 5.61004 -1463
v -1849 5.49456 -1465
v -1849 5.37901 -1467
v -1847 8.98229 -1405
v -1847 8.87296 -1407
v -1847 8.76325 -1409
v -1847 8.6532 -1411
v -1847 8.54279 -1413
v -1847 8.43205 -1415
v -1847 8.32098 -1417
v -1847 8.2096 -1419
v -1847 8.09791 -1421
v -1847 7.98594 -1423
v -1847 7.87368 -1425
v -1847 7.76114 -1427
v -1847 7.64835 -1429
v -1847 7.53531 -1431
v -1847 7.42203 -1433
v -1847 7.30851 -1435
v -1847 7.19479 -1437
v -1847 7.08085 -1439
v -1847 6.96672 -1441
v -1847 6.8524 -1443
v -1847 6.73791 -1445
v -1847 6.62325 -1447
v -1847 6.50844 -1449
v -1847 6.3935 -1451
v -1847 6.27841 -1453
v -1847 6.16322 -1455
v -1847 6.04791 -1457
v -1847 5.9325 -1459
v -1847 5.81701 -1461
v -1847 5.70144 -1463
v -1847 5.58581 -1465
v -1847 5.47012 -1467
v -1845 9.07787 -1405
v -1845 8.96838 -1407
v -1845 8.85851 -1409
v -1845 8.7483 -1411
v -1845 8.63773 -1413
v -1845 8.52684 -1415
v -1845 8.41561 -1417
v -1845 8.30408 -1419
v -1845 8.19223 -1421
v -1845 8.08011 -1423
v -1845 7.9677 -1425
v -1845 7.85501 -1427
v -1845 7.74207 -1429
v -1845 7.62887 -1431
v -1845 7.51544 -1433
v -1845 7.40178 -1435
v -1845 7.28791 -1437
v -1845 7.17383 -1439
v -1845 7.05954 -1441
v -1845 6.94508 -1443
v -1845 6.83044 -1445
v -1845 6.71564 -1447
v -1845 6.60069 -1449
v -1845 6.4856 -1451
v -1845 6.37037 -1453
v -1845 6.25503 -1455
v -1845 6.13958 -1457
v -1845 6.02402 -1459
v -1845 5.90839 -1461
v -1845 5.79267 -1463
v -1845 5.6769 -1465
v -1845 5.56106 -1467
v -1843 9.17323 -1405
v -1843 9.06358 -1407
v -1843 8.95355 -1409
v -1843 8.84318 -1411
v -1843 8.73245 -1413
v -1843 8.6214 -1415
v -1843 8.51002 -1417
v -1843 8.39833 -1419
v -1843 8.28633 -1421
v -1843 8.17405 -1423
v -1843 8.06149 -1425
v -1843 7.94866 -1427
v -1843 7.83557 -1429
v -1843 7.72222 -1431
v -1843 7.60864 -1433
v -1843 7.49483 -1435
v -1843 7.38081 -1437
v -1843 7.26659 -1439
v -1843 7.15216 -1441
v -1843 7.03756 -1443
v -1843 6.92277 -1445
v -1843 6.80783 -1447
v -1843 6.69273 -1449
v -1843 6.57749 -1451
v -1843 6.46212 -1453
v -1843 6.34664 -1455
v -1843 6.23105 -1457
v -1843 6.11535 -1459
v -1843 5.99957 -1461
v -1843 5.88371 -1463
v -1843 5.76779 -1465
v -1843 5.65181 -1467
v -1841 9.26836 -1405
v -1841 9.15854 -1407
v -1841 9.04836 -1409
v -1841 8.93783 -1411
v -1841 8.82694 -1413
v -1841 8.71574 -1415
v -1841 8.6042 -1417
v -1841 8.49236 -1419
v -1841 8.38021 -1421
v -1841 8.26778 -1423
v -1841 8.15507 -1425
v -1841 8.04208 -1427
v -1841 7.92884 -1429
v -1841 7.81535 -1431
v -1841 7.70163 -1433
v -1841 7.58767 -1435
v -1841 7.4735 -1437
v -1841 7.35914 -1439
v -1841 7.24456 -1441
v -1841 7.12982 -1443
v -1841 7.01489 -1445
v -1841 6.8998 -1447
v -1841 6.78456 -1449
v -1841 6.66919 -1451
v -1841 6.55367 -1453
v -1841 6.43805 -1455
v -1841 6.32231 -1457
v -1841 6.20648 -1459
v -1841 6.09056 -1461
v -1841 5.97456 -1463
v -1841 5.8585 -1465
v -1841 5.74237 -1467
v -1839 9.36325 -1405
v -1839 9.25327 -1407
v -1839 9.14292 -1409
v -1839 9.03223 -1411
v -1839 8.92119 -1413
v -1839 8.80983 -1415
v -1839 8.69814 -1417
v -1839 8.58615 -1419
v -1839 8.47385 -1421
v -1839 8.36126 -1423
v -1839 8.2484 -1425
v -1839 8.13527 -1427
v -1839 8.02188 -1429
v -1839 7.90824 -1431
v -1839 7.79437 -1433
v -1839 7.68027 -1435
v -1839 7.56596 -1437
v -1839 7.45145 -1439
v -1839 7.33674 -1441
v -1839 7.22185 -1443
v -1839 7.10678 -1445
v -1839 6.99155 -1447
v -1839 6.87617 -1449
v -1839 6.76066 -1451
v -1839 6.645 -1453
v -1839 6.52924 -1455
v -1839 6.41337 -1457
v -1839 6.29739 -1459
v -1839 6.18133 -1461
v -1839 6.06519 -1463
v -1839 5.94899 -1465
v -1839 5.83273 -1467
v -1837 9.45788 -1405
v -1837 9.34774 -1407
v -1837 9.23724 -1409
v -1837 9.12639 -1411
v -1837 9.01519 -1413
v -1837 8.90367 -1415
v -1837 8.79183 -1417
v -1837 8.67968 -1419
v -1837 8.56723 -1421
v -1837 8.4545 -1423
v -1837 8.34149 -1425
v -1837 8.22821 -1427
v -1837 8.11468 -1429
v -1837 8.00089 -1431
v -1837 7.88688 -1433
v -1837 7.77264 -1435
v -1837 7.65819 -1437
v -1837 7.54353 -1439
v -1837 7.42868 -1441
v -1837 7.31364 -1443
v -1837 7.19844 -1445
v -1837 7.08307 -1447
v -1837 6.96755 -1449
v -1837 6.8519 -1451
v -1837 6.73611 -1453
v -1837 6.6202 -1455
v -1837 6.50419 -1457
v -1837 6.38808 -1459
v -1837 6.27188 -1461
v -1837 6.1556 -1463
v -1837 6.03927 -1465
v -1837 5.92287 -1467
v -1835 9.55225 -1405
v -1835 9.44195 -1407
v -1835 9.33129 -1409
v -1835 9.22028 -1411
v -1835 9.10893 -1413
v -1835 8.99726 -1415
v -1835 8.88526 -1417
v -1835 8.77296 -1419
v -1835 8.66036 -1421
v -1835 8.54748 -1423
v -1835 8.43433 -1425
v -1835 8.3209 -1427
v -1835 8.20722 -1429
v -1835 8.09329 -1431
v -1835 7.97914 -1433
v -1835 7.86475 -1435
v -1835 7.75016 -1437
v -1835 7.63536 -1439
v -1835 7.52037 -1441
v -1835 7.4052 -1443
v -1835 7.28985 -1445
v -1835 7.17435 -1447
v -1835 7.05869 -1449
v -1835 6.9429 -1451
v -1835 6.82697 -1453
v -1835 6.71093 -1455
v -1835 6.59479 -1457
v -1835 6.47854 -1459
v -1835 6.36221 -1461
v -1835 6.24579 -1463
v -1835 6.12932 -1465
v -1835 6.01279 -1467
v -1833 9.64634 -1405
v -1833 9.53588 -1407
v -1833 9.42506 -1409
v -1833 9.3139 -1411
v -1833 9.20239 -1413
v -1833 9.09056 -1415
v -1833 8.97842 -1417
v -1833 8.86597 -1419
v -1833 8.75322 -1421
v -1833 8.64019 -1423
v -1833 8.52689 -1425
v -1833 8.41331 -1427
v -1833 8.29949 -1429
v -1833 8.18542 -1431
v -1833 8.07112 -1433
v -1833 7.95659 -1435
v -1833 7.84186 -1437
v -1833 7.72693 -1439
v -1833 7.61179 -1441
v -1833 7.49649 -1443
v -1833 7.381 -1445
v -1833 7.26536 -1447
v -1833 7.14957 -1449
v -1833 7.03364 -1451
v -1833 6.91758 -1453
v -1833 6.80141 -1455
v -1833 6.68513 -1457
v -1833 6.56874 -1459
v -1833 6.45228 -1461
v -1833 6.33573 -1463
v -1833 6.21913 -1465
v -1833 6.10246 -1467
v -1831 9.74014 -1405
v -1831 9.62952 -1407
v -1831 9.51854 -1409
v -1831 9.40722 -1411
v -1831 9.29556 -1413
v -1831 9.18358 -1415
v -1831 9.07128 -1417
v -1831 8.95869 -1419
v -1831 8.84579 -1421
v -1831 8.73261 -1423
v -1831 8.61916 -1425
v -1831 8.50544 -1427
v -1831 8.39148 -1429
v -1831 8.27727 -1431
v -1831 8.16283 -1433
v -1831 8.04816 -1435
v -1831 7.93329 -1437
v -1831 7.81822 -1439
v -1831 7.70295 -1441
v -1831 7.5875 -1443
v -1831 7.47188 -1445
v -1831 7.35611 -1447
v -1831 7.24018 -1449
v -1831 7.12412 -1451
v -1831 7.00793 -1453
v -1831 6.89162 -1455
v -1831 6.77521 -1457
v -1831 6.65869 -1459
v -1831 6.54209 -1461
v -1831 6.42541 -1463
v -1831 6.30868 -1465
v -1831 6.19188 -1467
v -1829 9.83364 -1405
v -1829 9.72286 -1407
v -1829 9.61173 -1409
v -1829 9.50025 -1411
v -1829 9.38844 -1413
v -1829 9.27631 -1415
v -1829 9.16386 -1417
v -1829 9.05111 -1419
v -1829 8.93806 -1421
v -1829 8.82474 -1423
v -1829 8.71115 -1425
v -1829 8.59729 -1427
v -1829 8.48318 -1429
v -1829 8.36882 -1431
v -1829 8.25425 -1433
v -1829 8.13944 -1435
v -1829 8.02443 -1437
v -1829 7.90922 -1439
v -1829 7.79381 -1441
v -1829 7.67823 -1443
v -1829 7.56248 -1445
v -1829 7.44657 -1447
v -1829 7.33051 -1449
v -1829 7.21432 -1451
v -1829 7.09799 -1453
v -1829 6.98156 -1455
v -1829 6.86501 -1457
v -1829 6.74837 -1459
v -1829 6.63164 -1461
v -1829 6.51483 -1463
v -1829 6.39797 -1465
v -1829 6.28104 -1467
v -1827 9.92683 -1405
v -1827 9.8159 -1407
v -1827 9.7046 -1409
v -1827 9.59298 -1411
v -1827 9.48101 -1413
v -1827 9.36872 -1415
v -1827 9.25612 -1417
v -1827 9.14323 -1419
v -1827 9.03003 -1421
v -1827 8.91657 -1423
v -1827 8.80283 -1425
v -1827 8.68883 -1427
v -1827 8.57458 -1429
v -1827 8.46008 -1431
v -1827 8.34536 -1433
v -1827 8.23042 -1435
v -1827 8.11527 -1437
v -1827 7.99993 -1439
v -1827 7.88439 -1441
v -1827 7.76867 -1443
v -1827 7.65279 -1445
v -1827 7.53675 -1447
v -1827 7.42056 -1449
v -1827 7.30423 -1451
v -1827 7.18778 -1453
v -1827 7.07121 -1455
v -1827 6.95454 -1457
v -1827 6.83776 -1459
v -1827 6.72091 -1461
v -1827 6.60397 -1463
v -1827 6.48698 -1465
v -1827 6.36992 -1467
v -1825 10.0197 -1405
v -1825 9.90862 -1407
v -1825 9.79717 -1409
v -1825 9.68538 -1411
v -1825 9.57326 -1413
v -1825 9.46083 -1415
v -1825 9.34808 -1417
v -1825 9.23503 -1419
v -1825 9.1217 -1421
v -1825 9.00808 -1423
v -1825 8.8942 -1425
v -1825 8.78006 -1427
v -1825 8.66567 -1429
v -1825 8.55103 -1431
v -1825 8.43618 -1433
v -1825 8.3211 -1435
v -1825 8.20581 -1437
v -1825 8.09033 -1439
v -1825 7.97466 -1441
v -1825 7.85882 -1443
v -1825 7.7428 -1445
v -1825 7.62663 -1447
v -1825 7.51031 -1449
v -1825 7.39385 -1451
v -1825 7.27727 -1453
v -1825 7.16057 -1455
v -1825 7.04377 -1457
v -1825 6.92687 -1459
v -1825 6.80989 -1461
v -1825 6.69283 -1463
v -1825 6.57571 -1465
v -1825 6.45853 -1467
v -1823 10.1123 -1405
v -1823 10.001 -1407
v -1823 9.88939 -1409
v -1823 9.77745 -1411
v -1823 9.66518 -1413
v -1823 9.5526 -1415
v -1823 9.4397 -1417
v -1823 9.32651 -1419
v -1823 9.21302 -1421
v -1823 9.09927 -1423
v -1823 8.98524 -1425
v -1823 8.87095 -1427
v -1823 8.75643 -1429
v -1823 8.64165 -1431
v -1823 8.52666 -1433
v -1823 8.41145 -1435
v -1823 8.29603 -1437
v -1823 8.18042 -1439
v -1823 8.06461 -1441
v -1823 7.94864 -1443
v -1823 7.83249 -1445
v -1823 7.71619 -1447
v -1823 7.59974 -1449
v -1823 7.48316 -1451
v -1823 7.36645 -1453
v -1823 7.24963 -1455
v -1823 7.1327 -1457
v -1823 7.01567 -1459
v -1823 6.89857 -1461
v -1823 6.78138 -1463
v -1823 6.66414 -1465
v -1823 6.54683 -1467
v -1821 10.2044 -1405
v -1821 10.093 -1407
v -1821 9.98128 -1409
v -1821 9.86919 -1411
v -1821 9.75676 -1413
v -1821 9.64403 -1415
v -1821 9.53098 -1417
v -1821 9.41764 -1419
v -1821 9.30401 -1421
v -1821 9.19011 -1423
v -1821 9.07595 -1425
v -1821 8.96152 -1427
v -1821 8.84685 -1429
v -1821 8.73195 -1431
v -1821 8.61682 -1433
v -1821 8.50147 -1435
v -1821 8.38592 -1437
v -1821 8.27017 -1439
v -1821 8.15423 -1441
v -1821 8.03813 -1443
v -1821 7.92185 -1445
v -1821 7.80542 -1447
v -1821 7.68885 -1449
v -1821 7.57214 -1451
v -1821 7.45531 -1453
v -1821 7.33836 -1455
v -1821 7.22131 -1457
v -1821 7.10416 -1459
v -1821 6.98693 -1461
v -1821 6.86962 -1463
v -1821 6.75226 -1465
v -1821 6.63483 -1467
v -1819 10.2963 -1405
v -1819 10.1847 -1407
v -1819 10.0728 -1409
v -1819 9.96057 -1411
v -1819 9.84799 -1413
v -1819 9.7351 -1415
v -1819 9.62191 -1417
v -1819 9.50843 -1419
v -1819 9.39465 -1421
v -1819 9.28061 -1423
v -1819 9.16631 -1425
v -1819 9.05174 -1427
v -1819 8.93693 -1429
v -1819 8.82189 -1431
v -1819 8.70663 -1433
v -1819 8.59114 -1435
v -1819 8.47546 -1437
v -1819 8.35959 -1439
v -1819 8.24352 -1441
v -1819 8.12729 -1443
v -1819 8.01088 -1445
v -1819 7.89433 -1447
v -1819 7.77763 -1449
v -1819 7.6608 -1451
v -1819 7.54384 -1453
v -1819 7.42677 -1455
v -1819 7.3096 -1457
v -1819 7.19232 -1459
v -1819 7.07498 -1461
v -1819 6.95755 -1463
v -1819 6.84006 -1465
v -1819 6.72251 -1467
v -1817 10.3878 -1405
v -1817 10.2761 -1407
v -1817 10.164 -1409
v -1817 10.0516 -1411
v -1817 9.93886 -1413
v -1817 9.82583 -1415
v -1817 9.71249 -1417
v -1817 9.59886 -1419
v -1817 9.48494 -1421
v -1817 9.37076 -1423
v -1817 9.25631 -1425
v -1817 9.14161 -1427
v -1817 9.02667 -1429
v -1817 8.91149 -1431
v -1817 8.79609 -1433
v -1817 8.68047 -1435
v -1817 8.56466 -1437
v -1817 8.44866 -1439
v -1817 8.33246 -1441
v -1817 8.2161 -1443
v -1817 8.09957 -1445
v -1817 7.98289 -1447
v -1817 7.86607 -1449
v -1817 7.74911 -1451
v -1817 7.63203 -1453
v -1817 7.51484 -1455
v -1817 7.39755 -1457
v -1817 7.28016 -1459
v -1817 7.16269 -1461
v -1817 7.04514 -1463
v -1817 6.92754 -1465
v -1817 6.80988 -1467
v -1815 10.4789 -1405
v -1815 10.367 -1407
v -1815 10.2548 -1409
v -1815 10.1422 -1411
v -1815 10.0294 -1413
v -1815 9.91617 -1415
v -1815 9.80269 -1417
v -1815 9.68891 -1419
v -1815 9.57485 -1421
v -1815 9.46053 -1423
v -1815 9.34595 -1425
v -1815 9.2311 -1427
v -1815 9.11603 -1429
v -1815 9.00071 -1431
v -1815 8.88518 -1433
v -1815 8.76943 -1435
v -1815 8.65349 -1437
v -1815 8.53736 -1439
v -1815 8.42104 -1441
v -1815 8.30455 -1443
v -1815 8.1879 -1445
v -1815 8.0711 -1447
v -1815 7.95415 -1449
v -1815 7.83707 -1451
v -1815 7.71987 -1453
v -1815 7.60256 -1455
v -1815 7.48515 -1457
v -1815 7.36764 -1459
v -1815 7.25005 -1461
v -1815 7.13239 -1463
v -1815 7.01467 -1465
v -1815 6.89689 -1467
v -1813 10.5696 -1405
v -1813 10.4576 -1407
v -1813 10.3452 -1409
v -1813 10.2325 -1411
v -1813 10.1195 -1413
v -1813 10.0061 -1415
v -1813 9.89251 -1417
v -1813 9.77859 -1419
v -1813 9.66439 -1421
v -1813 9.54992 -1423
v -1813 9.4352 -1425
v -1813 9.32022 -1427
v -1813 9.20501 -1429
v -1813 9.08956 -1431
v -1813 8.9739 -1433
v -1813 8.85802 -1435
v -1813 8.74195 -1437
v -1813 8.62569 -1439
v -1813 8.50925 -1441
v -1813 8.39264 -1443
v -1813 8.27586 -1445
v -1813 8.15893 -1447
v -1813 8.04186 -1449
v -1813 7.92467 -1451
v -1813 7.80735 -1453
v -1813 7.68992 -1455
v -1813 7.57239 -1457
v -1813 7.45477 -1459
v -1813 7.33707 -1461
v -1813 7.21929 -1463
v -1813 7.10145 -1465
v -1813 6.98356 -1467
v -1811 10.6599 -1405
v -1811 10.5478 -1407
v -1811 10.4352 -1409
v -1811 10.3224 -1411
v -1811 10.2092 -1413
v -1811 10.0957 -1415
v -1811 9.98193 -1417
v -1811 9.86787 -1419
v -1811 9.75353 -1421
v -1811 9.63893 -1423
v -1811 9.52407 -1425
v -1811 9.40895 -1427
v -1811 9.29361 -1429
v -1811 9.17803 -1431
v -1811 9.06224 -1433
v -1811 8.94623 -1435
v -1811 8.83003 -1437
v -1811 8.71365 -1439
v -1811 8.59707 -1441
v -1811 8.48034 -1443
v -1811 8.36344 -1445
v -1811 8.2464 -1447
v -1811 8.12921 -1449
v -1811 8.01189 -1451
v -1811 7.89445 -1453
v -1811 7.77691 -1455
v -1811 7.65927 -1457
v -1811 7.54153 -1459
v -1811 7.42371 -1461
v -1811 7.30582 -1463
v -1811 7.18787 -1465
v -1811 7.06987 -1467
v -1809 10.7499 -1405
v -1809 10.6375 -1407
v -1809 10.5248 -1409
v -1809 10.4118 -1411
v -1809 10.2985 -1413
v -1809 10.1849 -1415
v -1809 10.071 -1417
v -1809 9.95676 -1419
v -1809 9.84227 -1421
v -1809 9.72753 -1423
v -1809 9.61254 -1425
v -1809 9.49729 -1427
v -1809 9.38181 -1429
v -1809 9.2661 -1431
v -1809 9.15018 -1433
v -1809 9.03404 -1435
v -1809 8.91772 -1437
v -1809 8.80121 -1439
v -1809 8.68451 -1441
v -1809 8.56766 -1443
v -1809 8.45063 -1445
v -1809 8.33347 -1447
v -1809 8.21616 -1449
v -1809 8.09873 -1451
v -1809 7.98118 -1453
v -1809 7.86352 -1455
v -1809 7.74577 -1457
v -1809 7.62791 -1459
v -1809 7.50999 -1461
v -1809 7.39198 -1463
v -1809 7.27393 -1465
v -1809 7.15581 -1467
v -1807 10.8394 -1405
v -1807 10.7269 -1407
v -1807 10.614 -1409
v -1807 10.5009 -1411
v -1807 10.3874 -1413
v -1807 10.2736 -1415
v -1807 10.1596 -1417
v -1807 10.0452 -1419
v -1807 9.93061 -1421
v -1807 9.81573 -1423
v -1807 9.7006 -1425
v -1807 9.58522 -1427
v -1807 9.46961 -1429
v -1807 9.35377 -1431
v -1807 9.23772 -1433
v -1807 9.12146 -1435
v -1807 9.00501 -1437
v -1807 8.88837 -1439
v -1807 8.77155 -1441
v -1807 8.65458 -1443
v -1807 8.53744 -1445
v -1807 8.42016 -1447
v -1807 8.30273 -1449
v -1807 8.18519 -1451
v -1807 8.06752 -1453
v -1807 7.94975 -1455
v -1807 7.83188 -1457
v -1807 7.71391 -1459
v -1807 7.59588 -1461
v -1807 7.47776 -1463
v -1807 7.3596 -1465
v -1807 7.24138 -1467
v -1805 10.9285 -1405
v -1805 10.8158 -1407
v -1805 10.7028 -1409
v -1805 10.5895 -1411
v -1805 10.4759 -1413
v -1805 10.362 -1415
v -1805 10.2478 -1417
v -1805 10.1333 -1419
v -1805 10.0185 -1421
v -1805 9.90351 -1423
v -1805 9.78824 -1425
v -1805 9.67273 -1427
v -1805 9.55698 -1429
v -1805 9.44101 -1431
v -1805 9.32484 -1433
v -1805 9.20845 -1435
v -1805 9.09188 -1437
v -1805 8.97512 -1439
v -1805 8.85818 -1441
v -1805 8.74109 -1443
v -1805 8.62383 -1445
v -1805 8.50643 -1447
v -1805 8.38889 -1449
v -1805 8.27123 -1451
v -1805 8.15345 -1453
v -1805 8.03557 -1455
v -1805 7.91759 -1457
v -1805 7.79952 -1459
v -1805 7.68137 -1461
v -1805 7.56315 -1463
v -1805 7.44488 -1465
v -1805 7.32655 -1467
v -1803 11.0171 -1405
v -1803 10.9043 -1407
v -1803 10.7912 -1409
v -1803 10.6777 -1411
v -1803 10.564 -1413
v -1803 10.4499 -1415
v -1803 10.3355 -1417
v -1803 10.2209 -1419
v -1803 10.106 -1421
v -1803 9.99086 -1423
v -1803 9.87546 -1425
v -1803 9.75981 -1427
v -1803 9.64394 -1429
v -1803 9.52784 -1431
v -1803 9.41153 -1433
v -1803 9.29502 -1435
v -1803 9.17833 -1437
v -1803 9.06145 -1439
v -1803 8.94439 -1441
v -1803 8.82717 -1443
v -1803 8.7098 -1445
v -1803 8.59229 -1447
v -1803 8.47464 -1449
v -1803 8.35686 -1451
v -1803 8.23897 -1453
v -1803 8.12098 -1455
v -1803 8.00289 -1457
v -1803 7.88471 -1459
v -1803 7.76646 -1461
v -1803 7.64813 -1463
v -1803 7.52975 -1465
v -1803 7.41132 -1467
f 28 27 19
f 2 27 28
f 1 2 28
f 23 29 22
f 27 16 19
f 20 19 16
f 24 22 32
f 24 23 22
f 2 7 27
f 7 10 27
f 27 10 16
f 3 2 1
f 4 3 1
f 3 8 2
f 8 7 2
f 10 13 16
f 17 20 16
f 17 16 13
f 8 11 7
f 11 10 7
f 14 13 10
f 11 14 10
f 14 17 13
f 9 8 3
f 9 12 8
f 12 11 8
f 5 3 4
f 6 5 4
f 12 15 11
f 24 32 30
f 18 21 17
f 21 20 17
f 18 17 14
f 15 14 11
f 31 24 30
f 15 18 14
f 5 9 3
f 15 12 26
f 18 15 26
f 12 9 5
f 26 12 5
f 18 26 25
f 21 18 25
f 25 26 5
f 36 5 6
f 35 34 33
f 162 161 160
f 163 161 162
f 164 163 162
f 181 182 184
f 184 182 185
f 165 163 164
f 166 165 164
f 185 182 186
f 183 182 181
f 161 159 160
f 160 159 157
f 167 165 166
f 186 182 187
f 168 167 166
f 188 182 183
f 187 182 188
f 170 169 168
f 169 167 168
f 172 171 170
f 159 158 157
f 233 230 232
f 234 230 233
f 216 215 201
f 203 216 201
f 217 216 203
f 232 230 231
f 215 214 199
f 201 215 199
f 171 169 170
f 165 177 163
f 163 176 161
f 177 176 163
f 161 175 159
f 176 175 161
f 199 214 198
f 231 230 229
f 214 213 198
f 205 217 203
f 235 230 234
f 218 217 205
f 175 174 159
f 159 174 158
f 229 230 236
f 236 230 235
f 203 201 202
f 202 201 200
f 201 199 200
f 204 203 202
f 205 203 204
f 167 178 165
f 178 177 165
f 174 173 158
f 171 180 169
f 207 218 205
f 219 218 207
f 200 199 197
f 199 198 197
f 169 179 167
f 180 179 169
f 220 219 209
f 211 220 209
f 179 178 167
f 206 205 204
f 207 205 206
f 225 222 226
f 224 222 225
f 221 222 224
f 209 219 207
f 193 190 192
f 192 190 191
f 194 190 193
f 151 150 149
f 134 133 118
f 149 150 156
f 131 140 129
f 140 139 129
f 226 222 227
f 208 207 206
f 209 207 208
f 212 211 210
f 211 209 210
f 223 222 221
f 228 222 223
f 227 222 228
f 210 209 208
f 195 190 194
f 191 190 189
f 119 134 118
f 152 150 151
f 135 134 119
f 139 138 127
f 129 139 127
f 156 150 155
f 67 62 68
f 48 47 46
f 49 47 48
f 66 62 67
f 50 49 48
f 155 150 154
f 153 150 152
f 154 150 153
f 196 190 195
f 189 190 196
f 65 62 66
f 45 43 44
f 46 45 44
f 64 62 65
f 44 43 42
f 47 45 46
f 127 138 125
f 138 137 125
f 136 135 121
f 121 135 119
f 61 62 64
f 43 41 42
f 42 41 40
f 84 83 82
f 82 81 80
f 83 81 82
f 104 102 105
f 101 102 104
f 86 85 84
f 85 83 84
f 105 102 106
f 137 136 123
f 123 136 121
f 51 49 50
f 68 62 63
f 52 51 50
f 63 62 61
f 41 39 40
f 40 39 37
f 125 137 123
f 39 38 37
f 81 79 80
f 103 102 101
f 80 79 77
f 88 87 86
f 87 85 86
f 106 102 107
f 108 102 103
f 107 102 108
f 119 118 117
f 132 131 130
f 131 129 130
f 120 119 117
f 121 119 120
f 90 89 88
f 89 87 88
f 79 78 77
f 92 91 90
f 130 129 128
f 129 127 128
f 128 127 126
f 127 125 126
f 91 89 90
f 122 121 120
f 123 121 122
f 125 123 124
f 126 125 124
f 85 97 83
f 83 96 81
f 97 96 83
f 81 95 79
f 96 95 81
f 124 123 122
f 95 94 79
f 79 94 78
f 98 97 85
f 87 98 85
f 51 60 49
f 49 59 47
f 60 59 49
f 45 57 43
f 57 56 43
f 43 56 41
f 94 93 78
f 91 100 89
f 47 58 45
f 58 57 45
f 89 99 87
f 100 99 89
f 99 98 87
f 59 58 47
f 143 142 141
f 148 142 143
f 54 53 38
f 39 54 38
f 56 55 41
f 41 55 39
f 147 142 148
f 55 54 39
f 141 142 144
f 113 110 112
f 112 110 111
f 144 142 145
f 145 142 146
f 146 142 147
f 114 110 113
f 115 110 114
f 111 110 109
f 116 110 115
f 109 110 116
f 75 70 74
f 74 70 73
f 76 70 75
f 69 70 76
f 73 70 72
f 72 70 71
f 71 70 69
f 254 255 253
f 256 255 254
f 257 255 256
f 257 312 255
f 313 312 257
f 254 253 252
f 248 247 246
f 311 313 244
f 260 259 258
f 270 260 258
f 271 260 270
f 246 247 245
f 267 268 273
f 267 273 276
f 276 273 275
f 246 245 244
f 275 273 274
f 307 244 245
f 274 273 272
f 315 274 272
f 309 244 307
f 310 244 309
f 311 244 310
f 312 313 314
f 313 279 314
f 279 313 311
f 315 282 274
f 280 278 315
f 315 278 282
f 251 250 248
f 248 250 249
f 248 249 247
f 282 275 274
f 287 288 286
f 280 279 278
f 286 316 285
f 286 285 283
f 283 287 286
f 292 295 294
f 294 295 296
f 293 291 292
f 299 298 297
f 290 295 292
f 298 301 297
f 292 291 290
f 297 301 300
f 245 306 304
f 306 305 304
f 302 300 301
f 300 302 303
f 307 245 304
f 278 243 277
f 278 279 243
f 285 284 283
f 269 268 267
f 308 304 305
f 285 289 284
f 242 277 243
f 264 263 281
f 266 261 265
f 261 262 265
f 263 264 262
f 263 262 261
f 243 239 242
f 242 239 240
f 239 238 237
f 240 239 237
f 241 240 237
f 334 335 333
f 336 335 334
f 337 335 336
f 337 392 335
f 393 392 337
f 334 333 332
f 328 327 326
f 391 393 324
f 340 339 338
f 350 340 338
f 351 340 350
f 326 327 325
f 347 348 353
f 347 353 356
f 356 353 355
f 326 325 324
f 355 353 354
f 387 324 325
f 354 353 352
f 395 354 352
f 389 324 387
f 390 324 389
f 391 324 390
f 392 393 394
f 393 359 394
f 359 393 391
f 395 362 354
f 360 358 395
f 395 358 362
f 331 330 328
f 328 330 329
f 328 329 327
f 362 355 354
f 367 368 366
f 360 359 358
f 366 396 365
f 366 365 363
f 363 367 366
f 372 375 374
f 374 375 376
f 373 371 372
f 379 378 377
f 370 375 372
f 378 381 377
f 372 371 370
f 377 381 380
f 325 386 384
f 386 385 384
f 382 380 381
f 380 382 383
f 387 325 384
f 358 323 357
f 358 359 323
f 365 364 363
f 349 348 347
f 388 384 385
f 365 369 364
f 322 357 323
f 344 343 361
f 346 341 345
f 341 342 345
f 343 344 342
f 343 342 341
f 323 319 322
f 322 319 320
f 319 318 317
f 320 319 317
f 321 320 317
f 414 415 413
f 416 415 414
f 417 415 416
f 417 472 415
f 473 472 417
f 414 413 412
f 408 407 406
f 471 473 404
f 420 419 418
f 430 420 418
f 431 420 430
f 406 407 405
f 427 428 433
f 427 433 436
f 436 433 435
f 406 405 404
f 435 433 434
f 467 404 405
f 434 433 432
f 475 434 432
f 469 404 467
f 470 404 469
f 471 404 470
f 472 473 474
f 473 439 474
f 439 473 471
f 475 442 434
f 440 438 475
f 475 438 442
f 411 410 408
f 408 410 409
f 408 409 407
f 442 435 434
f 447 448 446
f 440 439 438
f 446 476 445
f 446 445 443
f 443 447 446
f 452 455 454
f 454 455 456
f 453 451 452
f 459 458 457
f 450 455 452
f 458 461 457
f 452 451 450
f 457 461 460
f 405 466 464
f 466 465 464
f 462 460 461
f 460 462 463
f 467 405 464
f 438 403 437
f 438 439 403
f 445 444 443
f 429 428 427
f 468 464 465
f 445 449 444
f 402 437 403
f 424 423 441
f 426 421 425
f 421 422 425
f 423 424 422
f 423 422 421
f 403 399 402
f 402 399 400
f 399 398 397
f 400 399 397
f 401 400 397
f 494 495 493
f 496 495 494
f 497 495 496
f 497 552 495
f 553 552 497
f 494 493 492
f 488 487 486
f 551 553 484
f 500 499 498
f 510 500 498
f 511 500 510
f 486 487 485
f 507 508 513
f 507 513 516
f 516 513 515
f 486 485 484
f 515 513 514
f 547 484 485
f 514 513 512
f 555 514 512
f 549 484 547
f 550 484 549
f 551 484 550
f 552 553 554
f 553 519 554
f 519 553 551
f 555 522 514
f 520 518 555
f 555 518 522
f 491 490 488
f 488 490 489
f 488 489 487
f 522 515 514
f 527 528 526
f 520 519 518
f 526 556 525
f 526 525 523
f 523 527 526
f 532 535 534
f 534 535 536
f 533 531 532
f 539 538 537
f 530 535 532
f 538 541 537
f 532 531 530
f 537 541 540
f 485 546 544
f 546 545 544
f 542 540 541
f 540 542 543
f 547 485 544
f 518 483 517
f 518 519 483
f 525 524 523
f 509 508 507
f 548 544 545
f 525 529 524
f 482 517 483
f 504 503 521
f 506 501 505
f 501 502 505
f 503 504 502
f 503 502 501
f 483 479 482
f 482 479 480
f 479 478 477
f 480 479 477
f 481 480 477
f 694 693 692
f 698 697 696
f 695 693 694
f 705 703 704
f 701 700 699
f 704 703 702
f 707 708 709
f 708 707 706
f 712 711 710
f 710 711 713
f 721 719 720
f 720 719 718
f 725 723 724
f 724 723 722
f 630 629 628
f 629 631 628
f 583 642 643
f 632 631 629
f 632 633 631
f 634 633 632
f 635 633 634
f 615 614 613
f 616 614 615
f 616 617 614
f 618 617 616
f 643 642 641
f 664 663 662
f 582 642 583
f 582 644 642
f 665 663 664
f 665 664 668
f 687 691 659
f 687 690 691
f 690 687 686
f 668 664 659
f 670 668 659
f 585 573 584
f 584 573 571
f 573 572 571
f 666 664 662
f 636 640 639
f 640 636 638
f 638 636 637
f 637 636 635
f 635 636 633
f 651 650 649
f 652 651 649
f 653 651 652
f 654 653 652
f 655 653 654
f 655 654 656
f 589 689 685
f 725 727 723
f 723 727 726
f 621 620 618
f 618 619 617
f 618 620 619
f 645 646 644
f 645 647 646
f 716 719 721
f 719 716 717
f 645 648 647
f 712 714 711
f 645 644 582
f 680 686 687
f 680 687 659
f 664 666 667
f 664 667 669
f 664 669 659
f 680 681 686
f 589 685 683
f 717 716 715
f 727 728 726
f 624 623 622
f 680 659 688
f 659 669 661
f 661 660 659
f 659 660 658
f 659 658 657
f 680 688 679
f 681 680 679
f 591 590 589
f 591 589 678
f 589 683 678
f 596 597 598
f 594 597 596
f 595 593 594
f 592 597 594
f 600 603 599
f 601 600 599
f 594 593 592
f 609 607 608
f 599 603 602
f 610 607 609
f 673 672 671
f 672 673 674
f 588 587 586
f 677 676 675
f 684 682 683
f 683 682 678
f 604 602 603
f 602 604 605
f 608 607 606
f 624 625 623
f 627 623 625
f 581 582 583
f 610 611 607
f 612 611 610
f 627 625 626
f 569 568 567
f 568 570 581
f 568 569 570
f 579 574 578
f 574 575 578
f 576 577 575
f 576 575 574
f 582 581 580
f 581 570 580
f 559 558 557
f 566 563 565
f 565 563 564
f 560 558 559
f 560 561 558
f 564 563 562
f 562 563 561
f 562 561 560
f 734 736 735
f 736 737 735
f 732 733 730
f 733 734 730
f 734 735 730
f 731 732 730
f 731 730 729
f 755 756 754
f 757 756 755
f 758 756 757
f 758 813 756
f 814 813 758
f 755 754 753
f 749 748 747
f 812 814 745
f 761 760 759
f 771 761 759
f 772 761 771
f 747 748 746
f 768 769 774
f 768 774 777
f 777 774 776
f 747 746 745
f 776 774 775
f 808 745 746
f 775 774 773
f 816 775 773
f 810 745 808
f 811 745 810
f 812 745 811
f 813 814 815
f 814 780 815
f 780 814 812
f 816 783 775
f 781 779 816
f 816 779 783
f 752 751 749
f 749 751 750
f 749 750 748
f 783 776 775
f 788 789 787
f 781 780 779
f 787 817 786
f 787 786 784
f 784 788 787
f 793 796 795
f 795 796 797
f 794 792 793
f 800 799 798
f 791 796 793
f 799 802 798
f 793 792 791
f 798 802 801
f 746 807 805
f 807 806 805
f 803 801 802
f 801 803 804
f 808 746 805
f 779 744 778
f 779 780 744
f 786 785 784
f 770 769 768
f 809 805 806
f 786 790 785
f 743 778 744
f 765 764 782
f 767 762 766
f 762 763 766
f 764 765 763
f 764 763 762
f 744 740 743
f 743 740 741
f 740 739 738
f 741 740 738
f 742 741 738
f 835 836 834
f 837 836 835
f 838 836 837
f 838 893 836
f 894 893 838
f 835 834 833
f 829 828 827
f 892 894 825
f 841 840 839
f 851 841 839
f 852 841 851
f 827 828 826
f 848 849 854
f 848 854 857
f 857 854 856
f 827 826 825
f 856 854 855
f 888 825 826
f 855 854 853
f 896 855 853
f 890 825 888
f 891 825 890
f 892 825 891
f 893 894 895
f 894 860 895
f 860 894 892
f 896 863 855
f 861 859 896
f 896 859 863
f 832 831 829
f 829 831 830
f 829 830 828
f 863 856 855
f 868 869 867
f 861 860 859
f 867 897 866
f 867 866 864
f 864 868 867
f 873 876 875
f 875 876 877
f 874 872 873
f 880 879 878
f 871 876 873
f 879 882 878
f 873 872 871
f 878 882 881
f 826 887 885
f 887 886 885
f 883 881 882
f 881 883 884
f 888 826 885
f 859 824 858
f 859 860 824
f 866 865 864
f 850 849 848
f 889 885 886
f 866 870 865
f 823 858 824
f 845 844 862
f 847 842 846
f 842 843 846
f 844 845 843
f 844 843 842
f 824 820 823
f 823 820 821
f 820 819 818
f 821 820 818
f 822 821 818
f 1035 1034 1033
f 1039 1038 1037
f 1036 1034 1035
f 1046 1044 1045
f 1042 1041 1040
f 1045 1044 1043
f 1048 1049 1050
f 1049 1048 1047
f 1053 1052 1051
f 1051 1052 1054
f 1062 1060 1061
f 1061 1060 1059
f 1066 1064 1065
f 1065 1064 1063
f 971 970 969
f 970 972 969
f 924 983 984
f 973 972 970
f 973 974 972
f 975 974 973
f 976 974 975
f 956 955 954
f 957 955 956
f 957 958 955
f 959 958 957
f 984 983 982
f 1005 1004 1003
f 923 983 924
f 923 985 983
f 1006 1004 1005
f 1006 1005 1009
f 1028 1032 1000
f 1028 1031 1032
f 1031 1028 1027
f 1009 1005 1000
f 1011 1009 1000
f 926 914 925
f 925 914 912
f 914 913 912
f 1007 1005 1003
f 977 981 980
f 981 977 979
f 979 977 978
f 978 977 976
f 976 977 974
f 992 991 990
f 993 992 990
f 994 992 993
f 995 994 993
f 996 994 995
f 996 995 997
f 930 1030 1026
f 1066 1068 1064
f 1064 1068 1067
f 962 961 959
f 959 960 958
f 959 961 960
f 986 987 985
f 986 988 987
f 1057 1060 1062
f 1060 1057 1058
f 986 989 988
f 1053 1055 1052
f 986 985 923
f 1021 1027 1028
f 1021 1028 1000
f 1005 1007 1008
f 1005 1008 1010
f 1005 1010 1000
f 1021 1022 1027
f 930 1026 1024
f 1058 1057 1056
f 1068 1069 1067
f 965 964 963
f 1021 1000 1029
f 1000 1010 1002
f 1002 1001 1000
f 1000 1001 999
f 1000 999 998
f 1021 1029 1020
f 1022 1021 1020
f 932 931 930
f 932 930 1019
f 930 1024 1019
f 937 938 939
f 935 938 937
f 936 934 935
f 933 938 935
f 941 944 940
f 942 941 940
f 935 934 933
f 950 948 949
f 940 944 943
f 951 948 950
f 1014 1013 1012
f 1013 1014 1015
f 929 928 927
f 1018 1017 1016
f 1025 1023 1024
f 1024 1023 1019
f 945 943 944
f 943 945 946
f 949 948 947
f 965 966 964
f 968 964 966
f 922 923 924
f 951 952 948
f 953 952 951
f 968 966 967
f 910 909 908
f 909 911 922
f 909 910 911
f 920 915 919
f 915 916 919
f 917 918 916
f 917 916 915
f 923 922 921
f 922 911 921
f 900 899 898
f 907 904 906
f 906 904 905
f 901 899 900
f 901 902 899
f 905 904 903
f 903 904 902
f 903 902 901
f 1075 1077 1076
f 1077 1078 1076
f 1073 1074 1071
f 1074 1075 1071
f 1075 1076 1071
f 1072 1073 1071
f 1072 1071 1070
f 1112 1080 1079
f 1079 1111 1112
f 1144 1112 1111
f 1111 1143 1144
f 1176 1144 1143
f 1143 1175 1176
f 1208 1176 1175
f 1175 1207 1208
f 1240 1208 1207
f 1207 1239 1240
f 1272 1240 1239
f 1239 1271 1272
f 1304 1272 1271
f 1271 1303 1304
f 1336 1304 1303
f 1303 1335 1336
f 1368 1336 1335
f 1335 1367 1368
f 1400 1368 1367
f 1367 1399 1400
f 1432 1400 1399
f 1399 1431 1432
f 1464 1432 1431
f 1431 1463 1464
f 1496 1464 1463
f 1463 1495 1496
f 1528 1496 1495
f 1495 1527 1528
f 1560 1528 1527
f 1527 1559 1560
f 1592 1560 1559
f 1559 1591 1592
f 1624 1592 1591
f 1591 1623 1624
f 1656 1624 1623
f 1623 1655 1656
f 1688 1656 1655
f 1655 1687 1688
f 1720 1688 1687
f 1687 1719 1720
f 1752 1720 1719
f 1719 1751 1752
f 1784 1752 1751
f 1751 1783 1784
f 1816 1784 1783
f 1783 1815 1816
f 1848 1816 1815
f 1815 1847 1848
f 1880 1848 1847
f 1847 1879 1880
f 1912 1880 1879
f 1879 1911 1912
f 1944 1912 1911
f 1911 1943 1944
f 1976 1944 1943
f 1943 1975 1976
f 2008 1976 1975
f 1975 2007 2008
f 2040 2008 2007
f 2007 2039 2040
f 2072 2040 2039
f 2039 2071 2072
f 1113 1081 1080
f 1080 1112 1113
f 1145 1113 1112
f 1112 1144 1145
f 1177 1145 1144
f 1144 1176 1177
f 1209 1177 1176
f 1176 1208 1209
f 1241 1209 1208
f 1208 1240 1241
f 1273 1241 1240
f 1240 1272 1273
f 1305 1273 1272
f 1272 1304 1305
f 1337 1305 1304
f 1304 1336 1337
f 1369 1337 1336
f 1336 1368 1369
f 1401 1369 1368
f 1368 1400 1401
f 1433 1401 1400
f 1400 1432 1433
f 1465 1433 1432
f 1432 1464 1465
f 1497 1465 1464
f 1464 1496 1497
f 1529 1497 1496
f 1496 1528 1529
f 1561 1529 1528
f 1528 1560 1561
f 1593 1561 1560
f 1560 1592 1593
f 1625 1593 1592
f 1592 1624 1625
f 1657 1625 1624
f 1624 1656 1657
f 1689 1657 1656
f 1656 1688 1689
f 1721 1689 1688
f 1688 1720 1721
f 1753 1721 1720
f 1720 1752 1753
f 1785 1753 1752
f 1752 1784 1785
f 1817 1785 1784
f 1784 1816 1817
f 1849 1817 1816
f 1816 1848 1849
f 1881 1849 1848
f 1848 1880 1881
f 1913 1881 1880
f 1880 1912 1913
f 1945 1913 1912
f 1912 1944 1945
f 1977 1945 1944
f 1944 1976 1977
f 2009 1977 1976
f 1976 2008 2009
f 2041 2009 2008
f 2008 2040 2041
f 2073 2041 2040
f 2040 2072 2073
f 1114 1082 1081
f 1081 1113 1114
f 1146 1114 1113
f 1113 1145 1146
f 1178 1146 1145
f 1145 1177 1178
f 1210 1178 1177
f 1177 1209 1210
f 1242 1210 1209
f 1209 1241 1242
f 1274 1242 1241
f 1241 1273 1274
f 1306 1274 1273
f 1273 1305 1306
f 1338 1306 1305
f 1305 1337 1338
f 1370 1338 1337
f 1337 1369 1370
f 1402 1370 1369
f 1369 1401 1402
f 1434 1402 1401
f 1401 1433 1434
f 1466 1434 1433
f 1433 1465 1466
f 1498 1466 1465
f 1465 1497 1498
f 1530 1498 1497
f 1497 1529 1530
f 1562 1530 1529
f 1529 1561 1562
f 1594 1562 1561
f 1561 1593 1594
f 1626 1594 1593
f 1593 1625 1626
f 1658 1626 1625
f 1625 1657 1658
f 1690 1658 1657
f 1657 1689 1690
f 1722 1690 1689
f 1689 1721 1722
f 1754 1722 1721
f 1721 1753 1754
f 1786 1754 1753
f 1753 1785 1786
f 1818 1786 1785
f 1785 1817 1818
f 1850 1818 1817
f 1817 1849 1850
f 1882 1850 1849
f 1849 1881 1882
f 1914 1882 1881
f 1881 1913 1914
f 1946 1914 1913
f 1913 1945 1946
f 1978 1946 1945
f 1945 1977 1978
f 2010 1978 1977
f 1977 2009 2010
f 2042 2010 2009
f 2009 2041 2042
f 2074 2042 2041
f 2041 2073 2074
f 1115 1083 1082
f 1082 1114 1115
f 1147 1115 1114
f 1114 1146 1147
f 1179 1147 1146
f 1146 1178 1179
f 1211 1179 1178
f 1178 1210 1211
f 1243 1211 1210
f 1210 1242 1243
f 1275 1243 1242
f 1242 1274 1275
f 1307 1275 1274
f 1274 1306 1307
f 1339 1307 1306
f 1306 1338 1339
f 1371 1339 1338
f 1338 1370 1371
f 1403 1371 1370
f 1370 1402 1403
f 1435 1403 1402
f 1402 1434 1435
f 1467 1435 1434
f 1434 1466 1467
f 1499 1467 1466
f 1466 1498 1499
f 1531 1499 1498
f 1498 1530 1531
f 1563 1531 1530
f 1530 1562 1563
f 1595 1563 1562
f 1562 1594 1595
f 1627 1595 1594
f 1594 1626 1627
f 1659 1627 1626
f 1626 1658 1659
f 1691 1659 1658
f 1658 1690 1691
f 1723 1691 1690
f 1690 1722 1723
f 1755 1723 1722
f 1722 1754 1755
f 1787 1755 1754
f 1754 1786 1787
f 1819 1787 1786
f 1786 1818 1819
f 1851 1819 1818
f 1818 1850 1851
f 1883 1851 1850
f 1850 1882 1883
f 1915 1883 1882
f 1882 1914 1915
f 1947 1915 1914
f 1914 1946 1947
f 1979 1947 1946
f 1946 1978 1979
f 2011 1979 1978
f 1978 2010 2011
f 2043 2011 2010
f 2010 2042 2043
f 2075 2043 2042
f 2042 2074 2075
f 1116 1084 1083
f 1083 1115 1116
f 1148 1116 1115
f 1115 1147 1148
f 1180 1148 1147
f 1147 1179 1180
f 1212 1180 1179
f 1179 1211 1212
f 1244 1212 1211
f 1211 1243 1244
f 1276 1244 1243
f 1243 1275 1276
f 1308 1276 1275
f 1275 1307 1308
f 1340 1308 1307
f 1307 1339 1340
f 1372 1340 1339
f 1339 1371 1372
f 1404 1372 1371
f 1371 1403 1404
f 1436 1404 1403
f 1403 1435 1436
f 1468 1436 1435
f 1435 1467 1468
f 1500 1468 1467
f 1467 1499 1500
f 1532 1500 1499
f 1499 1531 1532
f 1564 1532 1531
f 1531 1563 1564
f 1596 1564 1563
f 1563 1595 1596
f 1628 1596 1595
f 1595 1627 1628
f 1660 1628 1627
f 1627 1659 1660
f 1692 1660 1659
f 1659 1691 1692
f 1724 1692 1691
f 1691 1723 1724
f 1756 1724 1723
f 1723 1755 1756
f 1788 1756 1755
f 1755 1787 1788
f 1820 1788 1787
f 1787 1819 1820
f 1852 1820 1819
f 1819 1851 1852
f 1884 1852 1851
f 1851 1883 1884
f 1916 1884 1883
f 1883 1915 1916
f 1948 1916 1915
f 1915 1947 1948
f 1980 1948 1947
f 1947 1979 1980
f 2012 1980 1979
f 1979 2011 2012
f 2044 2012 2011
f 2011 2043 2044
f 2076 2044 2043
f 2043 2075 2076
f 1117 1085 1084
f 1084 1116 1117
f 1149 1117 1116
f 1116 1148 1149
f 1181 1149 1148
f 1148 1180 1181
f 1213 1181 1180
f 1180 1212 1213
f 1245 1213 1212
f 1212 1244 1245
f 1277 1245 1244
f 1244 1276 1277
f 1309 1277 1276
f 1276 1308 1309
f 1341 1309 1308
f 1308 1340 1341
f 1373 1341 1340
f 1340 1372 1373
f 1405 1373 1372
f 1372 1404 1405
f 1437 1405 1404
f 1404 1436 1437
f 1469 1437 1436
f 1436 1468 1469
f 1501 1469 1468
f 1468 1500 1501
f 1533 1501 1500
f 1500 1532 1533
f 1565 1533 1532
f 1532 1564 1565
f 1597 1565 1564
f 1564 1596 1597
f 1629 1597 1596
f 1596 1628 1629
f 1661 1629 1628
f 1628 1660 1661
f 1693 1661 1660
f 1660 1692 1693
f 1725 1693 1692
f 1692 1724 1725
f 1757 1725 1724
f 1724 1756 1757
f 1789 1757 1756
f 1756 1788 1789
f 1821 1789 1788
f 1788 1820 1821
f 1853 1821 1820
f 1820 1852 1853
f 1885 1853 1852
f 1852 1884 1885
f 1917 1885 1884
f 1884 1916 1917
f 1949 1917 1916
f 1916 1948 1949
f 1981 1949 1948
f 1948 1980 1981
f 2013 1981 1980
f 1980 2012 2013
f 2045 2013 2012
f 2012 2044 2045
f 2077 2045 2044
f 2044 2076 2077
f 1118 1086 1085
f 1085 1117 1118
f 1150 1118 1117
f 1117 1149 1150
f 1182 1150 1149
f 1149 1181 1182
f 1214 1182 1181
f 1181 1213 1214
f 1246 1214 1213
f 1213 1245 1246
f 1278 1246 1245
f 1245 1277 1278
f 1310 1278 1277
f 1277 1309 1310
f 1342 1310 1309
f 1309 1341 1342
f 1374 1342 1341
f 1341 1373 1374
f 1406 1374 1373
f 1373 1405 1406
f 1438 1406 1405
f 1405 1437 1438
f 1470 1438 1437
f 1437 1469 1470
f 1502 1470 1469
f 1469 1501 1502
f 1534 1502 1501
f 1501 1533 1534
f 1566 1534 1533
f 1533 1565 1566
f 1598 1566 1565
f 1565 1597 1598
f 1630 1598 1597
f 1597 1629 1630
f 1662 1630 1629
f 1629 1661 1662
f 1694 1662 1661
f 1661 1693 1694
f 1726 1694 1693
f 1693 1725 1726
f 1758 1726 1725
f 1725 1757 1758
f 1790 1758 1757
f 1757 1789 1790
f 1822 1790 1789
f 1789 1821 1822
f 1854 1822 1821
f 1821 1853 1854
f 1886 1854 1853
f 1853 1885 1886
f 1918 1886 1885
f 1885 1917 1918
f 1950 1918 1917
f 1917 1949 1950
f 1982 1950 1949
f 1949 1981 1982
f 2014 1982 1981
f 1981 2013 2014
f 2046 2014 2013
f 2013 2045 2046
f 2078 2046 2045
f 2045 2077 2078
f 1119 1087 1086
f 1086 1118 1119
f 1151 1119 1118
f 1118 1150 1151
f 1183 1151 1150
f 1150 1182 1183
f 1215 1183 1182
f 1182 1214 1215
f 1247 1215 1214
f 1214 1246 1247
f 1279 1247 1246
f 1246 1278 1279
f 1311 1279 1278
f 1278 1310 1311
f 1343 1311 1310
f 1310 1342 1343
f 1375 1343 1342
f 1342 1374 1375
f 1407 1375 1374
f 1374 1406 1407
f 1439 1407 1406
f 1406 1438 1439
f 1471 1439 1438
f 1438 1470 1471
f 1503 1471 1470
f 1470 1502 1503
f 1535 1503 1502
f 1502 1534 1535
f 1567 1535 1534
f 1534 1566 1567
f 1599 1567 1566
f 1566 1598 1599
f 1631 1599 1598
f 1598 1630 1631
f 1663 1631 1630
f 1630 1662 1663
f 1695 1663 1662
f 1662 1694 1695
f 1727 1695 1694
f 1694 1726 1727
f 1759 1727 1726
f 1726 1758 1759
f 1791 1759 1758
f 1758 1790 1791
f 1823 1791 1790
f 1790 1822 1823
f 1855 1823 1822
f 1822 1854 1855
f 1887 1855 1854
f 1854 1886 1887
f 1919 1887 1886
f 1886 1918 1919
f 1951 1919 1918
f 1918 1950 1951
f 1983 1951 1950
f 1950 1982 1983
f 2015 1983 1982
f 1982 2014 2015
f 2047 2015 2014
f 2014 2046 2047
f 2079 2047 2046
f 2046 2078 2079
f 1120 1088 1087
f 1087 1119 1120
f 1152 1120 1119
f 1119 1151 1152
f 1184 1152 1151
f 1151 1183 1184
f 1216 1184 1183
f 1183 1215 1216
f 1248 1216 1215
f 1215 1247 1248
f 1280 1248 1247
f 1247 1279 1280
f 1312 1280 1279
f 1279 1311 1312
f 1344 1312 1311
f 1311 1343 1344
f 1376 1344 1343
f 1343 1375 1376
f 1408 1376 1375
f 1375 1407 1408
f 1440 1408 1407
f 1407 1439 1440
f 1472 1440 1439
f 1439 1471 1472
f 1504 1472 1471
f 1471 1503 1504
f 1536 1504 1503
f 1503 1535 1536
f 1568 1536 1535
f 1535 1567 1568
f 1600 1568 1567
f 1567 1599 1600
f 1632 1600 1599
f 1599 1631 1632
f 1664 1632 1631
f 1631 1663 1664
f 1696 1664 1663
f 1663 1695 1696
f 1728 1696 1695
f 1695 1727 1728
f 1760 1728 1727
f 1727 1759 1760
f 1792 1760 1759
f 1759 1791 1792
f 1824 1792 1791
f 1791 1823 1824
f 1856 1824 1823
f 1823 1855 1856
f 1888 1856 1855
f 1855 1887 1888
f 1920 1888 1887
f 1887 1919 1920
f 1952 1920 1919
f 1919 1951 1952
f 1984 1952 1951
f 1951 1983 1984
f 2016 1984 1983
f 1983 2015 2016
f 2048 2016 2015
f 2015 2047 2048
f 2080 2048 2047
f 2047 2079 2080
f 1121 1089 1088
f 1088 1120 1121
f 1153 1121 1120
f 1120 1152 1153
f 1185 1153 1152
f 1152 1184 1185
f 1217 1185 1184
f 1184 1216 1217
f 1249 1217 1216
f 1216 1248 1249
f 1281 1249 1248
f 1248 1280 1281
f 1313 1281 1280
f 1280 1312 1313
f 1345 1313 1312
f 1312 1344 1345
f 1377 1345 1344
f 1344 1376 1377
f 1409 1377 1376
f 1376 1408 1409
f 1441 1409 1408
f 1408 1440 1441
f 1473 1441 1440
f 1440 1472 1473
f 1505 1473 1472
f 1472 1504 1505
f 1537 1505 1504
f 1504 1536 1537
f 1569 1537 1536
f 1536 1568 1569
f 1601 1569 1568
f 1568 1600 1601
f 1633 1601 1600
f 1600 1632 1633
f 1665 1633 1632
f 1632 1664 1665
f 1697 1665 1664
f 1664 1696 1697
f 1729 1697 1696
f 1696 1728 1729
f 1761 1729 1728
f 1728 1760 1761
f 1793 1761 1760
f 1760 1792 1793
f 1825 1793 1792
f 1792 1824 1825
f 1857 1825 1824
f 1824 1856 1857
f 1889 1857 1856
f 1856 1888 1889
f 1921 1889 1888
f 1888 1920 1921
f 1953 1921 1920
f 1920 1952 1953
f 1985 1953 1952
f 1952 1984 1985
f 2017 1985 1984
f 1984 2016 2017
f 2049 2017 2016
f 2016 2048 2049
f 2081 2049 2048
f 2048 2080 2081
f 1122 1090 1089
f 1089 1121 1122
f 1154 1122 1121
f 1121 1153 1154
f 1186 1154 1153
f 1153 1185 1186
f 1218 1186 1185
f 1185 1217 1218
f 1250 1218 1217
f 1217 1249 1250
f 1282 1250 1249
f 1249 1281 1282
f 1314 1282 1281
f 1281 1313 1314
f 1346 1314 1313
f 1313 1345 1346
f 1378 1346 1345
f 1345 1377 1378
f 1410 1378 1377
f 1377 1409 1410
f 1442 1410 1409
f 1409 1441 1442
f 1474 1442 1441
f 1441 1473 1474
f 1506 1474 1473
f 1473 1505 1506
f 1538 1506 1505
f 1505 1537 1538
f 1570 1538 1537
f 1537 1569 1570
f 1602 1570 1569
f 1569 1601 1602
f 1634 1602 1601
f 1601 1633 1634
f 1666 1634 1633
f 1633 1665 1666
f 1698 1666 1665
f 1665 1697 1698
f 1730 1698 1697
f 1697 1729 1730
f 1762 1730 1729
f 1729 1761 1762
f 1794 1762 1761
f 1761 1793 1794
f 1826 1794 1793
f 1793 1825 1826
f 1858 1826 1825
f 1825 1857 1858
f 1890 1858 1857
f 1857 1889 1890
f 1922 1890 1889
f 1889 1921 1922
f 1954 1922 1921
f 1921 1953 1954
f 1986 1954 1953
f 1953 1985 1986
f 2018 1986 1985
f 1985 2017 2018
f 2050 2018 2017
f 2017 2049 2050
f 2082 2050 2049
f 2049 2081 2082
f 1123 1091 1090
f 1090 1122 1123
f 1155 1123 1122
f 1122 1154 1155
f 1187 1155 1154
f 1154 1186 1187
f 1219 1187 1186
f 1186 1218 1219
f 1251 1219 1218
f 1218 1250 1251
f 1283 1251 1250
f 1250 1282 1283
f 1315 1283 1282
f 1282 1314 1315
f 1347 1315 1314
f 1314 1346 1347
f 1379 1347 1346
f 1346 1378 1379
f 1411 1379 1378
f 1378 1410 1411
f 1443 1411 1410
f 1410 1442 1443
f 1475 1443 1442
f 1442 1474 1475
f 1507 1475 1474
f 1474 1506 1507
f 1539 1507 1506
f 1506 1538 1539
f 1571 1539 1538
f 1538 1570 1571
f 1603 1571 1570
f 1570 1602 1603
f 1635 1603 1602
f 1602 1634 1635
f 1667 1635 1634
f 1634 1666 1667
f 1699 1667 1666
f 1666 1698 1699
f 1731 1699 1698
f 1698 1730 1731
f 1763 1731 1730
f 1730 1762 1763
f 1795 1763 1762
f 1762 1794 1795
f 1827 1795 1794
f 1794 1826 1827
f 1859 1827 1826
f 1826 1858 1859
f 1891 1859 1858
f 1858 1890 1891
f 1923 1891 1890
f 1890 1922 1923
f 1955 1923 1922
f 1922 1954 1955
f 1987 1955 1954
f 1954 1986 1987
f 2019 1987 1986
f 1986 2018 2019
f 2051 2019 2018
f 2018 2050 2051
f 2083 2051 2050
f 2050 2082 2083
f 1124 1092 1091
f 1091 1123 1124
f 1156 1124 1123
f 1123 1155 1156
f 1188 1156 1155
f 1155 1187 1188
f 1220 1188 1187
f 1187 1219 1220
f 1252 1220 1219
f 1219 1251 1252
f 1284 1252 1251
f 1251 1283 1284
f 1316 1284 1283
f 1283 1315 1316
f 1348 1316 1315
f 1315 1347 1348
f 1380 1348 1347
f 1347 1379 1380
f 1412 1380 1379
f 1379 1411 1412
f 1444 1412 1411
f 1411 1443 1444
f 1476 1444 1443
f 1443 1475 1476
f 1508 1476 1475
f 1475 1507 1508
f 1540 1508 1507
f 1507 1539 1540
f 1572 1540 1539
f 1539 1571 1572
f 1604 1572 1571
f 1571 1603 1604
f 1636 1604 1603
f 1603 1635 1636
f 1668 1636 1635
f 1635 1667 1668
f 1700 1668 1667
f 1667 1699 1700
f 1732 1700 1699
f 1699 1731 1732
f 1764 1732 1731
f 1731 1763 1764
f 1796 1764 1763
f 1763 1795 1796
f 1828 1796 1795
f 1795 1827 1828
f 1860 1828 1827
f 1827 1859 1860
f 1892 1860 1859
f 1859 1891 1892
f 1924 1892 1891
f 1891 1923 1924
f 1956 1924 1923
f 1923 1955 1956
f 1988 1956 1955
f 1955 1987 1988
f 2020 1988 1987
f 1987 2019 2020
f 2052 2020 2019
f 2019 2051 2052
f 2084 2052 2051
f 2051 2083 2084
f 1125 1093 1092
f 1092 1124 1125
f 1157 1125 1124
f 1124 1156 1157
f 1189 1157 1156
f 1156 1188 1189
f 1221 1189 1188
f 1188 1220 1221
f 1253 1221 1220
f 1220 1252 1253
f 1285 1253 1252
f 1252 1284 1285
f 1317 1285 1284
f 1284 1316 1317
f 1349 1317 1316
f 1316 1348 1349
f 1381 1349 1348
f 1348 1380 1381
f 1413 1381 1380
f 1380 1412 1413
f 1445 1413 1412
f 1412 1444 1445
f 1477 1445 1444
f 1444 1476 1477
f 1509 1477 1476
f 1476 1508 1509
f 1541 1509 1508
f 1508 1540 1541
f 1573 1541 1540
f 1540 1572 1573
f 1605 1573 1572
f 1572 1604 1605
f 1637 1605 1604
f 1604 1636 1637
f 1669 1637 1636
f 1636 1668 1669
f 1701 1669 1668
f 1668 1700 1701
f 1733 1701 1700
f 1700 1732 1733
f 1765 1733 1732
f 1732 1764 1765
f 1797 1765 1764
f 1764 1796 1797
f 1829 1797 1796
f 1796 1828 1829
f 1861 1829 1828
f 1828 1860 1861
f 1893 1861 1860
f 1860 1892 1893
f 1925 1893 1892
f 1892 1924 1925
f 1957 1925 1924
f 1924 1956 1957
f 1989 1957 1956
f 1956 1988 1989
f 2021 1989 1988
f 1988 2020 2021
f 2053 2021 2020
f 2020 2052 2053
f 2085 2053 2052
f 2052 2084 2085
f 1126 1094 1093
f 1093 1125 1126
f 1158 1126 1125
f 1125 1157 1158
f 1190 1158 1157
f 1157 1189 1190
f 1222 1190 1189
f 1189 1221 1222
f 1254 1222 1221
f 1221 1253 1254
f 1286 1254 1253
f 1253 1285 1286
f 1318 1286 1285
f 1285 1317 1318
f 1350 1318 1317
f 1317 1349 1350
f 1382 1350 1349
f 1349 1381 1382
f 1414 1382 1381
f 1381 1413 1414
f 1446 1414 1413
f 1413 1445 1446
f 1478 1446 1445
f 1445 1477 1478
f 1510 1478 1477
f 1477 1509 1510
f 1542 1510 1509
f 1509 1541 1542
f 1574 1542 1541
f 1541 1573 1574
f 1606 1574 1573
f 1573 1605 1606
f 1638 1606 1605
f 1605 1637 1638
f 1670 1638 1637
f 1637 1669 1670
f 1702 1670 1669
f 1669 1701 1702
f 1734 1702 1701
f 1701 1733 1734
f 1766 1734 1733
f 1733 1765 1766
f 1798 1766 1765
f 1765 1797 1798
f 1830 1798 1797
f 1797 1829 1830
f 1862 1830 1829
f 1829 1861 1862
f 1894 1862 1861
f 1861 1893 1894
f 1926 1894 1893
f 1893 1925 1926
f 1958 1926 1925
f 1925 1957 1958
f 1990 1958 1957
f 1957 1989 1990
f 2022 1990 1989
f 1989 2021 2022
f 2054 2022 2021
f 2021 2053 2054
f 2086 2054 2053
f 2053 2085 2086
f 1127 1095 1094
f 1094 1126 1127
f 1159 1127 1126
f 1126 1158 1159
f 1191 1159 1158
f 1158 1190 1191
f 1223 1191 1190
f 1190 1222 1223
f 1255 1223 1222
f 1222 1254 1255
f 1287 1255 1254
f 1254 1286 1287
f 1319 1287 1286
f 1286 1318 1319
f 1351 1319 1318
f 1318 1350 1351
f 1383 1351 1350
f 1350 1382 1383
f 1415 1383 1382
f 1382 1414 1415
f 1447 1415 1414
f 1414 1446 1447
f 1479 1447 1446
f 1446 1478 1479
f 1511 1479 1478
f 1478 1510 1511
f 1543 1511 1510
f 1510 1542 1543
f 1575 1543 1542
f 1542 1574 1575
f 1607 1575 1574
f 1574 1606 1607
f 1639 1607 1606
f 1606 1638 1639
f 1671 1639 1638
f 1638 1670 1671
f 1703 1671 1670
f 1670 1702 1703
f 1735 1703 1702
f 1702 1734 1735
f 1767 1735 1734
f 1734 1766 1767
f 1799 1767 1766
f 1766 1798 1799
f 1831 1799 1798
f 1798 1830 1831
f 1863 1831 1830
f 1830 1862 1863
f 1895 1863 1862
f 1862 1894 1895
f 1927 1895 1894
f 1894 1926 1927
f 1959 1927 1926
f 1926 1958 1959
f 1991 1959 1958
f 1958 1990 1991
f 2023 1991 1990
f 1990 2022 2023
f 2055 2023 2022
f 2022 2054 2055
f 2087 2055 2054
f 2054 2086 2087
f 1128 1096 1095
f 1095 1127 1128
f 1160 1128 1127
f 1127 1159 1160
f 1192 1160 1159
f 1159 1191 1192
f 1224 1192 1191
f 1191 1223 1224
f 1256 1224 1223
f 1223 1255 1256
f 1288 1256 1255
f 1255 1287 1288
f 1320 1288 1287
f 1287 1319 1320
f 1352 1320 1319
f 1319 1351 1352
f 1384 1352 1351
f 1351 1383 1384
f 1416 1384 1383
f 1383 1415 1416
f 1448 1416 1415
f 1415 1447 1448
f 1480 1448 1447
f 1447 1479 1480
f 1512 1480 1479
f 1479 1511 1512
f 1544 1512 1511
f 1511 1543 1544
f 1576 1544 1543
f 1543 1575 1576
f 1608 1576 1575
f 1575 1607 1608
f 1640 1608 1607
f 1607 1639 1640
f 1672 1640 1639
f 1639 1671 1672
f 1704 1672 1671
f 1671 1703 1704
f 1736 1704 1703
f 1703 1735 1736
f 1768 1736 1735
f 1735 1767 1768
f 1800 1768 1767
f 1767 1799 1800
f 1832 1800 1799
f 1799 1831 1832
f 1864 1832 1831
f 1831 1863 1864
f 1896 1864 1863
f 1863 1895 1896
f 1928 1896 1895
f 1895 1927 1928
f 1960 1928 1927
f 1927 1959 1960
f 1992 1960 1959
f 1959 1991 1992
f 2024 1992 1991
f 1991 2023 2024
f 2056 2024 2023
f 2023 2055 2056
f 2088 2056 2055
f 2055 2087 2088
f 1129 1097 1096
f 1096 1128 1129
f 1161 1129 1128
f 1128 1160 1161
f 1193 1161 1160
f 1160 1192 1193
f 1225 1193 1192
f 1192 1224 1225
f 1257 1225 1224
f 1224 1256 1257
f 1289 1257 1256
f 1256 1288 1289
f 1321 1289 1288
f 1288 1320 1321
f 1353 1321 1320
f 1320 1352 1353
f 1385 1353 1352
f 1352 1384 1385
f 1417 1385 1384
f 1384 1416 1417
f 1449 1417 1416
f 1416 1448 1449
f 1481 1449 1448
f 1448 1480 1481
f 1513 1481 1480
f 1480 1512 1513
f 1545 1513 1512
f 1512 1544 1545
f 1577 1545 1544
f 1544 1576 1577
f 1609 1577 1576
f 1576 1608 1609
f 1641 1609 1608
f 1608 1640 1641
f 1673 1641 1640
f 1640 1672 1673
f 1705 1673 1672
f 1672 1704 1705
f 1737 1705 1704
f 1704 1736 1737
f 1769 1737 1736
f 1736 1768 1769
f 1801 1769 1768
f 1768 1800 1801
f 1833 1801 1800
f 1800 1832 1833
f 1865 1833 1832
f 1832 1864 1865
f 1897 1865 1864
f 1864 1896 1897
f 1929 1897 1896
f 1896 1928 1929
f 1961 1929 1928
f 1928 1960 1961
f 1993 1961 1960
f 1960 1992 1993
f 2025 1993 1992
f 1992 2024 2025
f 2057 2025 2024
f 2024 2056 2057
f 2089 2057 2056
f 2056 2088 2089
f 1130 1098 1097
f 1097 1129 1130
f 1162 1130 1129
f 1129 1161 1162
f 1194 1162 1161
f 1161 1193 1194
f 1226 1194 1193
f 1193 1225 1226
f 1258 1226 1225
f 1225 1257 1258
f 1290 1258 1257
f 1257 1289 1290
f 1322 1290 1289
f 1289 1321 1322
f 1354 1322 1321
f 1321 1353 1354
f 1386 1354 1353
f 1353 1385 1386
f 1418 1386 1385
f 1385 1417 1418
f 1450 1418 1417
f 1417 1449 1450
f 1482 1450 1449
f 1449 1481 1482
f 1514 1482 1481
f 1481 1513 1514
f 1546 1514 1513
f 1513 1545 1546
f 1578 1546 1545
f 1545 1577 1578
f 1610 1578 1577
f 1577 1609 1610
f 1642 1610 1609
f 1609 1641 1642
f 1674 1642 1641
f 1641 1673 1674
f 1706 1674 1673
f 1673 1705 1706
f 1738 1706 1705
f 1705 1737 1738
f 1770 1738 1737
f 1737 1769 1770
f 1802 1770 1769
f 1769 1801 1802
f 1834 1802 1801
f 1801 1833 1834
f 1866 1834 1833
f 1833 1865 1866
f 1898 1866 1865
f 1865 1897 1898
f 1930 1898 1897
f 1897 1929 1930
f 1962 1930 1929
f 1929 1961 1962
f 1994 1962 1961
f 1961 1993 1994
f 2026 1994 1993
f 1993 2025 2026
f 2058 2026 2025
f 2025 2057 2058
f 2090 2058 2057
f 2057 2089 2090
f 1131 1099 1098
f 1098 1130 1131
f 1163 1131 1130
f 1130 1162 1163
f 1195 1163 1162
f 1162 1194 1195
f 1227 1195 1194
f 1194 1226 1227
f 1259 1227 1226
f 1226 1258 1259
f 1291 1259 1258
f 1258 1290 1291
f 1323 1291 1290
f 1290 1322 1323
f 1355 1323 1322
f 1322 1354 1355
f 1387 1355 1354
f 1354 1386 1387
f 1419 1387 1386
f 1386 1418 1419
f 1451 1419 1418
f 1418 1450 1451
f 1483 1451 1450
f 1450 1482 1483
f 1515 1483 1482
f 1482 1514 1515
f 1547 1515 1514
f 1514 1546 1547
f 1579 1547 1546
f 1546 1578 1579
f 1611 1579 1578
f 1578 1610 1611
f 1643 1611 1610
f 1610 1642 1643
f 1675 1643 1642
f 1642 1674 1675
f 1707 1675 1674
f 1674 1706 1707
f 1739 1707 1706
f 1706 1738 1739
f 1771 1739 1738
f 1738 1770 1771
f 1803 1771 1770
f 1770 1802 1803
f 1835 1803 1802
f 1802 1834 1835
f 1867 1835 1834
f 1834 1866 1867
f 1899 1867 1866
f 1866 1898 1899
f 1931 1899 1898
f 1898 1930 1931
f 1963 1931 1930
f 1930 1962 1963
f 1995 1963 1962
f 1962 1994 1995
f 2027 1995 1994
f 1994 2026 2027
f 2059 2027 2026
f 2026 2058 2059
f 2091 2059 2058
f 2058 2090 2091
f 1132 1100 1099
f 1099 1131 1132
f 1164 1132 1131
f 1131 1163 1164
f 1196 1164 1163
f 1163 1195 1196
f 1228 1196 1195
f 1195 1227 1228
f 1260 1228 1227
f 1227 1259 1260
f 1292 1260 1259
f 1259 1291 1292
f 1324 1292 1291
f 1291 1323 1324
f 1356 1324 1323
f 1323 1355 1356
f 1388 1356 1355
f 1355 1387 1388
f 1420 1388 1387
f 1387 1419 1420
f 1452 1420 1419
f 1419 1451 1452
f 1484 1452 1451
f 1451 1483 1484
f 1516 1484 1483
f 1483 1515 1516
f 1548 1516 1515
f 1515 1547 1548
f 1580 1548 1547
f 1547 1579 1580
f 1612 1580 1579
f 1579 1611 1612
f 1644 1612 1611
f 1611 1643 1644
f 1676 1644 1643
f 1643 1675 1676
f 1708 1676 1675
f 1675 1707 1708
f 1740 1708 1707
f 1707 1739 1740
f 1772 1740 1739
f 1739 1771 1772
f 1804 1772 1771
f 1771 1803 1804
f 1836 1804 1803
f 1803 1835 1836
f 1868 1836 1835
f 1835 1867 1868
f 1900 1868 1867
f 1867 1899 1900
f 1932 1900 1899
f 1899 1931 1932
f 1964 1932 1931
f 1931 1963 1964
f 1996 1964 1963
f 1963 1995 1996
f 2028 1996 1995
f 1995 2027 2028
f 2060 2028 2027
f 2027 2059 2060
f 2092 2060 2059
f 2059 2091 2092
f 1133 1101 1100
f 1100 1132 1133
f 1165 1133 1132
f 1132 1164 1165
f 1197 1165 1164
f 1164 1196 1197
f 1229 1197 1196
f 1196 1228 1229
f 1261 1229 1228
f 1228 1260 1261
f 1293 1261 1260
f 1260 1292 1293
f 1325 1293 1292
f 1292 1324 1325
f 1357 1325 1324
f 1324 1356 1357
f 1389 1357 1356
f 1356 1388 1389
f 1421 1389 1388
f 1388 1420 1421
f 1453 1421 1420
f 1420 1452 1453
f 1485 1453 1452
f 1452 1484 1485
f 1517 1485 1484
f 1484 1516 1517
f 1549 1517 1516
f 1516 1548 1549
f 1581 1549 1548
f 1548 1580 1581
f 1613 1581 1580
f 1580 1612 1613
f 1645 1613 1612
f 1612 1644 1645
f 1677 1645 1644
f 1644 1676 1677
f 1709 1677 1676
f 1676 1708 1709
f 1741 1709 1708
f 1708 1740 1741
f 1773 1741 1740
f 1740 1772 1773
f 1805 1773 1772
f 1772 1804 1805
f 1837 1805 1804
f 1804 1836 1837
f 1869 1837 1836
f 1836 1868 1869
f 1901 1869 1868
f 1868 1900 1901
f 1933 1901 1900
f 1900 1932 1933
f 1965 1933 1932
f 1932 1964 1965
f 1997 1965 1964
f 1964 1996 1997
f 2029 1997 1996
f 1996 2028 2029
f 2061 2029 2028
f 2028 2060 2061
f 2093 2061 2060
f 2060 2092 2093
f 1134 1102 1101
f 1101 1133 1134
f 1166 1134 1133
f 1133 1165 1166
f 1198 1166 1165
f 1165 1197 1198
f 1230 1198 1197
f 1197 1229 1230
f 1262 1230 1229
f 1229 1261 1262
f 1294 1262 1261
f 1261 1293 1294
f 1326 1294 1293
f 1293 1325 1326
f 1358 1326 1325
f 1325 1357 1358
f 1390 1358 1357
f 1357 1389 1390
f 1422 1390 1389
f 1389 1421 1422
f 1454 1422 1421
f 1421 1453 1454
f 1486 1454 1453
f 1453 1485 1486
f 1518 1486 1485
f 1485 1517 1518
f 1550 1518 1517
f 1517 1549 1550
f 1582 1550 1549
f 1549 1581 1582
f 1614 1582 1581
f 1581 1613 1614
f 1646 1614 1613
f 1613 1645 1646
f 1678 1646 1645
f 1645 1677 1678
f 1710 1678 1677
f 1677 1709 1710
f 1742 1710 1709
f 1709 1741 1742
f 1774 1742 1741
f 1741 1773 1774
f 1806 1774 1773
f 1773 1805 1806
f 1838 1806 1805
f 1805 1837 1838
f 1870 1838 1837
f 1837 1869 1870
f 1902 1870 1869
f 1869 1901 1902
f 1934 1902 1901
f 1901 1933 1934
f 1966 1934 1933
f 1933 1965 1966
f 1998 1966 1965
f 1965 1997 1998
f 2030 1998 1997
f 1997 2029 2030
f 2062 2030 2029
f 2029 2061 2062
f 2094 2062 2061
f 2061 2093 2094
f 1135 1103 1102
f 1102 1134 1135
f 1167 1135 1134
f 1134 1166 1167
f 1199 1167 1166
f 1166 1198 1199
f 1231 1199 1198
f 1198 1230 1231
f 1263 1231 1230
f 1230 1262 1263
f 1295 1263 1262
f 1262 1294 1295
f 1327 1295 1294
f 1294 1326 1327
f 1359 1327 1326
f 1326 1358 1359
f 1391 1359 1358
f 1358 1390 1391
f 1423 1391 1390
f 1390 1422 1423
f 1455 1423 1422
f 1422 1454 1455
f 1487 1455 1454
f 1454 1486 1487
f 1519 1487 1486
f 1486 1518 1519
f 1551 1519 1518
f 1518 1550 1551
f 1583 1551 1550
f 1550 1582 1583
f 1615 1583 1582
f 1582 1614 1615
f 1647 1615 1614
f 1614 1646 1647
f 1679 1647 1646
f 1646 1678 1679
f 1711 1679 1678
f 1678 1710 1711
f 1743 1711 1710
f 1710 1742 1743
f 1775 1743 1742
f 1742 1774 1775
f 1807 1775 1774
f 1774 1806 1807
f 1839 1807 1806
f 1806 1838 1839
f 1871 1839 1838
f 1838 1870 1871
f 1903 1871 1870
f 1870 1902 1903
f 1935 1903 1902
f 1902 1934 1935
f 1967 1935 1934
f 1934 1966 1967
f 1999 1967 1966
f 1966 1998 1999
f 2031 1999 1998
f 1998 2030 2031
f 2063 2031 2030
f 2030 2062 2063
f 2095 2063 2062
f 2062 2094 2095
f 1136 1104 1103
f 1103 1135 1136
f 1168 1136 1135
f 1135 1167 1168
f 1200 1168 1167
f 1167 1199 1200
f 1232 1200 1199
f 1199 1231 1232
f 1264 1232 1231
f 1231 1263 1264
f 1296 1264 1263
f 1263 1295 1296
f 1328 1296 1295
f 1295 1327 1328
f 1360 1328 1327
f 1327 1359 1360
f 1392 1360 1359
f 1359 1391 1392
f 1424 1392 1391
f 1391 1423 1424
f 1456 1424 1423
f 1423 1455 1456
f 1488 1456 1455
f 1455 1487 1488
f 1520 1488 1487
f 1487 1519 1520
f 1552 1520 1519
f 1519 1551 1552
f 1584 1552 1551
f 1551 1583 1584
f 1616 1584 1583
f 1583 1615 1616
f 1648 1616 1615
f 1615 1647 1648
f 1680 1648 1647
f 1647 1679 1680
f 1712 1680 1679
f 1679 1711 1712
f 1744 1712 1711
f 1711 1743 1744
f 1776 1744 1743
f 1743 1775 1776
f 1808 1776 1775
f 1775 1807 1808
f 1840 1808 1807
f 1807 1839 1840
f 1872 1840 1839
f 1839 1871 1872
f 1904 1872 1871
f 1871 1903 1904
f 1936 1904 1903
f 1903 1935 1936
f 1968 1936 1935
f 1935 1967 1968
f 2000 1968 1967
f 1967 1999 2000
f 2032 2000 1999
f 1999 2031 2032
f 2064 2032 2031
f 2031 2063 2064
f 2096 2064 2063
f 2063 2095 2096
f 1137 1105 1104
f 1104 1136 1137
f 1169 1137 1136
f 1136 1168 1169
f 1201 1169 1168
f 1168 1200 1201
f 1233 1201 1200
f 1200 1232 1233
f 1265 1233 1232
f 1232 1264 1265
f 1297 1265 1264
f 1264 1296 1297
f 1329 1297 1296
f 1296 1328 1329
f 1361 1329 1328
f 1328 1360 1361
f 1393 1361 1360
f 1360 1392 1393
f 1425 1393 1392
f 1392 1424 1425
f 1457 1425 1424
f 1424 1456 1457
f 1489 1457 1456
f 1456 1488 1489
f 1521 1489 1488
f 1488 1520 1521
f 1553 1521 1520
f 1520 1552 1553
f 1585 1553 1552
f 1552 1584 1585
f 1617 1585 1584
f 1584 1616 1617
f 1649 1617 1616
f 1616 1648 1649
f 1681 1649 1648
f 1648 1680 1681
f 1713 1681 1680
f 1680 1712 1713
f 1745 1713 1712
f 1712 1744 1745
f 1777 1745 1744
f 1744 1776 1777
f 1809 1777 1776
f 1776 1808 1809
f 1841 1809 1808
f 1808 1840 1841
f 1873 1841 1840
f 1840 1872 1873
f 1905 1873 1872
f 1872 1904 1905
f 1937 1905 1904
f 1904 1936 1937
f 1969 1937 1936
f 1936 1968 1969
f 2001 1969 1968
f 1968 2000 2001
f 2033 2001 2000
f 2000 2032 2033
f 2065 2033 2032
f 2032 2064 2065
f 2097 2065 2064
f 2064 2096 2097
f 1138 1106 1105
f 1105 1137 1138
f 1170 1138 1137
f 1137 1169 1170
f 1202 1170 1169
f 1169 1201 1202
f 1234 1202 1201
f 1201 1233 1234
f 1266 1234 1233
f 1233 1265 1266
f 1298 1266 1265
f 1265 1297 1298
f 1330 1298 1297
f 1297 1329 1330
f 1362 1330 1329
f 1329 1361 1362
f 1394 1362 1361
f 1361 1393 1394
f 1426 1394 1393
f 1393 1425 1426
f 1458 1426 1425
f 1425 1457 1458
f 1490 1458 1457
f 1457 1489 1490
f 1522 1490 1489
f 1489 1521 1522
f 1554 1522 1521
f 1521 1553 1554
f 1586 1554 1553
f 1553 1585 1586
f 1618 1586 1585
f 1585 1617 1618
f 1650 1618 1617
f 1617 1649 1650
f 1682 1650 1649
f 1649 1681 1682
f 1714 1682 1681
f 1681 1713 1714
f 1746 1714 1713
f 1713 1745 1746
f 1778 1746 1745
f 1745 1777 1778
f 1810 1778 1777
f 1777 1809 1810
f 1842 1810 1809
f 1809 1841 1842
f 1874 1842 1841
f 1841 1873 1874
f 1906 1874 1873
f 1873 1905 1906
f 1938 1906 1905
f 1905 1937 1938
f 1970 1938 1937
f 1937 1969 1970
f 2002 1970 1969
f 1969 2001 2002
f 2034 2002 2001
f 2001 2033 2034
f 2066 2034 2033
f 2033 2065 2066
f 2098 2066 2065
f 2065 2097 2098
f 1139 1107 1106
f 1106 1138 1139
f 1171 1139 1138
f 1138 1170 1171
f 1203 1171 1170
f 1170 1202 1203
f 1235 1203 1202
f 1202 1234 1235
f 1267 1235 1234
f 1234 1266 1267
f 1299 1267 1266
f 1266 1298 1299
f 1331 1299 1298
f 1298 1330 1331
f 1363 1331 1330
f 1330 1362 1363
f 1395 1363 1362
f 1362 1394 1395
f 1427 1395 1394
f 1394 1426 1427
f 1459 1427 1426
f 1426 1458 1459
f 1491 1459 1458
f 1458 1490 1491
f 1523 1491 1490
f 1490 1522 1523
f 1555 1523 1522
f 1522 1554 1555
f 1587 1555 1554
f 1554 1586 1587
f 1619 1587 1586
f 1586 1618 1619
f 1651 1619 1618
f 1618 1650 1651
f 1683 1651 1650
f 1650 1682 1683
f 1715 1683 1682
f 1682 1714 1715
f 1747 1715 1714
f 1714 1746 1747
f 1779 1747 1746
f 1746 1778 1779
f 1811 1779 1778
f 1778 1810 1811
f 1843 1811 1810
f 1810 1842 1843
f 1875 1843 1842
f 1842 1874 1875
f 1907 1875 1874
f 1874 1906 1907
f 1939 1907 1906
f 1906 1938 1939
f 1971 1939 1938
f 1938 1970 1971
f 2003 1971 1970
f 1970 2002 2003
f 2035 2003 2002
f 2002 2034 2035
f 2067 2035 2034
f 2034 2066 2067
f 2099 2067 2066
f 2066 2098 2099
f 1140 1108 1107
f 1107 1139 1140
f 1172 1140 1139
f 1139 1171 1172
f 1204 1172 1171
f 1171 1203 1204
f 1236 1204 1203
f 1203 1235 1236
f 1268 1236 1235
f 1235 1267 1268
f 1300 1268 1267
f 1267 1299 1300
f 1332 1300 1299
f 1299 1331 1332
f 1364 1332 1331
f 1331 1363 1364
f 1396 1364 1363
f 1363 1395 1396
f 1428 1396 1395
f 1395 1427 1428
f 1460 1428 1427
f 1427 1459 1460
f 1492 1460 1459
f 1459 1491 1492
f 1524 1492 1491
f 1491 1523 1524
f 1556 1524 1523
f 1523 1555 1556
f 1588 1556 1555
f 1555 1587 1588
f 1620 1588 1587
f 1587 1619 1620
f 1652 1620 1619
f 1619 1651 1652
f 1684 1652 1651
f 1651 1683 1684
f 1716 1684 1683
f 1683 1715 1716
f 1748 1716 1715
f 1715 1747 1748
f 1780 1748 1747
f 1747 1779 1780
f 1812 1780 1779
f 1779 1811 1812
f 1844 1812 1811
f 1811 1843 1844
f 1876 1844 1843
f 1843 1875 1876
f 1908 1876 1875
f 1875 1907 1908
f 1940 1908 1907
f 1907 1939 1940
f 1972 1940 1939
f 1939 1971 1972
f 2004 1972 1971
f 1971 2003 2004
f 2036 2004 2003
f 2003 2035 2036
f 2068 2036 2035
f 2035 2067 2068
f 2100 2068 2067
f 2067 2099 2100
f 1141 1109 1108
f 1108 1140 1141
f 1173 1141 1140
f 1140 1172 1173
f 1205 1173 1172
f 1172 1204 1205
f 1237 1205 1204
f 1204 1236 1237
f 1269 1237 1236
f 1236 1268 1269
f 1301 1269 1268
f 1268 1300 1301
f 1333 1301 1300
f 1300 1332 1333
f 1365 1333 1332
f 1332 1364 1365
f 1397 1365 1364
f 1364 1396 1397
f 1429 1397 1396
f 1396 1428 1429
f 1461 1429 1428
f 1428 1460 1461
f 1493 1461 1460
f 1460 1492 1493
f 1525 1493 1492
f 1492 1524 1525
f 1557 1525 1524
f 1524 1556 1557
f 1589 1557 1556
f 1556 1588 1589
f 1621 1589 1588
f 1588 1620 1621
f 1653 1621 1620
f 1620 1652 1653
f 1685 1653 1652
f 1652 1684 1685
f 1717 1685 1684
f 1684 1716 1717
f 1749 1717 1716
f 1716 1748 1749
f 1781 1749 1748
f 1748 1780 1781
f 1813 1781 1780
f 1780 1812 1813
f 1845 1813 1812
f 1812 1844 1845
f 1877 1845 1844
f 1844 1876 1877
f 1909 1877 1876
f 1876 1908 1909
f 1941 1909 1908
f 1908 1940 1941
f 1973 1941 1940
f 1940 1972 1973
f 2005 1973 1972
f 1972 2004 2005
f 2037 2005 2004
f 2004 2036 2037
f 2069 2037 2036
f 2036 2068 2069
f 2101 2069 2068
f 2068 2100 2101
f 1142 1110 1109
f 1109 1141 1142
f 1174 1142 1141
f 1141 1173 1174
f 1206 1174 1173
f 1173 1205 1206
f 1238 1206 1205
f 1205 1237 1238
f 1270 1238 1237
f 1237 1269 1270
f 1302 1270 1269
f 1269 1301 1302
f 1334 1302 1301
f 1301 1333 1334
f 1366 1334 1333
f 1333 1365 1366
f 1398 1366 1365
f 1365 1397 1398
f 1430 1398 1397
f 1397 1429 1430
f 1462 1430 1429
f 1429 1461 1462
f 1494 1462 1461
f 1461 1493 1494
f 1526 1494 1493
f 1493 1525 1526
f 1558 1526 1525
f 1525 1557 1558
f 1590 1558 1557
f 1557 1589 1590
f 1622 1590 1589
f 1589 1621 1622
f 1654 1622 1621
f 1621 1653 1654
f 1686 1654 1653
f 1653 1685 1686
f 1718 1686 1685
f 1685 1717 1718
f 1750 1718 1717
f 1717 1749 1750
f 1782 1750 1749
f 1749 1781 1782
f 1814 1782 1781
f 1781 1813 1814
f 1846 1814 1813
f 1813 1845 1846
f 1878 1846 1845
f 1845 1877 1878
f 1910 1878 1877
f 1877 1909 1910
f 1942 1910 1909
f 1909 1941 1942
f 1974 1942 1941
f 1941 1973 1974
f 2006 1974 1973
f 1973 2005 2006
f 2038 2006 2005
f 2005 2037 2038
f 2070 2038 2037
f 2037 2069 2070
f 2102 2070 2069
f 2069 2101 2102
