v -1596.75 36.7472 536.646
v -1596.75 36.7472 541.397
v -1596.75 37.2929 536.646
v -1596.75 37.3541 536.754
v -1596.75 37.5623 537.283
v -1596.75 38.1074 537.823
v -1596.75 38.4811 538.321
v -1596.75 38.5402 538.596
v -1596.75 38.2512 541.424
v -1596.75 38.6382 540.588
v -1596.75 39.1933 539.923
v -1596.75 39.1559 539.085
v -1596.75 40.7472 544.646
v -1596.88 40.8062 544.583
v -1596.75 40.7472 543.693
v -1597.01 40.7472 544.521
v -1596.86 40.7958 543.685
v -1596.98 40.7472 543.678
v -1597.25 39.7465 549.753
v -1597.25 40.2007 550.392
v -1597.25 39.2106 551.414
v -1597.25 40.1199 551.04
v -1596.94 40.7472 544.935
v -1596.75 40.7472 545.348
v -1596.87 40.8062 545.319
v -1597 40.7472 545.291
v -1597.25 37.2929 552.646
v -1597.05 37.2929 552.646
v -1597.25 36.7472 552.646
v -1597.05 36.7472 552.646
v -1596.87 37.2929 552.646
v -1596.75 37.1186 552.646
v -1596.75 36.7472 552.646
v -1596.91 37.63 537.251
v -1596.97 38.0469 537.544
v -1597.25 37.6463 537.299
v -1597.17 38.3921 537.819
v -1596.93 38.3188 537.768
v -1596.75 38.5402 538.596
v -1596.89 38.5483 538.601
v -1596.75 38.4811 538.321
v -1597.03 38.5564 538.606
v -1597.01 39.1762 539.119
v -1597.03 38.5564 538.606
v -1596.88 39.2079 539.102
v -1596.89 38.5483 538.601
v -1596.75 39.1559 539.085
v -1596.75 38.5402 538.596
v -1596.75 39.1933 539.923
v -1596.89 39.2459 539.91
v -1596.75 39.1559 539.085
v -1596.88 39.2079 539.102
v -1597.02 39.2149 539.824
v -1597.01 39.1762 539.119
v -1597.02 39.2149 539.824
v -1596.89 39.2459 539.91
v -1597.1 38.6778 540.538
v -1596.75 38.6382 540.588
v -1596.93 38.7186 540.597
v -1596.75 39.1933 539.923
v -1596.97 39.6003 545.949
v -1596.75 39.5699 545.909
v -1597 38.8434 546.472
v -1597.19 39.6308 545.989
v -1597.21 39.3434 546.168
v -1596.75 37.0919 547.11
v -1597 37.0805 547.174
v -1597.02 38.0285 546.686
v -1597.25 37.4878 547.001
v -1597.25 37.0691 547.239
v -1596.75 36.968 547.447
v -1597.09 36.9408 547.798
v -1597.25 36.9375 547.813
v -1596.92 36.9441 547.783
v -1597.25 37.0547 548.467
v -1597.09 37.0504 548.453
v -1596.93 37.0461 548.438
v -1596.94 37.0054 548.15
v -1596.98 39.7043 549.675
v -1597.03 40.1915 550.315
v -1597.11 39.7254 549.714
v -1597.25 40.2007 550.392
v -1597.25 39.7465 549.753
v -1597.14 40.1961 550.354
v -1597.03 40.1915 550.315
v -1597.04 40.1119 550.989
v -1597.14 40.1961 550.354
v -1597.25 40.1199 551.04
v -1597.25 40.2007 550.392
v -1597.15 40.1159 551.014
v -1597.25 39.2106 551.414
v -1597.25 40.1199 551.04
v -1597.1 39.2092 551.373
v -1597.15 40.1159 551.014
v -1596.96 39.2078 551.332
v -1597.04 40.1119 550.989
v -1596.75 38.6326 551.859
v -1597.08 38.6052 551.884
v -1597.16 38.7915 551.713
v -1597.25 39.0006 551.577
v -1596.89 37.8739 552.172
v -1597.05 37.8956 552.17
v -1597.11 38.31 552.058
v -1597.25 37.9173 552.167
v -1597.25 37.551 552.314
v -1597.05 37.5664 552.303
v -1596.96 37.5817 552.292
v -1596.75 38.2125 552.083
v -1596.87 37.2929 552.646
v -1597.05 37.2929 552.646
v -1597.25 37.2929 552.646
v -1597 40.7472 545.291
v -1597.1 40.3132 545.778
v -1597.1 40.3845 545.243
v -1596.98 39.5084 542.722
v -1596.93 40.1556 542.943
v -1597.25 39.0824 542.863
v -1597.25 39.3959 544.646
v -1597.25 39.4289 543.689
v -1597.01 40.7472 544.521
v -1596.98 40.7472 543.678
v -1597.25 38.8589 542.193
v -1596.94 40.7472 544.935
v -1597.1 40.3845 545.243
v -1597 40.7472 545.291
v -1597.25 36.9375 547.813
v -1597.25 36.7472 544.646
v -1597.25 37.0691 547.239
v -1597.25 37.4878 547.001
v -1597.25 37.798 546.555
v -1597.25 38.0595 546.549
v -1597.25 39.3959 544.646
v -1597.25 38.8676 546.327
v -1597.21 39.3434 546.168
v -1597.19 39.6308 545.989
v -1597.1 40.3845 545.243
v -1597.1 40.3132 545.778
v -1597.17 38.3921 537.819
v -1597.03 38.5564 538.606
v -1597.25 37.9581 538.458
v -1597.25 37.5724 537.617
v -1597.25 37.6463 537.299
v -1597.25 37.7321 540.242
v -1597.02 39.2149 539.824
v -1597.1 38.6778 540.538
v -1597.01 39.1762 539.119
v -1597.25 37.7144 539.597
v -1597.25 38.2237 540.738
v -1597.25 38.584 540.778
v -1596.75 38.6326 551.859
v -1596.75 37.917 551.537
v -1596.75 38.2125 552.083
v -1596.75 37.6529 552.066
v -1596.75 37.3599 552.241
v -1596.75 37.6914 550.24
v -1596.75 38.6326 551.859
v -1596.96 39.2078 551.332
v -1596.75 37.917 551.537
v -1596.75 37.6914 550.24
v -1596.75 38.3716 549.638
v -1596.98 39.7043 549.675
v -1597.03 40.1915 550.315
v -1597.04 40.1119 550.989
v -1596.75 40.7472 543.693
v -1596.75 40.1274 543.868
v -1596.75 40.7472 544.646
v -1596.75 36.7472 547.758
v -1596.75 36.968 547.447
v -1596.75 37.0919 547.11
v -1596.75 37.8411 542.533
v -1596.75 37.928 546.44
v -1596.75 38.1863 541.892
v -1596.75 38.2512 541.424
v -1596.75 38.1863 541.892
v -1596.93 38.5178 541.973
v -1596.93 40.1556 542.943
v -1596.98 39.5084 542.722
v -1596.75 39.6416 543.628
v -1596.75 38.562 543.491
v -1596.75 40.7472 543.693
v -1596.86 40.7958 543.685
v -1596.93 40.1556 542.943
v -1596.98 40.7472 543.678
v -1596.75 40.7472 543.693
v -1596.93 40.1556 542.943
v -1596.75 40.1274 543.868
v -1596.75 39.6416 543.628
v -1596.75 36.7472 552.646
v -1596.75 37.1186 552.646
v -1596.84 38.8762 549.412
v -1596.75 38.3 549.358
v -1596.75 38.3716 549.638
v -1596.75 38.3 549.358
v -1596.75 37.8137 548.869
v -1597.01 37.7936 548.758
v -1597.09 37.0504 548.453
v -1596.93 37.0461 548.438
v -1596.75 37.2583 548.511
v -1596.84 38.8762 549.412
v -1597.02 38.2974 549.21
v -1596.75 38.3 549.358
v -1597.01 37.7936 548.758
v -1596.75 37.8137 548.869
v -1596.75 37.2583 548.511
v -1596.75 38.562 543.491
v -1596.75 38.8511 546.246
v -1596.75 38.8511 546.246
v -1597 38.8434 546.472
v -1596.75 39.5699 545.909
v -1596.75 37.0919 547.11
v -1597.02 38.0285 546.686
v -1596.75 37.928 546.44
v -1596.89 37.8739 552.172
v -1596.75 38.2125 552.083
v -1596.75 37.6529 552.066
v -1596.96 37.5817 552.292
v -1596.75 37.3599 552.241
v -1596.87 37.2929 552.646
v -1596.75 37.1186 552.646
v -1596.75 38.4811 538.321
v -1596.93 38.3188 537.768
v -1596.75 38.1074 537.823
v -1596.97 38.0469 537.544
v -1596.75 37.2929 536.646
v -1596.75 37.3541 536.754
v -1596.95 37.4929 537
v -1596.75 37.5623 537.283
v -1596.91 37.63 537.251
v -1597.21 39.3434 546.168
v -1597 38.8434 546.472
v -1597.25 38.8676 546.327
v -1597.02 38.0285 546.686
v -1597.25 38.0595 546.549
v -1597.25 37.4878 547.001
v -1597.25 37.798 546.555
v -1596.75 39.5699 545.909
v -1596.75 39.6416 543.628
v -1596.75 39.8701 545.873
v -1596.75 40.2376 545.65
v -1596.75 40.5713 545.517
v -1596.75 40.7472 545.348
v -1596.75 40.7472 545.348
v -1596.75 40.5713 545.517
v -1596.87 40.8062 545.319
v -1596.84 40.1961 545.838
v -1596.97 40.2546 545.854
v -1596.83 40.403 545.662
v -1597 40.7472 545.291
v -1597.1 40.3132 545.778
v -1596.75 39.8701 545.873
v -1596.83 40.403 545.662
v -1596.75 40.5713 545.517
v -1596.75 40.2376 545.65
v -1596.84 40.1961 545.838
v -1596.75 39.8701 545.873
v -1596.75 36.7472 548.1
v -1596.75 37.0411 548.421
v -1596.75 37.2583 548.511
v -1596.93 37.0461 548.438
v -1596.75 37.0411 548.421
v -1596.75 37.2583 548.511
v -1596.75 36.7472 547.758
v -1596.92 36.9441 547.783
v -1596.75 36.968 547.447
v -1596.75 36.7472 548.1
v -1596.94 37.0054 548.15
v -1596.85 36.7472 547.932
v -1597.25 36.7472 552.646
v -1597.25 37.0547 548.467
v -1597.25 37.5976 548.698
v -1597.25 37.7922 548.944
v -1597.25 37.9446 549.093
v -1597.25 37.2929 552.646
v -1597.25 37.551 552.314
v -1597.25 37.9173 552.167
v -1597.25 38.238 551.894
v -1597.25 38.5621 551.695
v -1597.25 38.4186 549.49
v -1597.25 39.0006 551.577
v -1597.25 39.1632 549.582
v -1597.25 39.5892 549.676
v -1597.13 38.8827 549.427
v -1596.99 38.8795 549.419
v -1597.16 39.2405 549.534
v -1596.84 38.8762 549.412
v -1597.25 39.5892 549.676
v -1597.02 38.2974 549.21
v -1597.25 37.5976 548.698
v -1597.25 37.0547 548.467
v -1597.16 39.2405 549.534
v -1597.25 39.5892 549.676
v -1597.25 39.1632 549.582
v -1597.25 37.7922 548.944
v -1597.25 37.9446 549.093
v -1597.02 38.2974 549.21
v -1597.25 38.4186 549.49
v -1597.13 38.8827 549.427
v -1597.16 39.2405 549.534
v -1597.25 39.1632 549.582
v -1597.16 38.7915 551.713
v -1597.25 38.5621 551.695
v -1597.25 39.0006 551.577
v -1597.08 38.6052 551.884
v -1597.25 38.238 551.894
v -1597.11 38.31 552.058
v -1597.25 37.9173 552.167
v -1596.93 38.5178 541.973
v -1597 38.3083 541.548
v -1596.75 38.2512 541.424
v -1597.03 38.2955 541.368
v -1597.1 38.6778 540.538
v -1596.93 38.7186 540.597
v -1597.25 38.584 540.778
v -1596.75 38.6382 540.588
v -1597.15 38.4021 541.197
v -1597.25 38.488 541.006
v -1597.25 38.3166 541.198
v -1597.25 38.2237 540.738
v -1597.25 38.488 541.006
v -1597.25 38.584 540.778
v -1597.09 38.4946 541.922
v -1597.19 38.2791 541.56
v -1597.25 38.3417 541.786
v -1597.25 38.4715 541.872
v -1597.25 38.2243 541.361
v -1597.25 38.3166 541.198
v -1597.25 36.7472 536.646
v -1597.25 37.134 541.731
v -1597.25 37.7144 539.597
v -1597.25 37.7321 540.242
v -1597.25 36.8788 536.646
v -1597.25 37.5724 537.617
v -1597.25 37.9581 538.458
v -1597.25 37.2208 536.756
v -1597.25 37.4246 537.072
v -1597.25 37.6463 537.299
v -1597.25 37.6057 537.224
v -1597.25 37.6463 537.299
v -1596.95 37.4929 537
v -1596.91 37.63 537.251
v -1596.75 37.2929 536.646
v -1596.94 37.2614 536.646
v -1597.14 37.3645 536.772
v -1597.13 37.2299 536.646
v -1596.75 37.2929 536.646
v -1596.94 37.2614 536.646
v -1596.75 36.7472 536.646
v -1597 36.7472 536.646
v -1597.13 37.2299 536.646
v -1597.25 36.7472 536.646
v -1597.25 36.8788 536.646
v -1597.25 37.4246 537.072
v -1597.13 37.2299 536.646
v -1597.25 37.2208 536.756
v -1597.25 36.8788 536.646
v -1597.25 37.4246 537.072
v -1597.25 37.2208 536.756
v -1597.14 37.3645 536.772
v -1597.13 37.2299 536.646
v -1597.25 38.1083 541.699
v -1597.19 38.0736 541.634
v -1597.25 39.4289 543.689
v -1597.25 39.0824 542.863
v -1597.25 38.8589 542.193
v -1597.25 38.5561 541.952
v -1597.25 37.4854 541.642
v -1597.25 37.8047 541.635
v -1597.25 38.0697 541.539
v -1597.25 38.2243 541.361
v -1597.25 37.5033 541.73
v -1597.25 37.8236 541.73
v -1597.25 38.4715 541.872
v -1597.25 38.3417 541.786
v -1597.25 38.1083 541.699
v -1597.19 38.0736 541.634
v -1597.25 38.0697 541.539
v -1597.19 37.8075 541.679
v -1597.25 37.8047 541.635
v -1597.25 37.8236 541.73
v -1597.19 37.8075 541.679
v -1597.19 37.4724 541.677
v -1597.25 37.4854 541.642
v -1597.19 37.4724 541.677
v -1597.25 37.5033 541.73
v -1597.25 37.134 541.731
v -1597.25 37.134 541.731
v -1597.25 38.4715 541.872
v -1597.09 38.4946 541.922
v -1597.25 38.5561 541.952
v -1597.25 38.8589 542.193
v -1596.98 39.5084 542.722
v -1596.93 38.5178 541.973
v -1597.25 37.6057 537.224
v -1596.48 36.7472 546.761
v -1596.49 36.9765 547.095
v -1596.75 36.7472 546.997
v -1596.49 36.7472 547.569
v -1596.49 36.9765 547.483
v -1596.19 36.7472 547.411
v -1596.31 36.947 547.435
v -1596.49 36.9765 547.252
v -1596.73 36.7472 547.483
v -1596.24 36.7472 547.095
v -1596.73 37.15 547.87
v -1596.96 37.235 547.942
v -1596.93 37.1349 547.851
v -1597.09 37.2649 547.999
v -1597.16 36.9448 547.963
v -1596.52 36.8531 547.588
v -1596.63 37.0202 547.676
v -1596.45 37.0423 547.588
v -1596.33 36.7844 547.58
v -1596.26 36.9736 547.58
v -1596.23 36.8672 547.934
v -1596.23 36.7472 548.144
v -1596.29 36.8502 548.144
v -1596.37 37.0126 548.172
v -1596.25 36.9686 548.059
v -1596.23 36.9632 547.737
v -1596.27 36.9761 547.892
v -1596.81 37.0371 548.226
v -1596.55 36.9903 548.191
v -1597.09 37.0017 548.259
v -1597.01 37.2154 548.256
v -1596.88 37.1598 548.239
v -1597.03 37.2626 548.196
v -1596.9 37.2109 548.179
v -1596.57 37.0907 548.139
v -1596.74 37.1543 548.154
v -1596.58 37.0912 547.745
v -1596.4 36.9352 541.406
v -1596.59 36.9493 541.493
v -1596.47 36.8744 541.327
v -1596.61 36.8545 541.446
v -1596.16 36.9039 541.065
v -1596.29 36.8387 541.176
v -1596.17 36.7587 541.075
v -1596.71 36.7625 541.527
v -1596.7 36.9239 541.518
v -1596.01 36.7563 541.067
v -1596 36.8961 541.057
v -1595.96 36.8376 541.493
v -1595.93 36.7472 541.755
v -1596 36.8198 541.751
v -1595.98 36.9063 541.249
v -1596.01 36.9186 541.437
v -1596 36.9297 541.64
v -1596.07 36.941 541.772
v -1596.65 36.7574 541.889
v -1596.64 36.9101 541.882
v -1596.51 36.9292 541.857
v -1596.43 36.8406 541.846
v -1596.23 36.8714 541.803
v -1596.12 36.9437 541.781
v -1596.65 36.9703 541.801
v -1596.54 36.9636 541.781
v -1596.27 36.9482 541.735
v -1596.41 36.9559 541.752
v -1596.68 36.9604 541.605
v -1596.27 36.9202 541.255
v -1596.17 36.8211 542.472
v -1596.31 36.9522 542.665
v -1596.38 36.8211 542.495
v -1596.43 36.8211 542.851
v -1596.41 36.9522 542.769
v -1596.25 36.8211 542.87
v -1596.31 36.9353 542.803
v -1596.52 36.8211 542.73
v -1596.17 36.8211 542.706
v -1596.26 36.7472 542.83
v -1596.41 36.7472 542.815
v -1596.48 36.7472 542.717
v -1596.36 36.7472 542.528
v -1596.2 36.7472 542.509
v -1596.19 36.7472 542.698
v -1596.54 36.8875 540.941
v -1596.44 36.8875 540.966
v -1596.52 36.8875 541.098
v -1596.45 36.8875 541.046
v -1596.67 36.7565 541.047
v -1596.68 36.7565 540.748
v -1596.55 36.7565 540.729
v -1596.28 36.7565 540.822
v -1596.32 36.7565 541.08
v -1596.45 36.7565 541.186
v -1596.58 36.7565 541.212
v -1596.23 36.781 542.357
v -1596.37 36.8491 542.324
v -1596.25 36.7847 542.249
v -1596.42 36.7921 542.406
v -1596.46 36.7899 542.297
v -1596.41 36.787 542.221
v -1596.32 36.7902 542.412
v -1596.41 36.7472 542.392
v -1596.43 36.7454 542.305
v -1596.39 36.7431 542.243
v -1596.26 36.7412 542.266
v -1596.26 36.7372 542.353
v -1596.32 36.7457 542.397
v -1597.62 36.8211 541.592
v -1597.55 36.9522 541.817
v -1597.73 36.8211 541.768
v -1597.48 36.8211 542.032
v -1597.53 36.9522 541.96
v -1597.35 36.8211 541.894
v -1597.44 36.9353 541.903
v -1597.63 36.8211 542.029
v -1597.43 36.8211 541.731
v -1597.39 36.7472 541.878
v -1597.5 36.7472 541.989
v -1597.62 36.7472 541.986
v -1597.69 36.7472 541.776
v -1597.61 36.7472 541.634
v -1597.46 36.7472 541.747
v -1597.46 36.7921 541.534
v -1597.61 36.8519 541.5
v -1597.47 36.7968 541.426
v -1597.65 36.7906 541.58
v -1597.68 36.7882 541.472
v -1597.64 36.7895 541.396
v -1597.55 36.7953 541.588
v -1597.63 36.7472 541.566
v -1597.66 36.7453 541.479
v -1597.62 36.7463 541.417
v -1597.49 36.7521 541.442
v -1597.49 36.7469 541.529
v -1597.54 36.751 541.573
v -1596.75 36.7472 540.179
v -1596.54 36.7472 541
v -1596.75 36.9035 540.847
v -1596.75 36.7472 544.702
v -1596.75 36.8456 543.946
v -1596.49 36.7472 544.187
v -1596.53 36.7472 542.89
v -1596.75 36.9401 543.282
v -1596.75 37.0271 542.208
v -1596.34 36.7472 542.14
v -1596.75 36.8698 541.32
v -1596.44 36.7472 541.419
v -1596.75 36.7472 548.316
v -1596.54 36.7472 548.79
v -1596.75 36.8461 548.702
v -1596.75 36.7472 550.929
v -1596.75 36.8094 550.492
v -1596.49 36.7472 550.631
v -1596.47 36.7472 550.315
v -1596.75 36.9243 549.488
v -1596.53 36.7472 549.882
v -1596.34 36.7472 549.449
v -1596.75 36.8248 548.975
v -1596.44 36.7472 549.032
v -1597.25 36.7472 546.1
v -1597.25 36.8461 546.486
v -1597.46 36.7472 546.574
v -1597.25 36.7472 548.713
v -1597.52 36.7472 548.415
v -1597.25 36.8693 547.892
v -1597.54 36.7472 548.099
v -1597.47 36.7472 547.666
v -1597.25 36.9243 547.272
v -1597.66 36.7472 547.233
v -1597.25 36.8248 546.759
v -1597.56 36.7472 546.816
v -1597.46 36.7472 540.309
v -1597.25 36.7472 539.642
v -1597.25 36.8248 540.569
v -1597.25 36.7472 543.315
v -1597.52 36.7472 542.898
v -1597.25 36.8094 542.702
v -1597.54 36.7472 542.453
v -1597.25 36.9243 541.29
v -1597.47 36.7472 541.844
v -1597.66 36.7472 541.234
v -1597.56 36.7472 540.649
v -1605.92 38.509 554.135
v -1606.4 38.3957 554.135
v -1605.97 38.5164 553.751
v -1606.21 38.4505 553.635
v -1606.68 38.3271 554.05
v -1606.68 38.319 553.78
v -1606.94 38.2457 553.884
v -1607.43 38.1433 554.135
v -1607.43 37.6721 554.135
v -1607.43 38.1167 553.984
v -1607.43 37.6721 553.635
v -1607.43 38.1319 553.797
v -1607.43 38.087 553.635
v -1606.69 38.2745 554.092
v -1606.62 38.2525 554.135
v -1604.57 38.7161 554.07
v -1604.86 38.7416 553.995
v -1604.61 38.742 553.635
v -1604.86 38.7513 553.744
v -1605.12 38.77 553.706
v -1605.32 38.7439 553.943
v -1605.32 38.7499 553.75
v -1605.82 38.579 553.71
v -1605.68 38.6189 554.035
v -1605.57 38.6784 553.809
v -1604.42 38.6684 554.135
v -1604.51 38.6327 554.135
v -1607.01 38.2237 554.033
v -1607 38.1921 554.135
v -1607.2 38.1652 553.833
v -1607.22 38.1478 553.993
v -1607.25 38.1555 554.135
v -1607.2 38.1515 554.135
v -1605.39 38.6775 554.036
v -1604.93 38.6632 554.044
v -1605.43 38.6312 554.135
v -1605 38.6071 554.135
v -1603.43 38.1433 554.135
v -1603.43 37.6721 554.135
v -1603.59 38.1291 554.135
v -1604.04 38.3938 554.135
v -1604.16 38.5552 554.135
v -1603.89 38.4062 554.038
v -1604.43 38.6684 553.635
v -1604.2 38.5738 553.745
v -1603.92 38.3832 553.776
v -1603.64 38.2255 553.897
v -1604.2 38.4357 553.635
v -1603.43 38.1167 553.984
v -1603.43 37.6721 553.635
v -1603.43 38.1319 553.797
v -1603.43 38.087 553.635
v -1603.59 38.179 553.635
v -1603.92 38.2412 553.635
v -1604.85 38.633 553.635
v -1607.08 38.2018 553.635
v -1606.86 38.1819 553.635
v -1605.76 38.4676 553.635
v -1605.21 38.6503 553.635
v -1606.58 38.2174 553.635
v -1606.03 38.4369 553.635
v -1605.52 38.5829 553.635
v -1605.62 37.7171 553.453
v -1605.6 37.7769 553.328
v -1605.54 37.7217 553.442
v -1605.65 37.7156 553.286
v -1605.58 37.7132 553.26
v -1605.52 37.7145 553.301
v -1605.66 37.7203 553.38
v -1605.64 37.6721 553.305
v -1605.58 37.6702 553.284
v -1605.54 37.6713 553.317
v -1605.55 37.6771 553.43
v -1605.62 37.6718 553.432
v -1605.65 37.6759 553.381
v -1604.2 37.6721 554.343
v -1604.27 37.7497 554.135
v -1603.61 37.6721 554.135
v -1606.23 37.6721 554.135
v -1605.79 37.7344 554.135
v -1605.77 37.6721 554.356
v -1604.78 37.8492 554.135
v -1605.18 37.6721 554.309
v -1604.74 37.6721 554.466
v -1604.87 37.6721 553.41
v -1604.27 37.6721 553.635
v -1604.93 37.7497 553.635
v -1606.89 37.6721 553.635
v -1606.43 37.6721 553.396
v -1606.45 37.7344 553.635
v -1605.45 37.8492 553.635
v -1605.84 37.6721 553.447
v -1605.41 37.6721 553.277
v -1607.85 38.7148 529.229
v -1607.84 38.3271 529.229
v -1607.85 38.3271 528.979
v -1607.73 38.0422 529.229
v -1607.78 37.7754 528.979
v -1607.69 37.6833 529.229
v -1608.06 37.1316 529.229
v -1608.06 37.2285 528.979
v -1607.69 37.6833 529.229
v -1607.78 37.7754 528.979
v -1607.74 37.7301 528.729
v -1608.06 37.2102 528.729
v -1607.77 38.0318 528.729
v -1607.74 37.7301 528.729
v -1607.85 38.3271 528.729
v -1607.63 38.9271 528.979
v -1607.67 38.533 528.729
v -1607.48 38.9271 528.729
v -1607.69 39.2457 528.729
v -1607.74 39.4184 528.729
v -1607.79 39.4771 528.979
v -1607.74 39.4184 528.729
v -1608 39.8606 528.729
v -1607.79 39.4771 528.979
v -1608.06 39.8904 528.979
v -1608 39.8473 529.229
v -1607.83 39.4362 529.229
v -1607.77 39.2417 529.229
v -1607.83 39.4362 529.229
v -1607.77 38.9271 529.229
v -1608 39.8473 529.229
v -1608.06 39.8904 528.979
v -1608 40.5608 529.229
v -1608.06 40.6223 528.979
v -1608 39.8606 528.729
v -1608 40.5608 528.729
v -1606.53 38.8364 529.23
v -1606.27 39.0614 529.215
v -1605.94 38.0284 529.23
v -1607.09 39.2545 529.229
v -1606.52 39.2366 529.16
v -1606.67 39.4196 529.158
v -1606.67 39.5606 528.98
v -1606.64 39.399 528.73
v -1606.05 39.2014 528.98
v -1606.11 39.098 528.73
v -1605.63 39.8098 529.231
v -1605.68 39.8438 528.981
v -1605.45 39.7712 529.231
v -1605.2 39.9222 528.981
v -1605.2 39.8638 528.731
v -1605.63 39.6901 528.731
v -1605.82 39.6277 528.73
v -1605.68 39.7043 528.981
v -1605.72 39.5488 529.231
v -1605.87 39.6277 528.98
v -1605.63 39.7043 529.231
v -1605.53 39.0485 529.231
v -1605.72 39.1907 528.981
v -1605.86 37.988 529.23
v -1605.86 38.2394 528.98
v -1605.53 39.0485 529.231
v -1605.72 39.1907 528.981
v -1607.28 39.8998 529.229
v -1606.85 39.5798 529.159
v -1607.03 40.064 529.16
v -1605.91 38.2907 528.98
v -1605.96 38.0418 528.73
v -1605.96 38.0418 528.73
v -1605.86 37.988 528.73
v -1605.67 38.9393 528.731
v -1605.67 38.9393 528.731
v -1607.31 40.4107 528.729
v -1606.88 39.6556 528.73
v -1607.31 40.5243 528.979
v -1606.97 40.0754 528.98
v -1603.68 39.8366 528.982
v -1603.43 39.8629 528.82
v -1602.92 40.2278 528.983
v -1603.18 39.9371 528.736
v -1602.92 39.9074 528.818
v -1602.9 39.1784 528.733
v -1603.42 39.4196 528.732
v -1602.16 40.0201 528.819
v -1602.16 40.1208 528.983
v -1602.5 39.8915 528.819
v -1603.68 40.026 528.732
v -1601.9 39.9052 528.734
v -1601.79 40.5296 528.734
v -1601.79 40.6223 528.984
v -1602.27 39.4055 528.733
v -1600.06 38.8333 528.985
v -1600.06 38.8939 529.235
v -1600.23 39.9414 528.985
v -1600.47 39.8731 529.235
v -1600.06 36.6223 528.735
v -1600.06 38.8333 528.985
v -1600.06 38.889 528.735
v -1600.44 39.902 528.735
v -1600.06 38.889 528.735
v -1607.31 40.3904 529.229
v -1605.63 39.8098 529.231
v -1608 40.5608 528.729
v -1608 39.8606 528.729
v -1607.31 40.4107 528.729
v -1606.88 39.6556 528.73
v -1607.74 39.4184 528.729
v -1607.69 39.2457 528.729
v -1607.48 38.9271 528.729
v -1606.64 39.399 528.73
v -1600.06 38.889 528.735
v -1602.27 39.4055 528.733
v -1600.06 36.6223 528.735
v -1608.06 37.2102 528.729
v -1608.06 36.6223 528.729
v -1600.44 39.902 528.735
v -1601.9 39.9052 528.734
v -1605.82 39.6277 528.73
v -1605.67 38.9393 528.731
v -1605.63 39.6901 528.731
v -1603.68 40.026 528.732
v -1604.06 39.9064 528.732
v -1603.42 39.4196 528.732
v -1601.79 40.5296 528.734
v -1601.28 40.5296 528.734
v -1601.11 40.4109 528.734
v -1600.64 40.0662 528.735
v -1605.2 39.8638 528.731
v -1606.11 39.098 528.73
v -1605.96 38.0418 528.73
v -1607.67 38.533 528.729
v -1607.85 38.3271 528.729
v -1607.77 38.0318 528.729
v -1607.74 37.7301 528.729
v -1604.44 39.9952 528.732
v -1605.86 37.988 528.73
v -1602.9 39.1784 528.733
v -1607.31 40.3904 529.229
v -1608 40.5608 529.229
v -1607.31 40.5243 528.979
v -1608.06 40.6223 528.979
v -1608 40.5608 528.729
v -1607.31 40.4107 528.729
v -1600.06 38.8939 529.235
v -1600.06 36.6223 529.235
v -1600.06 36.6223 528.985
v -1608.06 36.6223 528.729
v -1608.06 37.2102 528.729
v -1608.06 36.6223 528.979
v -1608.06 37.2285 528.979
v -1608.06 36.6223 529.229
v -1608.06 37.1316 529.229
v -1601.26 40.6223 528.984
v -1601.79 40.6223 528.984
v -1601.28 40.5296 528.734
v -1601.79 40.5296 528.734
v -1601.3 40.5296 529.234
v -1601.79 40.5296 529.234
v -1604.44 40.0141 528.982
v -1604.06 40.0769 529.232
v -1603.3 39.8679 529.232
v -1602.92 40.0635 529.233
v -1602.54 40.1741 529.233
v -1602.16 40.1206 529.233
v -1601.79 40.5296 529.234
v -1602.16 40.1206 529.233
v -1604.06 39.9064 528.732
v -1604.44 39.9952 528.732
v -1605.2 39.7529 529.231
v -1605.63 39.8098 529.231
v -1605.45 39.7712 529.231
v -1605.63 39.7043 529.231
v -1608.06 36.6223 529.229
v -1608.06 37.1316 529.229
v -1600.06 36.6223 529.235
v -1607.69 37.6833 529.229
v -1605.86 37.988 529.23
v -1608 40.5608 529.229
v -1607.31 40.3904 529.229
v -1608 39.8473 529.229
v -1607.28 39.8998 529.229
v -1607.83 39.4362 529.229
v -1607.09 39.2545 529.229
v -1607.77 39.2417 529.229
v -1607.77 38.9271 529.229
v -1601.3 40.5296 529.234
v -1601.19 40.3353 529.234
v -1601.79 40.5296 529.234
v -1602.16 40.1206 529.233
v -1606.53 38.8364 529.23
v -1607.85 38.7148 529.229
v -1607.84 38.3271 529.229
v -1607.73 38.0422 529.229
v -1605.94 38.0284 529.23
v -1605.72 39.5488 529.231
v -1605.53 39.0485 529.231
v -1605.2 39.7529 529.231
v -1604.06 40.0769 529.232
v -1600.47 39.8731 529.235
v -1600.06 38.8939 529.235
v -1603.3 39.8679 529.232
v -1602.54 40.1741 529.233
v -1602.92 40.0635 529.233
v -1600.64 40.0662 528.735
v -1601.01 40.3683 528.984
v -1601.11 40.4109 528.734
v -1601.28 40.5296 528.734
v -1601.26 40.6223 528.984
v -1601.19 40.3353 529.234
v -1601.3 40.5296 529.234
v -1603.68 40.026 528.732
v -1607.59 37.1477 528.611
v -1607.36 37.0964 528.216
v -1607.25 37.1454 528.434
v -1607 37.2429 528.287
v -1606.81 37.2632 527.888
v -1606.68 37.2749 528.118
v -1606.17 36.8975 527.925
v -1606.68 37.2749 528.118
v -1606.21 36.8592 527.622
v -1606.81 37.2632 527.888
v -1606.95 37.1482 527.708
v -1606.47 36.8179 527.522
v -1607.21 37.0254 527.851
v -1606.95 37.1482 527.708
v -1607.47 37.0515 527.997
v -1607.9 37.4364 528.453
v -1607.66 37.2327 528.063
v -1607.36 37.0964 528.216
v -1607.47 37.0515 527.997
v -1608.03 37.4393 528.21
v -1608.03 37.4393 528.21
v -1608.3 37.2342 528.389
v -1608.45 37.1892 528.476
v -1608.39 37.3318 528.728
v -1608.84 36.9304 528.993
v -1608.83 36.8887 528.727
v -1608.59 36.9701 529.159
v -1608.23 37.1888 528.935
v -1608.06 37.2395 528.838
v -1607.78 37.2313 528.695
v -1607.59 37.1477 528.611
v -1606.21 36.8592 527.622
v -1606.18 36.4599 527.704
v -1606.17 36.8975 527.925
v -1606.15 36.4982 528.007
v -1606.47 36.8179 527.522
v -1606.44 36.4185 527.604
v -1608.8 36.4894 528.809
v -1606.44 36.4185 527.604
v -1607.47 37.0515 527.997
v -1608.45 37.1892 528.476
v -1608.83 36.8887 528.727
v -1608.3 37.2342 528.389
v -1607.21 37.0254 527.851
v -1606.47 36.8179 527.522
v -1608.03 37.4393 528.21
v -1607.66 37.2327 528.063
v -1606.95 37.1482 527.708
v -1608.81 36.531 529.075
v -1608.8 36.4894 528.809
v -1608.84 36.9304 528.993
v -1608.83 36.8887 528.727
v -1608.57 36.5708 529.241
v -1608.59 36.9701 529.159
v -1608.59 36.9701 529.159
v -1608.23 37.1888 528.935
v -1608.57 36.5708 529.241
v -1608.06 37.2395 528.838
v -1607.78 37.2313 528.695
v -1607.59 37.1477 528.611
v -1606.15 36.4982 528.007
v -1607.25 37.1454 528.434
v -1607 37.2429 528.287
v -1606.68 37.2749 528.118
v -1606.17 36.8975 527.925
v -1603.36 36.6223 528.732
v -1603.37 36.6223 528.643
v -1602.46 36.9468 528.733
v -1602.48 36.8789 528.589
v -1601.7 37.022 528.734
v -1601.74 36.9934 528.571
v -1600.68 36.6223 528.613
v -1600.68 36.6223 528.735
v -1602.88 36.6223 528.369
v -1602.34 36.6223 528.24
v -1601.79 36.6223 528.225
v -1601.11 36.6223 528.372
v -1606.88 36.924 529.23
v -1606.71 36.9364 529.23
v -1607 36.7618 529.451
v -1606.28 36.7157 529.347
v -1606.93 36.6223 529.675
v -1607.45 36.6223 529.603
v -1605.7 36.6223 529.399
v -1605.91 36.6223 529.53
v -1606.28 36.6223 529.569
v -1605.64 36.6223 529.231
v -1606.18 36.8316 529.23
v -1607.62 36.6223 529.229
v -1632 38.7569 572
v -1632 38.7009 570
v -1632 38.6437 568
v -1632 38.5853 566
v -1632 38.5257 564
v -1632 38.465 562
v -1632 38.4031 560
v -1632 38.3401 558
v -1632 38.2759 556
v -1632 38.2106 554
v -1632 38.1441 552
v -1632 38.0765 550
v -1632 38.0078 548
v -1632 37.938 546
v -1632 37.8671 544
v -1632 37.7952 542
v -1632 37.7221 540
v -1632 37.6479 538
v -1632 37.5727 536
v -1632 37.4964 534
v -1632 37.4191 532
v -1632 37.3407 530
v -1632 37.2612 528
v -1632 37.1808 526
v -1632 37.0993 524
v -1632 37.0168 522
v -1632 36.9334 520
v -1632 36.8489 518
v -1632 36.7634 516
v -1632 36.677 514
v -1632 36.5896 512
v -1632 36.5012 510
v -1630 38.7333 572
v -1630 38.6764 570
v -1630 38.6183 568
v -1630 38.559 566
v -1630 38.4986 564
v -1630 38.437 562
v -1630 38.3743 560
v -1630 38.3104 558
v -1630 38.2454 556
v -1630 38.1792 554
v -1630 38.1119 552
v -1630 38.0435 550
v -1630 37.974 548
v -1630 37.9034 546
v -1630 37.8316 544
v -1630 37.7588 542
v -1630 37.6849 540
v -1630 37.61 538
v -1630 37.5339 536
v -1630 37.4568 534
v -1630 37.3787 532
v -1630 37.2995 530
v -1630 37.2193 528
v -1630 37.138 526
v -1630 37.0558 524
v -1630 36.9725 522
v -1630 36.8882 520
v -1630 36.803 518
v -1630 36.7168 516
v -1630 36.6296 514
v -1630 36.5414 512
v -1630 36.4523 510
v -1628 38.7084 572
v -1628 38.6507 570
v -1628 38.5917 568
v -1628 38.5316 566
v -1628 38.4704 564
v -1628 38.4079 562
v -1628 38.3443 560
v -1628 38.2796 558
v -1628 38.2137 556
v -1628 38.1467 554
v -1628 38.0786 552
v -1628 38.0094 550
v -1628 37.939 548
v -1628 37.8676 546
v -1628 37.795 544
v -1628 37.7214 542
v -1628 37.6467 540
v -1628 37.5709 538
v -1628 37.494 536
v -1628 37.4161 534
v -1628 37.3372 532
v -1628 37.2572 530
v -1628 37.1762 528
v -1628 37.0942 526
v -1628 37.0111 524
v -1628 36.9271 522
v -1628 36.8421 520
v -1628 36.756 518
v -1628 36.6691 516
v -1628 36.5811 514
v -1628 36.4922 512
v -1628 36.4024 510
v -1626 38.6824 572
v -1626 38.6238 570
v -1626 38.564 568
v -1626 38.5031 566
v -1626 38.4409 564
v -1626 38.3777 562
v -1626 38.3132 560
v -1626 38.2477 558
v -1626 38.181 556
v -1626 38.1131 554
v -1626 38.0442 552
v -1626 37.9741 550
v -1626 37.9029 548
v -1626 37.8306 546
v -1626 37.7573 544
v -1626 37.6828 542
v -1626 37.6073 540
v -1626 37.5307 538
v -1626 37.4531 536
v -1626 37.3744 534
v -1626 37.2946 532
v -1626 37.2139 530
v -1626 37.1321 528
v -1626 37.0492 526
v -1626 36.9654 524
v -1626 36.8806 522
v -1626 36.7948 520
v -1626 36.708 518
v -1626 36.6203 516
v -1626 36.5316 514
v -1626 36.4419 512
v -1626 36.3513 510
v -1624 38.6553 572
v -1624 38.5958 570
v -1624 38.5352 568
v -1624 38.4734 566
v -1624 38.4104 564
v -1624 38.3463 562
v -1624 38.281 560
v -1624 38.2146 558
v -1624 38.1471 556
v -1624 38.0784 554
v -1624 38.0086 552
v -1624 37.9377 550
v -1624 37.8657 548
v -1624 37.7926 546
v -1624 37.7184 544
v -1624 37.6432 542
v -1624 37.5668 540
v -1624 37.4894 538
v -1624 37.411 536
v -1624 37.3315 534
v -1624 37.251 532
v -1624 37.1694 530
v -1624 37.0868 528
v -1624 37.0032 526
v -1624 36.9187 524
v -1624 36.8331 522
v -1624 36.7465 520
v -1624 36.659 518
v -1624 36.5705 516
v -1624 36.481 514
v -1624 36.3906 512
v -1624 36.2993 510
v -1622 38.627 572
v -1622 38.5667 570
v -1622 38.5052 568
v -1622 38.4425 566
v -1622 38.3787 564
v -1622 38.3138 562
v -1622 38.2477 560
v -1622 38.1804 558
v -1622 38.112 556
v -1622 38.0425 554
v -1622 37.9719 552
v -1622 37.9002 550
v -1622 37.8274 548
v -1622 37.7535 546
v -1622 37.6785 544
v -1622 37.6024 542
v -1622 37.5253 540
v -1622 37.4471 538
v -1622 37.3678 536
v -1622 37.2876 534
v -1622 37.2062 532
v -1622 37.1239 530
v -1622 37.0405 528
v -1622 36.9562 526
v -1622 36.8708 524
v -1622 36.7845 522
v -1622 36.6972 520
v -1622 36.6089 518
v -1622 36.5196 516
v -1622 36.4294 514
v -1622 36.3383 512
v -1622 36.2462 510
v -1620 38.5975 572
v -1620 38.5363 570
v -1620 38.474 568
v -1620 38.4105 566
v -1620 38.3459 564
v -1620 38.2801 562
v -1620 38.2132 560
v -1620 38.1451 558
v -1620 38.0759 556
v -1620 38.0056 554
v -1620 37.9341 552
v -1620 37.8616 550
v -1620 37.788 548
v -1620 37.7132 546
v -1620 37.6375 544
v -1620 37.5606 542
v -1620 37.4826 540
v -1620 37.4037 538
v -1620 37.3236 536
v -1620 37.2425 534
v -1620 37.1604 532
v -1620 37.0773 530
v -1620 36.9932 528
v -1620 36.908 526
v -1620 36.8219 524
v -1620 36.7348 522
v -1620 36.6467 520
v -1620 36.5577 518
v -1620 36.4677 516
v -1620 36.3768 514
v -1620 36.2849 512
v -1620 36.1921 510
v -1618 38.6 572
v -1618 38.5049 570
v -1618 38.4417 568
v -1618 38.3774 566
v -1618 38.3119 564
v -1618 38.2453 562
v -1618 38.1775 560
v -1618 38.1086 558
v -1618 38.0386 556
v -1618 37.9675 554
v -1618 37.8952 552
v -1618 37.8219 550
v -1618 37.7474 548
v -1618 37.6719 546
v -1618 37.5953 544
v -1618 37.5176 542
v -1618 37.4389 540
v -1618 37.3591 538
v -1618 37.2783 536
v -1618 37.1964 534
v -1618 37.1136 532
v -1618 37.0297 530
v -1618 36.9448 528
v -1618 36.8589 526
v -1618 36.772 524
v -1618 36.6841 522
v -1618 36.5953 520
v -1618 36.5055 518
v -1618 36.4148 516
v -1618 36.3231 514
v -1618 36.2305 512
v -1618 36.137 510
v -1616 38.6772 572
v -1616 38.4723 570
v -1616 38.4083 568
v -1616 38.3431 566
v -1616 38.2768 564
v -1616 38.2094 562
v -1616 38.1408 560
v -1616 38.0711 558
v -1616 38.0002 556
v -1616 37.9283 554
v -1616 37.8552 552
v -1616 37.7811 550
v -1616 37.7058 548
v -1616 37.6295 546
v -1616 37.5521 544
v -1616 37.4736 542
v -1616 37.3941 540
v -1616 37.3135 538
v -1616 37.2319 536
v -1616 37.1493 534
v -1616 37.0656 532
v -1616 36.9809 530
v -1616 36.8953 528
v -1616 36.8086 526
v -1616 36.721 524
v -1616 36.6324 522
v -1616 36.5428 520
v -1616 36.4523 518
v -1616 36.3608 516
v -1616 36.2684 514
v -1616 36.1751 512
v -1616 36.0808 510
v -1614 38.6916 572
v -1614 38.4618 570
v -1614 38.3737 568
v -1614 38.3077 566
v -1614 38.2406 564
v -1614 38.1723 562
v -1614 38.1029 560
v -1614 38.0324 558
v -1614 37.9607 556
v -1614 37.888 554
v -1614 37.8141 552
v -1614 37.7391 550
v -1614 37.6631 548
v -1614 37.586 546
v -1614 37.5078 544
v -1614 37.4285 542
v -1614 37.3482 540
v -1614 37.2668 538
v -1614 37.1844 536
v -1614 37.101 534
v -1614 37.0166 532
v -1614 36.9312 530
v -1614 36.8447 528
v -1614 36.7573 526
v -1614 36.6689 524
v -1614 36.5796 522
v -1614 36.4892 520
v -1614 36.398 518
v -1614 36.3058 516
v -1614 36.2126 514
v -1614 36.1186 512
v -1614 36.0237 510
v -1612 38.6597 572
v -1612 38.455 570
v -1612 38.338 568
v -1612 38.2712 566
v -1612 38.2033 564
v -1612 38.1342 562
v -1612 38.0639 560
v -1612 37.9926 558
v -1612 37.9201 556
v -1612 37.8466 554
v -1612 37.7719 552
v -1612 37.6961 550
v -1612 37.6193 548
v -1612 37.5414 546
v -1612 37.4624 544
v -1612 37.3823 542
v -1612 37.3012 540
v -1612 37.2191 538
v -1612 37.1359 536
v -1612 37.0517 534
v -1612 36.9665 532
v -1612 36.8803 530
v -1612 36.7931 528
v -1612 36.705 526
v -1612 36.6158 524
v -1612 36.5257 522
v -1612 36.4347 520
v -1612 36.3427 518
v -1612 36.2497 516
v -1612 36.1559 514
v -1612 36.0611 512
v -1612 35.9655 510
v -1610 38.592 572
v -1610 38.4124 570
v -1610 38.3012 568
v -1610 38.2336 566
v -1610 38.1648 564
v -1610 38.0949 562
v -1610 38.0239 560
v -1610 37.9517 558
v -1610 37.8784 556
v -1610 37.804 554
v -1610 37.7286 552
v -1610 37.652 550
v -1610 37.5744 548
v -1610 37.4957 546
v -1610 37.4159 544
v -1610 37.3351 542
v -1610 37.2532 540
v -1610 37.1703 538
v -1610 37.0863 536
v -1610 37.0014 534
v -1610 36.9154 532
v -1610 36.8285 530
v -1610 36.7405 528
v -1610 36.6516 526
v -1610 36.5617 524
v -1610 36.4709 522
v -1610 36.3791 520
v -1610 36.2863 518
v -1610 36.1927 516
v -1610 36.0981 514
v -1610 36.0026 512
v -1610 35.9063 510
v -1608 38.5038 572
v -1608 38.3498 570
v -1608 38.2632 568
v -1608 38.1948 566
v -1608 38.1252 564
v -1608 38.0545 562
v -1608 37.9826 560
v -1608 37.9097 558
v -1608 37.8356 556
v -1608 37.7604 554
v -1608 37.6842 552
v -1608 37.6068 550
v -1608 37.5284 548
v -1608 37.4489 546
v -1608 37.3683 544
v -1608 37.2867 542
v -1608 37.2041 540
v -1608 37.1204 538
v -1608 37.0357 536
v -1608 36.95 534
v -1608 36.8632 532
v -1608 36.7755 530
v -1608 36.6868 528
v -1608 36.5972 526
v -1608 36.5065 524
v -1608 36.415 522
v -1608 36.3224 520
v -1608 36.229 518
v -1608 36.1346 516
v -1608 36.0393 514
v -1608 35.9432 512
v -1608 35.8461 510
v -1606 38.4018 572
v -1606 38.2923 570
v -1606 38.2241 568
v -1606 38.1549 566
v -1606 38.0845 564
v -1606 38.013 562
v -1606 37.9403 560
v -1606 37.8666 558
v -1606 37.7917 556
v -1606 37.7157 554
v -1606 37.6387 552
v -1606 37.5605 550
v -1606 37.4813 548
v -1606 37.401 546
v -1606 37.3197 544
v -1606 37.2373 542
v -1606 37.1539 540
v -1606 37.0694 538
v -1606 36.984 536
v -1606 36.8975 534
v -1606 36.81 532
v -1606 36.7216 530
v -1606 36.6321 528
v -1606 36.5417 526
v -1606 36.4504 524
v -1606 36.3581 522
v -1606 36.2648 520
v -1606 36.1706 518
v -1606 36.0756 516
v -1606 35.9796 514
v -1606 35.8827 512
v -1606 35.7849 510
v -1604 38.3206 572
v -1604 38.2528 570
v -1604 38.1839 568
v -1604 38.1139 566
v -1604 38.0427 564
v -1604 37.9704 562
v -1604 37.8969 560
v -1604 37.8223 558
v -1604 37.7467 556
v -1604 37.6699 554
v -1604 37.5921 552
v -1604 37.5132 550
v -1604 37.4332 548
v -1604 37.3521 546
v -1604 37.27 544
v -1604 37.1868 542
v -1604 37.1027 540
v -1604 37.0174 538
v -1604 36.9312 536
v -1604 36.844 534
v -1604 36.7558 532
v -1604 36.6666 530
v -1604 36.5764 528
v -1604 36.4853 526
v -1604 36.3932 524
v -1604 36.3001 522
v -1604 36.2062 520
v -1604 36.1113 518
v -1604 36.0155 516
v -1604 35.9188 514
v -1604 35.8212 512
v -1604 35.7227 510
v -1602 38.2809 572
v -1602 38.2123 570
v -1602 38.1426 568
v -1602 38.0718 566
v -1602 37.9998 564
v -1602 37.9266 562
v -1602 37.8524 560
v -1602 37.777 558
v -1602 37.7006 556
v -1602 37.623 554
v -1602 37.5444 552
v -1602 37.4647 550
v -1602 37.3839 548
v -1602 37.3021 546
v -1602 37.2192 544
v -1602 37.1353 542
v -1602 37.0504 540
v -1602 36.9644 538
v -1602 36.8774 536
v -1602 36.7895 534
v -1602 36.7005 532
v -1602 36.6105 530
v -1602 36.5196 528
v -1602 36.4278 526
v -1602 36.3349 524
v -1602 36.2412 522
v -1602 36.1465 520
v -1602 36.0509 518
v -1602 35.9544 516
v -1602 35.857 514
v -1602 35.7587 512
v -1602 35.6596 510
v -1600 38.2401 572
v -1600 38.1707 570
v -1600 38.1002 568
v -1600 38.0285 566
v -1600 37.9557 564
v -1600 37.8818 562
v -1600 37.8068 560
v -1600 37.7306 558
v -1600 37.6534 556
v -1600 37.5751 554
v -1600 37.4957 552
v -1600 37.4152 550
v -1600 37.3336 548
v -1600 37.2511 546
v -1600 37.1674 544
v -1600 37.0827 542
v -1600 36.997 540
v -1600 36.9103 538
v -1600 36.8226 536
v -1600 36.7339 534
v -1600 36.6442 532
v -1600 36.5535 530
v -1600 36.4618 528
v -1600 36.3692 526
v -1600 36.2757 524
v -1600 36.1812 522
v -1600 36.0858 520
v -1600 35.9895 518
v -1600 35.8923 516
v -1600 35.7942 514
v -1600 35.6953 512
v -1600 35.5954 510
v -1598 38.1981 572
v -1598 38.1279 570
v -1598 38.0566 568
v -1598 37.9842 566
v -1598 37.9106 564
v -1598 37.8359 562
v -1598 37.7601 560
v -1598 37.6832 558
v -1598 37.6051 556
v -1598 37.526 554
v -1598 37.4459 552
v -1598 37.3646 550
v -1598 37.2823 548
v -1598 37.1989 546
v -1598 37.1145 544
v -1598 37.0291 542
v -1598 36.9426 540
v -1598 36.8552 538
v -1598 36.7667 536
v -1598 36.6773 534
v -1598 36.5868 532
v -1598 36.4954 530
v -1598 36.403 528
v -1598 36.3097 526
v -1598 36.2155 524
v -1598 36.1203 522
v -1598 36.0242 520
v -1598 35.9272 518
v -1598 35.8293 516
v -1598 35.7305 514
v -1598 35.6308 512
v -1598 35.5303 510
v -1596 38.155 572
v -1596 38.0841 570
v -1596 38.012 568
v -1596 37.9387 566
v -1596 37.8644 564
v -1596 37.7889 562
v -1596 37.7123 560
v -1596 37.6346 558
v -1596 37.5558 556
v -1596 37.4759 554
v -1596 37.395 552
v -1596 37.313 550
v -1596 37.2299 548
v -1596 37.1458 546
v -1596 37.0606 544
v -1596 36.9744 542
v -1596 36.8872 540
v -1596 36.799 538
v -1596 36.7098 536
v -1596 36.6196 534
v -1596 36.5285 532
v -1596 36.4363 530
v -1596 36.3432 528
v -1596 36.2492 526
v -1596 36.1542 524
v -1596 36.0583 522
v -1596 35.9615 520
v -1596 35.8638 518
v -1596 35.7652 516
v -1596 35.6658 514
v -1596 35.5654 512
v -1596 35.4643 510
v -1594 38.1108 572
v -1594 38.0391 570
v -1594 37.9662 568
v -1594 37.8922 566
v -1594 37.817 564
v -1594 37.7408 562
v -1594 37.6634 560
v -1594 37.5849 558
v -1594 37.5054 556
v -1594 37.4247 554
v -1594 37.343 552
v -1594 37.2602 550
v -1594 37.1764 548
v -1594 37.0915 546
v -1594 37.0056 544
v -1594 36.9187 542
v -1594 36.8308 540
v -1594 36.7418 538
v -1594 36.6519 536
v -1594 36.561 534
v -1594 36.4691 532
v -1594 36.3762 530
v -1594 36.2824 528
v -1594 36.1877 526
v -1594 36.092 524
v -1594 35.9954 522
v -1594 35.8979 520
v -1594 35.7995 518
v -1594 35.7002 516
v -1594 35.6001 514
v -1594 35.4991 512
v -1594 35.3972 510
v -1592 38.0655 572
v -1592 37.993 570
v -1592 37.9193 568
v -1592 37.8445 566
v -1592 37.7686 564
v -1592 37.6916 562
v -1592 37.6134 560
v -1592 37.5342 558
v -1592 37.4539 556
v -1592 37.3725 554
v -1592 37.29 552
v -1592 37.2065 550
v -1592 37.1219 548
v -1592 37.0363 546
v -1592 36.9496 544
v -1592 36.862 542
v -1592 36.7733 540
v -1592 36.6836 538
v -1592 36.5929 536
v -1592 36.5013 534
v -1592 36.4087 532
v -1592 36.3151 530
v -1592 36.2206 528
v -1592 36.1251 526
v -1592 36.0288 524
v -1592 35.9315 522
v -1592 35.8333 520
v -1592 35.7342 518
v -1592 35.6342 516
v -1592 35.5334 514
v -1592 35.4317 512
v -1592 35.3292 510
v -1590 38.0191 572
v -1590 37.9458 570
v -1590 37.8714 568
v -1590 37.7958 566
v -1590 37.7191 564
v -1590 37.6413 562
v -1590 37.5624 560
v -1590 37.4824 558
v -1590 37.4013 556
v -1590 37.3191 554
v -1590 37.2359 552
v -1590 37.1517 550
v -1590 37.0663 548
v -1590 36.98 546
v -1590 36.8926 544
v -1590 36.8042 542
v -1590 36.7148 540
v -1590 36.6244 538
v -1590 36.533 536
v -1590 36.4406 534
v -1590 36.3473 532
v -1590 36.253 530
v -1590 36.1578 528
v -1590 36.0616 526
v -1590 35.9646 524
v -1590 35.8666 522
v -1590 35.7677 520
v -1590 35.6679 518
v -1590 35.5673 516
v -1590 35.4658 514
v -1590 35.3635 512
v -1590 35.2603 510
v -1588 37.9716 572
v -1588 37.8975 570
v -1588 37.8223 568
v -1588 37.746 566
v -1588 37.6685 564
v -1588 37.5899 562
v -1588 37.5103 560
v -1588 37.4295 558
v -1588 37.3477 556
v -1588 37.2648 554
v -1588 37.1808 552
v -1588 37.0958 550
v -1588 37.0097 548
v -1588 36.9226 546
v -1588 36.8345 544
v -1588 36.7454 542
v -1588 36.6552 540
v -1588 36.5641 538
v -1588 36.472 536
v -1588 36.3789 534
v -1588 36.2849 532
v -1588 36.1899 530
v -1588 36.094 528
v -1588 35.9971 526
v -1588 35.8994 524
v -1588 35.8007 522
v -1588 35.7011 520
v -1588 35.6007 518
v -1588 35.4994 516
v -1588 35.3972 514
v -1588 35.2942 512
v -1588 35.1904 510
v -1586 37.923 572
v -1586 37.8482 570
v -1586 37.7722 568
v -1586 37.6951 566
v -1586 37.6168 564
v -1586 37.5375 562
v -1586 37.4571 560
v -1586 37.3756 558
v -1586 37.293 556
v -1586 37.2094 554
v -1586 37.1246 552
v -1586 37.0389 550
v -1586 36.9521 548
v -1586 36.8642 546
v -1586 36.7754 544
v -1586 36.6855 542
v -1586 36.5947 540
v -1586 36.5028 538
v -1586 36.41 536
v -1586 36.3162 534
v -1586 36.2215 532
v -1586 36.1258 530
v -1586 36.0292 528
v -1586 35.9316 526
v -1586 35.8332 524
v -1586 35.7338 522
v -1586 35.6336 520
v -1586 35.5325 518
v -1586 35.4305 516
v -1586 35.3277 514
v -1586 35.224 512
v -1586 35.1196 510
v -1584 37.8733 572
v -1584 37.7977 570
v -1584 37.7209 568
v -1584 37.6431 566
v -1584 37.5641 564
v -1584 37.484 562
v -1584 37.4029 560
v -1584 37.3206 558
v -1584 37.2373 556
v -1584 37.1529 554
v -1584 37.0674 552
v -1584 36.9809 550
v -1584 36.8934 548
v -1584 36.8048 546
v -1584 36.7153 544
v -1584 36.6247 542
v -1584 36.5331 540
v -1584 36.4406 538
v -1584 36.347 536
v -1584 36.2525 534
v -1584 36.1571 532
v -1584 36.0607 530
v -1584 35.9634 528
v -1584 35.8652 526
v -1584 35.7661 524
v -1584 35.666 522
v -1584 35.5651 520
v -1584 35.4634 518
v -1584 35.3607 516
v -1584 35.2572 514
v -1584 35.1529 512
v -1584 35.0478 510
v -1582 37.8225 572
v -1582 37.7461 570
v -1582 37.6686 568
v -1582 37.59 566
v -1582 37.5103 564
v -1582 37.4295 562
v -1582 37.3475 560
v -1582 37.2646 558
v -1582 37.1805 556
v -1582 37.0954 554
v -1582 37.0092 552
v -1582 36.9219 550
v -1582 36.8337 548
v -1582 36.7444 546
v -1582 36.6541 544
v -1582 36.5628 542
v -1582 36.4705 540
v -1582 36.3773 538
v -1582 36.2831 536
v -1582 36.1879 534
v -1582 36.0917 532
v -1582 35.9947 530
v -1582 35.8967 528
v -1582 35.7978 526
v -1582 35.698 524
v -1582 35.5973 522
v -1582 35.4957 520
v -1582 35.3933 518
v -1582 35.29 516
v -1582 35.1858 514
v -1582 35.0809 512
v -1582 34.9751 510
v -1580 37.7706 572
v -1580 37.6935 570
v -1580 37.6152 568
v -1580 37.5359 566
v -1580 37.4554 564
v -1580 37.3738 562
v -1580 37.2912 560
v -1580 37.2075 558
v -1580 37.1227 556
v -1580 37.0368 554
v -1580 36.9499 552
v -1580 36.8619 550
v -1580 36.773 548
v -1580 36.683 546
v -1580 36.592 544
v -1580 36.5 542
v -1580 36.407 540
v -1580 36.313 538
v -1580 36.2181 536
v -1580 36.1222 534
v -1580 36.0254 532
v -1580 35.9276 530
v -1580 35.829 528
v -1580 35.7294 526
v -1580 35.6289 524
v -1580 35.5275 522
v -1580 35.4253 520
v -1580 35.3222 518
v -1580 35.2183 516
v -1580 35.1135 514
v -1580 35.0079 512
v -1580 34.9015 510
v -1578 37.7176 572
v -1578 37.6398 570
v -1578 37.5608 568
v -1578 37.4807 566
v -1578 37.3995 564
v -1578 37.3172 562
v -1578 37.2338 560
v -1578 37.1493 558
v -1578 37.0638 556
v -1578 36.9772 554
v -1578 36.8896 552
v -1578 36.8009 550
v -1578 36.7112 548
v -1578 36.6205 546
v -1578 36.5288 544
v -1578 36.4361 542
v -1578 36.3424 540
v -1578 36.2477 538
v -1578 36.1521 536
v -1578 36.0556 534
v -1578 35.9581 532
v -1578 35.8596 530
v -1578 35.7603 528
v -1578 35.66 526
v -1578 35.5589 524
v -1578 35.4569 522
v -1578 35.354 520
v -1578 35.2502 518
v -1578 35.1457 516
v -1578 35.0403 514
v -1578 34.934 512
v -1578 34.827 510
v -1576 37.6636 572
v -1576 37.585 570
v -1576 37.5053 568
v -1576 37.4244 566
v -1576 37.3425 564
v -1576 37.2594 562
v -1576 37.1753 560
v -1576 37.0901 558
v -1576 37.0039 556
v -1576 36.9166 554
v -1576 36.8282 552
v -1576 36.7389 550
v -1576 36.6485 548
v -1576 36.557 546
v -1576 36.4646 544
v -1576 36.3712 542
v -1576 36.2769 540
v -1576 36.1815 538
v -1576 36.0852 536
v -1576 35.9879 534
v -1576 35.8898 532
v -1576 35.7907 530
v -1576 35.6906 528
v -1576 35.5897 526
v -1576 35.4879 524
v -1576 35.3853 522
v -1576 35.2817 520
v -1576 35.1773 518
v -1576 35.0721 516
v -1576 34.9661 514
v -1576 34.8592 512
v -1576 34.7516 510
v -1574 37.6085 572
v -1574 37.5291 570
v -1574 37.4487 568
v -1574 37.3671 566
v -1574 37.2844 564
v -1574 37.2007 562
v -1574 37.1158 560
v -1574 37.0299 558
v -1574 36.943 556
v -1574 36.8549 554
v -1574 36.7659 552
v -1574 36.6758 550
v -1574 36.5847 548
v -1574 36.4926 546
v -1574 36.3995 544
v -1574 36.3054 542
v -1574 36.2103 540
v -1574 36.1143 538
v -1574 36.0173 536
v -1574 35.9194 534
v -1574 35.8205 532
v -1574 35.7207 530
v -1574 35.6201 528
v -1574 35.5185 526
v -1574 35.416 524
v -1574 35.3127 522
v -1574 35.2085 520
v -1574 35.1035 518
v -1574 34.9977 516
v -1574 34.891 514
v -1574 34.7835 512
v -1574 34.6753 510
v -1572 37.5523 572
v -1572 37.4722 570
v -1572 37.391 568
v -1572 37.3087 566
v -1572 37.2253 564
v -1572 37.1408 562
v -1572 37.0553 560
v -1572 36.9687 558
v -1572 36.881 556
v -1572 36.7923 554
v -1572 36.7025 552
v -1572 36.6117 550
v -1572 36.5199 548
v -1572 36.4271 546
v -1572 36.3333 544
v -1572 36.2385 542
v -1572 36.1428 540
v -1572 36.0461 538
v -1572 35.9484 536
v -1572 35.8498 534
v -1572 35.7503 532
v -1572 35.6499 530
v -1572 35.5485 528
v -1572 35.4463 526
v -1572 35.3432 524
v -1572 35.2393 522
v -1572 35.1344 520
v -1572 35.0288 518
v -1572 34.9223 516
v -1572 34.815 514
v -1572 34.7069 512
v -1572 34.598 510
v -1570 37.495 572
v -1570 37.4142 570
v -1570 37.3323 568
v -1570 37.2493 566
v -1570 37.1652 564
v -1570 37.08 562
v -1570 36.9937 560
v -1570 36.9064 558
v -1570 36.818 556
v -1570 36.7286 554
v -1570 36.6381 552
v -1570 36.5466 550
v -1570 36.4542 548
v -1570 36.3607 546
v -1570 36.2662 544
v -1570 36.1707 542
v -1570 36.0743 540
v -1570 35.9769 538
v -1570 35.8786 536
v -1570 35.7793 534
v -1570 35.6791 532
v -1570 35.5781 530
v -1570 35.4761 528
v -1570 35.3732 526
v -1570 35.2695 524
v -1570 35.1649 522
v -1570 35.0594 520
v -1570 34.9531 518
v -1570 34.846 516
v -1570 34.7381 514
v -1570 34.6294 512
v -1570 34.5199 510
f 444 449 443
f 444 443 442
f 442 443 440
f 447 442 446
f 447 444 442
f 446 442 445
f 440 445 442
f 460 446 445
f 460 445 435
f 441 445 440
f 435 445 441
f 431 448 447
f 444 447 448
f 431 447 446
f 444 453 452
f 444 448 454
f 444 454 453
f 444 452 449
f 435 441 440
f 431 446 460
f 435 440 437
f 431 454 448
f 431 457 454
f 457 453 454
f 436 460 435
f 437 436 435
f 438 436 437
f 466 475 469
f 475 461 469
f 461 462 469
f 469 467 466
f 469 462 467
f 475 474 461
f 474 463 461
f 463 462 461
f 470 475 466
f 399 398 397
f 399 400 398
f 403 400 399
f 474 473 463
f 453 458 452
f 453 457 458
f 420 414 419
f 412 419 414
f 414 415 412
f 416 415 414
f 418 414 420
f 414 418 416
f 499 498 487
f 499 487 493
f 487 488 493
f 489 488 487
f 498 489 487
f 422 423 415
f 415 416 422
f 413 419 412
f 411 419 413
f 430 419 411
f 430 420 419
f 403 401 400
f 395 401 403
f 394 395 403
f 464 470 466
f 492 488 489
f 498 497 489
f 497 492 489
f 417 418 420
f 416 418 417
f 471 470 464
f 411 413 412
f 497 496 492
f 433 460 436
f 433 431 460
f 431 458 457
f 428 420 430
f 417 420 428
f 477 484 483
f 482 477 483
f 438 433 436
f 416 417 422
f 462 465 467
f 466 467 465
f 466 465 464
f 465 462 463
f 401 398 400
f 490 499 493
f 493 488 490
f 494 499 490
f 479 485 484
f 484 477 479
f 411 412 409
f 473 472 468
f 473 468 463
f 428 422 417
f 491 490 488
f 488 492 491
f 465 463 468
f 496 491 492
f 496 495 491
f 432 458 431
f 433 432 431
f 495 494 491
f 491 494 490
f 465 468 464
f 472 471 464
f 432 456 458
f 451 458 456
f 452 458 451
f 449 452 451
f 472 464 468
f 478 477 476
f 479 477 478
f 476 477 482
f 410 411 409
f 410 430 411
f 479 478 485
f 478 486 485
f 434 432 433
f 438 434 433
f 396 395 394
f 396 401 395
f 402 401 396
f 398 401 402
f 398 402 397
f 449 451 450
f 451 456 450
f 406 409 408
f 410 409 406
f 478 476 481
f 478 481 480
f 478 480 486
f 456 459 455
f 450 456 455
f 432 459 456
f 476 482 481
f 423 422 421
f 422 429 421
f 428 429 422
f 428 404 429
f 428 430 404
f 404 430 410
f 439 432 434
f 432 439 459
f 439 434 438
f 404 410 406
f 450 438 449
f 455 438 450
f 459 438 455
f 438 459 439
f 406 405 404
f 427 404 405
f 429 404 427
f 425 429 427
f 421 429 425
f 30 33 28
f 32 28 33
f 28 32 31
f 24 14 25
f 14 24 13
f 15 14 13
f 15 17 14
f 3 2 1
f 4 2 3
f 5 2 4
f 6 2 5
f 7 2 6
f 8 2 7
f 2 172 170
f 9 172 2
f 8 9 2
f 8 10 9
f 8 11 10
f 12 11 8
f 170 174 179
f 175 174 173
f 179 174 175
f 179 175 177
f 179 177 178
f 178 177 176
f 215 214 213
f 215 213 216
f 215 216 217
f 218 217 216
f 219 217 218
f 212 211 210
f 207 211 212
f 207 208 211
f 209 208 207
f 160 191 190
f 160 190 161
f 161 157 160
f 160 157 159
f 159 157 158
f 158 157 156
f 152 151 150
f 153 151 152
f 151 153 155
f 155 153 154
f 155 154 189
f 155 189 188
f 256 155 188
f 257 155 256
f 258 155 257
f 194 155 258
f 193 155 194
f 155 193 192
f 253 252 251
f 253 251 254
f 255 253 254
f 347 346 345
f 348 346 347
f 309 308 307
f 310 308 309
f 314 310 309
f 312 310 314
f 342 339 341
f 166 241 240
f 166 240 239
f 166 239 165
f 239 238 165
f 165 238 236
f 165 236 237
f 237 236 205
f 205 236 206
f 206 171 205
f 205 171 170
f 166 165 164
f 171 169 170
f 170 169 2
f 2 169 168
f 2 168 167
f 98 103 97
f 95 98 97
f 103 101 108
f 97 103 108
f 198 197 195
f 244 243 242
f 244 247 243
f 61 250 245
f 61 62 250
f 63 62 61
f 41 40 39
f 222 221 220
f 38 40 41
f 222 223 221
f 227 223 222
f 227 228 223
f 227 226 228
f 226 227 225
f 226 225 224
f 201 200 199
f 201 203 200
f 200 203 202
f 203 204 202
f 47 46 45
f 48 46 47
f 51 50 49
f 52 50 51
f 186 185 184
f 185 186 187
f 182 181 180
f 56 59 60
f 60 59 58
f 68 67 66
f 67 74 71
f 67 71 66
f 264 263 262
f 267 262 263
f 265 267 266
f 265 259 260
f 261 260 259
f 265 266 259
f 423 421 425
f 247 244 246
f 247 246 245
f 61 245 246
f 283 79 285
f 287 283 285
f 267 263 266
f 14 17 16
f 17 18 16
f 183 181 182
f 107 110 109
f 26 25 23
f 14 23 25
f 244 249 246
f 249 244 248
f 423 425 424
f 425 427 424
f 45 46 44
f 45 44 43
f 52 53 50
f 52 54 53
f 23 14 16
f 57 56 55
f 56 57 59
f 103 102 101
f 101 102 107
f 40 38 42
f 427 405 407
f 427 407 426
f 424 427 426
f 340 339 338
f 36 35 34
f 74 72 78
f 74 67 72
f 312 315 310
f 312 316 315
f 313 312 311
f 312 313 316
f 36 38 35
f 38 36 37
f 42 38 37
f 406 408 407
f 407 405 406
f 308 321 307
f 392 388 391
f 116 119 121
f 117 119 116
f 117 116 115
f 197 196 195
f 77 78 72
f 77 72 76
f 124 125 123
f 124 123 118
f 118 123 120
f 348 349 346
f 342 343 339
f 343 342 344
f 343 352 339
f 393 339 352
f 339 393 338
f 162 157 161
f 162 163 157
f 98 95 93
f 96 93 95
f 106 110 107
f 107 102 106
f 61 246 64
f 64 246 249
f 61 65 63
f 65 61 64
f 81 79 283
f 81 80 79
f 119 120 121
f 391 388 390
f 122 117 115
f 282 283 287
f 283 284 81
f 284 283 282
f 322 308 325
f 325 308 310
f 322 321 308
f 114 113 112
f 349 348 351
f 351 348 350
f 68 69 67
f 70 67 69
f 73 67 70
f 67 73 72
f 231 230 229
f 231 233 230
f 230 233 232
f 426 423 424
f 147 144 146
f 139 147 146
f 288 293 195
f 196 288 195
f 294 295 195
f 294 195 293
f 120 119 118
f 233 235 232
f 232 235 234
f 296 297 295
f 296 295 294
f 145 144 143
f 143 144 147
f 315 325 310
f 140 147 139
f 140 139 138
f 87 86 85
f 81 84 80
f 426 407 408
f 408 423 426
f 96 94 93
f 87 90 86
f 29 28 27
f 30 28 29
f 106 111 110
f 106 105 111
f 106 104 105
f 106 102 104
f 104 102 103
f 304 305 303
f 304 303 301
f 301 303 300
f 98 93 99
f 76 72 73
f 323 321 322
f 324 321 323
f 389 388 387
f 389 390 388
f 288 196 289
f 76 73 75
f 136 135 137
f 135 136 132
f 149 145 148
f 145 143 148
f 93 94 92
f 93 92 91
f 93 91 100
f 99 93 100
f 304 306 305
f 81 284 286
f 83 81 286
f 81 83 84
f 299 298 297
f 297 296 299
f 357 358 359
f 355 354 353
f 87 89 90
f 84 83 82
f 358 357 356
f 90 89 88
f 315 316 326
f 315 326 325
f 302 301 300
f 292 291 290
f 138 141 140
f 142 141 138
f 135 132 134
f 381 382 385
f 377 382 381
f 377 378 382
f 377 376 378
f 376 377 375
f 375 325 376
f 325 375 322
f 360 322 361
f 360 361 380
f 360 380 379
f 379 380 384
f 384 380 383
f 383 386 384
f 322 360 323
f 134 132 133
f 363 127 362
f 364 127 363
f 374 371 373
f 362 127 132
f 373 371 372
f 368 318 367
f 369 318 368
f 275 272 274
f 274 272 273
f 273 272 268
f 268 272 271
f 268 271 270
f 268 270 269
f 268 269 126
f 268 126 127
f 128 127 126
f 129 127 128
f 130 127 129
f 131 127 130
f 328 327 127
f 133 132 131
f 131 132 127
f 365 127 364
f 328 127 365
f 365 370 328
f 365 371 370
f 372 371 365
f 337 335 336
f 336 335 332
f 332 335 334
f 332 334 331
f 329 332 331
f 327 329 331
f 328 329 327
f 330 329 328
f 366 330 328
f 366 318 330
f 333 332 329
f 367 318 366
f 317 318 369
f 319 318 317
f 318 319 320
f 22 20 21
f 21 20 19
f 21 19 281
f 21 281 280
f 278 21 280
f 21 278 279
f 279 278 277
f 272 277 278
f 277 272 276
f 276 272 275
f 503 509 505
f 509 514 505
f 505 514 508
f 505 504 503
f 505 506 504
f 508 506 505
f 510 509 503
f 514 500 508
f 500 501 508
f 508 501 506
f 501 504 506
f 514 513 500
f 527 526 515
f 527 515 521
f 515 516 521
f 517 516 515
f 526 517 515
f 520 516 517
f 526 525 517
f 525 520 517
f 511 503 507
f 511 510 503
f 504 507 503
f 525 524 520
f 504 501 502
f 504 502 507
f 518 527 521
f 522 527 518
f 521 516 518
f 502 501 500
f 519 518 516
f 516 520 519
f 513 502 500
f 513 512 502
f 512 511 507
f 524 519 520
f 524 523 519
f 523 522 519
f 519 522 518
f 512 507 502
f 539 538 537
f 537 538 536
f 537 536 534
f 551 550 549
f 549 550 547
f 549 547 548
f 539 529 538
f 551 541 550
f 548 544 546
f 546 544 545
f 535 533 534
f 535 532 533
f 533 532 531
f 545 544 543
f 534 536 535
f 544 548 547
f 530 529 528
f 538 529 530
f 542 541 540
f 550 541 542
f 566 565 564
f 571 570 569
f 569 570 568
f 569 568 567
f 554 553 552
f 554 562 553
f 554 563 562
f 562 563 561
f 562 561 560
f 560 561 559
f 560 559 557
f 558 557 559
f 558 556 557
f 557 556 555
f 564 574 566
f 566 574 573
f 566 573 571
f 571 573 572
f 571 572 570
f 583 584 585
f 584 583 582
f 583 606 582
f 584 582 606
f 583 607 606
f 584 606 605
f 607 605 606
f 583 603 607
f 603 583 589
f 588 603 589
f 602 603 588
f 602 607 603
f 607 602 605
f 588 589 576
f 579 588 576
f 575 597 577
f 577 576 575
f 578 576 577
f 576 578 579
f 624 623 613
f 614 613 612
f 621 612 623
f 613 623 612
f 614 615 613
f 614 617 615
f 617 616 615
f 621 614 612
f 617 614 621
f 601 600 590
f 600 601 616
f 619 600 616
f 617 619 616
f 600 618 590
f 618 600 619
f 601 590 591
f 616 611 615
f 616 601 611
f 609 611 601
f 601 591 609
f 598 597 575
f 583 613 615
f 611 583 615
f 610 583 611
f 611 608 610
f 608 575 610
f 608 598 575
f 608 611 609
f 583 610 575
f 589 583 575
f 589 575 576
f 579 602 588
f 590 618 592
f 592 591 590
f 602 579 581
f 578 580 579
f 581 579 580
f 595 609 591
f 609 595 608
f 617 620 619
f 617 621 620
f 595 598 608
f 596 598 595
f 596 599 598
f 598 599 597
f 581 605 602
f 593 591 592
f 594 591 593
f 591 594 596
f 591 596 595
f 584 605 604
f 605 581 604
f 584 586 585
f 586 584 604
f 624 625 623
f 623 625 621
f 625 627 621
f 628 620 621
f 627 628 621
f 630 604 581
f 580 631 581
f 631 630 581
f 587 586 604
f 587 604 630
f 636 597 599
f 636 599 596
f 587 585 586
f 626 625 624
f 625 626 627
f 578 634 580
f 634 631 580
f 628 619 620
f 632 577 597
f 577 632 635
f 635 578 577
f 636 596 633
f 633 596 594
f 622 618 619
f 622 619 628
f 629 594 593
f 592 629 593
f 632 597 636
f 594 629 633
f 631 585 630
f 630 585 587
f 635 634 578
f 634 585 631
f 634 635 585
f 585 635 632
f 632 624 585
f 627 624 628
f 624 627 626
f 628 624 622
f 622 624 629
f 632 629 624
f 618 629 592
f 622 629 618
f 629 632 633
f 633 632 636
f 649 648 637
f 649 637 643
f 637 638 643
f 639 638 637
f 648 639 637
f 642 638 639
f 648 647 639
f 647 642 639
f 647 646 642
f 640 649 643
f 644 649 640
f 643 638 640
f 641 640 638
f 638 642 641
f 646 641 642
f 646 645 641
f 645 644 641
f 641 644 640
f 658 656 657
f 658 651 656
f 650 651 658
f 655 654 653
f 655 656 654
f 657 656 655
f 652 651 650
f 661 660 659
f 665 663 664
f 664 663 662
f 661 659 667
f 661 667 665
f 665 667 666
f 665 666 663
f 923 917 922
f 926 923 922
f 910 915 914
f 887 890 888
f 888 890 889
f 918 917 916
f 918 922 917
f 910 911 915
f 912 911 910
f 887 886 885
f 887 888 886
f 912 913 911
f 891 883 892
f 893 880 891
f 883 891 880
f 882 883 880
f 884 883 882
f 943 942 939
f 895 896 897
f 918 921 925
f 916 921 918
f 935 939 938
f 939 940 938
f 939 941 940
f 939 942 941
f 898 894 895
f 896 895 894
f 925 921 924
f 900 894 899
f 908 896 894
f 909 896 908
f 882 880 881
f 881 880 879
f 902 894 900
f 902 900 901
f 919 921 916
f 902 907 894
f 908 894 907
f 901 904 903
f 901 903 902
f 920 919 916
f 937 935 938
f 935 937 936
f 929 930 928
f 905 902 903
f 906 902 905
f 907 902 906
f 797 781 801
f 797 801 800
f 679 677 678
f 672 680 681
f 878 745 750
f 745 747 750
f 750 747 749
f 747 748 749
f 748 758 749
f 753 758 748
f 754 744 745
f 744 754 834
f 744 834 835
f 744 835 826
f 835 718 826
f 826 718 717
f 719 717 718
f 739 723 720
f 726 723 739
f 721 720 723
f 721 719 720
f 715 719 721
f 719 715 717
f 761 767 766
f 761 759 767
f 871 761 766
f 872 761 871
f 872 871 873
f 874 872 873
f 874 875 872
f 742 741 740
f 743 741 742
f 710 741 743
f 741 710 711
f 712 711 710
f 713 711 712
f 712 734 713
f 713 734 735
f 728 736 734
f 728 737 736
f 728 738 737
f 730 738 728
f 782 781 780
f 792 784 791
f 793 784 792
f 794 784 793
f 794 783 784
f 778 784 783
f 779 784 778
f 780 779 778
f 804 779 780
f 780 803 804
f 780 781 803
f 790 803 786
f 804 803 790
f 787 786 785
f 795 786 787
f 786 795 802
f 786 802 789
f 790 786 789
f 790 789 788
f 803 781 797
f 797 800 799
f 797 799 798
f 797 798 776
f 797 776 796
f 796 776 777
f 777 776 773
f 773 776 775
f 773 775 774
f 773 774 771
f 773 771 772
f 772 771 770
f 809 808 807
f 810 809 807
f 822 821 820
f 823 821 822
f 677 679 675
f 764 813 763
f 765 764 763
f 753 751 758
f 758 751 755
f 751 756 755
f 752 756 751
f 757 756 752
f 686 688 687
f 683 688 686
f 683 686 685
f 683 685 684
f 683 684 682
f 683 682 670
f 670 682 680
f 680 672 670
f 691 690 689
f 691 692 690
f 701 703 699
f 699 703 702
f 817 815 816
f 816 815 814
f 746 747 745
f 748 747 746
f 929 928 927
f 753 748 746
f 753 752 751
f 753 746 752
f 746 745 744
f 935 936 934
f 935 934 933
f 695 688 683
f 688 695 696
f 691 693 692
f 691 694 693
f 700 699 698
f 700 701 699
f 717 836 826
f 827 744 826
f 826 836 827
f 828 746 744
f 744 827 828
f 746 828 829
f 746 829 830
f 746 830 831
f 746 831 752
f 722 726 725
f 723 726 722
f 715 716 717
f 717 716 836
f 716 715 714
f 724 723 722
f 721 723 724
f 724 715 721
f 769 715 724
f 872 762 761
f 876 762 872
f 761 760 759
f 762 760 761
f 875 876 872
f 875 877 876
f 768 743 742
f 733 743 768
f 733 710 743
f 732 710 733
f 709 710 732
f 709 712 710
f 708 712 709
f 708 705 712
f 706 712 705
f 712 706 734
f 734 706 728
f 730 728 729
f 729 728 727
f 728 706 727
f 807 806 805
f 807 808 806
f 825 824 821
f 821 824 820
f 812 764 811
f 813 764 812
f 752 833 757
f 757 833 832
f 816 818 817
f 676 675 674
f 677 675 676
f 817 818 819
f 672 673 671
f 672 671 670
f 670 671 669
f 668 683 670
f 670 669 668
f 683 668 697
f 683 697 695
f 929 927 932
f 932 927 931
f 732 707 709
f 709 707 708
f 733 731 732
f 732 731 707
f 733 768 731
f 708 707 704
f 708 704 705
f 706 705 704
f 843 861 860
f 843 844 861
f 842 844 843
f 842 843 841
f 859 857 858
f 860 857 859
f 867 863 844
f 842 867 844
f 863 839 862
f 855 854 853
f 856 854 855
f 854 856 866
f 866 856 867
f 856 870 867
f 867 870 868
f 868 863 867
f 868 865 863
f 864 863 865
f 863 864 838
f 863 838 839
f 839 838 837
f 870 856 869
f 860 861 857
f 842 841 840
f 847 846 845
f 847 848 846
f 849 848 847
f 849 850 848
f 851 850 849
f 852 850 851
f 852 857 850
f 858 857 852
f 954 953 949
f 955 954 949
f 953 952 947
f 949 953 947
f 947 952 945
f 955 949 950
f 948 950 949
f 949 946 948
f 946 949 947
f 946 947 945
f 948 951 950
f 946 945 944
f 958 957 956
f 967 958 956
f 966 962 965
f 966 959 962
f 966 957 959
f 959 957 958
f 967 961 958
f 960 959 958
f 960 964 959
f 964 963 959
f 959 963 962
f 958 961 960
f 1001 969 968
f 968 1000 1001
f 1033 1001 1000
f 1000 1032 1033
f 1065 1033 1032
f 1032 1064 1065
f 1097 1065 1064
f 1064 1096 1097
f 1129 1097 1096
f 1096 1128 1129
f 1161 1129 1128
f 1128 1160 1161
f 1193 1161 1160
f 1160 1192 1193
f 1225 1193 1192
f 1192 1224 1225
f 1257 1225 1224
f 1224 1256 1257
f 1289 1257 1256
f 1256 1288 1289
f 1321 1289 1288
f 1288 1320 1321
f 1353 1321 1320
f 1320 1352 1353
f 1385 1353 1352
f 1352 1384 1385
f 1417 1385 1384
f 1384 1416 1417
f 1449 1417 1416
f 1416 1448 1449
f 1481 1449 1448
f 1448 1480 1481
f 1513 1481 1480
f 1480 1512 1513
f 1545 1513 1512
f 1512 1544 1545
f 1577 1545 1544
f 1544 1576 1577
f 1609 1577 1576
f 1576 1608 1609
f 1641 1609 1608
f 1608 1640 1641
f 1673 1641 1640
f 1640 1672 1673
f 1705 1673 1672
f 1672 1704 1705
f 1737 1705 1704
f 1704 1736 1737
f 1769 1737 1736
f 1736 1768 1769
f 1801 1769 1768
f 1768 1800 1801
f 1833 1801 1800
f 1800 1832 1833
f 1865 1833 1832
f 1832 1864 1865
f 1897 1865 1864
f 1864 1896 1897
f 1929 1897 1896
f 1896 1928 1929
f 1961 1929 1928
f 1928 1960 1961
f 1002 970 969
f 969 1001 1002
f 1034 1002 1001
f 1001 1033 1034
f 1066 1034 1033
f 1033 1065 1066
f 1098 1066 1065
f 1065 1097 1098
f 1130 1098 1097
f 1097 1129 1130
f 1162 1130 1129
f 1129 1161 1162
f 1194 1162 1161
f 1161 1193 1194
f 1226 1194 1193
f 1193 1225 1226
f 1258 1226 1225
f 1225 1257 1258
f 1290 1258 1257
f 1257 1289 1290
f 1322 1290 1289
f 1289 1321 1322
f 1354 1322 1321
f 1321 1353 1354
f 1386 1354 1353
f 1353 1385 1386
f 1418 1386 1385
f 1385 1417 1418
f 1450 1418 1417
f 1417 1449 1450
f 1482 1450 1449
f 1449 1481 1482
f 1514 1482 1481
f 1481 1513 1514
f 1546 1514 1513
f 1513 1545 1546
f 1578 1546 1545
f 1545 1577 1578
f 1610 1578 1577
f 1577 1609 1610
f 1642 1610 1609
f 1609 1641 1642
f 1674 1642 1641
f 1641 1673 1674
f 1706 1674 1673
f 1673 1705 1706
f 1738 1706 1705
f 1705 1737 1738
f 1770 1738 1737
f 1737 1769 1770
f 1802 1770 1769
f 1769 1801 1802
f 1834 1802 1801
f 1801 1833 1834
f 1866 1834 1833
f 1833 1865 1866
f 1898 1866 1865
f 1865 1897 1898
f 1930 1898 1897
f 1897 1929 1930
f 1962 1930 1929
f 1929 1961 1962
f 1003 971 970
f 970 1002 1003
f 1035 1003 1002
f 1002 1034 1035
f 1067 1035 1034
f 1034 1066 1067
f 1099 1067 1066
f 1066 1098 1099
f 1131 1099 1098
f 1098 1130 1131
f 1163 1131 1130
f 1130 1162 1163
f 1195 1163 1162
f 1162 1194 1195
f 1227 1195 1194
f 1194 1226 1227
f 1259 1227 1226
f 1226 1258 1259
f 1291 1259 1258
f 1258 1290 1291
f 1323 1291 1290
f 1290 1322 1323
f 1355 1323 1322
f 1322 1354 1355
f 1387 1355 1354
f 1354 1386 1387
f 1419 1387 1386
f 1386 1418 1419
f 1451 1419 1418
f 1418 1450 1451
f 1483 1451 1450
f 1450 1482 1483
f 1515 1483 1482
f 1482 1514 1515
f 1547 1515 1514
f 1514 1546 1547
f 1579 1547 1546
f 1546 1578 1579
f 1611 1579 1578
f 1578 1610 1611
f 1643 1611 1610
f 1610 1642 1643
f 1675 1643 1642
f 1642 1674 1675
f 1707 1675 1674
f 1674 1706 1707
f 1739 1707 1706
f 1706 1738 1739
f 1771 1739 1738
f 1738 1770 1771
f 1803 1771 1770
f 1770 1802 1803
f 1835 1803 1802
f 1802 1834 1835
f 1867 1835 1834
f 1834 1866 1867
f 1899 1867 1866
f 1866 1898 1899
f 1931 1899 1898
f 1898 1930 1931
f 1963 1931 1930
f 1930 1962 1963
f 1004 972 971
f 971 1003 1004
f 1036 1004 1003
f 1003 1035 1036
f 1068 1036 1035
f 1035 1067 1068
f 1100 1068 1067
f 1067 1099 1100
f 1132 1100 1099
f 1099 1131 1132
f 1164 1132 1131
f 1131 1163 1164
f 1196 1164 1163
f 1163 1195 1196
f 1228 1196 1195
f 1195 1227 1228
f 1260 1228 1227
f 1227 1259 1260
f 1292 1260 1259
f 1259 1291 1292
f 1324 1292 1291
f 1291 1323 1324
f 1356 1324 1323
f 1323 1355 1356
f 1388 1356 1355
f 1355 1387 1388
f 1420 1388 1387
f 1387 1419 1420
f 1452 1420 1419
f 1419 1451 1452
f 1484 1452 1451
f 1451 1483 1484
f 1516 1484 1483
f 1483 1515 1516
f 1548 1516 1515
f 1515 1547 1548
f 1580 1548 1547
f 1547 1579 1580
f 1612 1580 1579
f 1579 1611 1612
f 1644 1612 1611
f 1611 1643 1644
f 1676 1644 1643
f 1643 1675 1676
f 1708 1676 1675
f 1675 1707 1708
f 1740 1708 1707
f 1707 1739 1740
f 1772 1740 1739
f 1739 1771 1772
f 1804 1772 1771
f 1771 1803 1804
f 1836 1804 1803
f 1803 1835 1836
f 1868 1836 1835
f 1835 1867 1868
f 1900 1868 1867
f 1867 1899 1900
f 1932 1900 1899
f 1899 1931 1932
f 1964 1932 1931
f 1931 1963 1964
f 1005 973 972
f 972 1004 1005
f 1037 1005 1004
f 1004 1036 1037
f 1069 1037 1036
f 1036 1068 1069
f 1101 1069 1068
f 1068 1100 1101
f 1133 1101 1100
f 1100 1132 1133
f 1165 1133 1132
f 1132 1164 1165
f 1197 1165 1164
f 1164 1196 1197
f 1229 1197 1196
f 1196 1228 1229
f 1261 1229 1228
f 1228 1260 1261
f 1293 1261 1260
f 1260 1292 1293
f 1325 1293 1292
f 1292 1324 1325
f 1357 1325 1324
f 1324 1356 1357
f 1389 1357 1356
f 1356 1388 1389
f 1421 1389 1388
f 1388 1420 1421
f 1453 1421 1420
f 1420 1452 1453
f 1485 1453 1452
f 1452 1484 1485
f 1517 1485 1484
f 1484 1516 1517
f 1549 1517 1516
f 1516 1548 1549
f 1581 1549 1548
f 1548 1580 1581
f 1613 1581 1580
f 1580 1612 1613
f 1645 1613 1612
f 1612 1644 1645
f 1677 1645 1644
f 1644 1676 1677
f 1709 1677 1676
f 1676 1708 1709
f 1741 1709 1708
f 1708 1740 1741
f 1773 1741 1740
f 1740 1772 1773
f 1805 1773 1772
f 1772 1804 1805
f 1837 1805 1804
f 1804 1836 1837
f 1869 1837 1836
f 1836 1868 1869
f 1901 1869 1868
f 1868 1900 1901
f 1933 1901 1900
f 1900 1932 1933
f 1965 1933 1932
f 1932 1964 1965
f 1006 974 973
f 973 1005 1006
f 1038 1006 1005
f 1005 1037 1038
f 1070 1038 1037
f 1037 1069 1070
f 1102 1070 1069
f 1069 1101 1102
f 1134 1102 1101
f 1101 1133 1134
f 1166 1134 1133
f 1133 1165 1166
f 1198 1166 1165
f 1165 1197 1198
f 1230 1198 1197
f 1197 1229 1230
f 1262 1230 1229
f 1229 1261 1262
f 1294 1262 1261
f 1261 1293 1294
f 1326 1294 1293
f 1293 1325 1326
f 1358 1326 1325
f 1325 1357 1358
f 1390 1358 1357
f 1357 1389 1390
f 1422 1390 1389
f 1389 1421 1422
f 1454 1422 1421
f 1421 1453 1454
f 1486 1454 1453
f 1453 1485 1486
f 1518 1486 1485
f 1485 1517 1518
f 1550 1518 1517
f 1517 1549 1550
f 1582 1550 1549
f 1549 1581 1582
f 1614 1582 1581
f 1581 1613 1614
f 1646 1614 1613
f 1613 1645 1646
f 1678 1646 1645
f 1645 1677 1678
f 1710 1678 1677
f 1677 1709 1710
f 1742 1710 1709
f 1709 1741 1742
f 1774 1742 1741
f 1741 1773 1774
f 1806 1774 1773
f 1773 1805 1806
f 1838 1806 1805
f 1805 1837 1838
f 1870 1838 1837
f 1837 1869 1870
f 1902 1870 1869
f 1869 1901 1902
f 1934 1902 1901
f 1901 1933 1934
f 1966 1934 1933
f 1933 1965 1966
f 1007 975 974
f 974 1006 1007
f 1039 1007 1006
f 1006 1038 1039
f 1071 1039 1038
f 1038 1070 1071
f 1103 1071 1070
f 1070 1102 1103
f 1135 1103 1102
f 1102 1134 1135
f 1167 1135 1134
f 1134 1166 1167
f 1199 1167 1166
f 1166 1198 1199
f 1231 1199 1198
f 1198 1230 1231
f 1263 1231 1230
f 1230 1262 1263
f 1295 1263 1262
f 1262 1294 1295
f 1327 1295 1294
f 1294 1326 1327
f 1359 1327 1326
f 1326 1358 1359
f 1391 1359 1358
f 1358 1390 1391
f 1423 1391 1390
f 1390 1422 1423
f 1455 1423 1422
f 1422 1454 1455
f 1487 1455 1454
f 1454 1486 1487
f 1519 1487 1486
f 1486 1518 1519
f 1551 1519 1518
f 1518 1550 1551
f 1583 1551 1550
f 1550 1582 1583
f 1615 1583 1582
f 1582 1614 1615
f 1647 1615 1614
f 1614 1646 1647
f 1679 1647 1646
f 1646 1678 1679
f 1711 1679 1678
f 1678 1710 1711
f 1743 1711 1710
f 1710 1742 1743
f 1775 1743 1742
f 1742 1774 1775
f 1807 1775 1774
f 1774 1806 1807
f 1839 1807 1806
f 1806 1838 1839
f 1871 1839 1838
f 1838 1870 1871
f 1903 1871 1870
f 1870 1902 1903
f 1935 1903 1902
f 1902 1934 1935
f 1967 1935 1934
f 1934 1966 1967
f 1008 976 975
f 975 1007 1008
f 1040 1008 1007
f 1007 1039 1040
f 1072 1040 1039
f 1039 1071 1072
f 1104 1072 1071
f 1071 1103 1104
f 1136 1104 1103
f 1103 1135 1136
f 1168 1136 1135
f 1135 1167 1168
f 1200 1168 1167
f 1167 1199 1200
f 1232 1200 1199
f 1199 1231 1232
f 1264 1232 1231
f 1231 1263 1264
f 1296 1264 1263
f 1263 1295 1296
f 1328 1296 1295
f 1295 1327 1328
f 1360 1328 1327
f 1327 1359 1360
f 1392 1360 1359
f 1359 1391 1392
f 1424 1392 1391
f 1391 1423 1424
f 1456 1424 1423
f 1423 1455 1456
f 1488 1456 1455
f 1455 1487 1488
f 1520 1488 1487
f 1487 1519 1520
f 1552 1520 1519
f 1519 1551 1552
f 1584 1552 1551
f 1551 1583 1584
f 1616 1584 1583
f 1583 1615 1616
f 1648 1616 1615
f 1615 1647 1648
f 1680 1648 1647
f 1647 1679 1680
f 1712 1680 1679
f 1679 1711 1712
f 1744 1712 1711
f 1711 1743 1744
f 1776 1744 1743
f 1743 1775 1776
f 1808 1776 1775
f 1775 1807 1808
f 1840 1808 1807
f 1807 1839 1840
f 1872 1840 1839
f 1839 1871 1872
f 1904 1872 1871
f 1871 1903 1904
f 1936 1904 1903
f 1903 1935 1936
f 1968 1936 1935
f 1935 1967 1968
f 1009 977 976
f 976 1008 1009
f 1041 1009 1008
f 1008 1040 1041
f 1073 1041 1040
f 1040 1072 1073
f 1105 1073 1072
f 1072 1104 1105
f 1137 1105 1104
f 1104 1136 1137
f 1169 1137 1136
f 1136 1168 1169
f 1201 1169 1168
f 1168 1200 1201
f 1233 1201 1200
f 1200 1232 1233
f 1265 1233 1232
f 1232 1264 1265
f 1297 1265 1264
f 1264 1296 1297
f 1329 1297 1296
f 1296 1328 1329
f 1361 1329 1328
f 1328 1360 1361
f 1393 1361 1360
f 1360 1392 1393
f 1425 1393 1392
f 1392 1424 1425
f 1457 1425 1424
f 1424 1456 1457
f 1489 1457 1456
f 1456 1488 1489
f 1521 1489 1488
f 1488 1520 1521
f 1553 1521 1520
f 1520 1552 1553
f 1585 1553 1552
f 1552 1584 1585
f 1617 1585 1584
f 1584 1616 1617
f 1649 1617 1616
f 1616 1648 1649
f 1681 1649 1648
f 1648 1680 1681
f 1713 1681 1680
f 1680 1712 1713
f 1745 1713 1712
f 1712 1744 1745
f 1777 1745 1744
f 1744 1776 1777
f 1809 1777 1776
f 1776 1808 1809
f 1841 1809 1808
f 1808 1840 1841
f 1873 1841 1840
f 1840 1872 1873
f 1905 1873 1872
f 1872 1904 1905
f 1937 1905 1904
f 1904 1936 1937
f 1969 1937 1936
f 1936 1968 1969
f 1010 978 977
f 977 1009 1010
f 1042 1010 1009
f 1009 1041 1042
f 1074 1042 1041
f 1041 1073 1074
f 1106 1074 1073
f 1073 1105 1106
f 1138 1106 1105
f 1105 1137 1138
f 1170 1138 1137
f 1137 1169 1170
f 1202 1170 1169
f 1169 1201 1202
f 1234 1202 1201
f 1201 1233 1234
f 1266 1234 1233
f 1233 1265 1266
f 1298 1266 1265
f 1265 1297 1298
f 1330 1298 1297
f 1297 1329 1330
f 1362 1330 1329
f 1329 1361 1362
f 1394 1362 1361
f 1361 1393 1394
f 1426 1394 1393
f 1393 1425 1426
f 1458 1426 1425
f 1425 1457 1458
f 1490 1458 1457
f 1457 1489 1490
f 1522 1490 1489
f 1489 1521 1522
f 1554 1522 1521
f 1521 1553 1554
f 1586 1554 1553
f 1553 1585 1586
f 1618 1586 1585
f 1585 1617 1618
f 1650 1618 1617
f 1617 1649 1650
f 1682 1650 1649
f 1649 1681 1682
f 1714 1682 1681
f 1681 1713 1714
f 1746 1714 1713
f 1713 1745 1746
f 1778 1746 1745
f 1745 1777 1778
f 1810 1778 1777
f 1777 1809 1810
f 1842 1810 1809
f 1809 1841 1842
f 1874 1842 1841
f 1841 1873 1874
f 1906 1874 1873
f 1873 1905 1906
f 1938 1906 1905
f 1905 1937 1938
f 1970 1938 1937
f 1937 1969 1970
f 1011 979 978
f 978 1010 1011
f 1043 1011 1010
f 1010 1042 1043
f 1075 1043 1042
f 1042 1074 1075
f 1107 1075 1074
f 1074 1106 1107
f 1139 1107 1106
f 1106 1138 1139
f 1171 1139 1138
f 1138 1170 1171
f 1203 1171 1170
f 1170 1202 1203
f 1235 1203 1202
f 1202 1234 1235
f 1267 1235 1234
f 1234 1266 1267
f 1299 1267 1266
f 1266 1298 1299
f 1331 1299 1298
f 1298 1330 1331
f 1363 1331 1330
f 1330 1362 1363
f 1395 1363 1362
f 1362 1394 1395
f 1427 1395 1394
f 1394 1426 1427
f 1459 1427 1426
f 1426 1458 1459
f 1491 1459 1458
f 1458 1490 1491
f 1523 1491 1490
f 1490 1522 1523
f 1555 1523 1522
f 1522 1554 1555
f 1587 1555 1554
f 1554 1586 1587
f 1619 1587 1586
f 1586 1618 1619
f 1651 1619 1618
f 1618 1650 1651
f 1683 1651 1650
f 1650 1682 1683
f 1715 1683 1682
f 1682 1714 1715
f 1747 1715 1714
f 1714 1746 1747
f 1779 1747 1746
f 1746 1778 1779
f 1811 1779 1778
f 1778 1810 1811
f 1843 1811 1810
f 1810 1842 1843
f 1875 1843 1842
f 1842 1874 1875
f 1907 1875 1874
f 1874 1906 1907
f 1939 1907 1906
f 1906 1938 1939
f 1971 1939 1938
f 1938 1970 1971
f 1012 980 979
f 979 1011 1012
f 1044 1012 1011
f 1011 1043 1044
f 1076 1044 1043
f 1043 1075 1076
f 1108 1076 1075
f 1075 1107 1108
f 1140 1108 1107
f 1107 1139 1140
f 1172 1140 1139
f 1139 1171 1172
f 1204 1172 1171
f 1171 1203 1204
f 1236 1204 1203
f 1203 1235 1236
f 1268 1236 1235
f 1235 1267 1268
f 1300 1268 1267
f 1267 1299 1300
f 1332 1300 1299
f 1299 1331 1332
f 1364 1332 1331
f 1331 1363 1364
f 1396 1364 1363
f 1363 1395 1396
f 1428 1396 1395
f 1395 1427 1428
f 1460 1428 1427
f 1427 1459 1460
f 1492 1460 1459
f 1459 1491 1492
f 1524 1492 1491
f 1491 1523 1524
f 1556 1524 1523
f 1523 1555 1556
f 1588 1556 1555
f 1555 1587 1588
f 1620 1588 1587
f 1587 1619 1620
f 1652 1620 1619
f 1619 1651 1652
f 1684 1652 1651
f 1651 1683 1684
f 1716 1684 1683
f 1683 1715 1716
f 1748 1716 1715
f 1715 1747 1748
f 1780 1748 1747
f 1747 1779 1780
f 1812 1780 1779
f 1779 1811 1812
f 1844 1812 1811
f 1811 1843 1844
f 1876 1844 1843
f 1843 1875 1876
f 1908 1876 1875
f 1875 1907 1908
f 1940 1908 1907
f 1907 1939 1940
f 1972 1940 1939
f 1939 1971 1972
f 1013 981 980
f 980 1012 1013
f 1045 1013 1012
f 1012 1044 1045
f 1077 1045 1044
f 1044 1076 1077
f 1109 1077 1076
f 1076 1108 1109
f 1141 1109 1108
f 1108 1140 1141
f 1173 1141 1140
f 1140 1172 1173
f 1205 1173 1172
f 1172 1204 1205
f 1237 1205 1204
f 1204 1236 1237
f 1269 1237 1236
f 1236 1268 1269
f 1301 1269 1268
f 1268 1300 1301
f 1333 1301 1300
f 1300 1332 1333
f 1365 1333 1332
f 1332 1364 1365
f 1397 1365 1364
f 1364 1396 1397
f 1429 1397 1396
f 1396 1428 1429
f 1461 1429 1428
f 1428 1460 1461
f 1493 1461 1460
f 1460 1492 1493
f 1525 1493 1492
f 1492 1524 1525
f 1557 1525 1524
f 1524 1556 1557
f 1589 1557 1556
f 1556 1588 1589
f 1621 1589 1588
f 1588 1620 1621
f 1653 1621 1620
f 1620 1652 1653
f 1685 1653 1652
f 1652 1684 1685
f 1717 1685 1684
f 1684 1716 1717
f 1749 1717 1716
f 1716 1748 1749
f 1781 1749 1748
f 1748 1780 1781
f 1813 1781 1780
f 1780 1812 1813
f 1845 1813 1812
f 1812 1844 1845
f 1877 1845 1844
f 1844 1876 1877
f 1909 1877 1876
f 1876 1908 1909
f 1941 1909 1908
f 1908 1940 1941
f 1973 1941 1940
f 1940 1972 1973
f 1014 982 981
f 981 1013 1014
f 1046 1014 1013
f 1013 1045 1046
f 1078 1046 1045
f 1045 1077 1078
f 1110 1078 1077
f 1077 1109 1110
f 1142 1110 1109
f 1109 1141 1142
f 1174 1142 1141
f 1141 1173 1174
f 1206 1174 1173
f 1173 1205 1206
f 1238 1206 1205
f 1205 1237 1238
f 1270 1238 1237
f 1237 1269 1270
f 1302 1270 1269
f 1269 1301 1302
f 1334 1302 1301
f 1301 1333 1334
f 1366 1334 1333
f 1333 1365 1366
f 1398 1366 1365
f 1365 1397 1398
f 1430 1398 1397
f 1397 1429 1430
f 1462 1430 1429
f 1429 1461 1462
f 1494 1462 1461
f 1461 1493 1494
f 1526 1494 1493
f 1493 1525 1526
f 1558 1526 1525
f 1525 1557 1558
f 1590 1558 1557
f 1557 1589 1590
f 1622 1590 1589
f 1589 1621 1622
f 1654 1622 1621
f 1621 1653 1654
f 1686 1654 1653
f 1653 1685 1686
f 1718 1686 1685
f 1685 1717 1718
f 1750 1718 1717
f 1717 1749 1750
f 1782 1750 1749
f 1749 1781 1782
f 1814 1782 1781
f 1781 1813 1814
f 1846 1814 1813
f 1813 1845 1846
f 1878 1846 1845
f 1845 1877 1878
f 1910 1878 1877
f 1877 1909 1910
f 1942 1910 1909
f 1909 1941 1942
f 1974 1942 1941
f 1941 1973 1974
f 1015 983 982
f 982 1014 1015
f 1047 1015 1014
f 1014 1046 1047
f 1079 1047 1046
f 1046 1078 1079
f 1111 1079 1078
f 1078 1110 1111
f 1143 1111 1110
f 1110 1142 1143
f 1175 1143 1142
f 1142 1174 1175
f 1207 1175 1174
f 1174 1206 1207
f 1239 1207 1206
f 1206 1238 1239
f 1271 1239 1238
f 1238 1270 1271
f 1303 1271 1270
f 1270 1302 1303
f 1335 1303 1302
f 1302 1334 1335
f 1367 1335 1334
f 1334 1366 1367
f 1399 1367 1366
f 1366 1398 1399
f 1431 1399 1398
f 1398 1430 1431
f 1463 1431 1430
f 1430 1462 1463
f 1495 1463 1462
f 1462 1494 1495
f 1527 1495 1494
f 1494 1526 1527
f 1559 1527 1526
f 1526 1558 1559
f 1591 1559 1558
f 1558 1590 1591
f 1623 1591 1590
f 1590 1622 1623
f 1655 1623 1622
f 1622 1654 1655
f 1687 1655 1654
f 1654 1686 1687
f 1719 1687 1686
f 1686 1718 1719
f 1751 1719 1718
f 1718 1750 1751
f 1783 1751 1750
f 1750 1782 1783
f 1815 1783 1782
f 1782 1814 1815
f 1847 1815 1814
f 1814 1846 1847
f 1879 1847 1846
f 1846 1878 1879
f 1911 1879 1878
f 1878 1910 1911
f 1943 1911 1910
f 1910 1942 1943
f 1975 1943 1942
f 1942 1974 1975
f 1016 984 983
f 983 1015 1016
f 1048 1016 1015
f 1015 1047 1048
f 1080 1048 1047
f 1047 1079 1080
f 1112 1080 1079
f 1079 1111 1112
f 1144 1112 1111
f 1111 1143 1144
f 1176 1144 1143
f 1143 1175 1176
f 1208 1176 1175
f 1175 1207 1208
f 1240 1208 1207
f 1207 1239 1240
f 1272 1240 1239
f 1239 1271 1272
f 1304 1272 1271
f 1271 1303 1304
f 1336 1304 1303
f 1303 1335 1336
f 1368 1336 1335
f 1335 1367 1368
f 1400 1368 1367
f 1367 1399 1400
f 1432 1400 1399
f 1399 1431 1432
f 1464 1432 1431
f 1431 1463 1464
f 1496 1464 1463
f 1463 1495 1496
f 1528 1496 1495
f 1495 1527 1528
f 1560 1528 1527
f 1527 1559 1560
f 1592 1560 1559
f 1559 1591 1592
f 1624 1592 1591
f 1591 1623 1624
f 1656 1624 1623
f 1623 1655 1656
f 1688 1656 1655
f 1655 1687 1688
f 1720 1688 1687
f 1687 1719 1720
f 1752 1720 1719
f 1719 1751 1752
f 1784 1752 1751
f 1751 1783 1784
f 1816 1784 1783
f 1783 1815 1816
f 1848 1816 1815
f 1815 1847 1848
f 1880 1848 1847
f 1847 1879 1880
f 1912 1880 1879
f 1879 1911 1912
f 1944 1912 1911
f 1911 1943 1944
f 1976 1944 1943
f 1943 1975 1976
f 1017 985 984
f 984 1016 1017
f 1049 1017 1016
f 1016 1048 1049
f 1081 1049 1048
f 1048 1080 1081
f 1113 1081 1080
f 1080 1112 1113
f 1145 1113 1112
f 1112 1144 1145
f 1177 1145 1144
f 1144 1176 1177
f 1209 1177 1176
f 1176 1208 1209
f 1241 1209 1208
f 1208 1240 1241
f 1273 1241 1240
f 1240 1272 1273
f 1305 1273 1272
f 1272 1304 1305
f 1337 1305 1304
f 1304 1336 1337
f 1369 1337 1336
f 1336 1368 1369
f 1401 1369 1368
f 1368 1400 1401
f 1433 1401 1400
f 1400 1432 1433
f 1465 1433 1432
f 1432 1464 1465
f 1497 1465 1464
f 1464 1496 1497
f 1529 1497 1496
f 1496 1528 1529
f 1561 1529 1528
f 1528 1560 1561
f 1593 1561 1560
f 1560 1592 1593
f 1625 1593 1592
f 1592 1624 1625
f 1657 1625 1624
f 1624 1656 1657
f 1689 1657 1656
f 1656 1688 1689
f 1721 1689 1688
f 1688 1720 1721
f 1753 1721 1720
f 1720 1752 1753
f 1785 1753 1752
f 1752 1784 1785
f 1817 1785 1784
f 1784 1816 1817
f 1849 1817 1816
f 1816 1848 1849
f 1881 1849 1848
f 1848 1880 1881
f 1913 1881 1880
f 1880 1912 1913
f 1945 1913 1912
f 1912 1944 1945
f 1977 1945 1944
f 1944 1976 1977
f 1018 986 985
f 985 1017 1018
f 1050 1018 1017
f 1017 1049 1050
f 1082 1050 1049
f 1049 1081 1082
f 1114 1082 1081
f 1081 1113 1114
f 1146 1114 1113
f 1113 1145 1146
f 1178 1146 1145
f 1145 1177 1178
f 1210 1178 1177
f 1177 1209 1210
f 1242 1210 1209
f 1209 1241 1242
f 1274 1242 1241
f 1241 1273 1274
f 1306 1274 1273
f 1273 1305 1306
f 1338 1306 1305
f 1305 1337 1338
f 1370 1338 1337
f 1337 1369 1370
f 1402 1370 1369
f 1369 1401 1402
f 1434 1402 1401
f 1401 1433 1434
f 1466 1434 1433
f 1433 1465 1466
f 1498 1466 1465
f 1465 1497 1498
f 1530 1498 1497
f 1497 1529 1530
f 1562 1530 1529
f 1529 1561 1562
f 1594 1562 1561
f 1561 1593 1594
f 1626 1594 1593
f 1593 1625 1626
f 1658 1626 1625
f 1625 1657 1658
f 1690 1658 1657
f 1657 1689 1690
f 1722 1690 1689
f 1689 1721 1722
f 1754 1722 1721
f 1721 1753 1754
f 1786 1754 1753
f 1753 1785 1786
f 1818 1786 1785
f 1785 1817 1818
f 1850 1818 1817
f 1817 1849 1850
f 1882 1850 1849
f 1849 1881 1882
f 1914 1882 1881
f 1881 1913 1914
f 1946 1914 1913
f 1913 1945 1946
f 1978 1946 1945
f 1945 1977 1978
f 1019 987 986
f 986 1018 1019
f 1051 1019 1018
f 1018 1050 1051
f 1083 1051 1050
f 1050 1082 1083
f 1115 1083 1082
f 1082 1114 1115
f 1147 1115 1114
f 1114 1146 1147
f 1179 1147 1146
f 1146 1178 1179
f 1211 1179 1178
f 1178 1210 1211
f 1243 1211 1210
f 1210 1242 1243
f 1275 1243 1242
f 1242 1274 1275
f 1307 1275 1274
f 1274 1306 1307
f 1339 1307 1306
f 1306 1338 1339
f 1371 1339 1338
f 1338 1370 1371
f 1403 1371 1370
f 1370 1402 1403
f 1435 1403 1402
f 1402 1434 1435
f 1467 1435 1434
f 1434 1466 1467
f 1499 1467 1466
f 1466 1498 1499
f 1531 1499 1498
f 1498 1530 1531
f 1563 1531 1530
f 1530 1562 1563
f 1595 1563 1562
f 1562 1594 1595
f 1627 1595 1594
f 1594 1626 1627
f 1659 1627 1626
f 1626 1658 1659
f 1691 1659 1658
f 1658 1690 1691
f 1723 1691 1690
f 1690 1722 1723
f 1755 1723 1722
f 1722 1754 1755
f 1787 1755 1754
f 1754 1786 1787
f 1819 1787 1786
f 1786 1818 1819
f 1851 1819 1818
f 1818 1850 1851
f 1883 1851 1850
f 1850 1882 1883
f 1915 1883 1882
f 1882 1914 1915
f 1947 1915 1914
f 1914 1946 1947
f 1979 1947 1946
f 1946 1978 1979
f 1020 988 987
f 987 1019 1020
f 1052 1020 1019
f 1019 1051 1052
f 1084 1052 1051
f 1051 1083 1084
f 1116 1084 1083
f 1083 1115 1116
f 1148 1116 1115
f 1115 1147 1148
f 1180 1148 1147
f 1147 1179 1180
f 1212 1180 1179
f 1179 1211 1212
f 1244 1212 1211
f 1211 1243 1244
f 1276 1244 1243
f 1243 1275 1276
f 1308 1276 1275
f 1275 1307 1308
f 1340 1308 1307
f 1307 1339 1340
f 1372 1340 1339
f 1339 1371 1372
f 1404 1372 1371
f 1371 1403 1404
f 1436 1404 1403
f 1403 1435 1436
f 1468 1436 1435
f 1435 1467 1468
f 1500 1468 1467
f 1467 1499 1500
f 1532 1500 1499
f 1499 1531 1532
f 1564 1532 1531
f 1531 1563 1564
f 1596 1564 1563
f 1563 1595 1596
f 1628 1596 1595
f 1595 1627 1628
f 1660 1628 1627
f 1627 1659 1660
f 1692 1660 1659
f 1659 1691 1692
f 1724 1692 1691
f 1691 1723 1724
f 1756 1724 1723
f 1723 1755 1756
f 1788 1756 1755
f 1755 1787 1788
f 1820 1788 1787
f 1787 1819 1820
f 1852 1820 1819
f 1819 1851 1852
f 1884 1852 1851
f 1851 1883 1884
f 1916 1884 1883
f 1883 1915 1916
f 1948 1916 1915
f 1915 1947 1948
f 1980 1948 1947
f 1947 1979 1980
f 1021 989 988
f 988 1020 1021
f 1053 1021 1020
f 1020 1052 1053
f 1085 1053 1052
f 1052 1084 1085
f 1117 1085 1084
f 1084 1116 1117
f 1149 1117 1116
f 1116 1148 1149
f 1181 1149 1148
f 1148 1180 1181
f 1213 1181 1180
f 1180 1212 1213
f 1245 1213 1212
f 1212 1244 1245
f 1277 1245 1244
f 1244 1276 1277
f 1309 1277 1276
f 1276 1308 1309
f 1341 1309 1308
f 1308 1340 1341
f 1373 1341 1340
f 1340 1372 1373
f 1405 1373 1372
f 1372 1404 1405
f 1437 1405 1404
f 1404 1436 1437
f 1469 1437 1436
f 1436 1468 1469
f 1501 1469 1468
f 1468 1500 1501
f 1533 1501 1500
f 1500 1532 1533
f 1565 1533 1532
f 1532 1564 1565
f 1597 1565 1564
f 1564 1596 1597
f 1629 1597 1596
f 1596 1628 1629
f 1661 1629 1628
f 1628 1660 1661
f 1693 1661 1660
f 1660 1692 1693
f 1725 1693 1692
f 1692 1724 1725
f 1757 1725 1724
f 1724 1756 1757
f 1789 1757 1756
f 1756 1788 1789
f 1821 1789 1788
f 1788 1820 1821
f 1853 1821 1820
f 1820 1852 1853
f 1885 1853 1852
f 1852 1884 1885
f 1917 1885 1884
f 1884 1916 1917
f 1949 1917 1916
f 1916 1948 1949
f 1981 1949 1948
f 1948 1980 1981
f 1022 990 989
f 989 1021 1022
f 1054 1022 1021
f 1021 1053 1054
f 1086 1054 1053
f 1053 1085 1086
f 1118 1086 1085
f 1085 1117 1118
f 1150 1118 1117
f 1117 1149 1150
f 1182 1150 1149
f 1149 1181 1182
f 1214 1182 1181
f 1181 1213 1214
f 1246 1214 1213
f 1213 1245 1246
f 1278 1246 1245
f 1245 1277 1278
f 1310 1278 1277
f 1277 1309 1310
f 1342 1310 1309
f 1309 1341 1342
f 1374 1342 1341
f 1341 1373 1374
f 1406 1374 1373
f 1373 1405 1406
f 1438 1406 1405
f 1405 1437 1438
f 1470 1438 1437
f 1437 1469 1470
f 1502 1470 1469
f 1469 1501 1502
f 1534 1502 1501
f 1501 1533 1534
f 1566 1534 1533
f 1533 1565 1566
f 1598 1566 1565
f 1565 1597 1598
f 1630 1598 1597
f 1597 1629 1630
f 1662 1630 1629
f 1629 1661 1662
f 1694 1662 1661
f 1661 1693 1694
f 1726 1694 1693
f 1693 1725 1726
f 1758 1726 1725
f 1725 1757 1758
f 1790 1758 1757
f 1757 1789 1790
f 1822 1790 1789
f 1789 1821 1822
f 1854 1822 1821
f 1821 1853 1854
f 1886 1854 1853
f 1853 1885 1886
f 1918 1886 1885
f 1885 1917 1918
f 1950 1918 1917
f 1917 1949 1950
f 1982 1950 1949
f 1949 1981 1982
f 1023 991 990
f 990 1022 1023
f 1055 1023 1022
f 1022 1054 1055
f 1087 1055 1054
f 1054 1086 1087
f 1119 1087 1086
f 1086 1118 1119
f 1151 1119 1118
f 1118 1150 1151
f 1183 1151 1150
f 1150 1182 1183
f 1215 1183 1182
f 1182 1214 1215
f 1247 1215 1214
f 1214 1246 1247
f 1279 1247 1246
f 1246 1278 1279
f 1311 1279 1278
f 1278 1310 1311
f 1343 1311 1310
f 1310 1342 1343
f 1375 1343 1342
f 1342 1374 1375
f 1407 1375 1374
f 1374 1406 1407
f 1439 1407 1406
f 1406 1438 1439
f 1471 1439 1438
f 1438 1470 1471
f 1503 1471 1470
f 1470 1502 1503
f 1535 1503 1502
f 1502 1534 1535
f 1567 1535 1534
f 1534 1566 1567
f 1599 1567 1566
f 1566 1598 1599
f 1631 1599 1598
f 1598 1630 1631
f 1663 1631 1630
f 1630 1662 1663
f 1695 1663 1662
f 1662 1694 1695
f 1727 1695 1694
f 1694 1726 1727
f 1759 1727 1726
f 1726 1758 1759
f 1791 1759 1758
f 1758 1790 1791
f 1823 1791 1790
f 1790 1822 1823
f 1855 1823 1822
f 1822 1854 1855
f 1887 1855 1854
f 1854 1886 1887
f 1919 1887 1886
f 1886 1918 1919
f 1951 1919 1918
f 1918 1950 1951
f 1983 1951 1950
f 1950 1982 1983
f 1024 992 991
f 991 1023 1024
f 1056 1024 1023
f 1023 1055 1056
f 1088 1056 1055
f 1055 1087 1088
f 1120 1088 1087
f 1087 1119 1120
f 1152 1120 1119
f 1119 1151 1152
f 1184 1152 1151
f 1151 1183 1184
f 1216 1184 1183
f 1183 1215 1216
f 1248 1216 1215
f 1215 1247 1248
f 1280 1248 1247
f 1247 1279 1280
f 1312 1280 1279
f 1279 1311 1312
f 1344 1312 1311
f 1311 1343 1344
f 1376 1344 1343
f 1343 1375 1376
f 1408 1376 1375
f 1375 1407 1408
f 1440 1408 1407
f 1407 1439 1440
f 1472 1440 1439
f 1439 1471 1472
f 1504 1472 1471
f 1471 1503 1504
f 1536 1504 1503
f 1503 1535 1536
f 1568 1536 1535
f 1535 1567 1568
f 1600 1568 1567
f 1567 1599 1600
f 1632 1600 1599
f 1599 1631 1632
f 1664 1632 1631
f 1631 1663 1664
f 1696 1664 1663
f 1663 1695 1696
f 1728 1696 1695
f 1695 1727 1728
f 1760 1728 1727
f 1727 1759 1760
f 1792 1760 1759
f 1759 1791 1792
f 1824 1792 1791
f 1791 1823 1824
f 1856 1824 1823
f 1823 1855 1856
f 1888 1856 1855
f 1855 1887 1888
f 1920 1888 1887
f 1887 1919 1920
f 1952 1920 1919
f 1919 1951 1952
f 1984 1952 1951
f 1951 1983 1984
f 1025 993 992
f 992 1024 1025
f 1057 1025 1024
f 1024 1056 1057
f 1089 1057 1056
f 1056 1088 1089
f 1121 1089 1088
f 1088 1120 1121
f 1153 1121 1120
f 1120 1152 1153
f 1185 1153 1152
f 1152 1184 1185
f 1217 1185 1184
f 1184 1216 1217
f 1249 1217 1216
f 1216 1248 1249
f 1281 1249 1248
f 1248 1280 1281
f 1313 1281 1280
f 1280 1312 1313
f 1345 1313 1312
f 1312 1344 1345
f 1377 1345 1344
f 1344 1376 1377
f 1409 1377 1376
f 1376 1408 1409
f 1441 1409 1408
f 1408 1440 1441
f 1473 1441 1440
f 1440 1472 1473
f 1505 1473 1472
f 1472 1504 1505
f 1537 1505 1504
f 1504 1536 1537
f 1569 1537 1536
f 1536 1568 1569
f 1601 1569 1568
f 1568 1600 1601
f 1633 1601 1600
f 1600 1632 1633
f 1665 1633 1632
f 1632 1664 1665
f 1697 1665 1664
f 1664 1696 1697
f 1729 1697 1696
f 1696 1728 1729
f 1761 1729 1728
f 1728 1760 1761
f 1793 1761 1760
f 1760 1792 1793
f 1825 1793 1792
f 1792 1824 1825
f 1857 1825 1824
f 1824 1856 1857
f 1889 1857 1856
f 1856 1888 1889
f 1921 1889 1888
f 1888 1920 1921
f 1953 1921 1920
f 1920 1952 1953
f 1985 1953 1952
f 1952 1984 1985
f 1026 994 993
f 993 1025 1026
f 1058 1026 1025
f 1025 1057 1058
f 1090 1058 1057
f 1057 1089 1090
f 1122 1090 1089
f 1089 1121 1122
f 1154 1122 1121
f 1121 1153 1154
f 1186 1154 1153
f 1153 1185 1186
f 1218 1186 1185
f 1185 1217 1218
f 1250 1218 1217
f 1217 1249 1250
f 1282 1250 1249
f 1249 1281 1282
f 1314 1282 1281
f 1281 1313 1314
f 1346 1314 1313
f 1313 1345 1346
f 1378 1346 1345
f 1345 1377 1378
f 1410 1378 1377
f 1377 1409 1410
f 1442 1410 1409
f 1409 1441 1442
f 1474 1442 1441
f 1441 1473 1474
f 1506 1474 1473
f 1473 1505 1506
f 1538 1506 1505
f 1505 1537 1538
f 1570 1538 1537
f 1537 1569 1570
f 1602 1570 1569
f 1569 1601 1602
f 1634 1602 1601
f 1601 1633 1634
f 1666 1634 1633
f 1633 1665 1666
f 1698 1666 1665
f 1665 1697 1698
f 1730 1698 1697
f 1697 1729 1730
f 1762 1730 1729
f 1729 1761 1762
f 1794 1762 1761
f 1761 1793 1794
f 1826 1794 1793
f 1793 1825 1826
f 1858 1826 1825
f 1825 1857 1858
f 1890 1858 1857
f 1857 1889 1890
f 1922 1890 1889
f 1889 1921 1922
f 1954 1922 1921
f 1921 1953 1954
f 1986 1954 1953
f 1953 1985 1986
f 1027 995 994
f 994 1026 1027
f 1059 1027 1026
f 1026 1058 1059
f 1091 1059 1058
f 1058 1090 1091
f 1123 1091 1090
f 1090 1122 1123
f 1155 1123 1122
f 1122 1154 1155
f 1187 1155 1154
f 1154 1186 1187
f 1219 1187 1186
f 1186 1218 1219
f 1251 1219 1218
f 1218 1250 1251
f 1283 1251 1250
f 1250 1282 1283
f 1315 1283 1282
f 1282 1314 1315
f 1347 1315 1314
f 1314 1346 1347
f 1379 1347 1346
f 1346 1378 1379
f 1411 1379 1378
f 1378 1410 1411
f 1443 1411 1410
f 1410 1442 1443
f 1475 1443 1442
f 1442 1474 1475
f 1507 1475 1474
f 1474 1506 1507
f 1539 1507 1506
f 1506 1538 1539
f 1571 1539 1538
f 1538 1570 1571
f 1603 1571 1570
f 1570 1602 1603
f 1635 1603 1602
f 1602 1634 1635
f 1667 1635 1634
f 1634 1666 1667
f 1699 1667 1666
f 1666 1698 1699
f 1731 1699 1698
f 1698 1730 1731
f 1763 1731 1730
f 1730 1762 1763
f 1795 1763 1762
f 1762 1794 1795
f 1827 1795 1794
f 1794 1826 1827
f 1859 1827 1826
f 1826 1858 1859
f 1891 1859 1858
f 1858 1890 1891
f 1923 1891 1890
f 1890 1922 1923
f 1955 1923 1922
f 1922 1954 1955
f 1987 1955 1954
f 1954 1986 1987
f 1028 996 995
f 995 1027 1028
f 1060 1028 1027
f 1027 1059 1060
f 1092 1060 1059
f 1059 1091 1092
f 1124 1092 1091
f 1091 1123 1124
f 1156 1124 1123
f 1123 1155 1156
f 1188 1156 1155
f 1155 1187 1188
f 1220 1188 1187
f 1187 1219 1220
f 1252 1220 1219
f 1219 1251 1252
f 1284 1252 1251
f 1251 1283 1284
f 1316 1284 1283
f 1283 1315 1316
f 1348 1316 1315
f 1315 1347 1348
f 1380 1348 1347
f 1347 1379 1380
f 1412 1380 1379
f 1379 1411 1412
f 1444 1412 1411
f 1411 1443 1444
f 1476 1444 1443
f 1443 1475 1476
f 1508 1476 1475
f 1475 1507 1508
f 1540 1508 1507
f 1507 1539 1540
f 1572 1540 1539
f 1539 1571 1572
f 1604 1572 1571
f 1571 1603 1604
f 1636 1604 1603
f 1603 1635 1636
f 1668 1636 1635
f 1635 1667 1668
f 1700 1668 1667
f 1667 1699 1700
f 1732 1700 1699
f 1699 1731 1732
f 1764 1732 1731
f 1731 1763 1764
f 1796 1764 1763
f 1763 1795 1796
f 1828 1796 1795
f 1795 1827 1828
f 1860 1828 1827
f 1827 1859 1860
f 1892 1860 1859
f 1859 1891 1892
f 1924 1892 1891
f 1891 1923 1924
f 1956 1924 1923
f 1923 1955 1956
f 1988 1956 1955
f 1955 1987 1988
f 1029 997 996
f 996 1028 1029
f 1061 1029 1028
f 1028 1060 1061
f 1093 1061 1060
f 1060 1092 1093
f 1125 1093 1092
f 1092 1124 1125
f 1157 1125 1124
f 1124 1156 1157
f 1189 1157 1156
f 1156 1188 1189
f 1221 1189 1188
f 1188 1220 1221
f 1253 1221 1220
f 1220 1252 1253
f 1285 1253 1252
f 1252 1284 1285
f 1317 1285 1284
f 1284 1316 1317
f 1349 1317 1316
f 1316 1348 1349
f 1381 1349 1348
f 1348 1380 1381
f 1413 1381 1380
f 1380 1412 1413
f 1445 1413 1412
f 1412 1444 1445
f 1477 1445 1444
f 1444 1476 1477
f 1509 1477 1476
f 1476 1508 1509
f 1541 1509 1508
f 1508 1540 1541
f 1573 1541 1540
f 1540 1572 1573
f 1605 1573 1572
f 1572 1604 1605
f 1637 1605 1604
f 1604 1636 1637
f 1669 1637 1636
f 1636 1668 1669
f 1701 1669 1668
f 1668 1700 1701
f 1733 1701 1700
f 1700 1732 1733
f 1765 1733 1732
f 1732 1764 1765
f 1797 1765 1764
f 1764 1796 1797
f 1829 1797 1796
f 1796 1828 1829
f 1861 1829 1828
f 1828 1860 1861
f 1893 1861 1860
f 1860 1892 1893
f 1925 1893 1892
f 1892 1924 1925
f 1957 1925 1924
f 1924 1956 1957
f 1989 1957 1956
f 1956 1988 1989
f 1030 998 997
f 997 1029 1030
f 1062 1030 1029
f 1029 1061 1062
f 1094 1062 1061
f 1061 1093 1094
f 1126 1094 1093
f 1093 1125 1126
f 1158 1126 1125
f 1125 1157 1158
f 1190 1158 1157
f 1157 1189 1190
f 1222 1190 1189
f 1189 1221 1222
f 1254 1222 1221
f 1221 1253 1254
f 1286 1254 1253
f 1253 1285 1286
f 1318 1286 1285
f 1285 1317 1318
f 1350 1318 1317
f 1317 1349 1350
f 1382 1350 1349
f 1349 1381 1382
f 1414 1382 1381
f 1381 1413 1414
f 1446 1414 1413
f 1413 1445 1446
f 1478 1446 1445
f 1445 1477 1478
f 1510 1478 1477
f 1477 1509 1510
f 1542 1510 1509
f 1509 1541 1542
f 1574 1542 1541
f 1541 1573 1574
f 1606 1574 1573
f 1573 1605 1606
f 1638 1606 1605
f 1605 1637 1638
f 1670 1638 1637
f 1637 1669 1670
f 1702 1670 1669
f 1669 1701 1702
f 1734 1702 1701
f 1701 1733 1734
f 1766 1734 1733
f 1733 1765 1766
f 1798 1766 1765
f 1765 1797 1798
f 1830 1798 1797
f 1797 1829 1830
f 1862 1830 1829
f 1829 1861 1862
f 1894 1862 1861
f 1861 1893 1894
f 1926 1894 1893
f 1893 1925 1926
f 1958 1926 1925
f 1925 1957 1958
f 1990 1958 1957
f 1957 1989 1990
f 1031 999 998
f 998 1030 1031
f 1063 1031 1030
f 1030 1062 1063
f 1095 1063 1062
f 1062 1094 1095
f 1127 1095 1094
f 1094 1126 1127
f 1159 1127 1126
f 1126 1158 1159
f 1191 1159 1158
f 1158 1190 1191
f 1223 1191 1190
f 1190 1222 1223
f 1255 1223 1222
f 1222 1254 1255
f 1287 1255 1254
f 1254 1286 1287
f 1319 1287 1286
f 1286 1318 1319
f 1351 1319 1318
f 1318 1350 1351
f 1383 1351 1350
f 1350 1382 1383
f 1415 1383 1382
f 1382 1414 1415
f 1447 1415 1414
f 1414 1446 1447
f 1479 1447 1446
f 1446 1478 1479
f 1511 1479 1478
f 1478 1510 1511
f 1543 1511 1510
f 1510 1542 1543
f 1575 1543 1542
f 1542 1574 1575
f 1607 1575 1574
f 1574 1606 1607
f 1639 1607 1606
f 1606 1638 1639
f 1671 1639 1638
f 1638 1670 1671
f 1703 1671 1670
f 1670 1702 1703
f 1735 1703 1702
f 1702 1734 1735
f 1767 1735 1734
f 1734 1766 1767
f 1799 1767 1766
f 1766 1798 1799
f 1831 1799 1798
f 1798 1830 1831
f 1863 1831 1830
f 1830 1862 1863
f 1895 1863 1862
f 1862 1894 1895
f 1927 1895 1894
f 1894 1926 1927
f 1959 1927 1926
f 1926 1958 1959
f 1991 1959 1958
f 1958 1990 1991
